{
  "OnInitSequece": [],
  "OnStartSequece": [
    {
      "IsLoop": true,
      "TaskList": [
        {
          "$type": "RPG.GameCore.WaitCustomString",
          "CustomString": {
            "Value": "202170206_ShowReading"
          }
        },
        {
          "$type": "RPG.GameCore.ShowReading",
          "BookID": 190515,
          "ShouldPauseGame": true
        },
        {
          "$type": "RPG.GameCore.SetMissionCustomValue",
          "SubmissionID": 202170206,
          "MissionCustomValue": {
            "Index": 1,
            "ValidValueParamList": [
              0,
              1
            ]
          },
          "CustomValue": 1
        }
      ]
    },
    {
      "IsLoop": true,
      "TaskList": [
        {
          "$type": "RPG.GameCore.WaitCustomString",
          "CustomString": {
            "Value": "202170206_PerformanceEnd"
          }
        },
        {
          "$type": "RPG.GameCore.SetMissionCustomValue",
          "SubmissionID": 202170206,
          "MissionCustomValue": {
            "Index": 1,
            "ValidValueParamList": [
              0,
              1
            ]
          }
        },
        {
          "$type": "RPG.GameCore.FinishPerformanceMission",
          "Key": "Mission_202170206",
          "MainMissionID": 2021702
        }
      ]
    }
  ],
  "Type": "Mission"
}