{
  "OnInitSequece": [],
  "OnStartSequece": [
    {
      "TaskList": [
        {
          "$type": "RPG.GameCore.SetMissionCustomValue",
          "SubmissionID": 202170219,
          "MissionCustomValue": {
            "Index": 2,
            "isLocal": true,
            "ValidValueParamList": [
              0,
              1
            ]
          },
          "CustomValue": 1
        }
      ]
    },
    {
      "IsLoop": true,
      "TaskList": [
        {
          "$type": "RPG.GameCore.WaitCustomString",
          "CustomString": {
            "Value": "2021719_TakeBook"
          }
        },
        {
          "$type": "RPG.GameCore.ShowReading",
          "BookID": 190516,
          "ShouldPauseGame": true
        },
        {
          "$type": "RPG.GameCore.PlayMissionTalk",
          "SimpleTalkList": [
            {
              "TalkSentenceID": 202260030,
              "ProtectTime": 2
            },
            {
              "TalkSentenceID": 202260031,
              "ProtectTime": 2
            }
          ]
        },
        {
          "$type": "RPG.GameCore.FinishPerformanceMission",
          "Key": "Mission_202170219"
        }
      ]
    }
  ],
  "Type": "Mission"
}