{
  "OnInitSequece": [],
  "OnStartSequece": [
    {
      "TaskList": [
        {
          "$type": "RPG.GameCore.LevelPerformanceInitialize",
          "PerformanceType": "E",
          "HideMunicipalCrowd": false,
          "HideMunicipalPedestrian": false
        },
        {
          "$type": "RPG.GameCore.StartDialogueEntityInteract",
          "TargetType": {
            "$type": "RPG.GameCore.TargetFetchAdvNpcEx",
            "FetchType": "SingleNpcByNpcID",
            "SingleNpcID": {
              "GroupID": {
                "IsDynamic": false,
                "FixedValue": {
                  "Value": 116
                }
              },
              "GroupNpcID": {
                "IsDynamic": false,
                "FixedValue": {
                  "Value": 400001
                }
              }
            }
          },
          "LevelGraphPath": "Config/Level/Props/InteractMode/TriggerEvent_TriggerType_08.json",
          "UseOverrideData": true,
          "ValueSource": {
            "Values": [
              {
                "$type": "RPG.GameCore.SharedString",
                "Value": "Level/Common_Adventure/Dreamland.prefab",
                "Key": "DialogueEntityInteract_AreaPath"
              },
              {
                "$type": "RPG.GameCore.SharedString",
                "Value": "Dreamland,Dreamland_Camera",
                "Key": "DialogueEntityInteract_CameraKey"
              },
              {
                "$type": "RPG.GameCore.SharedString",
                "Value": "Dreamland",
                "Key": "DialogueEntityInteract_AreaName"
              },
              {
                "$type": "RPG.GameCore.SharedFloat",
                "Key": "ResetEntityTransform"
              }
            ]
          },
          "OverrideTasks": {
            "OverrideVCamBlendConfig": true,
            "VCamBlendConfig": {
              "ExportToJson": true,
              "BlendType": "Cut"
            }
          }
        },
        {
          "$type": "RPG.GameCore.PlayAndWaitSimpleTalk",
          "SimpleTalkList": [
            {
              "TalkSentenceID": 503059091,
              "ProtectTime": 0.3
            },
            {
              "TalkSentenceID": 503059092,
              "ProtectTime": 0.3
            }
          ]
        },
        {
          "$type": "RPG.GameCore.PlayOptionTalk",
          "OptionList": [
            {
              "TalkSentenceID": 503059093,
              "OptionIconType": "ChatContinueIcon",
              "TriggerCustomString": "TalkSentence_503059095"
            },
            {
              "TalkSentenceID": 503059094,
              "OptionIconType": "ChatContinueIcon",
              "TriggerCustomString": "TalkSentence_503059095"
            }
          ]
        }
      ]
    },
    {
      "TaskList": [
        {
          "$type": "RPG.GameCore.WaitCustomString",
          "CustomString": {
            "Value": "TalkSentence_503059095"
          }
        },
        {
          "$type": "RPG.GameCore.PlayAndWaitSimpleTalk",
          "SimpleTalkList": [
            {
              "TalkSentenceID": 503059095,
              "ProtectTime": 0.3
            },
            {
              "TalkSentenceID": 503059096,
              "ProtectTime": 0.3
            },
            {
              "TalkSentenceID": 503059097,
              "ProtectTime": 0.3
            },
            {
              "TalkSentenceID": 503059098,
              "ProtectTime": 0.3
            }
          ]
        },
        {
          "$type": "RPG.GameCore.EndDialogueEntityInteract",
          "TargetType": {
            "$type": "RPG.GameCore.TargetFetchAdvNpcEx",
            "FetchType": "SingleNpcByNpcID",
            "SingleNpcID": {
              "GroupID": {
                "IsDynamic": false,
                "FixedValue": {
                  "Value": 116
                }
              },
              "GroupNpcID": {
                "IsDynamic": false,
                "FixedValue": {
                  "Value": 400001
                }
              }
            }
          },
          "LevelGraphPath": "Config/Level/Props/InteractMode/TriggerEvent_ExitTriggerType_08.json"
        },
        {
          "$type": "RPG.GameCore.EndPerformance"
        }
      ]
    },
    {
      "TaskList": [
        {
          "$type": "RPG.GameCore.WaitPerformanceEnd"
        },
        {
          "$type": "RPG.GameCore.FinishLevelGraph"
        }
      ]
    }
  ]
}