{
  "FreeStyleClipGroupEvents": [
    {
      "Clips": [
        {
          "FreeStyleClipName": "NPC_Lady_Adv_Ani_[Omnic]Message01Loop"
        }
      ],
      "OnEnter": [
        {
          "$type": "RPG.GameCore.TriggerEffect",
          "TargetType": {
            "$type": "RPG.GameCore.TargetAlias",
            "Alias": "Caster"
          },
          "IsAttachToTargetEntity": true,
          "EffectPath": "Effects/Eff_Prefab/Eff_NPC/Eff_NPC_Normal_Message02.prefab",
          "PositionOffset": {
            "X": 0,
            "Y": -0.1,
            "Z": 0
          }
        },
        {
          "$type": "RPG.GameCore.TriggerEffect",
          "TargetType": {
            "$type": "RPG.GameCore.TargetAlias",
            "Alias": "Caster"
          },
          "IsAttachToTargetEntity": true,
          "EffectPath": "Effects/Eff_Prefab/Eff_NPC/Eff_NPC_Normal_Message03.prefab",
          "AttachPoint": "Head"
        }
      ],
      "OnExit": [
        {
          "$type": "RPG.GameCore.RemoveEffect",
          "EffectPath": "Effects/Eff_Prefab/Eff_NPC/Eff_NPC_Normal_Message02.prefab"
        },
        {
          "$type": "RPG.GameCore.RemoveEffect",
          "EffectPath": "Effects/Eff_Prefab/Eff_NPC/Eff_NPC_Normal_Message03.prefab"
        }
      ]
    },
    {
      "Clips": [
        {
          "FreeStyleClipName": "NPC_Lady_Adv_Ani_DreamBuild02BS",
          "NormalizedTime": 0.3333333
        },
        {
          "FreeStyleClipName": "NPC_Lady_Adv_Ani_DreamBuild02Loop"
        },
        {
          "FreeStyleClipName": "NPC_Lady_Adv_Ani_DreamBuild02AS"
        }
      ],
      "OnEnter": [
        {
          "$type": "RPG.GameCore.TriggerEffect",
          "TargetType": {
            "$type": "RPG.GameCore.TargetAlias",
            "Alias": "Caster"
          },
          "IsAttachToTargetEntity": true,
          "EffectPath": "Effects/Eff_Prefab/Eff_NPC/Eff_NPC_Normal_DreamBuild01.prefab",
          "AttachPoint": "Wrist_R",
          "Scale": {
            "X": 1.08,
            "Y": 1.08,
            "Z": 1.08
          }
        },
        {
          "$type": "RPG.GameCore.TriggerEffect",
          "TargetType": {
            "$type": "RPG.GameCore.TargetAlias",
            "Alias": "Caster"
          },
          "IsAttachToTargetEntity": true,
          "EffectPath": "Effects/Eff_Prefab/Eff_NPC/Eff_NPC_Normal_DreamBuild01.prefab",
          "AttachPoint": "Wrist_L",
          "PositionOffset": {
            "X": 0.17,
            "Y": 0.012,
            "Z": 0.055
          },
          "Scale": {
            "X": 1.08,
            "Y": 1.08,
            "Z": 1.08
          }
        }
      ],
      "OnExit": [
        {
          "$type": "RPG.GameCore.RemoveEffect",
          "EffectPath": "Effects/Eff_Prefab/Eff_NPC/Eff_NPC_Normal_DreamBuild01.prefab"
        }
      ]
    },
    {
      "Clips": [
        {
          "FreeStyleClipName": "NPC_Lady_Adv_Ani_DreamBuild01BS",
          "NormalizedTime": 0.3333333
        },
        {
          "FreeStyleClipName": "NPC_Lady_Adv_Ani_DreamBuild01Loop"
        },
        {
          "FreeStyleClipName": "NPC_Lady_Adv_Ani_DreamBuild01AS"
        }
      ],
      "OnEnter": [
        {
          "$type": "RPG.GameCore.TriggerEffect",
          "TargetType": {
            "$type": "RPG.GameCore.TargetAlias",
            "Alias": "Caster"
          },
          "IsAttachToTargetEntity": true,
          "EffectPath": "Effects/Eff_Prefab/Eff_NPC/Eff_NPC_Normal_DreamBuild01.prefab",
          "AttachPoint": "Wrist_R",
          "Scale": {
            "X": 1.08,
            "Y": 1.08,
            "Z": 1.08
          }
        }
      ],
      "OnExit": [
        {
          "$type": "RPG.GameCore.RemoveEffect",
          "EffectPath": "Effects/Eff_Prefab/Eff_NPC/Eff_NPC_Normal_DreamBuild01.prefab"
        }
      ]
    },
    {
      "Clips": [
        {
          "FreeStyleClipName": "NPC_Lady_Adv_Ani_DreamBuild01AS",
          "NormalizedTime": 0.1
        },
        {
          "FreeStyleClipName": "NPC_Lady_Adv_Ani_DreamBuild02AS",
          "NormalizedTime": 0.1
        }
      ],
      "OnEnter": [
        {
          "$type": "RPG.GameCore.RemoveEffect",
          "EffectPath": "Effects/Eff_Prefab/Eff_NPC/Eff_NPC_Normal_DreamBuild01.prefab"
        }
      ]
    },
    {
      "Clips": [
        {
          "FreeStyleClipName": "NPC_Lady_Adv_Ani_MobileShoot01BS"
        },
        {
          "FreeStyleClipName": "NPC_Lady_Adv_Ani_MobileShoot01Loop"
        },
        {
          "FreeStyleClipName": "NPC_Lady_Adv_Ani_MobileShoot01AS"
        },
        {
          "FreeStyleClipName": "NPC_Lady_Adv_Ani_MobileSelfie01BS"
        },
        {
          "FreeStyleClipName": "NPC_Lady_Adv_Ani_MobileSelfie01Loop"
        },
        {
          "FreeStyleClipName": "NPC_Lady_Adv_Ani_MobileSelfie01AS"
        }
      ],
      "OnEnter": [
        {
          "$type": "RPG.GameCore.NpcPossession",
          "PossessionInfo": {
            "Name": "Possession_MobilePhone_A_01",
            "AttachPoint": "Prop"
          }
        },
        {
          "$type": "RPG.GameCore.ModifyAdventureCharacterCollider",
          "HideSourceCollider": true,
          "TargetConfig": {
            "Center": {
              "X": 0,
              "Y": 0.95,
              "Z": 0.27
            },
            "Size": {
              "X": 0.26,
              "Y": 1.3,
              "Z": 0
            }
          }
        }
      ],
      "OnExit": [
        {
          "$type": "RPG.GameCore.NpcPossession",
          "IsDelete": true
        },
        {
          "$type": "RPG.GameCore.ResetAdventureCharacterCollider"
        }
      ]
    },
    {
      "Clips": [
        {
          "FreeStyleClipName": "NPC_Lady_Adv_Ani_Lie01"
        }
      ],
      "OnEnter": [
        {
          "$type": "RPG.GameCore.ModifyAdventureCharacterCollider",
          "HideSourceCollider": true,
          "TargetConfig": {
            "Axis": "Z",
            "Center": {
              "X": 0,
              "Y": 0.36,
              "Z": 0.02
            },
            "Size": {
              "X": 0.52,
              "Y": 2.26,
              "Z": 0
            }
          }
        },
        {
          "$type": "RPG.GameCore.ByHasBillboard"
        },
        {
          "$type": "RPG.GameCore.SetBillboardInfo",
          "EditHeight": true,
          "MinHeight": -1.32,
          "MaxHeight": -1.52
        }
      ],
      "OnExit": [
        {
          "$type": "RPG.GameCore.ByHasBillboard"
        },
        {
          "$type": "RPG.GameCore.ResetBillboardInfo",
          "TargetType": {
            "$type": "RPG.GameCore.TargetAlias",
            "Alias": "Caster"
          }
        },
        {
          "$type": "RPG.GameCore.ResetAdventureCharacterCollider"
        }
      ]
    },
    {
      "Clips": [
        {
          "FreeStyleClipName": "NPC_Lady_Adv_Ani_Lie02"
        }
      ],
      "OnEnter": [
        {
          "$type": "RPG.GameCore.ModifyAdventureCharacterCollider",
          "HideSourceCollider": true,
          "TargetConfig": {
            "Axis": "X",
            "Center": {
              "X": 0.149776,
              "Y": 0.66,
              "Z": 0.06700492
            },
            "Size": {
              "X": 0.2421167,
              "Y": 1.599551,
              "Z": 0
            }
          }
        },
        {
          "$type": "RPG.GameCore.ByHasBillboard"
        },
        {
          "$type": "RPG.GameCore.SetBillboardInfo",
          "EditHeight": true,
          "MinHeight": -1.32,
          "MaxHeight": -1.52,
          "EditHorizontalOffset": true,
          "XOffest": -0.45
        }
      ],
      "OnExit": [
        {
          "$type": "RPG.GameCore.ByHasBillboard"
        },
        {
          "$type": "RPG.GameCore.ResetBillboardInfo",
          "TargetType": {
            "$type": "RPG.GameCore.TargetAlias",
            "Alias": "Caster"
          }
        },
        {
          "$type": "RPG.GameCore.ResetAdventureCharacterCollider"
        }
      ]
    },
    {
      "Clips": [
        {
          "FreeStyleClipName": "NPC_Lady_Adv_Ani_Mining01Loop"
        }
      ],
      "OnEnter": [
        {
          "$type": "RPG.GameCore.ModifyAdventureCharacterCollider",
          "TargetConfig": {
            "Axis": "Z",
            "Center": {
              "X": -0.09,
              "Y": 0.8,
              "Z": 0.52
            },
            "Size": {
              "X": 0.21,
              "Y": 1.17,
              "Z": 0
            }
          }
        },
        {
          "$type": "RPG.GameCore.ModifyAdventureCharacterCollider",
          "TargetConfig": {
            "Axis": "Z",
            "Center": {
              "X": 0.22,
              "Y": 1.29,
              "Z": -0.34
            },
            "Size": {
              "X": 0.29,
              "Y": 0.99,
              "Z": 0
            }
          }
        }
      ],
      "OnExit": [
        {
          "$type": "RPG.GameCore.ResetAdventureCharacterCollider"
        }
      ]
    },
    {
      "Clips": [
        {
          "FreeStyleClipName": "NPC_Lady_Adv_Ani_Sit01"
        },
        {
          "FreeStyleClipName": "NPC_Lady_Adv_Ani_SitReading01Loop"
        },
        {
          "FreeStyleClipName": "NPC_Lady_Adv_Ani_SitChatting01Loop"
        },
        {
          "FreeStyleClipName": "NPC_Lady_Adv_Ani_SitChatting02Loop"
        },
        {
          "FreeStyleClipName": "NPC_Lady_Adv_Ani_GuitarLoop"
        },
        {
          "FreeStyleClipName": "NPC_Lady_Adv_Ani_SitTable01"
        },
        {
          "FreeStyleClipName": "NPC_Lady_Adv_Ani_SitTable02"
        }
      ],
      "OnEnter": [
        {
          "$type": "RPG.GameCore.ByHasBillboard"
        },
        {
          "$type": "RPG.GameCore.SetBillboardInfo",
          "EditHeight": true,
          "MinHeight": -0.42,
          "MaxHeight": -0.62,
          "EditHorizontalOffset": true,
          "ZOffest": -0.3
        }
      ],
      "OnExit": [
        {
          "$type": "RPG.GameCore.ByHasBillboard"
        },
        {
          "$type": "RPG.GameCore.ResetBillboardInfo",
          "TargetType": {
            "$type": "RPG.GameCore.TargetAlias",
            "Alias": "Caster"
          }
        }
      ]
    },
    {
      "Clips": [
        {
          "FreeStyleClipName": "NPC_Lady_Adv_Ani_BartenderStand01BS"
        },
        {
          "FreeStyleClipName": "NPC_Lady_Adv_Ani_BartenderStand01Loop"
        },
        {
          "FreeStyleClipName": "NPC_Lady_Adv_Ani_BartenderStand01AS"
        },
        {
          "FreeStyleClipName": "NPC_Lady_Adv_Ani_BartenderLookAround01"
        }
      ],
      "OnEnter": [
        {
          "$type": "RPG.GameCore.ByHasBillboard"
        },
        {
          "$type": "RPG.GameCore.SetBillboardInfo",
          "EditHeight": true,
          "MinHeight": -0.2,
          "MaxHeight": -0.4,
          "EditHorizontalOffset": true,
          "ZOffest": 0.549
        }
      ],
      "OnExit": [
        {
          "$type": "RPG.GameCore.ByHasBillboard"
        },
        {
          "$type": "RPG.GameCore.ResetBillboardInfo",
          "TargetType": {
            "$type": "RPG.GameCore.TargetAlias",
            "Alias": "Caster"
          }
        }
      ]
    },
    {
      "Clips": [
        {
          "FreeStyleClipName": "NPC_Lady_Adv_Ani_CameraWait01Loop"
        },
        {
          "FreeStyleClipName": "NPC_Lady_Adv_Ani_CameraShot01BS"
        },
        {
          "FreeStyleClipName": "NPC_Lady_Adv_Ani_CameraShot01Loop"
        },
        {
          "FreeStyleClipName": "NPC_Lady_Adv_Ani_CameraShot01AS"
        }
      ],
      "OnEnter": [
        {
          "$type": "RPG.GameCore.NpcPossession",
          "PossessionInfo": {
            "Name": "Possession_VintageCamera_A_01",
            "AttachPoint": "Prop"
          }
        }
      ],
      "OnExit": [
        {
          "$type": "RPG.GameCore.NpcPossession",
          "IsDelete": true
        }
      ]
    },
    {
      "Clips": [
        {
          "FreeStyleClipName": "NPC_Lady_Adv_Ani_CameraShot01Loop"
        }
      ],
      "OnEnter": [
        {
          "$type": "RPG.GameCore.EnableRandomTriggerAnimEvent",
          "UniqueKey": "CameraShot01Loop_Effect",
          "Enable": true,
          "Events": [
            {
              "$type": "RPG.GameCore.TriggerEffect",
              "TargetType": {
                "$type": "RPG.GameCore.TargetAlias",
                "Alias": "Caster"
              },
              "EffectPath": "Effects/Eff_Prefab/Eff_Scene/InteractiveProp/Eff_Chap03_Prop_VintageCamera_01_Opened_Lod1.prefab",
              "AttachPoint": "Prop"
            }
          ],
          "MinRandomTime": 1,
          "MaxRandomTime": 3,
          "MultiTriggerWeightList": [
            0.65,
            0.35
          ],
          "MultiTriggerDeltaTime": 0.5
        }
      ],
      "OnExit": [
        {
          "$type": "RPG.GameCore.EnableRandomTriggerAnimEvent",
          "UniqueKey": "CameraShot01Loop_Effect"
        },
        {
          "$type": "RPG.GameCore.RemoveEffect",
          "EffectPath": "Effects/Eff_Prefab/Eff_Scene/InteractiveProp/Eff_Chap03_Prop_VintageCamera_01_Opened_Lod1.prefab"
        }
      ]
    },
    {
      "Clips": [
        {
          "FreeStyleClipName": "NPC_Lady_Adv_Ani_CoverMouth01BS"
        },
        {
          "FreeStyleClipName": "NPC_Lady_Adv_Ani_CoverMouth01Loop"
        },
        {
          "FreeStyleClipName": "NPC_Lady_Adv_Ani_CoverMouth01AS"
        },
        {
          "FreeStyleClipName": "NPC_Lady_Adv_Ani_Sob01BS"
        },
        {
          "FreeStyleClipName": "NPC_Lady_Adv_Ani_Sob01Loop"
        },
        {
          "FreeStyleClipName": "NPC_Lady_Adv_Ani_Sob01AS"
        },
        {
          "FreeStyleClipName": "NPC_Lady_Adv_Ani_Sick01Loop"
        },
        {
          "FreeStyleClipName": "NPC_Lady_Adv_Ani_Lie02"
        },
        {
          "FreeStyleClipName": "NPC_Lady_Adv_Ani_Fury01"
        },
        {
          "FreeStyleClipName": "NPC_Lady_Adv_Ani_Guilty01"
        },
        {
          "FreeStyleClipName": "NPC_Lady_Adv_Ani_Refuse01"
        },
        {
          "FreeStyleClipName": "NPC_Lady_Adv_Ani_Argue01BS"
        },
        {
          "FreeStyleClipName": "NPC_Lady_Adv_Ani_Argue01Loop"
        },
        {
          "FreeStyleClipName": "NPC_Lady_Adv_Ani_Argue01AS"
        },
        {
          "FreeStyleClipName": "NPC_Lady_Adv_Ani_Indignant01"
        },
        {
          "FreeStyleClipName": "NPC_Lady_Adv_Ani_Laugh01BS"
        },
        {
          "FreeStyleClipName": "NPC_Lady_Adv_Ani_Laugh01Loop"
        },
        {
          "FreeStyleClipName": "NPC_Lady_Adv_Ani_Laugh01AS"
        },
        {
          "FreeStyleClipName": "NPC_Lady_Adv_Ani_Tired01BS"
        },
        {
          "FreeStyleClipName": "NPC_Lady_Adv_Ani_Tired01Loop"
        },
        {
          "FreeStyleClipName": "NPC_Lady_Adv_Ani_Tired01AS"
        },
        {
          "FreeStyleClipName": "NPC_Lady_Adv_Ani_SwingDance01BS"
        },
        {
          "FreeStyleClipName": "NPC_Lady_Adv_Ani_SwingDance01Loop"
        },
        {
          "FreeStyleClipName": "NPC_Lady_Adv_Ani_SwingDance01AS"
        },
        {
          "FreeStyleClipName": "NPC_Lady_Adv_Ani_Vomit01Loop"
        }
      ],
      "OnEnter": [
        {
          "$type": "RPG.GameCore.EnableEmotion",
          "TargetType": {
            "$type": "RPG.GameCore.TargetAlias",
            "Alias": "Caster"
          }
        },
        {
          "$type": "RPG.GameCore.AdvNpcResetEyeTransforms",
          "TargetType": {
            "$type": "RPG.GameCore.TargetAlias",
            "Alias": "Caster"
          }
        }
      ],
      "OnExit": [
        {
          "$type": "RPG.GameCore.EnableEmotion",
          "TargetType": {
            "$type": "RPG.GameCore.TargetAlias",
            "Alias": "Caster"
          },
          "Enable": true
        },
        {
          "$type": "RPG.GameCore.AdvNpcResetEyeTransforms",
          "TargetType": {
            "$type": "RPG.GameCore.TargetAlias",
            "Alias": "Caster"
          },
          "Enable": true
        }
      ]
    }
  ],
  "FreeStyleClipEvents": []
}