{
  "FreeStyleClipGroupEvents": [
    {
      "Clips": [
        {
          "FreeStyleClipName": "NPC_MuscleMan_Adv_Ani_Injured01Loop"
        },
        {
          "FreeStyleClipName": "NPC_MuscleMan_Adv_Ani_SpeechLoop"
        },
        {
          "FreeStyleClipName": "NPC_MuscleMan_Adv_Ani_Sick01Loop"
        },
        {
          "FreeStyleClipName": "NPC_MuscleMan_Adv_Ani_Fury01"
        },
        {
          "FreeStyleClipName": "NPC_MuscleMan_Adv_Ani_Cough01"
        },
        {
          "FreeStyleClipName": "NPC_MuscleMan_Adv_Ani_Lumbago01"
        },
        {
          "FreeStyleClipName": "NPC_MuscleMan_Adv_Ani_Guilty01"
        },
        {
          "FreeStyleClipName": "NPC_MuscleMan_Adv_Ani_Argue01BS"
        },
        {
          "FreeStyleClipName": "NPC_MuscleMan_Adv_Ani_Argue01Loop"
        },
        {
          "FreeStyleClipName": "NPC_MuscleMan_Adv_Ani_Argue01AS"
        },
        {
          "FreeStyleClipName": "NPC_MuscleMan_Adv_Ani_Indignant01"
        },
        {
          "FreeStyleClipName": "NPC_MuscleMan_Adv_Ani_Laugh01BS"
        },
        {
          "FreeStyleClipName": "NPC_MuscleMan_Adv_Ani_Laugh01Loop"
        },
        {
          "FreeStyleClipName": "NPC_MuscleMan_Adv_Ani_Laugh01AS"
        },
        {
          "FreeStyleClipName": "NPC_MuscleMan_Adv_Ani_PianoConductor01BS"
        },
        {
          "FreeStyleClipName": "NPC_MuscleMan_Adv_Ani_PianoConductor01Loop"
        },
        {
          "FreeStyleClipName": "NPC_MuscleMan_Adv_Ani_PianoConductor01AS"
        },
        {
          "FreeStyleClipName": "NPC_MuscleMan_Adv_Ani_Vomit01Loop"
        }
      ],
      "OnEnter": [
        {
          "$type": "RPG.GameCore.EnableEmotion",
          "TargetType": {
            "$type": "RPG.GameCore.TargetAlias",
            "Alias": "Caster"
          }
        },
        {
          "$type": "RPG.GameCore.AdvNpcResetEyeTransforms",
          "TargetType": {
            "$type": "RPG.GameCore.TargetAlias",
            "Alias": "Caster"
          }
        }
      ],
      "OnExit": [
        {
          "$type": "RPG.GameCore.EnableEmotion",
          "TargetType": {
            "$type": "RPG.GameCore.TargetAlias",
            "Alias": "Caster"
          },
          "Enable": true
        },
        {
          "$type": "RPG.GameCore.AdvNpcResetEyeTransforms",
          "TargetType": {
            "$type": "RPG.GameCore.TargetAlias",
            "Alias": "Caster"
          },
          "Enable": true
        }
      ]
    }
  ],
  "FreeStyleClipEvents": []
}