{
  "FreeStyleClipGroupEvents": [
    {
      "Clips": [
        {
          "FreeStyleClipName": "Avatar_Kafka_00_Adv_Ani_Restrict01Loop"
        }
      ],
      "OnEnter": [
        {
          "$type": "RPG.GameCore.ByHasBillboard"
        },
        {
          "$type": "RPG.GameCore.SetBillboardInfo",
          "EditHeight": true,
          "MinHeight": 0.1,
          "MaxHeight": 0
        }
      ],
      "OnExit": [
        {
          "$type": "RPG.GameCore.RemoveEffect",
          "EffectPath": "Effects/Eff_Prefab/Eff_CutScence/CS_Chap02_Act470/Eff_CS_Chap02_Act470_Start05_C.prefab"
        },
        {
          "$type": "RPG.GameCore.ByHasBillboard"
        },
        {
          "$type": "RPG.GameCore.ResetBillboardInfo",
          "TargetType": {
            "$type": "RPG.GameCore.TargetAlias",
            "Alias": "Caster"
          }
        }
      ]
    },
    {
      "Clips": [
        {
          "FreeStyleClipName": "Avatar_Topaz_00_Adv_Ani_WatchPhone01BS"
        },
        {
          "FreeStyleClipName": "Avatar_Topaz_00_Adv_Ani_WatchPhone01Loop"
        },
        {
          "FreeStyleClipName": "Avatar_Topaz_00_Adv_Ani_WatchPhone01AS"
        }
      ],
      "OnEnter": [
        {
          "$type": "RPG.GameCore.NpcPossession",
          "PossessionInfo": {
            "Name": "Possession_Topaz_LookAtPhone_00"
          }
        }
      ],
      "OnExit": [
        {
          "$type": "RPG.GameCore.NpcPossession",
          "IsDelete": true
        }
      ]
    },
    {
      "Clips": [
        {
          "FreeStyleClipName": "Avatar_Guinaifen_00_Adv_Ani_WatchPhone01BS"
        },
        {
          "FreeStyleClipName": "Avatar_Guinaifen_00_Adv_Ani_WatchPhone01Loop"
        },
        {
          "FreeStyleClipName": "Avatar_Guinaifen_00_Adv_Ani_WatchPhone01AS"
        }
      ],
      "OnEnter": [
        {
          "$type": "RPG.GameCore.NpcPossession",
          "PossessionInfo": {
            "Name": "Possession_Guinaifen_LookAtPhone_00"
          }
        }
      ],
      "OnExit": [
        {
          "$type": "RPG.GameCore.NpcPossession",
          "IsDelete": true
        }
      ]
    },
    {
      "Clips": [
        {
          "FreeStyleClipName": "Avatar_PlayerGirl_00_Adv_Ani_WatchPhone01BS"
        },
        {
          "FreeStyleClipName": "Avatar_PlayerGirl_00_Adv_Ani_WatchPhone01Loop"
        },
        {
          "FreeStyleClipName": "Avatar_PlayerGirl_00_Adv_Ani_WatchPhone01AS"
        }
      ],
      "OnEnter": [
        {
          "$type": "RPG.GameCore.NpcPossession",
          "PossessionInfo": {
            "Name": "Possession_PlayerGirl_LookAtPhone_00"
          }
        }
      ],
      "OnExit": [
        {
          "$type": "RPG.GameCore.NpcPossession",
          "IsDelete": true
        }
      ]
    },
    {
      "Clips": [
        {
          "FreeStyleClipName": "Avatar_PlayerBoy_00_Adv_Ani_WatchPhone01BS"
        },
        {
          "FreeStyleClipName": "Avatar_PlayerBoy_00_Adv_Ani_WatchPhone01Loop"
        },
        {
          "FreeStyleClipName": "Avatar_PlayerBoy_00_Adv_Ani_WatchPhone01AS"
        }
      ],
      "OnEnter": [
        {
          "$type": "RPG.GameCore.NpcPossession",
          "PossessionInfo": {
            "Name": "Possession_PlayerBoy_LookAtPhone_00"
          }
        }
      ],
      "OnExit": [
        {
          "$type": "RPG.GameCore.NpcPossession",
          "IsDelete": true
        }
      ]
    },
    {
      "Clips": [
        {
          "FreeStyleClipName": "Avatar_Asta_00_Adv_Ani_LookAtPhoneBS"
        },
        {
          "FreeStyleClipName": "Avatar_Asta_00_Adv_Ani_LookAtPhoneLoop"
        },
        {
          "FreeStyleClipName": "Avatar_Asta_00_Adv_Ani_LookAtPhoneAS"
        }
      ],
      "OnEnter": [
        {
          "$type": "RPG.GameCore.NpcPossession",
          "PossessionInfo": {
            "Name": "Possession_Asta_LookAtPhone_00"
          }
        }
      ],
      "OnExit": [
        {
          "$type": "RPG.GameCore.NpcPossession",
          "IsDelete": true
        }
      ]
    },
    {
      "Clips": [
        {
          "FreeStyleClipName": "Avatar_Boothill_00_Adv_Ani_DrawWeapon01Loop"
        },
        {
          "FreeStyleClipName": "Avatar_Boothill_00_Adv_Ani_DrawWeapon01BS"
        },
        {
          "FreeStyleClipName": "Avatar_Boothill_00_Adv_Ani_DrawWeapon01AS"
        }
      ],
      "OnEnter": [
        {
          "$type": "RPG.GameCore.EnableCharacterAttachmentSolverPoint",
          "Enable": true,
          "UniqueName": "AttachRightHand"
        },
        {
          "$type": "RPG.GameCore.EnableCharacterAttachmentSolverPoint",
          "UniqueName": "AttachGunSlot"
        }
      ]
    },
    {
      "Clips": [
        {
          "FreeStyleClipName": "Avatar_Boothill_00_Adv_Ani_HoldArm01AS"
        },
        {
          "FreeStyleClipName": "Avatar_Boothill_00_Adv_Ani_HoldArm01BS"
        },
        {
          "FreeStyleClipName": "Avatar_Boothill_00_Adv_Ani_HoldArm01HandAS"
        },
        {
          "FreeStyleClipName": "Avatar_Boothill_00_Adv_Ani_HoldArm01HandBS"
        },
        {
          "FreeStyleClipName": "Avatar_Boothill_00_Adv_Ani_HoldArm01HandLoop"
        },
        {
          "FreeStyleClipName": "Avatar_Boothill_00_Adv_Ani_HoldArm01Loop"
        },
        {
          "FreeStyleClipName": "Avatar_Boothill_00_Adv_Ani_StandBy"
        }
      ],
      "OnEnter": [
        {
          "$type": "RPG.GameCore.EnableCharacterAttachmentSolverPoint",
          "UniqueName": "AttachRightHand"
        },
        {
          "$type": "RPG.GameCore.EnableCharacterAttachmentSolverPoint",
          "Enable": true,
          "UniqueName": "AttachGunSlot"
        }
      ]
    }
  ],
  "FreeStyleClipEvents": []
}