{
  "NpcBodySize": "Child",
  "NavTurnSpeed": 100,
  "NavTurnBackTurnSpeed": 540,
  "ShoesType": "flatS",
  "FreeStyleCharacterID": "NPC_Child",
  "FreeStyleCharacterConfigPath": "Config/ConfigCharacter/FreeStyle/NPC_Child_FreeStyle_Config.json",
  "AnimEventConfigList": [
    "Config/ConfigAnimEvents/NPC/Normal/Effect/NPC_Normal_Child_Effect_AnimEvent.json",
    "Config/ConfigAnimEvents/NPC/Normal/Designer/NPC_Normal_Child_Designer_AnimEvent.json",
    "Config/ConfigAnimEvents/NPC/Full/Audio/NPC_Full_W3_Child_ShaJinYoung_Audio_AnimEvent.json",
    "Config/ConfigAnimEvents/NPC/Full/Effect/NPC_Full_W3_Child_ShaJinYoung_Effect_AnimEvent.json"
  ],
  "CommonAnimZoneConfigPath": "Config/ConfigAnimZone/NPC/Normal/NPC_Normal_Child_AnimZone.json",
  "DisableAnimEventLayers": [
    "Riboon Layer"
  ]
}