{
  "OnInitSequece": [],
  "OnStartSequece": [
    {
      "TaskList": [
        {
          "$type": "RPG.GameCore.CollectDataConditions",
          "TaskIDList": [
            802210204,
            802211101,
            802210203,
            802212004,
            802210208,
            802212404,
            802210207,
            802210205,
            802210102,
            802210311,
            802210312,
            802210401,
            802210406,
            802210407
          ],
          "MainMissionIDList": [],
          "PerformanceIDList": [],
          "PerformanceIDDsList": [],
          "CustomValueMainMissionIDList": []
        },
        {
          "$type": "RPG.GameCore.SwitchCase",
          "TaskList": [
            {
              "Predicate": {
                "$type": "RPG.GameCore.ByAnd",
                "PredicateList": [
                  {
                    "$type": "RPG.GameCore.ByCompareSubMissionState",
                    "SubMissionID": 802210204,
                    "SubMissionState": "Started"
                  },
                  {
                    "$type": "RPG.GameCore.ByCompareSubMissionState",
                    "SubMissionID": 802211101,
                    "SubMissionState": "Finish"
                  }
                ]
              },
              "SuccessTaskList": [
                {
                  "$type": "RPG.GameCore.TriggerPerformance",
                  "ValueSource": {},
                  "PerformanceType": "E",
                  "PerformanceID": 802210205
                },
                {
                  "$type": "RPG.GameCore.ClientFinishMission",
                  "SubmissionID": 802210204
                }
              ]
            },
            {
              "Predicate": {
                "$type": "RPG.GameCore.ByAnd",
                "PredicateList": [
                  {
                    "$type": "RPG.GameCore.ByCompareSubMissionState",
                    "SubMissionID": 802210203,
                    "SubMissionState": "Started"
                  },
                  {
                    "$type": "RPG.GameCore.ByCompareSubMissionState",
                    "SubMissionID": 802212004,
                    "SubMissionState": "Finish"
                  }
                ]
              },
              "SuccessTaskList": [
                {
                  "$type": "RPG.GameCore.TriggerPerformance",
                  "ValueSource": {},
                  "PerformanceType": "E",
                  "PerformanceID": 802210207
                },
                {
                  "$type": "RPG.GameCore.ClientFinishMission",
                  "SubmissionID": 802210203
                }
              ]
            },
            {
              "Predicate": {
                "$type": "RPG.GameCore.ByAnd",
                "PredicateList": [
                  {
                    "$type": "RPG.GameCore.ByCompareSubMissionState",
                    "SubMissionID": 802210208,
                    "SubMissionState": "Started"
                  },
                  {
                    "$type": "RPG.GameCore.ByCompareSubMissionState",
                    "SubMissionID": 802212404,
                    "SubMissionState": "Finish"
                  }
                ]
              },
              "SuccessTaskList": [
                {
                  "$type": "RPG.GameCore.TriggerPerformance",
                  "ValueSource": {},
                  "PerformanceType": "E",
                  "PerformanceID": 802210209
                },
                {
                  "$type": "RPG.GameCore.ClientFinishMission",
                  "SubmissionID": 802210208
                }
              ]
            },
            {
              "Predicate": {
                "$type": "RPG.GameCore.ByAnd",
                "PredicateList": [
                  {
                    "$type": "RPG.GameCore.ByCompareSubMissionState",
                    "SubMissionID": 802210204,
                    "SubMissionState": "Started"
                  },
                  {
                    "$type": "RPG.GameCore.ByCompareSubMissionState",
                    "SubMissionID": 802211101,
                    "SubMissionState": "Finish",
                    "Inverse": true
                  }
                ]
              },
              "SuccessTaskList": [
                {
                  "$type": "RPG.GameCore.TriggerPerformance",
                  "ValueSource": {},
                  "PerformanceType": "E",
                  "PerformanceID": 802210204
                }
              ]
            },
            {
              "Predicate": {
                "$type": "RPG.GameCore.ByAnd",
                "PredicateList": [
                  {
                    "$type": "RPG.GameCore.ByCompareSubMissionState",
                    "SubMissionID": 802210207,
                    "SubMissionState": "Started"
                  },
                  {
                    "$type": "RPG.GameCore.ByCompareSubMissionState",
                    "SubMissionID": 802212404,
                    "SubMissionState": "Finish",
                    "Inverse": true
                  }
                ]
              },
              "SuccessTaskList": [
                {
                  "$type": "RPG.GameCore.TriggerPerformance",
                  "ValueSource": {},
                  "PerformanceType": "E",
                  "PerformanceID": 802210208
                },
                {
                  "$type": "RPG.GameCore.FinishLevelGraph"
                }
              ]
            },
            {
              "Predicate": {
                "$type": "RPG.GameCore.ByAnd",
                "PredicateList": [
                  {
                    "$type": "RPG.GameCore.ByCompareSubMissionState",
                    "SubMissionID": 802210205,
                    "SubMissionState": "Started"
                  },
                  {
                    "$type": "RPG.GameCore.ByCompareSubMissionState",
                    "SubMissionID": 802212004,
                    "SubMissionState": "Finish",
                    "Inverse": true
                  }
                ]
              },
              "SuccessTaskList": [
                {
                  "$type": "RPG.GameCore.TriggerPerformance",
                  "ValueSource": {},
                  "PerformanceType": "E",
                  "PerformanceID": 802210206
                },
                {
                  "$type": "RPG.GameCore.FinishLevelGraph"
                }
              ]
            },
            {
              "Predicate": {
                "$type": "RPG.GameCore.ByCompareSubMissionState",
                "SubMissionID": 802210102,
                "SubMissionState": "Started"
              },
              "SuccessTaskList": [
                {
                  "$type": "RPG.GameCore.TriggerPerformance",
                  "ValueSource": {},
                  "PerformanceType": "E",
                  "PerformanceID": 802210103
                },
                {
                  "$type": "RPG.GameCore.FinishLevelGraph"
                }
              ]
            },
            {
              "Predicate": {
                "$type": "RPG.GameCore.ByAnd",
                "PredicateList": [
                  {
                    "$type": "RPG.GameCore.ByCompareSubMissionState",
                    "SubMissionID": 802210102,
                    "SubMissionState": "Finish"
                  },
                  {
                    "$type": "RPG.GameCore.ByCompareSubMissionState",
                    "SubMissionID": 802210207,
                    "SubMissionState": "Finish",
                    "Inverse": true
                  }
                ]
              },
              "SuccessTaskList": [
                {
                  "$type": "RPG.GameCore.TriggerPerformance",
                  "ValueSource": {},
                  "PerformanceType": "E",
                  "PerformanceID": 802210105
                },
                {
                  "$type": "RPG.GameCore.FinishLevelGraph"
                }
              ]
            },
            {
              "Predicate": {
                "$type": "RPG.GameCore.ByAnd",
                "PredicateList": [
                  {
                    "$type": "RPG.GameCore.ByCompareSubMissionState",
                    "SubMissionID": 802210207,
                    "SubMissionState": "Finish"
                  },
                  {
                    "$type": "RPG.GameCore.ByCompareSubMissionState",
                    "SubMissionID": 802210311,
                    "SubMissionState": "Finish",
                    "Inverse": true
                  }
                ]
              },
              "SuccessTaskList": [
                {
                  "$type": "RPG.GameCore.TriggerPerformance",
                  "ValueSource": {},
                  "PerformanceType": "E",
                  "PerformanceID": 802210302
                },
                {
                  "$type": "RPG.GameCore.FinishLevelGraph"
                }
              ]
            },
            {
              "Predicate": {
                "$type": "RPG.GameCore.ByCompareSubMissionState",
                "SubMissionID": 802210312,
                "SubMissionState": "Started"
              },
              "SuccessTaskList": [
                {
                  "$type": "RPG.GameCore.TriggerPerformance",
                  "ValueSource": {},
                  "PerformanceType": "D",
                  "PerformanceID": 802210317
                },
                {
                  "$type": "RPG.GameCore.TriggerCustomStringOnDialogEnd",
                  "CustomString": {
                    "Value": "Talk_802210317"
                  }
                },
                {
                  "$type": "RPG.GameCore.TriggerGroupEventOnDialogEnd",
                  "EventName": {
                    "Value": "ActivitMovie_OpenUI"
                  }
                }
              ]
            },
            {
              "Predicate": {
                "$type": "RPG.GameCore.ByAnd",
                "PredicateList": [
                  {
                    "$type": "RPG.GameCore.ByCompareSubMissionState",
                    "SubMissionID": 802210312,
                    "SubMissionState": "Finish"
                  },
                  {
                    "$type": "RPG.GameCore.ByCompareSubMissionState",
                    "SubMissionID": 802210401,
                    "SubMissionState": "Finish",
                    "Inverse": true
                  }
                ]
              },
              "SuccessTaskList": [
                {
                  "$type": "RPG.GameCore.TriggerPerformance",
                  "ValueSource": {},
                  "PerformanceType": "E",
                  "PerformanceID": 802210318
                },
                {
                  "$type": "RPG.GameCore.FinishLevelGraph"
                }
              ]
            },
            {
              "Predicate": {
                "$type": "RPG.GameCore.ByAnd",
                "PredicateList": [
                  {
                    "$type": "RPG.GameCore.ByCompareSubMissionState",
                    "SubMissionID": 802210401,
                    "SubMissionState": "Finish"
                  },
                  {
                    "$type": "RPG.GameCore.ByCompareSubMissionState",
                    "SubMissionID": 802210406,
                    "SubMissionState": "Finish",
                    "Inverse": true
                  }
                ]
              },
              "SuccessTaskList": [
                {
                  "$type": "RPG.GameCore.TriggerPerformance",
                  "ValueSource": {},
                  "PerformanceType": "E",
                  "PerformanceID": 802210413
                },
                {
                  "$type": "RPG.GameCore.FinishLevelGraph"
                }
              ]
            },
            {
              "Predicate": {
                "$type": "RPG.GameCore.ByCompareSubMissionState",
                "SubMissionID": 802210407,
                "SubMissionState": "Started"
              },
              "SuccessTaskList": [
                {
                  "$type": "RPG.GameCore.TriggerPerformance",
                  "ValueSource": {},
                  "PerformanceType": "D",
                  "PerformanceID": 802210407
                },
                {
                  "$type": "RPG.GameCore.TriggerCustomStringOnDialogEnd",
                  "CustomString": {
                    "Value": "Talk_802210407"
                  }
                }
              ]
            }
          ],
          "DefaultTask": [
            {
              "$type": "RPG.GameCore.TriggerPerformance",
              "ValueSource": {},
              "PerformanceType": "E",
              "PerformanceID": 802210408
            },
            {
              "$type": "RPG.GameCore.FinishLevelGraph"
            }
          ]
        }
      ]
    }
  ]
}