{
  "$type": "RPG.GameCore.CharacterConfig",
  "SomatoType": "LittleMonster",
  "CharacterHUDOffset": {
    "X": 0.3,
    "Y": 2,
    "Z": 0
  },
  "BuffPanelOffset": {
    "X": 0,
    "Y": 1.5,
    "Z": 0
  },
  "HitBoxHeight": 0.4,
  "Location": {
    "Width": 2,
    "LocalZOffsetMin": 0.3,
    "LocalZOffsetMax": 1
  },
  "VisualRadius": 0.8,
  "AnimEventConfigList": [
    "Config/ConfigAnimEvents/Monster/Designer/Monster_W3_TV_01_Designer_AnimEvent.json",
    "Config/ConfigAnimEvents/Monster/Effect/Monster_W3_TV_01_Effect_AnimEvent.json",
    "Config/ConfigAnimEvents/Monster/Audio/Monster_W3_TV_01_Audio_AnimEvent.json"
  ],
  "SkillList": [
    {
      "Name": "Skill01",
      "UseType": "SelectEntity",
      "TargetInfo": {
        "TargetType": "EnemySelect"
      },
      "ReadyAnimState": "StandBy",
      "EntryAbility": "Monster_W3_TV_01_Skill01_Phase01"
    },
    {
      "Name": "Skill02",
      "UseType": "SelectEntity",
      "TargetInfo": {
        "TargetType": "EnemySelect"
      },
      "SkillNameHUD": false,
      "ReadyAnimState": "StandBy",
      "EntryAbility": "Monster_W3_TV_01_Skill02_Phase01"
    },
    {
      "Name": "PassiveSkill01",
      "UseType": "Passive",
      "TargetInfo": {
        "TargetType": "Caster"
      },
      "EntryAbility": "Monster_Common_PassiveSkill_StanceBreak_Action"
    },
    {
      "Name": "PassiveSkill02",
      "UseType": "Passive",
      "TargetInfo": {
        "TargetType": "Caster"
      },
      "EntryAbility": "Monster_W3_TV_01_PassiveSkill"
    }
  ],
  "AbilityList": [
    "Monster_Common_PassiveSkill_StanceBreak_Action",
    "Monster_W3_TV_01_PassiveSkill",
    "Monster_W3_TV_01_Skill01_Phase01",
    "Monster_W3_TV_01_Skill01_Phase02",
    "Monster_W3_TV_01_Skill01_Camera",
    "Monster_W3_TV_01_Skill02_Phase01",
    "Monster_W3_TV_01_Skill02_Phase02"
  ],
  "SkillAbilityList": [
    {
      "Skill": "Skill01",
      "AbilityList": [
        "Monster_W3_TV_01_Skill01_Phase01",
        "Monster_W3_TV_01_Skill01_Phase02",
        "Monster_W3_TV_01_Skill01_Camera"
      ]
    },
    {
      "Skill": "Skill02",
      "AbilityList": [
        "Monster_W3_TV_01_Skill02_Phase01",
        "Monster_W3_TV_01_Skill02_Phase02"
      ]
    }
  ],
  "DynamicValues": {
    "Values": {
      "-1932462471": {
        "ReadInfo": {
          "Type": "None",
          "Str": "Skill01"
        }
      }
    }
  },
  "CustomValues": {
    "AIFlag": 1,
    "TV_01_GroupFlag": 0,
    "TV_01_EliteFlag": 0,
    "RandomFlagTemp": 0,
    "TV_01_RandomPoolID": 1,
    "TV_01_EliteChance": -1,
    "MonsterIDKey": 0
  },
  "WeaponType": "WP_Scythe",
  "ArmorType": "Armor_Metal",
  "DisableAnimEventLayers": [
    "Riboon Layer"
  ],
  "MonsterConfig": {
    "MultiHitAmplitudeNormalize": 0.7,
    "MultiHitHAmplitudeNormalize": 0.7,
    "MultiHitStartOffsetNormalize": 0.1,
    "MultiHitHStartOffsetNormalize": 0.1
  }
}