{
  "OnInitSequece": [],
  "OnStartSequece": [
    {
      "TaskList": [
        {
          "$type": "RPG.GameCore.LevelPerformanceInitialize",
          "PerformanceType": "E",
          "CreateCharacterList": [],
          "CaptureNPCList": [],
          "EntityVisiableList": [],
          "HideMunicipalCrowd": false,
          "HideMunicipalPedestrian": false,
          "PropVisiableList": [],
          "StreamingSourcesInBlackMask": [],
          "StreamingSourcesAfterBlackMask": [],
          "MarkStreamingItems": []
        },
        {
          "$type": "RPG.GameCore.PlayAndWaitSimpleTalk",
          "SimpleTalkList": [
            {
              "TextSpeed": 0,
              "TalkSentenceID": 503053020,
              "ProtectTime": 0
            }
          ]
        },
        {
          "$type": "RPG.GameCore.TriggerCustomString",
          "CustomString": {
            "Value": "Wait_Option_503053002_35"
          }
        }
      ]
    },
    {
      "IsLoop": true,
      "TaskList": [
        {
          "$type": "RPG.GameCore.WaitCustomString",
          "CustomString": {
            "Value": "Wait_Option_503053002_35"
          }
        },
        {
          "$type": "RPG.GameCore.PlayOptionTalk",
          "OptionList": [
            {
              "TalkSentenceID": 503053021,
              "OptionIconType": "ChatLoopIcon",
              "TriggerCustomString": "TalkSentence_503053022"
            },
            {
              "TalkSentenceID": 503053027,
              "OptionIconType": "ChatLoopIcon",
              "TriggerCustomString": "TalkSentence_503053028"
            },
            {
              "TalkSentenceID": 503053033,
              "OptionIconType": "ChatLoopIcon",
              "TriggerCustomString": "TalkSentence_503053034"
            },
            {
              "TalkSentenceID": 503053038,
              "OptionIconType": "PickUpIcon",
              "TriggerCustomString": "TalkSentence_503053039"
            },
            {
              "TalkSentenceID": 503053041,
              "OptionIconType": "ChatOutIcon",
              "TriggerCustomString": "ALL_TALK_END"
            }
          ],
          "HideSelected": true
        }
      ]
    },
    {
      "IsLoop": true,
      "TaskList": [
        {
          "$type": "RPG.GameCore.WaitCustomString",
          "CustomString": {
            "Value": "TalkSentence_503053022"
          }
        },
        {
          "$type": "RPG.GameCore.PlayAndWaitSimpleTalk",
          "SimpleTalkList": [
            {
              "TextSpeed": 0,
              "TalkSentenceID": 503053022,
              "ProtectTime": 0
            },
            {
              "TextSpeed": 0,
              "TalkSentenceID": 503053023,
              "ProtectTime": 0
            },
            {
              "TextSpeed": 0,
              "TalkSentenceID": 503053024,
              "ProtectTime": 0
            },
            {
              "TextSpeed": 0,
              "TalkSentenceID": 503053025,
              "ProtectTime": 0
            },
            {
              "TextSpeed": 0,
              "TalkSentenceID": 503053026,
              "ProtectTime": 0
            }
          ]
        },
        {
          "$type": "RPG.GameCore.TriggerCustomString",
          "CustomString": {
            "Value": "Wait_Option_503053002_35"
          }
        }
      ]
    },
    {
      "IsLoop": true,
      "TaskList": [
        {
          "$type": "RPG.GameCore.WaitCustomString",
          "CustomString": {
            "Value": "TalkSentence_503053028"
          }
        },
        {
          "$type": "RPG.GameCore.PlayAndWaitSimpleTalk",
          "SimpleTalkList": [
            {
              "TextSpeed": 0,
              "TalkSentenceID": 503053028,
              "ProtectTime": 0
            },
            {
              "TextSpeed": 0,
              "TalkSentenceID": 503053029,
              "ProtectTime": 0
            },
            {
              "TextSpeed": 0,
              "TalkSentenceID": 503053030,
              "ProtectTime": 0
            },
            {
              "TextSpeed": 0,
              "TalkSentenceID": 503053031,
              "ProtectTime": 0
            },
            {
              "TextSpeed": 0,
              "TalkSentenceID": 503053032,
              "ProtectTime": 0
            }
          ]
        },
        {
          "$type": "RPG.GameCore.TriggerCustomString",
          "CustomString": {
            "Value": "Wait_Option_503053002_35"
          }
        }
      ]
    },
    {
      "IsLoop": true,
      "TaskList": [
        {
          "$type": "RPG.GameCore.WaitCustomString",
          "CustomString": {
            "Value": "TalkSentence_503053034"
          }
        },
        {
          "$type": "RPG.GameCore.PlayAndWaitSimpleTalk",
          "SimpleTalkList": [
            {
              "TextSpeed": 0,
              "TalkSentenceID": 503053034,
              "ProtectTime": 0
            },
            {
              "TextSpeed": 0,
              "TalkSentenceID": 503053035,
              "ProtectTime": 0
            },
            {
              "TextSpeed": 0,
              "TalkSentenceID": 503053036,
              "ProtectTime": 0
            },
            {
              "TextSpeed": 0,
              "TalkSentenceID": 503053037,
              "ProtectTime": 0
            }
          ]
        },
        {
          "$type": "RPG.GameCore.TriggerCustomString",
          "CustomString": {
            "Value": "Wait_Option_503053002_35"
          }
        }
      ]
    },
    {
      "IsLoop": true,
      "TaskList": [
        {
          "$type": "RPG.GameCore.WaitCustomString",
          "CustomString": {
            "Value": "TalkSentence_503053039"
          }
        },
        {
          "$type": "RPG.GameCore.PlayAndWaitSimpleTalk",
          "SimpleTalkList": [
            {
              "TextSpeed": 0,
              "TalkSentenceID": 503053039,
              "ProtectTime": 0
            },
            {
              "TextSpeed": 0,
              "TalkSentenceID": 503053040,
              "ProtectTime": 0
            }
          ]
        },
        {
          "$type": "RPG.GameCore.TriggerCustomString",
          "CustomString": {
            "Value": "Wait_Option_503053002_35"
          }
        }
      ]
    },
    {
      "TaskList": [
        {
          "$type": "RPG.GameCore.WaitCustomString",
          "CustomString": {
            "Value": "ALL_TALK_END"
          }
        },
        {
          "$type": "RPG.GameCore.EndPerformance"
        }
      ]
    },
    {
      "TaskList": [
        {
          "$type": "RPG.GameCore.WaitPerformanceEnd"
        },
        {
          "$type": "RPG.GameCore.FinishLevelGraph"
        }
      ]
    }
  ]
}