{
  "AnimatorStateEvents": [
    {
      "AnimatorStateName": "Skill02",
      "EventList": [
        {
          "$type": "RPG.GameCore.TriggerEffect",
          "TargetType": {
            "$type": "RPG.GameCore.TargetAlias",
            "Alias": "Caster"
          },
          "EffectPath": "Effects/Eff_Prefab/Eff_ActivityProp/Eff_Aetherdivide_W2_Mecha01_00/Eff_AetherDivide_W2_Mecha01_00_Ready.prefab"
        }
      ]
    },
    {
      "AnimatorStateName": "Skill02",
      "NormalizedTime": 0.4296875,
      "EventList": [
        {
          "$type": "RPG.GameCore.TriggerEffect",
          "TargetType": {
            "$type": "RPG.GameCore.TargetAlias",
            "Alias": "Caster"
          },
          "EffectPath": "Effects/Eff_Prefab/Eff_ActivityProp/Eff_Aetherdivide_W2_Mecha01_00/Eff_AetherDivide_W2_Mecha01_00_MazeAttack_01.prefab"
        },
        {
          "$type": "RPG.GameCore.TriggerEffect",
          "TargetType": {
            "$type": "RPG.GameCore.TargetAlias",
            "Alias": "Caster"
          },
          "EffectPath": "Effects/Eff_Prefab/Eff_ActivityProp/Eff_Aetherdivide_W2_Mecha01_00/Eff_AetherDivide_W2_Mecha01_00_Ready1.prefab"
        }
      ]
    },
    {
      "AnimatorStateName": "Skill01",
      "NormalizedTime": 0.3397436,
      "EventList": [
        {
          "$type": "RPG.GameCore.TriggerEffect",
          "TargetType": {
            "$type": "RPG.GameCore.TargetAlias",
            "Alias": "Caster"
          },
          "EffectPath": "Effects/Eff_Prefab/Eff_Monster/Eff_W2_Mecha01_00/Eff_Monster_W2_Mecha01_00_Skill01_Attack_02.prefab"
        }
      ]
    },
    {
      "AnimatorStateName": "Skill01",
      "NormalizedTime": 0.003333333,
      "EventList": [
        {
          "$type": "RPG.GameCore.TriggerEffect",
          "TargetType": {
            "$type": "RPG.GameCore.TargetAlias",
            "Alias": "Caster"
          },
          "EffectPath": "Effects/Eff_Prefab/Eff_Monster/Eff_W2_Mecha01_00/Eff_Monster_W2_Mecha01_00_Skill01_Attack_01.prefab"
        }
      ]
    },
    {
      "AnimatorStateName": "Die_Fly",
      "EventList": [
        {
          "$type": "RPG.GameCore.TriggerEffect",
          "TargetType": {
            "$type": "RPG.GameCore.TargetAlias",
            "Alias": "Caster"
          },
          "EffectPath": "Effects/Eff_Prefab/Eff_Monster/Eff_W2_Mecha01_00/Eff_Monster_W2_Mecha01_00_Common_DieFly.prefab"
        }
      ]
    },
    {
      "AnimatorStateName": "Die_Fly",
      "NormalizedTime": 0.2727273,
      "EventList": [
        {
          "$type": "RPG.GameCore.TriggerEffect",
          "TargetType": {
            "$type": "RPG.GameCore.TargetAlias",
            "Alias": "Caster"
          },
          "EffectPath": "Effects/Eff_Prefab/Eff_Monster/Eff_W2_Mecha01_00/Eff_Monster_W2_Mecha01_00_Die.prefab"
        }
      ]
    },
    {
      "AnimatorStateName": "Die_Fly",
      "NormalizedTime": 0.1883333,
      "EventList": [
        {
          "$type": "RPG.GameCore.TriggerEffect",
          "TargetType": {
            "$type": "RPG.GameCore.TargetAlias",
            "Alias": "Caster"
          },
          "EffectPath": "Effects/Eff_Prefab/Eff_Monster/Eff_W2_Mecha01_00/Eff_Monster_W2_Mecha01_00_Common_Die_Smoke.prefab"
        }
      ]
    },
    {
      "AnimatorStateName": "Die",
      "EventList": [
        {
          "$type": "RPG.GameCore.TriggerEffect",
          "TargetType": {
            "$type": "RPG.GameCore.TargetAlias",
            "Alias": "Caster"
          },
          "EffectPath": "Effects/Eff_Prefab/Eff_Monster/Eff_W2_Mecha01_00/Eff_Monster_W2_Mecha01_00_Common_Die_02.prefab"
        }
      ]
    },
    {
      "AnimatorStateName": "Die",
      "NormalizedTime": 0.5617977,
      "EventList": [
        {
          "$type": "RPG.GameCore.TriggerEffect",
          "TargetType": {
            "$type": "RPG.GameCore.TargetAlias",
            "Alias": "Caster"
          },
          "EffectPath": "Effects/Eff_Prefab/Eff_Monster/Eff_W2_Mecha01_00/Eff_Monster_W2_Mecha01_00_Die.prefab"
        }
      ]
    },
    {
      "AnimatorStateName": "Die",
      "NormalizedTime": 0.5612245,
      "EventList": [
        {
          "$type": "RPG.GameCore.TriggerEffect",
          "TargetType": {
            "$type": "RPG.GameCore.TargetAlias",
            "Alias": "Caster"
          },
          "EffectPath": "Effects/Eff_Prefab/Eff_Monster/Eff_W2_Mecha01_00/Eff_Monster_W2_Mecha01_00_Common_Die_Smoke.prefab"
        }
      ]
    },
    {
      "AnimatorStateName": "Die_Hit",
      "NormalizedTime": 0.5617977,
      "EventList": [
        {
          "$type": "RPG.GameCore.TriggerEffect",
          "TargetType": {
            "$type": "RPG.GameCore.TargetAlias",
            "Alias": "Caster"
          },
          "EffectPath": "Effects/Eff_Prefab/Eff_Monster/Eff_W2_Mecha01_00/Eff_Monster_W2_Mecha01_00_Die.prefab"
        }
      ]
    },
    {
      "AnimatorStateName": "Die_Hit",
      "EventList": [
        {
          "$type": "RPG.GameCore.TriggerEffect",
          "TargetType": {
            "$type": "RPG.GameCore.TargetAlias",
            "Alias": "Caster"
          },
          "EffectPath": "Effects/Eff_Prefab/Eff_Monster/Eff_W2_Mecha01_00/Eff_Monster_W2_Mecha01_00_Common_Die_02.prefab"
        }
      ]
    },
    {
      "AnimatorStateName": "Die_Hit",
      "NormalizedTime": 0.5612245,
      "EventList": [
        {
          "$type": "RPG.GameCore.TriggerEffect",
          "TargetType": {
            "$type": "RPG.GameCore.TargetAlias",
            "Alias": "Caster"
          },
          "EffectPath": "Effects/Eff_Prefab/Eff_Monster/Eff_W2_Mecha01_00/Eff_Monster_W2_Mecha01_00_Common_Die_Smoke.prefab"
        }
      ]
    },
    {
      "AnimatorStateName": "Die_Limbo",
      "EventList": [
        {
          "$type": "RPG.GameCore.TriggerEffect",
          "TargetType": {
            "$type": "RPG.GameCore.TargetAlias",
            "Alias": "Caster"
          },
          "EffectPath": "Effects/Eff_Prefab/Eff_Monster/Eff_W2_Mecha01_00/Eff_Monster_W2_Mecha01_00_Common_Die_02.prefab"
        }
      ]
    },
    {
      "AnimatorStateName": "Die_Limbo",
      "NormalizedTime": 0.5617977,
      "EventList": [
        {
          "$type": "RPG.GameCore.TriggerEffect",
          "TargetType": {
            "$type": "RPG.GameCore.TargetAlias",
            "Alias": "Caster"
          },
          "EffectPath": "Effects/Eff_Prefab/Eff_Monster/Eff_W2_Mecha01_00/Eff_Monster_W2_Mecha01_00_Die.prefab"
        }
      ]
    },
    {
      "AnimatorStateName": "Die_Limbo",
      "NormalizedTime": 0.5612245,
      "EventList": [
        {
          "$type": "RPG.GameCore.TriggerEffect",
          "TargetType": {
            "$type": "RPG.GameCore.TargetAlias",
            "Alias": "Caster"
          },
          "EffectPath": "Effects/Eff_Prefab/Eff_Monster/Eff_W2_Mecha01_00/Eff_Monster_W2_Mecha01_00_Common_Die_Smoke.prefab"
        }
      ]
    },
    {
      "AnimatorStateName": "Hit_Fly_Recover",
      "NormalizedTime": 0.06557377,
      "EventList": [
        {
          "$type": "RPG.GameCore.TriggerEffect",
          "TargetType": {
            "$type": "RPG.GameCore.TargetAlias",
            "Alias": "Caster"
          },
          "EffectPath": "Effects/Eff_Prefab/Eff_Monster/Eff_W2_Mecha01_00/Eff_Monster_W2_Mecha01_00_Common_FlySmoke.prefab"
        }
      ]
    },
    {
      "AnimatorStateName": "Hit_Fly_Recover_Break",
      "NormalizedTime": 0.05517241,
      "EventList": [
        {
          "$type": "RPG.GameCore.TriggerEffect",
          "TargetType": {
            "$type": "RPG.GameCore.TargetAlias",
            "Alias": "Caster"
          },
          "EffectPath": "Effects/Eff_Prefab/Eff_Monster/Eff_W2_Mecha01_00/Eff_Monster_W2_Mecha01_00_Common_FlySmoke.prefab"
        }
      ]
    },
    {
      "AnimatorStateName": "Hit_Fly_Recover_Stun",
      "NormalizedTime": 0.05517241,
      "EventList": [
        {
          "$type": "RPG.GameCore.TriggerEffect",
          "TargetType": {
            "$type": "RPG.GameCore.TargetAlias",
            "Alias": "Caster"
          },
          "EffectPath": "Effects/Eff_Prefab/Eff_Monster/Eff_W2_Mecha01_00/Eff_Monster_W2_Mecha01_00_Common_FlySmoke.prefab"
        }
      ]
    }
  ]
}