{
  "AnimatorStateEvents": [
    {
      "AnimatorStateName": "Die",
      "EventList": [
        {
          "$type": "RPG.GameCore.TriggerEffect",
          "TargetType": {
            "$type": "RPG.GameCore.TargetAlias",
            "Alias": "Caster"
          },
          "IsAttachToTargetEntity": true,
          "EffectPath": "Effects/Eff_Prefab/Eff_Monster/Eff_W3_Figure_02/Eff_Monster_W3_Figure_02_Die_01_Lod0.prefab"
        },
        {
          "$type": "RPG.GameCore.TriggerEffect",
          "TargetType": {
            "$type": "RPG.GameCore.TargetAlias",
            "Alias": "Caster"
          },
          "IsAttachToTargetEntity": true,
          "EffectPath": "Effects/Eff_Prefab/Eff_Monster/Eff_W3_Figure_02/Eff_Monster_W3_Figure_02_Die_02_Lod0.prefab"
        }
      ]
    },
    {
      "AnimatorStateName": "Die_Fly",
      "EventList": [
        {
          "$type": "RPG.GameCore.TriggerEffect",
          "TargetType": {
            "$type": "RPG.GameCore.TargetAlias",
            "Alias": "Caster"
          },
          "IsAttachToTargetEntity": true,
          "EffectPath": "Effects/Eff_Prefab/Eff_Monster/Eff_W3_Figure_02/Eff_Monster_W3_Figure_02_Die_01_Lod0.prefab"
        },
        {
          "$type": "RPG.GameCore.TriggerEffect",
          "TargetType": {
            "$type": "RPG.GameCore.TargetAlias",
            "Alias": "Caster"
          },
          "IsAttachToTargetEntity": true,
          "EffectPath": "Effects/Eff_Prefab/Eff_Monster/Eff_W3_Figure_02/Eff_Monster_W3_Figure_02_Die_02_Lod0.prefab"
        }
      ]
    },
    {
      "AnimatorStateName": "Die_Hit",
      "EventList": [
        {
          "$type": "RPG.GameCore.TriggerEffect",
          "TargetType": {
            "$type": "RPG.GameCore.TargetAlias",
            "Alias": "Caster"
          },
          "IsAttachToTargetEntity": true,
          "EffectPath": "Effects/Eff_Prefab/Eff_Monster/Eff_W3_Figure_02/Eff_Monster_W3_Figure_02_Die_01_Lod0.prefab"
        },
        {
          "$type": "RPG.GameCore.TriggerEffect",
          "TargetType": {
            "$type": "RPG.GameCore.TargetAlias",
            "Alias": "Caster"
          },
          "IsAttachToTargetEntity": true,
          "EffectPath": "Effects/Eff_Prefab/Eff_Monster/Eff_W3_Figure_02/Eff_Monster_W3_Figure_02_Die_02_Lod0.prefab"
        }
      ]
    },
    {
      "AnimatorStateName": "Die_Limbo",
      "EventList": [
        {
          "$type": "RPG.GameCore.TriggerEffect",
          "TargetType": {
            "$type": "RPG.GameCore.TargetAlias",
            "Alias": "Caster"
          },
          "IsAttachToTargetEntity": true,
          "EffectPath": "Effects/Eff_Prefab/Eff_Monster/Eff_W3_Figure_02/Eff_Monster_W3_Figure_02_Die_01_Lod0.prefab"
        },
        {
          "$type": "RPG.GameCore.TriggerEffect",
          "TargetType": {
            "$type": "RPG.GameCore.TargetAlias",
            "Alias": "Caster"
          },
          "IsAttachToTargetEntity": true,
          "EffectPath": "Effects/Eff_Prefab/Eff_Monster/Eff_W3_Figure_02/Eff_Monster_W3_Figure_02_Die_02_Lod0.prefab"
        }
      ]
    },
    {
      "AnimatorStateName": "Skill01",
      "NormalizedTime": 0.1185567,
      "EventList": [
        {
          "$type": "RPG.GameCore.TriggerEffect",
          "TargetType": {
            "$type": "RPG.GameCore.TargetAlias",
            "Alias": "Caster"
          },
          "IsAttachToTargetEntity": true,
          "EffectPath": "Effects/Eff_Prefab/Eff_Monster/Eff_W3_Figure_02/Eff_Monster_W3_Figure_02_Skill01_Weapon.prefab"
        }
      ]
    },
    {
      "AnimatorStateName": "Skill01",
      "NormalizedTime": 0.5,
      "EventList": [
        {
          "$type": "RPG.GameCore.TriggerEffect",
          "TargetType": {
            "$type": "RPG.GameCore.TargetAlias",
            "Alias": "Caster"
          },
          "IsAttachToTargetEntity": true,
          "EffectPath": "Effects/Eff_Prefab/Eff_Monster/Eff_W3_Figure_02/Eff_Monster_W3_Figure_02_Skill01_Attack01.prefab"
        }
      ]
    },
    {
      "AnimatorStateName": "Skill01",
      "NormalizedTime": 0.8608246,
      "EventList": [
        {
          "$type": "RPG.GameCore.TriggerEffect",
          "TargetType": {
            "$type": "RPG.GameCore.TargetAlias",
            "Alias": "Caster"
          },
          "IsAttachToTargetEntity": true,
          "EffectPath": "Effects/Eff_Prefab/Eff_Monster/Eff_W3_Figure_02/Eff_Monster_W3_Figure_02_Skill01_Smoke.prefab"
        }
      ]
    },
    {
      "AnimatorStateName": "Skill03",
      "NormalizedTime": 0.08247422,
      "EventList": [
        {
          "$type": "RPG.GameCore.TriggerEffect",
          "TargetType": {
            "$type": "RPG.GameCore.TargetAlias",
            "Alias": "Caster"
          },
          "IsAttachToTargetEntity": true,
          "EffectPath": "Effects/Eff_Prefab/Eff_Monster/Eff_W3_Figure_02/Eff_Monster_W3_Figure_02_Skill03_Weapon.prefab"
        }
      ]
    },
    {
      "AnimatorStateName": "Skill03",
      "NormalizedTime": 0.4845361,
      "EventList": [
        {
          "$type": "RPG.GameCore.TriggerEffect",
          "TargetType": {
            "$type": "RPG.GameCore.TargetAlias",
            "Alias": "Caster"
          },
          "IsAttachToTargetEntity": true,
          "EffectPath": "Effects/Eff_Prefab/Eff_Monster/Eff_W3_Figure_02/Eff_Monster_W3_Figure_02_Skill03_Attack02.prefab"
        }
      ]
    },
    {
      "AnimatorStateName": "Skill04",
      "NormalizedTime": 0.2021858,
      "EventList": [
        {
          "$type": "RPG.GameCore.TriggerEffect",
          "TargetType": {
            "$type": "RPG.GameCore.TargetAlias",
            "Alias": "Caster"
          },
          "IsAttachToTargetEntity": true,
          "Flags": [],
          "EffectPath": "Effects/Eff_Prefab/Eff_Monster/Eff_W3_Figure_02/Eff_Monster_W3_Figure_02_Skill04_Prepare.prefab",
          "SubObjectModifyDataList": []
        }
      ]
    },
    {
      "AnimatorStateName": "Skill04",
      "NormalizedTime": 0.273224,
      "EventList": [
        {
          "$type": "RPG.GameCore.TriggerEffect",
          "TargetType": {
            "$type": "RPG.GameCore.TargetAlias",
            "Alias": "Caster"
          },
          "IsAttachToTargetEntity": true,
          "Flags": [],
          "EffectPath": "Effects/Eff_Prefab/Eff_Monster/Eff_W3_Figure_02/Eff_Monster_W3_Figure_02_Skill04_Chain.prefab",
          "SubObjectModifyDataList": []
        }
      ]
    },
    {
      "AnimatorStateName": "Skill04",
      "NormalizedTime": 0.3989071,
      "EventList": [
        {
          "$type": "RPG.GameCore.TriggerEffect",
          "TargetType": {
            "$type": "RPG.GameCore.TargetAlias",
            "Alias": "Caster"
          },
          "IsAttachToTargetEntity": true,
          "Flags": [],
          "EffectPath": "Effects/Eff_Prefab/Eff_Monster/Eff_W3_Figure_02/Eff_Monster_W3_Figure_02_Skill04_Prepare02.prefab",
          "SubObjectModifyDataList": []
        }
      ]
    },
    {
      "AnimatorStateName": "Skill07",
      "EventList": [
        {
          "$type": "RPG.GameCore.TriggerEffect",
          "TargetType": {
            "$type": "RPG.GameCore.TargetAlias",
            "Alias": "Caster"
          },
          "Flags": [],
          "EffectPath": "Effects/Eff_Prefab/Eff_Monster/Eff_W3_Figure_02/Eff_Monster_W3_Figure_02_Skill07_Music.prefab",
          "SubObjectModifyDataList": []
        }
      ]
    },
    {
      "AnimatorStateName": "Skill07",
      "EventList": [
        {
          "$type": "RPG.GameCore.TriggerEffect",
          "TargetType": {
            "$type": "RPG.GameCore.TargetAlias",
            "Alias": "Caster"
          },
          "Flags": [],
          "EffectPath": "Effects/Eff_Prefab/Eff_Monster/Eff_W3_Figure_02/Eff_Monster_W3_Figure_02_Skill07_Sky.prefab",
          "SubObjectModifyDataList": []
        }
      ]
    },
    {
      "AnimatorStateName": "Skill07",
      "NormalizedTime": 0.1625,
      "EventList": [
        {
          "$type": "RPG.GameCore.TriggerEffect",
          "TargetType": {
            "$type": "RPG.GameCore.TargetAlias",
            "Alias": "Caster"
          },
          "Flags": [],
          "EffectPath": "Effects/Eff_Prefab/Eff_Monster/Eff_W3_Figure_02/Eff_Monster_W3_Figure_02_Skill07_Water01.prefab",
          "SubObjectModifyDataList": []
        }
      ]
    },
    {
      "AnimatorStateName": "Skill07",
      "NormalizedTime": 0.21875,
      "EventList": [
        {
          "$type": "RPG.GameCore.TriggerEffect",
          "TargetType": {
            "$type": "RPG.GameCore.TargetAlias",
            "Alias": "Caster"
          },
          "Flags": [],
          "EffectPath": "Effects/Eff_Prefab/Eff_Monster/Eff_W3_Figure_02/Eff_Monster_W3_Figure_02_Skill07_Music2.prefab",
          "SubObjectModifyDataList": []
        }
      ]
    },
    {
      "AnimatorStateName": "Skill07",
      "NormalizedTime": 0.35,
      "EventList": [
        {
          "$type": "RPG.GameCore.TriggerEffect",
          "TargetType": {
            "$type": "RPG.GameCore.TargetAlias",
            "Alias": "Caster"
          },
          "Flags": [],
          "EffectPath": "Effects/Eff_Prefab/Eff_Monster/Eff_W3_Figure_02/Eff_Monster_W3_Figure_02_Skill07_Cam.prefab",
          "SubObjectModifyDataList": []
        }
      ]
    },
    {
      "AnimatorStateName": "Skill07",
      "NormalizedTime": 0.39375,
      "EventList": [
        {
          "$type": "RPG.GameCore.TriggerEffect",
          "TargetType": {
            "$type": "RPG.GameCore.TargetAlias",
            "Alias": "Caster"
          },
          "Flags": [],
          "EffectPath": "Effects/Eff_Prefab/Eff_Monster/Eff_W3_Figure_02/Eff_Monster_W3_Figure_02_Skill07_Music3.prefab",
          "SubObjectModifyDataList": []
        }
      ]
    },
    {
      "AnimatorStateName": "Skill07",
      "NormalizedTime": 0.50625,
      "EventList": [
        {
          "$type": "RPG.GameCore.TriggerEffect",
          "TargetType": {
            "$type": "RPG.GameCore.TargetAlias",
            "Alias": "Caster"
          },
          "Flags": [],
          "EffectPath": "Effects/Eff_Prefab/Eff_Monster/Eff_W3_Figure_02/Eff_Monster_W3_Figure_02_Skill07_Water02.prefab",
          "SubObjectModifyDataList": []
        }
      ]
    },
    {
      "AnimatorStateName": "Skill07",
      "NormalizedTime": 0.5604166,
      "EventList": [
        {
          "$type": "RPG.GameCore.TriggerEffect",
          "TargetType": {
            "$type": "RPG.GameCore.TargetAlias",
            "Alias": "Caster"
          },
          "Flags": [],
          "EffectPath": "Effects/Eff_Prefab/Eff_Monster/Eff_W3_Figure_02/Eff_Monster_W3_Figure_02_Skill07_Water03.prefab",
          "SubObjectModifyDataList": []
        }
      ]
    },
    {
      "AnimatorStateName": "Skill07",
      "NormalizedTime": 0.5625,
      "EventList": [
        {
          "$type": "RPG.GameCore.TriggerEffect",
          "TargetType": {
            "$type": "RPG.GameCore.TargetAlias",
            "Alias": "Caster"
          },
          "Flags": [],
          "EffectPath": "Effects/Eff_Prefab/Eff_Monster/Eff_W3_Figure_02/Eff_Monster_W3_Figure_02_Skill07_Weapon.prefab",
          "SubObjectModifyDataList": []
        }
      ]
    },
    {
      "AnimatorStateName": "Skill07",
      "NormalizedTime": 0.5625,
      "EventList": [
        {
          "$type": "RPG.GameCore.TriggerEffect",
          "TargetType": {
            "$type": "RPG.GameCore.TargetAlias",
            "Alias": "Caster"
          },
          "Flags": [],
          "EffectPath": "Effects/Eff_Prefab/Eff_Monster/Eff_W3_Figure_02/Eff_Monster_W3_Figure_02_Skill07_WeaponLightning.prefab",
          "SubObjectModifyDataList": []
        }
      ]
    },
    {
      "AnimatorStateName": "Skill07",
      "NormalizedTime": 0.6395833,
      "EventList": [
        {
          "$type": "RPG.GameCore.TriggerEffect",
          "TargetType": {
            "$type": "RPG.GameCore.TargetAlias",
            "Alias": "Caster"
          },
          "Flags": [],
          "EffectPath": "Effects/Eff_Prefab/Eff_Monster/Eff_W3_Figure_02/Eff_Monster_W3_Figure_02_Skill07_Sky02.prefab",
          "SubObjectModifyDataList": []
        }
      ]
    },
    {
      "AnimatorStateName": "Skill07",
      "NormalizedTime": 0.825,
      "EventList": [
        {
          "$type": "RPG.GameCore.TriggerEffect",
          "TargetType": {
            "$type": "RPG.GameCore.TargetAlias",
            "Alias": "Caster"
          },
          "Flags": [],
          "EffectPath": "Effects/Eff_Prefab/Eff_Monster/Eff_W3_Figure_02/Eff_Monster_W3_Figure_02_Skill07_Boom.prefab",
          "SubObjectModifyDataList": []
        }
      ]
    },
    {
      "AnimatorStateName": "Skill05",
      "NormalizedTime": 0.03235294,
      "EventList": [
        {
          "$type": "RPG.GameCore.TriggerEffect",
          "TargetType": {
            "$type": "RPG.GameCore.TargetAlias",
            "Alias": "Caster"
          },
          "EffectPath": "Effects/Eff_Prefab/Eff_Monster/Eff_W3_Figure_02/Eff_Monster_W3_Figure_02_Skill05_Start01.prefab"
        }
      ]
    },
    {
      "AnimatorStateName": "Skill05",
      "NormalizedTime": 0.1735294,
      "EventList": [
        {
          "$type": "RPG.GameCore.TriggerEffect",
          "TargetType": {
            "$type": "RPG.GameCore.TargetAlias",
            "Alias": "Caster"
          },
          "IsAttachToTargetEntity": true,
          "EffectPath": "Effects/Eff_Prefab/Eff_Monster/Eff_W3_Figure_02/Eff_Monster_W3_Figure_02_Skill05_Gongji.prefab"
        }
      ]
    },
    {
      "AnimatorStateName": "Skill05",
      "NormalizedTime": 0.2294117,
      "EventList": [
        {
          "$type": "RPG.GameCore.TriggerEffect",
          "TargetType": {
            "$type": "RPG.GameCore.TargetAlias",
            "Alias": "Caster"
          },
          "IsAttachToTargetEntity": true,
          "EffectPath": "Effects/Eff_Prefab/Eff_Monster/Eff_W3_Figure_02/Eff_Monster_W3_Figure_02_Skill05_Attack01.prefab"
        }
      ]
    },
    {
      "AnimatorStateName": "Skill05",
      "NormalizedTime": 0.2941176,
      "EventList": [
        {
          "$type": "RPG.GameCore.TriggerEffect",
          "TargetType": {
            "$type": "RPG.GameCore.TargetAlias",
            "Alias": "Caster"
          },
          "IsAttachToTargetEntity": true,
          "EffectPath": "Effects/Eff_Prefab/Eff_Monster/Eff_W3_Figure_02/Eff_Monster_W3_Figure_02_Skill05_Attack01_2.prefab"
        }
      ]
    },
    {
      "AnimatorStateName": "Skill05",
      "NormalizedTime": 0.3735294,
      "EventList": [
        {
          "$type": "RPG.GameCore.TriggerEffect",
          "TargetType": {
            "$type": "RPG.GameCore.TargetAlias",
            "Alias": "Caster"
          },
          "IsAttachToTargetEntity": true,
          "EffectPath": "Effects/Eff_Prefab/Eff_Monster/Eff_W3_Figure_02/Eff_Monster_W3_Figure_02_Skill05_Attack01_3.prefab"
        }
      ]
    },
    {
      "AnimatorStateName": "Skill05",
      "NormalizedTime": 0.4117647,
      "EventList": [
        {
          "$type": "RPG.GameCore.TriggerEffect",
          "TargetType": {
            "$type": "RPG.GameCore.TargetAlias",
            "Alias": "Caster"
          },
          "IsAttachToTargetEntity": true,
          "EffectPath": "Effects/Eff_Prefab/Eff_Monster/Eff_W3_Figure_02/Eff_Monster_W3_Figure_02_Skill05_Attack02.prefab"
        }
      ]
    },
    {
      "AnimatorStateName": "Skill05",
      "NormalizedTime": 0.4382353,
      "EventList": [
        {
          "$type": "RPG.GameCore.TriggerEffect",
          "TargetType": {
            "$type": "RPG.GameCore.TargetAlias",
            "Alias": "Caster"
          },
          "IsAttachToTargetEntity": true,
          "EffectPath": "Effects/Eff_Prefab/Eff_Monster/Eff_W3_Figure_02/Eff_Monster_W3_Figure_02_Skill05_Attack05.prefab"
        }
      ]
    },
    {
      "AnimatorStateName": "Skill05",
      "NormalizedTime": 0.4470588,
      "EventList": [
        {
          "$type": "RPG.GameCore.TriggerEffect",
          "TargetType": {
            "$type": "RPG.GameCore.TargetAlias",
            "Alias": "Caster"
          },
          "IsAttachToTargetEntity": true,
          "EffectPath": "Effects/Eff_Prefab/Eff_Monster/Eff_W3_Figure_02/Eff_Monster_W3_Figure_02_Skill05_Attack03.prefab"
        }
      ]
    },
    {
      "AnimatorStateName": "Skill05",
      "NormalizedTime": 0.4617647,
      "EventList": [
        {
          "$type": "RPG.GameCore.TriggerEffect",
          "TargetType": {
            "$type": "RPG.GameCore.TargetAlias",
            "Alias": "Caster"
          },
          "IsAttachToTargetEntity": true,
          "EffectPath": "Effects/Eff_Prefab/Eff_Monster/Eff_W3_Figure_02/Eff_Monster_W3_Figure_02_Skill05_Attack04.prefab"
        }
      ]
    }
  ],
  "AnimatorStateGroupEvents": []
}