{
  "OnInitSequece": [],
  "OnStartSequece": [
    {
      "TaskList": [
        {
          "$type": "RPG.GameCore.CreateNPC",
          "GroupID": {
            "IsDynamic": false,
            "FixedValue": {
              "Value": 50
            }
          },
          "GroupNpcID": {
            "IsDynamic": false,
            "FixedValue": {
              "Value": 400002
            }
          },
          "CreateList": [
            {
              "GroupID": {
                "IsDynamic": false,
                "FixedValue": {
                  "Value": 50
                }
              },
              "GroupInstanceID": {
                "IsDynamic": false,
                "FixedValue": {
                  "Value": 400003
                }
              }
            },
            {
              "GroupID": {
                "IsDynamic": false,
                "FixedValue": {
                  "Value": 50
                }
              },
              "GroupInstanceID": {
                "IsDynamic": false,
                "FixedValue": {
                  "Value": 400004
                }
              }
            },
            {
              "GroupID": {
                "IsDynamic": false,
                "FixedValue": {
                  "Value": 50
                }
              },
              "GroupInstanceID": {
                "IsDynamic": false,
                "FixedValue": {
                  "Value": 400005
                }
              }
            }
          ]
        }
      ]
    },
    {
      "IsLoop": true,
      "TaskList": [
        {
          "$type": "RPG.GameCore.CreateProp",
          "GroupID": {
            "IsDynamic": false,
            "FixedValue": {
              "Value": 50
            }
          },
          "GroupPropID": {
            "IsDynamic": false,
            "FixedValue": {
              "Value": 300001
            }
          },
          "CreateList": []
        },
        {
          "$type": "RPG.GameCore.PropSetupTrigger",
          "TargetType": {
            "$type": "RPG.GameCore.TargetFetchAdvPropEx",
            "FetchType": "SinglePropByPropID",
            "SinglePropID": {
              "GroupID": {
                "IsDynamic": false,
                "FixedValue": {
                  "Value": 50
                }
              },
              "ID": {
                "IsDynamic": false,
                "FixedValue": {
                  "Value": 300001
                }
              }
            }
          },
          "TargetTypes": [],
          "DestroyAfterTriggered": true,
          "OnTriggerEnter": [
            {
              "$type": "RPG.GameCore.TriggerCustomString",
              "CustomString": {
                "Value": "PropTrigger_801510102"
              }
            }
          ]
        }
      ]
    },
    {
      "IsLoop": true,
      "TaskList": [
        {
          "$type": "RPG.GameCore.WaitCustomString",
          "CustomString": {
            "Value": "PropTrigger_801510102"
          }
        },
        {
          "$type": "RPG.GameCore.SetAudioEmotionState",
          "StateName": "State_Joyful"
        },
        {
          "$type": "RPG.GameCore.TriggerPerformance",
          "ValueSource": {},
          "PerformanceType": "D",
          "PerformanceID": 801519102
        },
        {
          "$type": "RPG.GameCore.SetAudioEmotionState",
          "ResetToFloorDefault": true
        },
        {
          "$type": "RPG.GameCore.FinishPerformanceMission",
          "Key": "Mission_801519102"
        }
      ]
    },
    {
      "IsLoop": true,
      "TaskList": [
        {
          "$type": "RPG.GameCore.WaitCustomString",
          "CustomString": {
            "Value": "PropTrigger_801510102"
          }
        },
        {
          "$type": "RPG.GameCore.WaitSecond",
          "WaitTime": {
            "IsDynamic": false,
            "FixedValue": {
              "Value": 0.5
            }
          }
        },
        {
          "$type": "RPG.GameCore.DestroyNPC",
          "GroupID": 50,
          "GroupNpcID": 400002,
          "DestroyList": [
            {
              "$type": "RPG.GameCore.GroupEntityInfo",
              "GroupID": {
                "IsDynamic": false,
                "FixedValue": {
                  "Value": 50
                }
              },
              "GroupInstanceID": {
                "IsDynamic": false,
                "FixedValue": {
                  "Value": 400003
                }
              }
            },
            {
              "$type": "RPG.GameCore.GroupEntityInfo",
              "GroupID": {
                "IsDynamic": false,
                "FixedValue": {
                  "Value": 50
                }
              },
              "GroupInstanceID": {
                "IsDynamic": false,
                "FixedValue": {
                  "Value": 400004
                }
              }
            },
            {
              "$type": "RPG.GameCore.GroupEntityInfo",
              "GroupID": {
                "IsDynamic": false,
                "FixedValue": {
                  "Value": 50
                }
              },
              "GroupInstanceID": {
                "IsDynamic": false,
                "FixedValue": {
                  "Value": 400005
                }
              }
            }
          ]
        }
      ]
    }
  ],
  "Type": "Mission"
}