{
  "OnInitSequece": [],
  "OnStartSequece": [
    {
      "TaskList": [
        {
          "$type": "RPG.GameCore.PropSetupTrigger",
          "TargetType": {
            "$type": "RPG.GameCore.TargetFetchAdvPropEx",
            "FetchType": "SinglePropByPropID",
            "SinglePropID": {
              "GroupID": {
                "IsDynamic": false,
                "FixedValue": {
                  "Value": 2
                }
              },
              "ID": {
                "IsDynamic": false,
                "FixedValue": {
                  "Value": 300001
                }
              }
            }
          },
          "TargetTypes": [],
          "DestroyAfterTriggered": true,
          "DisableAfterTriggered": true,
          "OnTriggerEnter": [
            {
              "$type": "RPG.GameCore.TriggerCustomString",
              "CustomString": {
                "Value": "102170208_Missiontalk"
              }
            }
          ],
          "DestroyAfterGraphEnd": true
        }
      ]
    },
    {
      "TaskList": [
        {
          "$type": "RPG.GameCore.WaitCustomString",
          "CustomString": {
            "Value": "102170208_Missiontalk"
          }
        },
        {
          "$type": "RPG.GameCore.PlayMissionTalk",
          "SimpleTalkList": [
            {
              "TalkSentenceID": 102170105,
              "ProtectTime": 2
            }
          ]
        }
      ]
    },
    {
      "IsLoop": true,
      "TaskList": [
        {
          "$type": "RPG.GameCore.WaitCustomString",
          "CustomString": {
            "Value": "Talk_102170208"
          }
        },
        {
          "$type": "RPG.GameCore.SetAudioEmotionState",
          "ResetToFloorDefault": true
        },
        {
          "$type": "RPG.GameCore.FinishPerformanceMission",
          "Key": "Mission_102170208",
          "MainMissionID": 1021702
        }
      ]
    }
  ],
  "Type": "Mission"
}