{
  "OnInitSequece": [],
  "OnStartSequece": [
    {
      "TaskList": [
        {
          "$type": "RPG.GameCore.PropSetupTrigger",
          "TargetType": {
            "$type": "RPG.GameCore.TargetFetchAdvPropEx"
          },
          "TargetGroupID": {
            "IsDynamic": false,
            "FixedValue": {
              "Value": 0
            }
          },
          "TargetID": {
            "IsDynamic": false,
            "FixedValue": {
              "Value": 0
            }
          },
          "TargetTypes": [
            "LocalPlayer"
          ],
          "OnTriggerEnter": [
            {
              "$type": "RPG.GameCore.PredicateTaskList",
              "Predicate": {
                "$type": "RPG.GameCore.ByCompareGraphDynamicFloat",
                "Name": "FreelookType",
                "Value": {
                  "IsDynamic": false,
                  "FixedValue": {
                    "Value": 0
                  }
                },
                "CompareType": "Equal"
              },
              "SuccessTaskList": [],
              "FailedTaskList": [
                {
                  "$type": "RPG.GameCore.PredicateTaskList",
                  "Predicate": {
                    "$type": "RPG.GameCore.ByCompareGraphDynamicFloat",
                    "Name": "FreelookType",
                    "Value": {
                      "IsDynamic": false,
                      "FixedValue": {
                        "Value": 1
                      }
                    },
                    "CompareType": "Equal"
                  },
                  "SuccessTaskList": [
                    {
                      "$type": "RPG.GameCore.Freelook3rdVCamConfigChange",
                      "Name": "Test"
                    }
                  ]
                }
              ]
            }
          ],
          "OnTriggerExit": []
        }
      ]
    }
  ],
  "ValueSource": {
    "Values": [
      {
        "$type": "RPG.GameCore.SharedFloat",
        "Key": "FreelookType"
      }
    ]
  }
}