{
  "RotatableRegions": [
    {
      "RegionBlocks": [
        "Chap03_CloseView_MAZ_P101_J_BlockData",
        "Chap03_CloseView_MAZ_P101_PassageLeft_BlockData",
        "Chap03_CloseView_MAZ_P101_J_LightProp_BlockData",
        "Chap03_CloseView_MAZ_P101_J_01_LightProp_BlockData",
        "Chap03_CloseView_MAZ_P101_CharLight_BlockData"
      ],
      "Airlocks": [],
      "Poses": [
        {
          "RotationAxis": {
            "X": 1,
            "Y": 0,
            "Z": 0
          },
          "PosePermanentGroups": [],
          "PoseGroupConfigs": []
        },
        {
          "RotationAxis": {
            "X": 1,
            "Y": 0,
            "Z": 0
          },
          "RotationAngle": 90,
          "PosePermanentGroups": []
        },
        {
          "RotationAxis": {
            "X": 1,
            "Y": 0,
            "Z": 0
          },
          "RotationAngle": -90,
          "PosePermanentGroups": [
            73,
            74,
            76,
            78,
            79,
            80,
            99,
            117
          ],
          "PoseGroups": [
            73,
            74,
            75,
            76,
            77,
            78,
            79,
            80,
            99,
            117
          ],
          "PoseGroupConfigs": [
            {
              "GroupID": 73,
              "IsPermanent": true
            },
            {
              "GroupID": 74,
              "IsPermanent": true
            },
            {
              "GroupID": 75
            },
            {
              "GroupID": 76,
              "IsPermanent": true
            },
            {
              "GroupID": 77
            },
            {
              "GroupID": 78,
              "IsPermanent": true
            },
            {
              "GroupID": 79,
              "IsPermanent": true
            },
            {
              "GroupID": 80,
              "IsPermanent": true
            },
            {
              "GroupID": 99,
              "IsPermanent": true
            },
            {
              "GroupID": 117,
              "IsPermanent": true
            }
          ]
        },
        {
          "RotationAxis": {
            "X": 0,
            "Y": 0,
            "Z": 1
          },
          "RotationAngle": -90,
          "PosePermanentGroups": []
        },
        {
          "RotationAxis": {
            "X": 1,
            "Y": 0,
            "Z": 0
          },
          "RotationAngle": 180,
          "PosePermanentGroups": []
        },
        {
          "RotationAxis": {
            "X": 0,
            "Y": 0,
            "Z": 1
          },
          "RotationAngle": 90,
          "PosePermanentGroups": [
            65,
            66,
            68,
            70,
            71,
            72,
            100
          ],
          "PoseGroups": [
            65,
            66,
            67,
            68,
            69,
            70,
            71,
            72,
            100
          ],
          "PoseGroupConfigs": [
            {
              "GroupID": 65,
              "IsPermanent": true
            },
            {
              "GroupID": 66,
              "IsPermanent": true
            },
            {
              "GroupID": 67
            },
            {
              "GroupID": 68,
              "IsPermanent": true
            },
            {
              "GroupID": 69
            },
            {
              "GroupID": 70,
              "IsPermanent": true
            },
            {
              "GroupID": 71,
              "IsPermanent": true
            },
            {
              "GroupID": 72,
              "IsPermanent": true
            },
            {
              "GroupID": 100,
              "IsPermanent": true
            }
          ]
        }
      ],
      "Volumes": [],
      "Chargers": []
    },
    {
      "RegionBlocks": [
        "Chap03_CloseView_MAZ_P101_N_BlockData",
        "Chap03_CloseView_MAZ_P101_PassageRight_BlockData",
        "Chap03_CloseView_MAZ_P101_N_LightProp_BlockData",
        "Chap03_CloseView_MAZ_P101_CharLight_BlockData"
      ],
      "Airlocks": [],
      "Poses": [
        {
          "RotationAxis": {
            "X": 1,
            "Y": 0,
            "Z": 0
          },
          "PosePermanentGroups": [
            81,
            82,
            84,
            86,
            87,
            88,
            101
          ],
          "PoseGroups": [
            81,
            82,
            83,
            84,
            85,
            86,
            87,
            88,
            101
          ],
          "PoseGroupConfigs": [
            {
              "GroupID": 81,
              "IsPermanent": true
            },
            {
              "GroupID": 82,
              "IsPermanent": true
            },
            {
              "GroupID": 83
            },
            {
              "GroupID": 84,
              "IsPermanent": true
            },
            {
              "GroupID": 85
            },
            {
              "GroupID": 86,
              "IsPermanent": true
            },
            {
              "GroupID": 87,
              "IsPermanent": true
            },
            {
              "GroupID": 88,
              "IsPermanent": true
            },
            {
              "GroupID": 101,
              "IsPermanent": true
            }
          ]
        },
        {
          "RotationAxis": {
            "X": 1,
            "Y": 0,
            "Z": 0
          },
          "RotationAngle": 90,
          "PosePermanentGroups": []
        },
        {
          "RotationAxis": {
            "X": 1,
            "Y": 0,
            "Z": 0
          },
          "RotationAngle": -90,
          "PosePermanentGroups": []
        },
        {
          "RotationAxis": {
            "X": 0,
            "Y": 0,
            "Z": 1
          },
          "RotationAngle": -90,
          "PosePermanentGroups": []
        },
        {
          "RotationAxis": {
            "X": 1,
            "Y": 0,
            "Z": 0
          },
          "RotationAngle": 180,
          "PosePermanentGroups": [
            89,
            90,
            92,
            94,
            95,
            96,
            102
          ],
          "PoseGroups": [
            89,
            90,
            91,
            92,
            93,
            94,
            95,
            96,
            102
          ],
          "PoseGroupConfigs": [
            {
              "GroupID": 89,
              "IsPermanent": true
            },
            {
              "GroupID": 90,
              "IsPermanent": true
            },
            {
              "GroupID": 91
            },
            {
              "GroupID": 92,
              "IsPermanent": true
            },
            {
              "GroupID": 93
            },
            {
              "GroupID": 94,
              "IsPermanent": true
            },
            {
              "GroupID": 95,
              "IsPermanent": true
            },
            {
              "GroupID": 96,
              "IsPermanent": true
            },
            {
              "GroupID": 102,
              "IsPermanent": true
            }
          ]
        },
        {
          "RotationAxis": {
            "X": 0,
            "Y": 0,
            "Z": 1
          },
          "RotationAngle": 90,
          "PosePermanentGroups": []
        }
      ],
      "Volumes": [],
      "Chargers": []
    }
  ]
}