{
  "NavTurnSpeed": 100,
  "NavTurnBackTurnSpeed": 540,
  "FreeStyleCharacterID": "NPC_Special_SundaysServant_00",
  "FreeStyleCharacterConfigPath": "Config/ConfigCharacter/FreeStyle/NPC_Special_SundaysServant_00_FreeStyle_Config.json",
  "AnimEventConfigList": [
    "Config/ConfigAnimEvents/NPC/Special/Audio/NPC_Special_SundaysServant_00_Audio_AnimEvent.json",
    "Config/ConfigAnimEvents/NPC/Special/Designer/NPC_Special_SundaysServant_00_Designer_AnimEvent.json",
    "Config/ConfigAnimEvents/NPC/Special/Effect/NPC_Special_SundaysServant_00_Effect_AnimEvent.json"
  ],
  "AnimZoneConfigPath": "Config/ConfigAnimZone/NPC/Special/NPC_Special_SundaysServant_00_AnimZone.json",
  "DisableAnimEventLayers": [
    "Riboon Layer"
  ]
}