{
  "NavTurnSpeed": 100,
  "NavTurnBackTurnSpeed": 540,
  "FreeStyleCharacterID": "NPC_Special_OrigamiBird_00",
  "FreeStyleCharacterConfigPath": "Config/ConfigCharacter/FreeStyle/NPC_Special_OrigamiBird_00_SuperBig_FreeStyle_Config.json",
  "AnimEventConfigList": [
    "Config/ConfigAnimEvents/NPC/Special/Audio/NPC_Special_OrigamiBird_00_SuperBig_Audio_AnimEvent.json",
    "Config/ConfigAnimEvents/NPC/Special/Designer/NPC_Special_OrigamiBird_00_Designer_AnimEvent.json",
    "Config/ConfigAnimEvents/NPC/Special/Effect/NPC_Special_OrigamiBird_00_SuperBig_Effect_AnimEvent.json"
  ],
  "AnimZoneConfigPath": "Config/ConfigAnimZone/NPC/Special/NPC_Special_OrigamiBird_00_AnimZone.json",
  "NPCSound": {
    "NPCAudioSwichGroupName": "SwitchGroup_NPC_Special_OrigamiBird_00_Colour",
    "NPCAudioSwichName": "OrigamiBird_Green"
  },
  "DisableAnimEventLayers": [
    "Riboon Layer"
  ],
  "ReplaceMaterialKey": "NPC_Special_OrigamiBird_00_01"
}