{
  "BakeInfoLayouts": [
    {
      "UniqueName": "MMonster_XP_Minion04_02_Cunhu_Caster",
      "Offset": 12876
    },
    {
      "UniqueName": "MMonster_XP_Minion04_02_Cunhu_Effect",
      "Offset": 13290
    },
    {
      "UniqueName": "MMonster_XP_Minion04_02_Cunhu_EffectBreak",
      "Offset": 13952
    },
    {
      "UniqueName": "MMonster_XP_Minion04_02_Cunhu_Buff",
      "Offset": 14137
    },
    {
      "UniqueName": "MMonster_XP_Minion04_02_Fengrao_Buff",
      "Offset": 15054
    },
    {
      "UniqueName": "MMonster_XP_Minion04_02_EffectGround",
      "Offset": 15232
    },
    {
      "UniqueName": "MMonster_XP_Minion04_02_EffectPaths",
      "Offset": 15406
    },
    {
      "UniqueName": "MMonster_XP_Minion04_02_EffectRound",
      "Offset": 15589
    },
    {
      "UniqueName": "MMonster_XP_Minion04_02_EffectTrigger",
      "Offset": 15779
    },
    {
      "UniqueName": "MMonster_XP_Minion04_02_EffectTrigger2",
      "Offset": 15968
    },
    {
      "UniqueName": "MMonster_XP_Minion04_02_Fengrao_Mark",
      "Offset": 16156
    },
    {
      "UniqueName": "MMonster_XP_Minion04_02_Fengrao_BeHit",
      "Offset": 16195
    },
    {
      "UniqueName": "MMonster_XP_Minion04_02_Fengrao_Minion",
      "Offset": 16235
    },
    {
      "UniqueName": "MMonster_XP_Minion04_02_Fengrao_Caster",
      "Offset": 17168
    },
    {
      "UniqueName": "MMonster_XP_Minion04_02_Buff_Huimie_Caster",
      "Offset": 17533
    },
    {
      "UniqueName": "MMonster_XP_Minion04_02_Huimie_EffectGround",
      "Offset": 18228
    },
    {
      "UniqueName": "MMonster_XP_Minion04_02_Huimie_EffectPaths",
      "Offset": 18404
    },
    {
      "UniqueName": "MMonster_XP_Minion04_02_Huimie_EffectRound",
      "Offset": 18589
    },
    {
      "UniqueName": "MMonster_XP_Minion04_02_Buff_Huimie_Minion_On",
      "Offset": 18906
    },
    {
      "UniqueName": "MMonster_XP_Minion04_02_Buff_Huimie_Minion",
      "Offset": 18957
    },
    {
      "UniqueName": "MMonster_XP_Minion04_02_Buff_Pre",
      "Offset": 19452
    },
    {
      "UniqueName": "MMonster_XP_Minion04_02_EscapingCharge01",
      "Offset": 19634
    },
    {
      "UniqueName": "MMonster_XP_Minion04_02_EscapingCharge02",
      "Offset": 20130
    },
    {
      "UniqueName": "Monster_XP_Minion04_02_Skill01_Phase01",
      "TypeId": "TypeId_TurnBasedAbilityConfig",
      "Offset": 2
    },
    {
      "UniqueName": "Monster_XP_Minion04_02_Skill01_Phase02",
      "TypeId": "TypeId_TurnBasedAbilityConfig",
      "Offset": 186
    },
    {
      "UniqueName": "Monster_XP_Minion04_02_Skill02_Phase01",
      "TypeId": "TypeId_TurnBasedAbilityConfig",
      "Offset": 442
    },
    {
      "UniqueName": "Monster_XP_Minion04_02_Skill02_Phase02",
      "TypeId": "TypeId_TurnBasedAbilityConfig",
      "Offset": 626
    },
    {
      "UniqueName": "Monster_XP_Minion04_02_Skill03_Phase01",
      "TypeId": "TypeId_TurnBasedAbilityConfig",
      "Offset": 935
    },
    {
      "UniqueName": "Monster_XP_Minion04_02_Skill03_Phase02",
      "TypeId": "TypeId_TurnBasedAbilityConfig",
      "Offset": 1098
    },
    {
      "UniqueName": "Monster_XP_Minion04_02_SkillP01",
      "TypeId": "TypeId_TurnBasedAbilityConfig",
      "Offset": 2141
    },
    {
      "UniqueName": "Monster_XP_Minion04_02_SkillP01_InsertAbility_EnterBattle_Huimie",
      "TypeId": "TypeId_TurnBasedAbilityConfig",
      "Offset": 2727
    },
    {
      "UniqueName": "Monster_XP_Minion04_02_SkillP01_InsertAbility_Huimie",
      "TypeId": "TypeId_TurnBasedAbilityConfig",
      "Offset": 3945
    },
    {
      "UniqueName": "Monster_XP_Minion04_02_SkillP01_Fengrao",
      "TypeId": "TypeId_TurnBasedAbilityConfig",
      "Offset": 4832
    },
    {
      "UniqueName": "Monster_XP_Minion04_02_SkillP01_InsertAbility_EnterBattle_Fengrao",
      "TypeId": "TypeId_TurnBasedAbilityConfig",
      "Offset": 5465
    },
    {
      "UniqueName": "Monster_XP_Minion04_02_SkillP01_InsertAbility_Fengrao",
      "TypeId": "TypeId_TurnBasedAbilityConfig",
      "Offset": 6784
    },
    {
      "UniqueName": "Monster_XP_Minion04_02_SkillP01_Fengrao_02",
      "TypeId": "TypeId_TurnBasedAbilityConfig",
      "Offset": 7725
    },
    {
      "UniqueName": "Monster_XP_Minion04_02_SkillP01_InsertAbility_EnterBattle_Fengrao_02",
      "TypeId": "TypeId_TurnBasedAbilityConfig",
      "Offset": 8019
    },
    {
      "UniqueName": "Monster_XP_Minion04_02_SkillP01_Cunhu",
      "TypeId": "TypeId_TurnBasedAbilityConfig",
      "Offset": 10129
    },
    {
      "UniqueName": "Monster_XP_Minion04_02_SkillP01_InsertAbility_EnterBattle_Cunhu",
      "TypeId": "TypeId_TurnBasedAbilityConfig",
      "Offset": 10714
    },
    {
      "UniqueName": "Monster_XP_Minion04_02_SkillP01_Xuwu",
      "TypeId": "TypeId_TurnBasedAbilityConfig",
      "Offset": 11437
    },
    {
      "UniqueName": "Monster_XP_Minion04_02_SkillP01_InsertAbility_Xuwu",
      "TypeId": "TypeId_TurnBasedAbilityConfig",
      "Offset": 11890
    }
  ]
}