{
  "AbilityList": [
    {
      "Name": "Monster_W1_Mecha_Fire_Skill01_Phase01",
      "TargetInfo": {
        "TargetType": "Caster"
      },
      "OnStart": [
        {
          "$type": "RPG.GameCore.TriggerAbility",
          "TargetType": {
            "$type": "RPG.GameCore.TargetAlias",
            "Alias": "Caster"
          },
          "AbilityName": "Monster_W1_Mecha_Fire_Skill01_Phase02",
          "IsSkillPerform": true
        },
        {
          "$type": "RPG.GameCore.TriggerAbility",
          "TargetType": {
            "$type": "RPG.GameCore.TargetAlias",
            "Alias": "Caster"
          },
          "AbilityName": "Monster_W1_Mecha_Fire_Skill01_Camera",
          "IsSkillPerform": true
        },
        {
          "$type": "RPG.GameCore.TriggerAnimState",
          "AnimStateName": "Skill02",
          "NormalizedTimeEnd": {
            "IsDynamic": false,
            "FixedValue": {
              "Value": 1
            }
          }
        },
        {
          "$type": "RPG.GameCore.MoveToTargetPosition",
          "TargetType": {
            "$type": "RPG.GameCore.TargetAlias",
            "Alias": "TeamFormation"
          },
          "IgnoreRadius": true,
          "OffsetTargetDistance": {
            "IsDynamic": false,
            "FixedValue": {
              "Value": 0
            }
          }
        },
        {
          "$type": "RPG.GameCore.TriggerAnimState",
          "AnimLogicState": "Idle",
          "NormalizedTransitionDuration": {
            "IsDynamic": false,
            "FixedValue": {
              "Value": 0.25
            }
          }
        }
      ]
    },
    {
      "Name": "Monster_W1_Mecha_Fire_Skill01_Phase02",
      "TargetInfo": {
        "TargetType": "Caster"
      },
      "OnStart": [
        {
          "$type": "RPG.GameCore.WaitAnimState",
          "TargetType": {
            "$type": "RPG.GameCore.TargetAlias",
            "Alias": "Caster"
          },
          "AnimStateName": "Skill02",
          "NormalizedTimeEnd": {
            "IsDynamic": false,
            "FixedValue": {
              "Value": 0.25
            }
          }
        },
        {
          "$type": "RPG.GameCore.SkillExecutionStart"
        },
        {
          "$type": "RPG.GameCore.WaitAnimState",
          "TargetType": {
            "$type": "RPG.GameCore.TargetAlias",
            "Alias": "Caster"
          },
          "AnimStateName": "Skill02",
          "NormalizedTimeEnd": {
            "IsDynamic": false,
            "FixedValue": {
              "Value": 0.600453
            }
          }
        },
        {
          "$type": "RPG.GameCore.AddModifier",
          "TargetType": {
            "$type": "RPG.GameCore.TargetAlias",
            "Alias": "Caster"
          },
          "ModifierName": "Monster_W1_Mecha_Fire_Burning",
          "DynamicValues": {
            "Modifier_AttackAddedRatio": {
              "IsDynamic": true,
              "PostfixExpr": {
                "OpCodes": "AQAK",
                "FixedValues": [],
                "DynamicHashes": [
                  -1468124281
                ]
              }
            },
            "Modifier_SpeedDelta": {
              "IsDynamic": true,
              "PostfixExpr": {
                "OpCodes": "AQAK",
                "FixedValues": [],
                "DynamicHashes": [
                  592719220
                ]
              }
            }
          }
        },
        {
          "$type": "RPG.GameCore.WaitAnimState",
          "TargetType": {
            "$type": "RPG.GameCore.TargetAlias",
            "Alias": "Caster"
          },
          "AnimStateName": "Skill02",
          "NormalizedTimeEnd": {
            "IsDynamic": false,
            "FixedValue": {
              "Value": 0.66310346
            }
          }
        },
        {
          "$type": "RPG.GameCore.RadialBlurEffect",
          "BlurRadius": 0.7,
          "Iteration": 5,
          "BlurStart": 0,
          "BlurFeather": 0.5
        },
        {
          "$type": "RPG.GameCore.WaitAnimState",
          "TargetType": {
            "$type": "RPG.GameCore.TargetAlias",
            "Alias": "Caster"
          },
          "AnimStateName": "Skill02",
          "NormalizedTimeEnd": {
            "IsDynamic": false,
            "FixedValue": {
              "Value": 0.767
            }
          }
        },
        {
          "$type": "RPG.GameCore.RadialBlurEffect",
          "Active": false
        },
        {
          "$type": "RPG.GameCore.SkillPerformFinish"
        }
      ]
    },
    {
      "Name": "Monster_W1_Mecha_Fire_Skill02_Phase01",
      "TargetInfo": {
        "TargetType": "AllEnemy"
      },
      "OnStart": [
        {
          "$type": "RPG.GameCore.SetTeamFormation",
          "Team": "TeamLight",
          "FormationType": "LightTeamNormal",
          "CustomFormationIgnoreDying": false
        },
        {
          "$type": "RPG.GameCore.TriggerAbility",
          "TargetType": {
            "$type": "RPG.GameCore.TargetAlias",
            "Alias": "Caster"
          },
          "AbilityName": "Monster_W1_Mecha_Fire_Skill02_Camera",
          "IsSkillPerform": true
        },
        {
          "$type": "RPG.GameCore.TriggerAbility",
          "TargetType": {
            "$type": "RPG.GameCore.TargetAlias",
            "Alias": "Caster"
          },
          "AbilityName": "Monster_W1_Mecha_Fire_Skill02_Phase02",
          "IsSkillPerform": true
        },
        {
          "$type": "RPG.GameCore.LookAt",
          "TargetType": "EnemyTeamCenter"
        },
        {
          "$type": "RPG.GameCore.MoveToTargetList",
          "TargetType": {
            "$type": "RPG.GameCore.TargetAlias",
            "Alias": "Caster"
          },
          "AnimStateName": "Skill03",
          "NormalizedTimeEnd": {
            "IsDynamic": false,
            "FixedValue": {
              "Value": 1
            }
          },
          "NormalizedTransitionDuration": {
            "IsDynamic": false,
            "FixedValue": {
              "Value": 0.15
            }
          },
          "NormalizedTimeWait": {
            "IsDynamic": false,
            "FixedValue": {
              "Value": 1
            }
          },
          "MovingRangeList": [
            {
              "TargetType": {
                "$type": "RPG.GameCore.TargetAlias",
                "Alias": "EnemyTeamCenter"
              },
              "IgnoreRadius": true,
              "OffsetTargetDistance": {
                "IsDynamic": false,
                "FixedValue": {
                  "Value": 2.5
                }
              },
              "NormalizedTimeStart": {
                "IsDynamic": false,
                "FixedValue": {
                  "Value": 0.191
                }
              },
              "NormalizedTimeEnd": {
                "IsDynamic": false,
                "FixedValue": {
                  "Value": 0.313
                }
              }
            },
            {
              "TargetType": {
                "$type": "RPG.GameCore.TargetAlias",
                "Alias": "TeamFormation"
              },
              "IgnoreRadius": true,
              "OffsetTargetDistance": {
                "IsDynamic": false,
                "FixedValue": {
                  "Value": 0
                }
              },
              "NormalizedTimeStart": {
                "IsDynamic": false,
                "FixedValue": {
                  "Value": 0.766
                }
              },
              "NormalizedTimeEnd": {
                "IsDynamic": false,
                "FixedValue": {
                  "Value": 0.844
                }
              }
            }
          ]
        },
        {
          "$type": "RPG.GameCore.TriggerAnimState",
          "AnimLogicState": "Idle",
          "NormalizedTransitionDuration": {
            "IsDynamic": false,
            "FixedValue": {
              "Value": 0.25
            }
          }
        }
      ]
    },
    {
      "Name": "Monster_W1_Mecha_Fire_Skill02_Phase02",
      "TargetInfo": {
        "TargetType": "AllEnemy"
      },
      "OnStart": [
        {
          "$type": "RPG.GameCore.WaitAnimState",
          "TargetType": {
            "$type": "RPG.GameCore.TargetAlias",
            "Alias": "Caster"
          },
          "AnimStateName": "Skill03",
          "NormalizedTimeEnd": {
            "IsDynamic": false,
            "FixedValue": {
              "Value": 0.05
            }
          }
        },
        {
          "$type": "RPG.GameCore.SkillExecutionStart"
        },
        {
          "$type": "RPG.GameCore.WaitAnimState",
          "TargetType": {
            "$type": "RPG.GameCore.TargetAlias",
            "Alias": "Caster"
          },
          "AnimStateName": "Skill03",
          "NormalizedTimeEnd": {
            "IsDynamic": false,
            "FixedValue": {
              "Value": 0.097
            }
          }
        },
        {
          "$type": "RPG.GameCore.RadialBlurEffect",
          "BlurRadius": 0.72,
          "BlurStart": 0,
          "BlurFeather": 0.3
        },
        {
          "$type": "RPG.GameCore.WaitAnimState",
          "TargetType": {
            "$type": "RPG.GameCore.TargetAlias",
            "Alias": "Caster"
          },
          "AnimStateName": "Skill03",
          "NormalizedTimeEnd": {
            "IsDynamic": false,
            "FixedValue": {
              "Value": 0.211
            }
          }
        },
        {
          "$type": "RPG.GameCore.RadialBlurEffect",
          "Active": false
        },
        {
          "$type": "RPG.GameCore.WaitAnimState",
          "TargetType": {
            "$type": "RPG.GameCore.TargetAlias",
            "Alias": "Caster"
          },
          "AnimStateName": "Skill03",
          "NormalizedTimeEnd": {
            "IsDynamic": false,
            "FixedValue": {
              "Value": 0.335
            }
          }
        },
        {
          "$type": "RPG.GameCore.DamageByAttackProperty",
          "TargetType": {
            "$type": "RPG.GameCore.TargetAlias",
            "Alias": "AllEnemy"
          },
          "AttackProperty": {
            "DamageType": {
              "DamageType": "Fire"
            },
            "DamagePercentage": {
              "IsDynamic": true,
              "PostfixExpr": {
                "OpCodes": "AQAAAAQK",
                "FixedValues": [
                  {
                    "Value": 0.5
                  }
                ],
                "DynamicHashes": [
                  -1847083384
                ]
              }
            },
            "SPHitRatio": {
              "IsDynamic": false,
              "FixedValue": {
                "Value": 0.5
              }
            },
            "FrameHalt": {
              "IsDynamic": false,
              "FixedValue": {
                "Value": 0.21
              }
            },
            "HitAnimation": "Hit_H",
            "HitEffect": "Effects/Eff_Prefab/Eff_Monster/Eff_W1_Mecha04_01/Eff_Monster_W1_Mecha04_01_Skill01_Hit01.prefab"
          },
          "SpecialHitSoundEvent": "Ev_sfx_monster_skill_03_hit_thinfmecha",
          "DisplayData": {
            "UIMessageHeight": 1,
            "DitherRangeX": 0.02,
            "DitherRangeY": 0.02
          }
        },
        {
          "$type": "RPG.GameCore.RadialBlurEffect",
          "BlurY": 0.3,
          "Iteration": 5,
          "BlurStart": 0.15,
          "BlurFeather": 0.4
        },
        {
          "$type": "RPG.GameCore.WaitAnimState",
          "TargetType": {
            "$type": "RPG.GameCore.TargetAlias",
            "Alias": "Caster"
          },
          "AnimStateName": "Skill03",
          "NormalizedTimeEnd": {
            "IsDynamic": false,
            "FixedValue": {
              "Value": 0.382
            }
          }
        },
        {
          "$type": "RPG.GameCore.RadialBlurEffect",
          "Active": false
        },
        {
          "$type": "RPG.GameCore.WaitAnimState",
          "TargetType": {
            "$type": "RPG.GameCore.TargetAlias",
            "Alias": "Caster"
          },
          "AnimStateName": "Skill03",
          "NormalizedTimeEnd": {
            "IsDynamic": false,
            "FixedValue": {
              "Value": 0.597
            }
          }
        },
        {
          "$type": "RPG.GameCore.DamageByAttackProperty",
          "TargetType": {
            "$type": "RPG.GameCore.TargetAlias",
            "Alias": "AllEnemy"
          },
          "AttackProperty": {
            "DamageType": {
              "DamageType": "Fire"
            },
            "DamagePercentage": {
              "IsDynamic": true,
              "PostfixExpr": {
                "OpCodes": "AQAAAAQK",
                "FixedValues": [
                  {
                    "Value": 0.5
                  }
                ],
                "DynamicHashes": [
                  -1847083384
                ]
              }
            },
            "SPHitRatio": {
              "IsDynamic": false,
              "FixedValue": {
                "Value": 0.5
              }
            },
            "FrameHalt": {
              "IsDynamic": false,
              "FixedValue": {
                "Value": 0.13
              }
            },
            "HitAnimation": "Hit_H",
            "HitEffect": "Effects/Eff_Prefab/Eff_Monster/Eff_W1_Mecha04_01/Eff_Monster_W1_Mecha04_01_Skill01_Hit01.prefab"
          },
          "SpecialHitSoundEvent": "Ev_sfx_monster_skill_03_hit_thinfmecha",
          "DisplayData": {
            "UIMessageHeight": 1,
            "DitherRangeX": 0.02,
            "DitherRangeY": 0.02
          }
        },
        {
          "$type": "RPG.GameCore.RadialBlurEffect",
          "BlurY": 0.1,
          "BlurRadius": 0.6,
          "BlurStart": 0,
          "BlurFeather": 0
        },
        {
          "$type": "RPG.GameCore.LoopTargetList",
          "TaskList": [
            {
              "$type": "RPG.GameCore.GoNextTargetInList"
            },
            {
              "$type": "RPG.GameCore.PredicateTaskList",
              "Predicate": {
                "$type": "RPG.GameCore.ByIsContainModifier",
                "TargetType": {
                  "$type": "RPG.GameCore.TargetAlias",
                  "Alias": "AbilityTargetEntity"
                },
                "ModifierName": "MCommon_DOT_Burn"
              },
              "SuccessTaskList": [
                {
                  "$type": "RPG.GameCore.DamageByAttackProperty",
                  "TargetType": {
                    "$type": "RPG.GameCore.TargetAlias",
                    "Alias": "AbilityTargetEntity"
                  },
                  "AttackProperty": {
                    "DamageType": {
                      "DamageType": "Fire"
                    },
                    "DamagePercentage": {
                      "IsDynamic": true,
                      "PostfixExpr": {
                        "OpCodes": "AQAK",
                        "FixedValues": [],
                        "DynamicHashes": [
                          250400482
                        ]
                      }
                    },
                    "SPHitRatio": {
                      "IsDynamic": false,
                      "FixedValue": {
                        "Value": 1
                      }
                    },
                    "AttackType": "Pursued",
                    "HitAnimation": "Hit",
                    "HitEffect": "Effects/Eff_Prefab/Eff_Monster/Eff_W1_Mecha04_01/Eff_Monster_W1_Mecha04_01_Skill04_Hit01.prefab"
                  },
                  "CanTriggerLastKill": true,
                  "DisplayData": {
                    "UIMessageHeight": 1,
                    "DitherRangeX": 0.02,
                    "DitherRangeY": 0.02
                  }
                },
                {
                  "$type": "RPG.GameCore.PredicateTaskList",
                  "Predicate": {
                    "$type": "RPG.GameCore.ByCompareMonsterID",
                    "TargetType": {
                      "$type": "RPG.GameCore.TargetAlias",
                      "Alias": "Caster"
                    },
                    "TargetMonsterID": {
                      "IsDynamic": false,
                      "FixedValue": {
                        "Value": 1023011
                      }
                    }
                  },
                  "FailedTaskList": [
                    {
                      "$type": "RPG.GameCore.RemoveModifier",
                      "TargetType": {
                        "$type": "RPG.GameCore.TargetAlias",
                        "Alias": "AbilityTargetEntity"
                      },
                      "ModifierName": "MCommon_DOT_Burn"
                    }
                  ]
                }
              ]
            }
          ]
        },
        {
          "$type": "RPG.GameCore.PredicateTaskList",
          "Predicate": {
            "$type": "RPG.GameCore.ByCompareMonsterID",
            "TargetType": {
              "$type": "RPG.GameCore.TargetAlias",
              "Alias": "Caster"
            },
            "TargetMonsterID": {
              "IsDynamic": false,
              "FixedValue": {
                "Value": 1023011
              }
            }
          },
          "SuccessTaskList": [
            {
              "$type": "RPG.GameCore.AddModifier",
              "TargetType": {
                "$type": "RPG.GameCore.TargetAlias",
                "Alias": "AllEnemy"
              },
              "ModifierName": "MCommon_DOT_Burn",
              "StackingFlag": "CharacterSkill",
              "Chance": {
                "IsDynamic": false,
                "FixedValue": {
                  "Value": 1
                }
              },
              "LifeTime": {
                "IsDynamic": true,
                "PostfixExpr": {
                  "OpCodes": "AQAK",
                  "FixedValues": [],
                  "DynamicHashes": [
                    -214994916
                  ]
                }
              },
              "DynamicValues": {
                "Modifier_Burn_DamagePercentage": {
                  "IsDynamic": true,
                  "PostfixExpr": {
                    "OpCodes": "AQAK",
                    "FixedValues": [],
                    "DynamicHashes": [
                      1049979633
                    ]
                  }
                }
              }
            }
          ]
        },
        {
          "$type": "RPG.GameCore.DamagePerformFinish"
        },
        {
          "$type": "RPG.GameCore.WaitAnimState",
          "TargetType": {
            "$type": "RPG.GameCore.TargetAlias",
            "Alias": "Caster"
          },
          "AnimStateName": "Skill03",
          "NormalizedTimeEnd": {
            "IsDynamic": false,
            "FixedValue": {
              "Value": 0.65
            }
          }
        },
        {
          "$type": "RPG.GameCore.RadialBlurEffect",
          "Active": false
        },
        {
          "$type": "RPG.GameCore.SkillPerformFinish"
        }
      ]
    },
    {
      "Name": "Monster_W1_Mecha_Fire_Skill06_Phase01",
      "TargetInfo": {
        "TargetType": "SkillTargetEntityList"
      },
      "OnStart": [
        {
          "$type": "RPG.GameCore.TriggerAbility",
          "TargetType": {
            "$type": "RPG.GameCore.TargetAlias",
            "Alias": "Caster"
          },
          "AbilityName": "Monster_W1_Mecha_Fire_Skill06_Phase02",
          "IsSkillPerform": true
        },
        {
          "$type": "RPG.GameCore.TriggerAbility",
          "TargetType": {
            "$type": "RPG.GameCore.TargetAlias",
            "Alias": "Caster"
          },
          "AbilityName": "Monster_W1_Mecha_Fire_Skill06_Camera",
          "IsSkillPerform": true
        },
        {
          "$type": "RPG.GameCore.LookAt",
          "TargetType": "AbilityTargetEntity"
        },
        {
          "$type": "RPG.GameCore.TriggerAnimStateWithMove",
          "TargetType": {
            "$type": "RPG.GameCore.TargetAlias",
            "Alias": "Caster"
          },
          "AnimStateName": "Skill01",
          "NormalizedTimeEnd": {
            "IsDynamic": false,
            "FixedValue": {
              "Value": 1
            }
          },
          "MovingRangeList": [
            {
              "TargetType": {
                "$type": "RPG.GameCore.TargetAlias",
                "Alias": "AbilityTargetEntity"
              },
              "IgnoreRadius": true,
              "OffsetTargetDistance": {
                "IsDynamic": false,
                "FixedValue": {
                  "Value": 4.5
                }
              },
              "NormalizedTimeStart": {
                "IsDynamic": false,
                "FixedValue": {
                  "Value": 0.346
                }
              },
              "NormalizedTimeEnd": {
                "IsDynamic": false,
                "FixedValue": {
                  "Value": 0.428
                }
              }
            },
            {
              "TargetType": {
                "$type": "RPG.GameCore.TargetAlias",
                "Alias": "TeamFormation"
              },
              "IgnoreRadius": true,
              "OffsetTargetDistance": {
                "IsDynamic": false,
                "FixedValue": {
                  "Value": 0
                }
              },
              "NormalizedTimeStart": {
                "IsDynamic": false,
                "FixedValue": {
                  "Value": 0.726
                }
              },
              "NormalizedTimeEnd": {
                "IsDynamic": false,
                "FixedValue": {
                  "Value": 0.815
                }
              }
            }
          ]
        },
        {
          "$type": "RPG.GameCore.TriggerAnimState",
          "AnimLogicState": "Idle",
          "NormalizedTransitionDuration": {
            "IsDynamic": false,
            "FixedValue": {
              "Value": 0.25
            }
          }
        }
      ]
    },
    {
      "Name": "Monster_W1_Mecha_Fire_Skill06_Phase02",
      "TargetInfo": {
        "TargetType": "SkillTargetEntityList"
      },
      "OnStart": [
        {
          "$type": "RPG.GameCore.WaitAnimState",
          "TargetType": {
            "$type": "RPG.GameCore.TargetAlias",
            "Alias": "Caster"
          },
          "AnimStateName": "Skill01",
          "NormalizedTimeEnd": {
            "IsDynamic": false,
            "FixedValue": {
              "Value": 0.1
            }
          }
        },
        {
          "$type": "RPG.GameCore.SkillExecutionStart"
        },
        {
          "$type": "RPG.GameCore.WaitAnimState",
          "TargetType": {
            "$type": "RPG.GameCore.TargetAlias",
            "Alias": "Caster"
          },
          "AnimStateName": "Skill01",
          "NormalizedTimeEnd": {
            "IsDynamic": false,
            "FixedValue": {
              "Value": 0.446
            }
          }
        },
        {
          "$type": "RPG.GameCore.DamageByAttackProperty",
          "TargetType": {
            "$type": "RPG.GameCore.TargetAlias",
            "Alias": "AbilityTargetEntity"
          },
          "AttackProperty": {
            "DamageType": {
              "DamageType": "Fire"
            },
            "DamagePercentage": {
              "IsDynamic": true,
              "PostfixExpr": {
                "OpCodes": "AQAK",
                "FixedValues": [],
                "DynamicHashes": [
                  -1122549516
                ]
              }
            },
            "SPHitRatio": {
              "IsDynamic": false,
              "FixedValue": {
                "Value": 1
              }
            },
            "AttackType": "Normal",
            "FrameHalt": {
              "IsDynamic": false,
              "FixedValue": {
                "Value": 0.11
              }
            },
            "HitAnimation": "Hit",
            "HitEffect": "Effects/Eff_Prefab/Eff_Monster/Eff_W1_Mecha01_00/Eff_Monster_W1_Mecha01_00_Skill03_Hit.prefab"
          },
          "TriggerHitSound": true,
          "SpecialHitSoundEvent": "Ev_sfx_monster_skill_01_hit_thinfmecha",
          "DisplayData": {
            "UIMessageHeight": 1,
            "DitherRangeX": 0.02,
            "DitherRangeY": 0.02
          }
        },
        {
          "$type": "RPG.GameCore.DamagePerformFinish"
        },
        {
          "$type": "RPG.GameCore.RadialBlurEffect",
          "BlurX": 0.99,
          "BlurY": 0.01,
          "BlurRadius": 0.3,
          "Iteration": 3,
          "BlurStart": 0.422,
          "BlurFeather": 0.506
        },
        {
          "$type": "RPG.GameCore.AddModifier",
          "TargetType": {
            "$type": "RPG.GameCore.TargetAlias",
            "Alias": "AbilityTargetEntity"
          },
          "ModifierName": "MCommon_DOT_Burn",
          "StackingFlag": "CharacterSkill",
          "Chance": {
            "IsDynamic": false,
            "FixedValue": {
              "Value": 1
            }
          },
          "LifeTime": {
            "IsDynamic": true,
            "PostfixExpr": {
              "OpCodes": "AQAK",
              "FixedValues": [],
              "DynamicHashes": [
                -214994916
              ]
            }
          },
          "DynamicValues": {
            "Modifier_Burn_DamagePercentage": {
              "IsDynamic": true,
              "PostfixExpr": {
                "OpCodes": "AQAK",
                "FixedValues": [],
                "DynamicHashes": [
                  1049979633
                ]
              }
            }
          }
        },
        {
          "$type": "RPG.GameCore.WaitAnimState",
          "TargetType": {
            "$type": "RPG.GameCore.TargetAlias",
            "Alias": "Caster"
          },
          "AnimStateName": "Skill01",
          "NormalizedTimeEnd": {
            "IsDynamic": false,
            "FixedValue": {
              "Value": 0.488
            }
          }
        },
        {
          "$type": "RPG.GameCore.RadialBlurEffect",
          "Active": false
        },
        {
          "$type": "RPG.GameCore.SkillPerformFinish"
        }
      ]
    },
    {
      "Name": "Monster_W1_Mecha_Fire_Skill07_Phase01",
      "TargetInfo": {
        "TargetType": "SkillTargetEntityList",
        "MaxTargetCount": 3
      },
      "OnStart": [
        {
          "$type": "RPG.GameCore.SetTeamFormation",
          "Team": "TeamLight",
          "FormationType": "LightTeamNormal",
          "CustomFormationIgnoreDying": false
        },
        {
          "$type": "RPG.GameCore.TriggerAbility",
          "TargetType": {
            "$type": "RPG.GameCore.TargetAlias",
            "Alias": "Caster"
          },
          "AbilityName": "Monster_W1_Mecha_Fire_Skill07_Camera",
          "IsSkillPerform": true
        },
        {
          "$type": "RPG.GameCore.TriggerAbility",
          "TargetType": {
            "$type": "RPG.GameCore.TargetAlias",
            "Alias": "Caster"
          },
          "AbilityName": "Monster_W1_Mecha_Fire_Skill07_Phase02",
          "IsSkillPerform": true
        },
        {
          "$type": "RPG.GameCore.TriggerAnimStateWithMove",
          "TargetType": {
            "$type": "RPG.GameCore.TargetAlias",
            "Alias": "Caster"
          },
          "AnimStateName": "Skill07",
          "NormalizedTimeEnd": {
            "IsDynamic": false,
            "FixedValue": {
              "Value": 1
            }
          },
          "MovingRangeList": [
            {
              "TargetType": {
                "$type": "RPG.GameCore.TargetAlias",
                "Alias": "AbilityTargetEntity"
              },
              "IgnoreRadius": true,
              "OffsetTargetDistance": {
                "IsDynamic": false,
                "FixedValue": {
                  "Value": 2
                }
              },
              "NormalizedTimeStart": {
                "IsDynamic": false,
                "FixedValue": {
                  "Value": 0.191
                }
              },
              "NormalizedTimeEnd": {
                "IsDynamic": false,
                "FixedValue": {
                  "Value": 0.313
                }
              }
            },
            {
              "TargetType": {
                "$type": "RPG.GameCore.TargetAlias",
                "Alias": "TeamFormation"
              },
              "IgnoreRadius": true,
              "OffsetTargetDistance": {
                "IsDynamic": false,
                "FixedValue": {
                  "Value": 0
                }
              },
              "NormalizedTimeStart": {
                "IsDynamic": false,
                "FixedValue": {
                  "Value": 0.766
                }
              },
              "NormalizedTimeEnd": {
                "IsDynamic": false,
                "FixedValue": {
                  "Value": 0.844
                }
              }
            }
          ]
        },
        {
          "$type": "RPG.GameCore.TriggerAnimState",
          "AnimLogicState": "Idle",
          "NormalizedTransitionDuration": {
            "IsDynamic": false,
            "FixedValue": {
              "Value": 0.25
            }
          }
        }
      ]
    },
    {
      "Name": "Monster_W1_Mecha_Fire_Skill07_Phase02",
      "TargetInfo": {
        "TargetType": "SkillTargetEntityList"
      },
      "OnStart": [
        {
          "$type": "RPG.GameCore.WaitAnimState",
          "TargetType": {
            "$type": "RPG.GameCore.TargetAlias",
            "Alias": "Caster"
          },
          "AnimStateName": "Skill07",
          "NormalizedTimeEnd": {
            "IsDynamic": false,
            "FixedValue": {
              "Value": 0.1
            }
          }
        },
        {
          "$type": "RPG.GameCore.SkillExecutionStart"
        },
        {
          "$type": "RPG.GameCore.WaitAnimState",
          "AnimStateName": "Skill07",
          "NormalizedTimeEnd": {
            "IsDynamic": false,
            "FixedValue": {
              "Value": 0.14
            }
          }
        },
        {
          "$type": "RPG.GameCore.LookAt",
          "TargetType": "AbilityTargetEntity"
        },
        {
          "$type": "RPG.GameCore.WaitAnimState",
          "TargetType": {
            "$type": "RPG.GameCore.TargetAlias",
            "Alias": "Caster"
          },
          "AnimStateName": "Skill07",
          "NormalizedTimeEnd": {
            "IsDynamic": false,
            "FixedValue": {
              "Value": 0.331
            }
          }
        },
        {
          "$type": "RPG.GameCore.DamageByAttackProperty",
          "TargetType": {
            "$type": "RPG.GameCore.TargetAlias",
            "Alias": "AbilityTargetEntity"
          },
          "AttackProperty": {
            "DamageType": {
              "DamageType": "Fire"
            },
            "DamagePercentage": {
              "IsDynamic": true,
              "PostfixExpr": {
                "OpCodes": "AQAAAAQK",
                "FixedValues": [
                  {
                    "Value": 0.5
                  }
                ],
                "DynamicHashes": [
                  668244815
                ]
              }
            },
            "SPHitRatio": {
              "IsDynamic": false,
              "FixedValue": {
                "Value": 0.5
              }
            },
            "FrameHalt": {
              "IsDynamic": false,
              "FixedValue": {
                "Value": 0.12
              }
            },
            "HitAnimation": "Hit_H",
            "HitEffect": "Effects/Eff_Prefab/Eff_Monster/Eff_W1_Mecha04_01/Eff_Monster_W1_Mecha04_01_Skill01_Hit01.prefab"
          },
          "SpecialHitSoundEvent": "Ev_sfx_monster_skill_03_hit_thinfmecha",
          "DisplayData": {
            "UIMessageHeight": 1,
            "DitherRangeX": 0.02,
            "DitherRangeY": 0.02
          }
        },
        {
          "$type": "RPG.GameCore.DamageByAttackProperty",
          "TargetType": {
            "$type": "RPG.GameCore.TargetAlias",
            "Alias": "AbilityTargetAdjoinEntity"
          },
          "AttackProperty": {
            "DamageType": {
              "DamageType": "Fire"
            },
            "DamagePercentage": {
              "IsDynamic": true,
              "PostfixExpr": {
                "OpCodes": "AQAAAAQK",
                "FixedValues": [
                  {
                    "Value": 0.5
                  }
                ],
                "DynamicHashes": [
                  1459401296
                ]
              }
            },
            "SPHitRatio": {
              "IsDynamic": false,
              "FixedValue": {
                "Value": 0.5
              }
            },
            "HitAnimation": "Hit_H",
            "HitEffect": "Effects/Eff_Prefab/Eff_Monster/Eff_W1_Mecha04_01/Eff_Monster_W1_Mecha04_01_Skill01_Hit01.prefab"
          },
          "DisplayData": {
            "UIMessageHeight": 1,
            "DitherRangeX": 0.02,
            "DitherRangeY": 0.02
          }
        },
        {
          "$type": "RPG.GameCore.RadialBlurEffect",
          "BlurY": 0.3,
          "BlurRadius": 0.4,
          "Iteration": 4,
          "BlurStart": 0.15,
          "BlurFeather": 0.4
        },
        {
          "$type": "RPG.GameCore.WaitAnimState",
          "TargetType": {
            "$type": "RPG.GameCore.TargetAlias",
            "Alias": "Caster"
          },
          "AnimStateName": "Skill07",
          "NormalizedTimeEnd": {
            "IsDynamic": false,
            "FixedValue": {
              "Value": 0.381
            }
          }
        },
        {
          "$type": "RPG.GameCore.RadialBlurEffect",
          "Active": false
        },
        {
          "$type": "RPG.GameCore.WaitAnimState",
          "TargetType": {
            "$type": "RPG.GameCore.TargetAlias",
            "Alias": "Caster"
          },
          "AnimStateName": "Skill07",
          "NormalizedTimeEnd": {
            "IsDynamic": false,
            "FixedValue": {
              "Value": 0.597
            }
          }
        },
        {
          "$type": "RPG.GameCore.DamageByAttackProperty",
          "TargetType": {
            "$type": "RPG.GameCore.TargetAlias",
            "Alias": "AbilityTargetEntity"
          },
          "AttackProperty": {
            "DamageType": {
              "DamageType": "Fire"
            },
            "DamagePercentage": {
              "IsDynamic": true,
              "PostfixExpr": {
                "OpCodes": "AQAAAAQK",
                "FixedValues": [
                  {
                    "Value": 0.5
                  }
                ],
                "DynamicHashes": [
                  668244815
                ]
              }
            },
            "SPHitRatio": {
              "IsDynamic": false,
              "FixedValue": {
                "Value": 0.5
              }
            },
            "FrameHalt": {
              "IsDynamic": false,
              "FixedValue": {
                "Value": 0.08
              }
            },
            "HitAnimation": "Hit_H",
            "HitEffect": "Effects/Eff_Prefab/Eff_Monster/Eff_W1_Mecha01_00/Eff_Monster_W1_Mecha01_00_Skill03_Hit.prefab"
          },
          "SpecialHitSoundEvent": "Ev_sfx_monster_skill_03_hit_thinfmecha",
          "DisplayData": {
            "UIMessageHeight": 1,
            "DitherRangeX": 0.02,
            "DitherRangeY": 0.02
          }
        },
        {
          "$type": "RPG.GameCore.DamageByAttackProperty",
          "TargetType": {
            "$type": "RPG.GameCore.TargetAlias",
            "Alias": "AbilityTargetAdjoinEntity"
          },
          "AttackProperty": {
            "DamageType": {
              "DamageType": "Fire"
            },
            "DamagePercentage": {
              "IsDynamic": true,
              "PostfixExpr": {
                "OpCodes": "AQAAAAQK",
                "FixedValues": [
                  {
                    "Value": 0.5
                  }
                ],
                "DynamicHashes": [
                  1459401296
                ]
              }
            },
            "SPHitRatio": {
              "IsDynamic": false,
              "FixedValue": {
                "Value": 0.5
              }
            },
            "HitAnimation": "Hit_H",
            "HitEffect": "Effects/Eff_Prefab/Eff_Monster/Eff_W1_Mecha01_00/Eff_Monster_W1_Mecha01_00_Skill03_Hit.prefab"
          },
          "DisplayData": {
            "UIMessageHeight": 1,
            "DitherRangeX": 0.02,
            "DitherRangeY": 0.02
          }
        },
        {
          "$type": "RPG.GameCore.RadialBlurEffect",
          "BlurY": 0.1,
          "BlurRadius": 0.4,
          "Iteration": 4,
          "BlurStart": 0,
          "BlurFeather": 0.4
        },
        {
          "$type": "RPG.GameCore.DamagePerformFinish"
        },
        {
          "$type": "RPG.GameCore.WaitAnimState",
          "TargetType": {
            "$type": "RPG.GameCore.TargetAlias",
            "Alias": "Caster"
          },
          "AnimStateName": "Skill07",
          "NormalizedTimeEnd": {
            "IsDynamic": false,
            "FixedValue": {
              "Value": 0.65
            }
          }
        },
        {
          "$type": "RPG.GameCore.RadialBlurEffect",
          "Active": false
        },
        {
          "$type": "RPG.GameCore.SkillPerformFinish"
        }
      ]
    },
    {
      "Name": "Monster_W1_Mecha_Fire_Skill08_Phase01",
      "TargetInfo": {
        "TargetType": "AllEnemy"
      },
      "OnStart": [
        {
          "$type": "RPG.GameCore.TriggerAbility",
          "TargetType": {
            "$type": "RPG.GameCore.TargetAlias",
            "Alias": "Caster"
          },
          "AbilityName": "Monster_W1_Mecha_Fire_Skill08_Phase02",
          "IsSkillPerform": true
        },
        {
          "$type": "RPG.GameCore.TriggerAbility",
          "TargetType": {
            "$type": "RPG.GameCore.TargetAlias",
            "Alias": "Caster"
          },
          "AbilityName": "Monster_W1_Mecha_Fire_Skill08_Camera",
          "IsSkillPerform": true
        },
        {
          "$type": "RPG.GameCore.TriggerAnimState",
          "AnimStateName": "Skill08",
          "NormalizedTimeEnd": {
            "IsDynamic": false,
            "FixedValue": {
              "Value": 1
            }
          }
        },
        {
          "$type": "RPG.GameCore.MoveToTargetPosition",
          "TargetType": {
            "$type": "RPG.GameCore.TargetAlias",
            "Alias": "TeamFormation"
          },
          "IgnoreRadius": true,
          "OffsetTargetDistance": {
            "IsDynamic": false,
            "FixedValue": {
              "Value": 0
            }
          }
        },
        {
          "$type": "RPG.GameCore.TriggerAnimState",
          "AnimLogicState": "Idle"
        }
      ]
    },
    {
      "Name": "Monster_W1_Mecha_Fire_Skill08_Phase02",
      "TargetInfo": {
        "TargetType": "AllEnemy"
      },
      "OnStart": [
        {
          "$type": "RPG.GameCore.SetTeamFormation",
          "Team": "TeamLight",
          "FormationType": "LightTeamNormal",
          "CustomFormationIgnoreDying": false
        },
        {
          "$type": "RPG.GameCore.WaitAnimState",
          "TargetType": {
            "$type": "RPG.GameCore.TargetAlias",
            "Alias": "Caster"
          },
          "AnimStateName": "Skill08",
          "NormalizedTimeEnd": {
            "IsDynamic": false,
            "FixedValue": {
              "Value": 0.25
            }
          }
        },
        {
          "$type": "RPG.GameCore.SkillExecutionStart"
        },
        {
          "$type": "RPG.GameCore.WaitAnimState",
          "TargetType": {
            "$type": "RPG.GameCore.TargetAlias",
            "Alias": "Caster"
          },
          "AnimStateName": "Skill08",
          "NormalizedTimeEnd": {
            "IsDynamic": false,
            "FixedValue": {
              "Value": 0.397
            }
          }
        },
        {
          "$type": "RPG.GameCore.DamageByAttackProperty",
          "TargetType": {
            "$type": "RPG.GameCore.TargetAlias",
            "Alias": "AllEnemy"
          },
          "AttackProperty": {
            "DamageType": {
              "DamageType": "Fire"
            },
            "DamagePercentage": {
              "IsDynamic": true,
              "PostfixExpr": {
                "OpCodes": "AQAK",
                "FixedValues": [],
                "DynamicHashes": [
                  924166248
                ]
              }
            },
            "SPHitRatio": {
              "IsDynamic": false,
              "FixedValue": {
                "Value": 1
              }
            },
            "AttackType": "Normal",
            "FrameHalt": {
              "IsDynamic": false,
              "FixedValue": {
                "Value": 0.11
              }
            },
            "HitAnimation": "Hit",
            "HitEffect": "Effects/Eff_Prefab/Eff_Monster/Eff_W1_Mecha04_01/Eff_Monster_W1_Mecha04_01_Skill09_Hit03.prefab"
          },
          "DisplayData": {
            "UIMessageHeight": 1,
            "DitherRangeX": 0.02,
            "DitherRangeY": 0.02
          }
        },
        {
          "$type": "RPG.GameCore.WaitSecond",
          "WaitTime": {
            "IsDynamic": false,
            "FixedValue": {
              "Value": 0.2
            }
          }
        },
        {
          "$type": "RPG.GameCore.LoopExecuteTaskList",
          "MaxLoopCount": {
            "IsDynamic": false,
            "FixedValue": {
              "Value": 4
            }
          },
          "TaskList": [
            {
              "$type": "RPG.GameCore.Retarget",
              "TargetType": {
                "$type": "RPG.GameCore.TargetAlias",
                "Alias": "AllEnemy"
              },
              "Predicate": {
                "$type": "RPG.GameCore.ByIsContainModifier",
                "TargetType": {
                  "$type": "RPG.GameCore.TargetAlias",
                  "Alias": "ParamEntity"
                },
                "ModifierName": "MCommon_DOT_Burn"
              },
              "MaxNumber": {
                "IsDynamic": false,
                "FixedValue": {
                  "Value": 1
                }
              },
              "TaskList": [
                {
                  "$type": "RPG.GameCore.DamageByAttackProperty",
                  "TargetType": {
                    "$type": "RPG.GameCore.TargetAlias",
                    "Alias": "ParamEntity"
                  },
                  "AttackProperty": {
                    "DamageType": {
                      "DamageType": "Fire"
                    },
                    "DamagePercentage": {
                      "IsDynamic": true,
                      "PostfixExpr": {
                        "OpCodes": "AQAK",
                        "FixedValues": [],
                        "DynamicHashes": [
                          1643420006
                        ]
                      }
                    },
                    "AttackType": "Normal",
                    "FrameHalt": {
                      "IsDynamic": false,
                      "FixedValue": {
                        "Value": 0.11
                      }
                    },
                    "HitAnimation": "Hit",
                    "HitEffect": "Effects/Eff_Prefab/Eff_Monster/Eff_W1_Mecha04_01/Eff_Monster_W1_Mecha04_01_Skill09_Hit04.prefab"
                  },
                  "DisplayData": {
                    "UIMessageHeight": 1,
                    "DitherRangeX": 0.02,
                    "DitherRangeY": 0.02
                  }
                },
                {
                  "$type": "RPG.GameCore.DamageByAttackProperty",
                  "TargetType": {
                    "$type": "RPG.GameCore.TargetAlias",
                    "Alias": "ParamEntityAdjoinEntity"
                  },
                  "AttackProperty": {
                    "DamageType": {
                      "DamageType": "Fire"
                    },
                    "DamagePercentage": {
                      "IsDynamic": true,
                      "PostfixExpr": {
                        "OpCodes": "AQAK",
                        "FixedValues": [],
                        "DynamicHashes": [
                          -1860390809
                        ]
                      }
                    },
                    "AttackType": "Normal",
                    "FrameHalt": {
                      "IsDynamic": false,
                      "FixedValue": {
                        "Value": 0.11
                      }
                    },
                    "HitAnimation": "Hit"
                  },
                  "DisplayData": {
                    "UIMessageHeight": 1,
                    "DitherRangeX": 0.02,
                    "DitherRangeY": 0.02
                  }
                },
                {
                  "$type": "RPG.GameCore.VCameraConfigChange",
                  "CameraConfig": {
                    "ShakeTemplateName": "OneShake_Heavy_03s_XY",
                    "OverrideShakeConfigV2": {
                      "ShakeDir": {
                        "X": -0.5,
                        "Y": 0,
                        "Z": -1.5
                      }
                    }
                  }
                },
                {
                  "$type": "RPG.GameCore.RemoveModifier",
                  "TargetType": {
                    "$type": "RPG.GameCore.TargetAlias",
                    "Alias": "ParamEntity"
                  },
                  "ModifierName": "MCommon_DOT_Burn"
                }
              ]
            },
            {
              "$type": "RPG.GameCore.WaitSecond",
              "WaitTime": {
                "IsDynamic": false,
                "FixedValue": {
                  "Value": 0.15
                }
              }
            }
          ]
        },
        {
          "$type": "RPG.GameCore.DamagePerformFinish"
        },
        {
          "$type": "RPG.GameCore.RemoveModifier",
          "TargetType": {
            "$type": "RPG.GameCore.TargetAlias",
            "Alias": "Caster"
          },
          "ModifierName": "Monster_W1_Mecha04_01_HeadEffect"
        },
        {
          "$type": "RPG.GameCore.WaitAnimState",
          "TargetType": {
            "$type": "RPG.GameCore.TargetAlias",
            "Alias": "Caster"
          },
          "AnimStateName": "Skill08",
          "NormalizedTimeEnd": {
            "IsDynamic": false,
            "FixedValue": {
              "Value": 1
            }
          }
        },
        {
          "$type": "RPG.GameCore.SkillPerformFinish"
        }
      ]
    },
    {
      "Name": "Monster_W1_Mecha_Fire_Skill09_Phase01",
      "TargetInfo": {
        "TargetType": "Caster"
      },
      "OnStart": [
        {
          "$type": "RPG.GameCore.TriggerAbility",
          "TargetType": {
            "$type": "RPG.GameCore.TargetAlias",
            "Alias": "Caster"
          },
          "AbilityName": "Monster_W1_Mecha_Fire_Skill09_Phase02",
          "IsSkillPerform": true
        },
        {
          "$type": "RPG.GameCore.TriggerAbility",
          "TargetType": {
            "$type": "RPG.GameCore.TargetAlias",
            "Alias": "Caster"
          },
          "AbilityName": "Monster_W1_Mecha_Fire_Skill09_Camera",
          "IsSkillPerform": true
        },
        {
          "$type": "RPG.GameCore.TriggerAnimState",
          "AnimStateName": "Skill09",
          "NormalizedTimeEnd": {
            "IsDynamic": false,
            "FixedValue": {
              "Value": 1
            }
          }
        },
        {
          "$type": "RPG.GameCore.MoveToTargetPosition",
          "TargetType": {
            "$type": "RPG.GameCore.TargetAlias",
            "Alias": "TeamFormation"
          },
          "IgnoreRadius": true,
          "OffsetTargetDistance": {
            "IsDynamic": false,
            "FixedValue": {
              "Value": 0
            }
          }
        },
        {
          "$type": "RPG.GameCore.TriggerAnimState",
          "AnimLogicState": "Idle",
          "NormalizedTransitionDuration": {
            "IsDynamic": false,
            "FixedValue": {
              "Value": 0.25
            }
          }
        }
      ]
    },
    {
      "Name": "Monster_W1_Mecha_Fire_Skill09_Phase02",
      "TargetInfo": {
        "TargetType": "Caster"
      },
      "OnStart": [
        {
          "$type": "RPG.GameCore.WaitAnimState",
          "TargetType": {
            "$type": "RPG.GameCore.TargetAlias",
            "Alias": "Caster"
          },
          "AnimStateName": "Skill09",
          "NormalizedTimeEnd": {
            "IsDynamic": false,
            "FixedValue": {
              "Value": 0.25
            }
          }
        },
        {
          "$type": "RPG.GameCore.SkillExecutionStart"
        },
        {
          "$type": "RPG.GameCore.WaitAnimState",
          "TargetType": {
            "$type": "RPG.GameCore.TargetAlias",
            "Alias": "Caster"
          },
          "AnimStateName": "Skill09",
          "NormalizedTimeEnd": {
            "IsDynamic": false,
            "FixedValue": {
              "Value": 0.600453
            }
          }
        },
        {
          "$type": "RPG.GameCore.ShowUIPage",
          "AssetPath": "UI/Common/Widget/BattleAlertHint.prefab",
          "UITextNodes": [
            {
              "TextPath": "AreaInfoPanel/Title/Text",
              "TextContent": {
                "Hash": -352886723
              }
            }
          ],
          "LifeTime": 3
        },
        {
          "$type": "RPG.GameCore.WaitAnimState",
          "TargetType": {
            "$type": "RPG.GameCore.TargetAlias",
            "Alias": "Caster"
          },
          "AnimStateName": "Skill09",
          "NormalizedTimeEnd": {
            "IsDynamic": false,
            "FixedValue": {
              "Value": 0.66310346
            }
          }
        },
        {
          "$type": "RPG.GameCore.RadialBlurEffect",
          "BlurRadius": 0.7,
          "Iteration": 5,
          "BlurStart": 0,
          "BlurFeather": 0.5
        },
        {
          "$type": "RPG.GameCore.AddModifier",
          "TargetType": {
            "$type": "RPG.GameCore.TargetAlias",
            "Alias": "Caster"
          },
          "ModifierName": "Monster_W1_Mecha04_01_HeadEffect"
        },
        {
          "$type": "RPG.GameCore.WaitAnimState",
          "TargetType": {
            "$type": "RPG.GameCore.TargetAlias",
            "Alias": "Caster"
          },
          "AnimStateName": "Skill09",
          "NormalizedTimeEnd": {
            "IsDynamic": false,
            "FixedValue": {
              "Value": 0.767
            }
          }
        },
        {
          "$type": "RPG.GameCore.RadialBlurEffect",
          "Active": false
        },
        {
          "$type": "RPG.GameCore.SkillPerformFinish"
        }
      ]
    },
    {
      "Modifiers": {
        "HideMonsterHUD": {
          "_CallbackList": [
            {
              "Event": "OnPhase1",
              "CallbackConfig": [
                {
                  "$type": "RPG.GameCore.MakeCharacterHUDVisible",
                  "TargetType": {
                    "$type": "RPG.GameCore.TargetAlias",
                    "Alias": "ModifierOwnerEntity"
                  }
                }
              ]
            },
            {
              "Event": "OnAllowAction",
              "CallbackConfig": [
                {
                  "$type": "RPG.GameCore.MakeCharacterHUDVisible",
                  "TargetType": {
                    "$type": "RPG.GameCore.TargetAlias",
                    "Alias": "ModifierOwnerEntity"
                  }
                }
              ]
            }
          ]
        },
        "Monster_W1_Mecha_Fire_Initiate": {
          "_CallbackList": [
            {
              "Event": "OnAfterHit",
              "CallbackConfig": [
                {
                  "$type": "RPG.GameCore.PredicateTaskList",
                  "Predicate": {
                    "$type": "RPG.GameCore.ByIsContainModifier",
                    "TargetType": {
                      "$type": "RPG.GameCore.TargetAlias",
                      "Alias": "DamageDefenderEntity"
                    },
                    "ModifierName": "MCommon_DOT_Burn"
                  },
                  "SuccessTaskList": [
                    {
                      "$type": "RPG.GameCore.SetDynamicValue",
                      "DynamicKey": "Monster_W1_Mecha_Fire_PassiveCounter_01",
                      "Value": {
                        "IsDynamic": false,
                        "FixedValue": {
                          "Value": 1
                        }
                      }
                    }
                  ]
                }
              ]
            },
            {
              "Event": "OnAfterAttack",
              "CallbackConfig": [
                {
                  "$type": "RPG.GameCore.PredicateTaskList",
                  "Predicate": {
                    "$type": "RPG.GameCore.ByCompareDynamicValue",
                    "DynamicKey": "Monster_W1_Mecha_Fire_PassiveCounter_01",
                    "CompareType": "GreaterEqual",
                    "CompareValue": {
                      "IsDynamic": false,
                      "FixedValue": {
                        "Value": 1
                      }
                    }
                  },
                  "SuccessTaskList": [
                    {
                      "$type": "RPG.GameCore.AddModifier",
                      "TargetType": {
                        "$type": "RPG.GameCore.TargetAlias",
                        "Alias": "Caster"
                      },
                      "ModifierName": "Monster_W1_Mecha_Fire_Passive",
                      "LifeTime": {
                        "IsDynamic": true,
                        "PostfixExpr": {
                          "OpCodes": "AQAK",
                          "FixedValues": [],
                          "DynamicHashes": [
                            1285986891
                          ]
                        }
                      },
                      "DynamicValues": {
                        "ModifierCriticalChanceRatio_PerLayer": {
                          "IsDynamic": true,
                          "PostfixExpr": {
                            "OpCodes": "AQAK",
                            "FixedValues": [],
                            "DynamicHashes": [
                              272960256
                            ]
                          }
                        }
                      }
                    },
                    {
                      "$type": "RPG.GameCore.SetDynamicValue",
                      "DynamicKey": "Monster_W1_Mecha_Fire_PassiveCounter_01",
                      "Value": {
                        "IsDynamic": false,
                        "FixedValue": {
                          "Value": 0
                        }
                      }
                    }
                  ]
                }
              ]
            },
            {
              "Event": "OnBeingBreak",
              "CallbackConfig": [
                {
                  "$type": "RPG.GameCore.RemoveEffect",
                  "TargetType": {
                    "$type": "RPG.GameCore.TargetAlias",
                    "Alias": "Caster"
                  },
                  "EffectPath": "Effects/Eff_Prefab/Eff_Monster/Eff_W1_Mecha04_01/Eff_Monster_W1_Mecha04_01_Skill03_Weapon_02_Loop.prefab"
                },
                {
                  "$type": "RPG.GameCore.PredicateTaskList",
                  "Predicate": {
                    "$type": "RPG.GameCore.ByCompareMonsterID",
                    "TargetType": {
                      "$type": "RPG.GameCore.TargetAlias",
                      "Alias": "ModifierOwnerEntity"
                    },
                    "TargetMonsterID": {
                      "IsDynamic": false,
                      "FixedValue": {
                        "Value": 1023011
                      }
                    }
                  },
                  "SuccessTaskList": [
                    {
                      "$type": "RPG.GameCore.DefineDynamicValue",
                      "TargetType": {
                        "$type": "RPG.GameCore.TargetAlias",
                        "Alias": "Caster"
                      },
                      "DynamicKey": "Monster_W1_Mecha_Fire_AICounter_01",
                      "ResetValue": {
                        "IsDynamic": false,
                        "FixedValue": {
                          "Value": 1
                        }
                      },
                      "ContextScope": "TargetEntity"
                    }
                  ]
                }
              ]
            }
          ]
        },
        "Monster_W1_Mecha04_01_MuteHitFly": {
          "BehaviorFlagList": [
            "MuteHitFly"
          ]
        }
      },
      "Name": "Monster_W1_Mecha_Fire_PassiveSkill_Initiate",
      "TargetInfo": {
        "TargetType": "Caster"
      },
      "OnAdd": [
        {
          "$type": "RPG.GameCore.AddModifier",
          "TargetType": {
            "$type": "RPG.GameCore.TargetAlias",
            "Alias": "Caster"
          },
          "ModifierName": "HideMonsterHUD"
        }
      ],
      "OnStart": [
        {
          "$type": "RPG.GameCore.AddModifier",
          "TargetType": {
            "$type": "RPG.GameCore.TargetAlias",
            "Alias": "Caster"
          },
          "ModifierName": "Monster_W1_Mecha_Fire_Initiate"
        },
        {
          "$type": "RPG.GameCore.AddModifier",
          "TargetType": {
            "$type": "RPG.GameCore.TargetAlias",
            "Alias": "Caster"
          },
          "ModifierName": "Monster_W1_Mecha04_01_MuteHitFly"
        },
        {
          "$type": "RPG.GameCore.AddModifier",
          "TargetType": {
            "$type": "RPG.GameCore.TargetAlias",
            "Alias": "Caster"
          },
          "ModifierName": "HideMonsterHUD"
        }
      ],
      "DynamicValues": {
        "Values": {
          "799590554": {}
        }
      }
    }
  ],
  "GlobalModifiers": {
    "Monster_W1_Mecha04_01_HeadEffect": {
      "_CallbackList": [
        {
          "Event": "OnCreate",
          "CallbackConfig": [
            {
              "$type": "RPG.GameCore.ModifierAttachEffect",
              "TargetType": {
                "$type": "RPG.GameCore.TargetAlias",
                "Alias": "ModifierOwnerEntity"
              },
              "Flags": [
                "Resident"
              ],
              "EffectPath": "Effects/Eff_Prefab/Eff_Monster/Eff_W1_Mecha04_01/Eff_Monster_W1_Mecha04_01_Skill08_Head_M.prefab"
            }
          ]
        },
        {
          "Event": "OnBeingBreak",
          "CallbackConfig": [
            {
              "$type": "RPG.GameCore.RemoveSelfModifier"
            }
          ]
        }
      ]
    }
  }
}