{
  "BakeInfoLayouts": [
    {
      "UniqueName": "MMonster_W3_Ghost_00_EffectController",
      "Offset": 2011
    },
    {
      "UniqueName": "MMonster_W3_Ghost_00_Skill01_Parasitize_Target",
      "Offset": 2309
    },
    {
      "UniqueName": "MMonster_W3_Ghost_00_Skill01_Parasitize_Target_ElementDamageTakenUp",
      "Offset": 3629
    },
    {
      "UniqueName": "MMonster_W3_Ghost_00_Skill01_Parasitize_Target_EffectModifier",
      "Offset": 3755
    },
    {
      "UniqueName": "MMonster_W3_Ghost_00_Skill01_Parasitize_Target_EffectModifier_Elite",
      "Offset": 4200
    },
    {
      "UniqueName": "MMonster_W3_Ghost_00_SelfDestory_Controller",
      "Offset": 4627
    },
    {
      "UniqueName": "MMonster_W3_Ghost_00_ConfineHit_Controller",
      "Offset": 5120
    },
    {
      "UniqueName": "MMonster_W3_Ghost_00_Skill01_MuteDieSound",
      "Offset": 5526
    },
    {
      "UniqueName": "MMonster_W3_Ghost_00_DebuffDispeled",
      "Offset": 5649
    },
    {
      "UniqueName": "Monster_W3_Ghost_00_SkillP01",
      "TypeId": "TypeId_TurnBasedAbilityConfig",
      "Offset": 2
    },
    {
      "UniqueName": "Monster_W3_Ghost_00_Skill01_Phase01",
      "TypeId": "TypeId_TurnBasedAbilityConfig",
      "Offset": 194
    },
    {
      "UniqueName": "Monster_W3_Ghost_00_Skill01_Phase02",
      "TypeId": "TypeId_TurnBasedAbilityConfig",
      "Offset": 358
    },
    {
      "UniqueName": "Monster_W3_Ghost_00_Skill01_InsertAbility",
      "TypeId": "TypeId_TurnBasedAbilityConfig",
      "Offset": 1540
    },
    {
      "UniqueName": "Monster_W3_Ghost_00_Skill02_Phase01",
      "TypeId": "TypeId_TurnBasedAbilityConfig",
      "Offset": 1771
    },
    {
      "UniqueName": "Monster_W3_Ghost_00_Skill02_Phase02",
      "TypeId": "TypeId_TurnBasedAbilityConfig",
      "Offset": 1860
    },
    {
      "UniqueName": "Monster_W3_Ghost_00_SkillP01_ForceKill",
      "TypeId": "TypeId_TurnBasedAbilityConfig",
      "Offset": 1903
    }
  ]
}