{
  "BakeInfoLayouts": [
    {
      "UniqueName": "Monster_W1_CocoliaP1_00_RemoveOneMore",
      "Offset": 8605
    },
    {
      "UniqueName": "Boss_Cocolia_P1_Skill01_Phase01",
      "TypeId": "TypeId_TurnBasedAbilityConfig",
      "Offset": 2
    },
    {
      "UniqueName": "Boss_Cocolia_P1_Skill01_Phase02",
      "TypeId": "TypeId_TurnBasedAbilityConfig",
      "Offset": 290
    },
    {
      "UniqueName": "Boss_Cocolia_IceValue",
      "TypeId": "TypeId_TurnBasedAbilityConfig",
      "Offset": 582
    },
    {
      "UniqueName": "Boss_Cocolia_P1_Insert",
      "TypeId": "TypeId_TurnBasedAbilityConfig",
      "Offset": 1864
    },
    {
      "UniqueName": "Boss_Cocolia_P1_Skill02_Phase01",
      "TypeId": "TypeId_TurnBasedAbilityConfig",
      "Offset": 1921
    },
    {
      "UniqueName": "Boss_Cocolia_P1_Skill02_Phase02",
      "TypeId": "TypeId_TurnBasedAbilityConfig",
      "Offset": 2132
    },
    {
      "UniqueName": "Boss_Cocolia_P1_Skill03_Phase01",
      "TypeId": "TypeId_TurnBasedAbilityConfig",
      "Offset": 2445
    },
    {
      "UniqueName": "Boss_Cocolia_P1_Skill03_Phase02",
      "TypeId": "TypeId_TurnBasedAbilityConfig",
      "Offset": 2822
    },
    {
      "UniqueName": "Boss_Cocolia_P1_Skill04_Phase01",
      "TypeId": "TypeId_TurnBasedAbilityConfig",
      "Offset": 3793
    },
    {
      "UniqueName": "Boss_Cocolia_P1_Skill04_Phase02",
      "TypeId": "TypeId_TurnBasedAbilityConfig",
      "Offset": 3957
    },
    {
      "UniqueName": "Boss_Cocolia_P1_Skill05_Phase01",
      "TypeId": "TypeId_TurnBasedAbilityConfig",
      "Offset": 4568
    },
    {
      "UniqueName": "Boss_Cocolia_P1_Skill05_Phase02",
      "TypeId": "TypeId_TurnBasedAbilityConfig",
      "Offset": 4941
    },
    {
      "UniqueName": "Boss_Cocolia_P1_Skill06_Phase01",
      "TypeId": "TypeId_TurnBasedAbilityConfig",
      "Offset": 5180
    },
    {
      "UniqueName": "Boss_Cocolia_P1_Skill06_Phase02",
      "TypeId": "TypeId_TurnBasedAbilityConfig",
      "Offset": 5425
    },
    {
      "UniqueName": "Boss_Cocolia_P1_Skill07_Phase01",
      "TypeId": "TypeId_TurnBasedAbilityConfig",
      "Offset": 6122
    },
    {
      "UniqueName": "Boss_Cocolia_P1_Skill07_Phase02",
      "TypeId": "TypeId_TurnBasedAbilityConfig",
      "Offset": 6302
    },
    {
      "UniqueName": "Boss_Cocolia_P1_LockHP",
      "TypeId": "TypeId_TurnBasedAbilityConfig",
      "Offset": 6404
    },
    {
      "UniqueName": "Boss_Cocolia_P1_Skill08_Phase01",
      "TypeId": "TypeId_TurnBasedAbilityConfig",
      "Offset": 6686
    },
    {
      "UniqueName": "Boss_Cocolia_P1_Skill08_Phase02",
      "TypeId": "TypeId_TurnBasedAbilityConfig",
      "Offset": 6878
    },
    {
      "UniqueName": "Boss_Cocolia_P1_SkillTest_Phase01",
      "TypeId": "TypeId_TurnBasedAbilityConfig",
      "Offset": 7034
    },
    {
      "UniqueName": "Boss_Cocolia_P1_SkillTest_Phase02",
      "TypeId": "TypeId_TurnBasedAbilityConfig",
      "Offset": 7206
    },
    {
      "UniqueName": "Boss_Cocolia_P2_PassiveSkill_Initiate",
      "TypeId": "TypeId_TurnBasedAbilityConfig",
      "Offset": 7274
    },
    {
      "UniqueName": "Boss_Cocolia_P2_insertAbility",
      "TypeId": "TypeId_TurnBasedAbilityConfig",
      "Offset": 7318
    },
    {
      "UniqueName": "Boss_Cocolia_P1_StateCameraChange_01",
      "TypeId": "TypeId_TurnBasedAbilityConfig",
      "Offset": 7470
    },
    {
      "UniqueName": "Boss_Cocolia_P1_StateCameraChange_02",
      "TypeId": "TypeId_TurnBasedAbilityConfig",
      "Offset": 7511
    },
    {
      "UniqueName": "Boss_Cocolia_P1_StanceBreakInsert",
      "TypeId": "TypeId_TurnBasedAbilityConfig",
      "Offset": 7552
    },
    {
      "UniqueName": "Boss_Cocolia_P1_AIControlAndHPLock",
      "TypeId": "TypeId_TurnBasedAbilityConfig",
      "Offset": 7817
    },
    {
      "UniqueName": "Boss_Cocolia_P2_BossModifier",
      "TypeId": "TypeId_TurnBasedAbilityConfig",
      "Offset": 8396
    }
  ]
}