{
  "BakeInfoLayouts": [
    {
      "UniqueName": "MMonster_W1_Mecha03_02_RLElite_CountingSoldier01",
      "Offset": 14635
    },
    {
      "UniqueName": "MMonster_W1_Mecha03_02_RLElite_CountingSoldier02",
      "Offset": 14787
    },
    {
      "UniqueName": "MMonster_W1_Mecha03_02_RLElite_ReFreshMark",
      "Offset": 14933
    },
    {
      "UniqueName": "Monster_W1_Mecha03_02_RLElite_Passive01",
      "TypeId": "TypeId_TurnBasedAbilityConfig",
      "Offset": 2
    },
    {
      "UniqueName": "Monster_W1_Mecha03_02_RLElite_Skill01_Phase01",
      "TypeId": "TypeId_TurnBasedAbilityConfig",
      "Offset": 724
    },
    {
      "UniqueName": "Monster_W1_Mecha03_02_RLElite_Skill01_Phase02",
      "TypeId": "TypeId_TurnBasedAbilityConfig",
      "Offset": 1004
    },
    {
      "UniqueName": "Monster_W1_Mecha03_02_RLElite_Skill02_Phase01",
      "TypeId": "TypeId_TurnBasedAbilityConfig",
      "Offset": 1319
    },
    {
      "UniqueName": "Monster_W1_Mecha03_02_RLElite_Skill02_Phase02",
      "TypeId": "TypeId_TurnBasedAbilityConfig",
      "Offset": 1529
    },
    {
      "UniqueName": "Monster_W1_Mecha03_02_RLElite_Skill03_Phase01",
      "TypeId": "TypeId_TurnBasedAbilityConfig",
      "Offset": 1928
    },
    {
      "UniqueName": "Monster_W1_Mecha03_02_RLElite_Skill03_Phase02",
      "TypeId": "TypeId_TurnBasedAbilityConfig",
      "Offset": 2127
    },
    {
      "UniqueName": "Monster_W1_Mecha03_02_RLElite_Skill04_Phase01",
      "TypeId": "TypeId_TurnBasedAbilityConfig",
      "Offset": 3259
    },
    {
      "UniqueName": "Monster_W1_Mecha03_02_RLElite_Skill04_Phase02",
      "TypeId": "TypeId_TurnBasedAbilityConfig",
      "Offset": 3451
    },
    {
      "UniqueName": "Monster_W1_Mecha03_02_RLElite_Skill05_Phase01",
      "TypeId": "TypeId_TurnBasedAbilityConfig",
      "Offset": 7587
    },
    {
      "UniqueName": "Monster_W1_Mecha03_02_RLElite_Skill05_Phase02",
      "TypeId": "TypeId_TurnBasedAbilityConfig",
      "Offset": 7801
    },
    {
      "UniqueName": "Monster_W1_Mecha03_02_RLElite_Skill06_Phase01",
      "TypeId": "TypeId_TurnBasedAbilityConfig",
      "Offset": 10688
    },
    {
      "UniqueName": "Monster_W1_Mecha03_02_RLElite_Skill06_Phase02",
      "TypeId": "TypeId_TurnBasedAbilityConfig",
      "Offset": 10975
    },
    {
      "UniqueName": "Monster_W1_Mecha03_02_RLElite_Skill07_Phase01",
      "TypeId": "TypeId_TurnBasedAbilityConfig",
      "Offset": 12492
    },
    {
      "UniqueName": "Monster_W1_Mecha03_02_RLElite_Skill07_Phase02",
      "TypeId": "TypeId_TurnBasedAbilityConfig",
      "Offset": 12706
    }
  ]
}