{
  "BakeInfoLayouts": [
    {
      "UniqueName": "Monster_Common_SpeedAddedRatio",
      "Offset": 2298
    },
    {
      "UniqueName": "Monster_W2_Beast01_03_Buff",
      "Offset": 2473
    },
    {
      "UniqueName": "Monster_W2_Beast01_03_BeAttackedListener",
      "Offset": 2605
    },
    {
      "UniqueName": "Monster_W2_Beast01_03_LayerCount",
      "Offset": 2858
    },
    {
      "UniqueName": "Monster_W2_Beast01_03_Bleed",
      "Offset": 3489
    },
    {
      "UniqueName": "Monster_W2_Beast01_03_SkillP01_Initiate",
      "TypeId": "TypeId_TurnBasedAbilityConfig",
      "Offset": 2
    },
    {
      "UniqueName": "Monster_W2_Beast01_03_Skill01_Phase01",
      "TypeId": "TypeId_TurnBasedAbilityConfig",
      "Offset": 251
    },
    {
      "UniqueName": "Monster_W2_Beast01_03_Skill01_Phase02",
      "TypeId": "TypeId_TurnBasedAbilityConfig",
      "Offset": 516
    },
    {
      "UniqueName": "Monster_W2_Beast01_03_Skill02_Insert",
      "TypeId": "TypeId_TurnBasedAbilityConfig",
      "Offset": 863
    },
    {
      "UniqueName": "Monster_W2_Beast01_03_Skill02_Phase02",
      "TypeId": "TypeId_TurnBasedAbilityConfig",
      "Offset": 1053
    }
  ]
}