{
  "BakeInfoLayouts": [
    {
      "UniqueName": "Monster_W2_HuanlongPart_01_Revive",
      "Offset": 11699
    },
    {
      "UniqueName": "Monster_W2_HuanlongPart_01_Stealth",
      "Offset": 13624
    },
    {
      "UniqueName": "Monster_W2_HuanlongPart_01_Dormancy",
      "Offset": 13775
    },
    {
      "UniqueName": "Monster_W2_HuanlongPart_01_WeakControl",
      "Offset": 14443
    },
    {
      "UniqueName": "Monster_W2_HuanlongPart_01_Activity_Mark",
      "Offset": 14531
    },
    {
      "UniqueName": "Monster_W2_HuanlongPart_01_Activity",
      "Offset": 14568
    },
    {
      "UniqueName": "Monster_W2_HuanlongPart_01_RemoveActivityEffect",
      "Offset": 18376
    },
    {
      "UniqueName": "Monster_W2_HuanlongPart_01_Success",
      "Offset": 19249
    },
    {
      "UniqueName": "Monster_W2_HuanlongPart_01_InsertAbilityController",
      "Offset": 19780
    },
    {
      "UniqueName": "Monster_W2_HuanlongPart_01_Resistance",
      "Offset": 21701
    },
    {
      "UniqueName": "Monster_W2_HuanlongPart_01_Number01",
      "Offset": 21778
    },
    {
      "UniqueName": "Monster_W2_HuanlongPart_01_Number02",
      "Offset": 21815
    },
    {
      "UniqueName": "Monster_W2_HuanlongPart_01_Phase2_SpecialPerform",
      "Offset": 21865
    },
    {
      "UniqueName": "Monster_W2_HuanlongPart_01_Phase2_JingYuan",
      "Offset": 21927
    },
    {
      "UniqueName": "Monster_W2_HuanlongPart_01_Phase3End",
      "Offset": 21971
    },
    {
      "UniqueName": "Monster_W2_HuanlongPart_01_PassiveSkillInitiate",
      "TypeId": "TypeId_TurnBasedAbilityConfig",
      "Offset": 2
    },
    {
      "UniqueName": "Monster_W2_HuanlongPart_01_Skill02_Phase01",
      "TypeId": "TypeId_TurnBasedAbilityConfig",
      "Offset": 513
    },
    {
      "UniqueName": "Monster_W2_HuanlongPart_01_Skill02_Phase02",
      "TypeId": "TypeId_TurnBasedAbilityConfig",
      "Offset": 671
    },
    {
      "UniqueName": "Monster_W2_HuanlongPart_01_Skill03_Phase01",
      "TypeId": "TypeId_TurnBasedAbilityConfig",
      "Offset": 1413
    },
    {
      "UniqueName": "Monster_W2_HuanlongPart_01_Skill03_Phase02",
      "TypeId": "TypeId_TurnBasedAbilityConfig",
      "Offset": 1688
    },
    {
      "UniqueName": "Monster_W2_HuanlongPart_01_Skill04_Phase01",
      "TypeId": "TypeId_TurnBasedAbilityConfig",
      "Offset": 3175
    },
    {
      "UniqueName": "Monster_W2_HuanlongPart_01_Skill04_Phase02",
      "TypeId": "TypeId_TurnBasedAbilityConfig",
      "Offset": 3762
    },
    {
      "UniqueName": "Monster_W2_HuanlongPart_01_PassiveSkill_InsertAll_Phase01",
      "TypeId": "TypeId_TurnBasedAbilityConfig",
      "Offset": 6679
    },
    {
      "UniqueName": "Monster_W2_HuanlongPart_01_PassiveSkill_Insert_Phase01",
      "TypeId": "TypeId_TurnBasedAbilityConfig",
      "Offset": 10282
    },
    {
      "UniqueName": "Monster_W2_HuanlongPart_01_PassiveSkill_Insert2_Phase01",
      "TypeId": "TypeId_TurnBasedAbilityConfig",
      "Offset": 10682
    },
    {
      "UniqueName": "Monster_W2_HuanlongPart_01_PassiveSkill_Insert3_Phase01",
      "TypeId": "TypeId_TurnBasedAbilityConfig",
      "Offset": 11179
    }
  ]
}