{
  "BakeInfoLayouts": [
    {
      "UniqueName": "MMonster_W1_CocoliaP2_00_Weekly",
      "Offset": 18068
    },
    {
      "UniqueName": "MMonster_W1_CocoliaP2_00_Skill10_TargetLock",
      "Offset": 18113
    },
    {
      "UniqueName": "MMonster_W1_CocoliaP2_00_Skill10_Aiming",
      "Offset": 18364
    },
    {
      "UniqueName": "MMonster_W1_CocoliaP2_00_EnvironmentEffect_01",
      "Offset": 18841
    },
    {
      "UniqueName": "MMonster_W1_CocoliaP2_00_EnvironmentEffect_02",
      "Offset": 19151
    },
    {
      "UniqueName": "MMonster_W1_CocoliaP2_00_EnvironmentEffect_ALL",
      "Offset": 19462
    },
    {
      "UniqueName": "MMonster_W1_CocoliaP2_00_SpinSpeedController",
      "Offset": 19642
    },
    {
      "UniqueName": "MLevelEntity_Colossus_00_MainBattlePerform",
      "Offset": 19773
    },
    {
      "UniqueName": "MLevelEntity_Colossus_00_MainBattlePerform_Listener",
      "Offset": 20000
    },
    {
      "UniqueName": "MMonster_W1_CocoliaP2_00_MarkPlayer10_Controller",
      "Offset": 20212
    },
    {
      "UniqueName": "MMonster_W1_CocoliaP2_00_MarkPlayer10",
      "Offset": 20378
    },
    {
      "UniqueName": "Monster_W1_CocoliaP2_00_Skill01_Phase01",
      "TypeId": "TypeId_TurnBasedAbilityConfig",
      "Offset": 2
    },
    {
      "UniqueName": "Monster_W1_CocoliaP2_00_Skill01_Phase02",
      "TypeId": "TypeId_TurnBasedAbilityConfig",
      "Offset": 204
    },
    {
      "UniqueName": "Monster_W1_CocoliaP2_00_Skill02_Phase01",
      "TypeId": "TypeId_TurnBasedAbilityConfig",
      "Offset": 700
    },
    {
      "UniqueName": "Monster_W1_CocoliaP2_00_Skill02_Phase02",
      "TypeId": "TypeId_TurnBasedAbilityConfig",
      "Offset": 893
    },
    {
      "UniqueName": "Monster_W1_CocoliaP2_00_Skill04_Phase01",
      "TypeId": "TypeId_TurnBasedAbilityConfig",
      "Offset": 1841
    },
    {
      "UniqueName": "Monster_W1_CocoliaP2_00_Skill04_Phase02",
      "TypeId": "TypeId_TurnBasedAbilityConfig",
      "Offset": 2023
    },
    {
      "UniqueName": "Monster_W1_CocoliaP2_00_Skill06_Phase01",
      "TypeId": "TypeId_TurnBasedAbilityConfig",
      "Offset": 2212
    },
    {
      "UniqueName": "Monster_W1_CocoliaP2_00_Skill06_Phase02",
      "TypeId": "TypeId_TurnBasedAbilityConfig",
      "Offset": 2431
    },
    {
      "UniqueName": "Monster_W1_CocoliaP2_00_Skill07_Phase01",
      "TypeId": "TypeId_TurnBasedAbilityConfig",
      "Offset": 4644
    },
    {
      "UniqueName": "Monster_W1_CocoliaP2_00_Skill07_Phase02",
      "TypeId": "TypeId_TurnBasedAbilityConfig",
      "Offset": 4851
    },
    {
      "UniqueName": "Monster_W1_CocoliaP2_00_Skill08_Phase01",
      "TypeId": "TypeId_TurnBasedAbilityConfig",
      "Offset": 6045
    },
    {
      "UniqueName": "Monster_W1_CocoliaP2_00_Skill08_Phase02",
      "TypeId": "TypeId_TurnBasedAbilityConfig",
      "Offset": 6341
    },
    {
      "UniqueName": "Monster_W1_CocoliaP2_00_Skill09_Phase01",
      "TypeId": "TypeId_TurnBasedAbilityConfig",
      "Offset": 7442
    },
    {
      "UniqueName": "Monster_W1_CocoliaP2_00_Skill09_Phase02",
      "TypeId": "TypeId_TurnBasedAbilityConfig",
      "Offset": 7704
    },
    {
      "UniqueName": "Monster_W1_CocoliaP2_00_Skill10_Phase01",
      "TypeId": "TypeId_TurnBasedAbilityConfig",
      "Offset": 8791
    },
    {
      "UniqueName": "Monster_W1_CocoliaP2_00_Skill10_Phase02",
      "TypeId": "TypeId_TurnBasedAbilityConfig",
      "Offset": 8973
    },
    {
      "UniqueName": "Monster_W1_CocoliaP2_00_Skill11_Phase01",
      "TypeId": "TypeId_TurnBasedAbilityConfig",
      "Offset": 9468
    },
    {
      "UniqueName": "Monster_W1_CocoliaP2_00_Skill11_Phase02",
      "TypeId": "TypeId_TurnBasedAbilityConfig",
      "Offset": 9565
    },
    {
      "UniqueName": "Monster_W1_CocoliaP2_00_Skill12_Phase01",
      "TypeId": "TypeId_TurnBasedAbilityConfig",
      "Offset": 9632
    },
    {
      "UniqueName": "Monster_W1_CocoliaP2_00_Skill12_Phase02",
      "TypeId": "TypeId_TurnBasedAbilityConfig",
      "Offset": 9814
    },
    {
      "UniqueName": "Monster_W1_CocoliaP2_00_PassiveSkill_Battle2Extra",
      "TypeId": "TypeId_TurnBasedAbilityConfig",
      "Offset": 10128
    },
    {
      "UniqueName": "Monster_W1_CocoliaP2_00_SkillPerform01_Phase01",
      "TypeId": "TypeId_TurnBasedAbilityConfig",
      "Offset": 10727
    },
    {
      "UniqueName": "Monster_W1_CocoliaP2_00_SkillPerform01_Phase02",
      "TypeId": "TypeId_TurnBasedAbilityConfig",
      "Offset": 11014
    },
    {
      "UniqueName": "Monster_W1_CocoliaP2_00_PassiveSkill_Battle3Extra",
      "TypeId": "TypeId_TurnBasedAbilityConfig",
      "Offset": 11354
    },
    {
      "UniqueName": "Monster_W1_CocoliaP2_00_PassiveSkillInitiate",
      "TypeId": "TypeId_TurnBasedAbilityConfig",
      "Offset": 12330
    },
    {
      "UniqueName": "Monster_W1_CocoliaP2_00_PassiveSkill_Insert",
      "TypeId": "TypeId_TurnBasedAbilityConfig",
      "Offset": 14094
    },
    {
      "UniqueName": "Monster_W1_CocoliaP2_00_SkillP02",
      "TypeId": "TypeId_TurnBasedAbilityConfig",
      "Offset": 15769
    },
    {
      "UniqueName": "Monster_W1_CocoliaP2_00_PerformSkill_Battle2",
      "TypeId": "TypeId_TurnBasedAbilityConfig",
      "Offset": 16567
    },
    {
      "UniqueName": "Monster_W1_CocoliaP2_00_PerformSkill_Battle3",
      "TypeId": "TypeId_TurnBasedAbilityConfig",
      "Offset": 16733
    },
    {
      "UniqueName": "Monster_W1_CocoliaP2_00_SpecialAbility_M3_3_2",
      "TypeId": "TypeId_TurnBasedAbilityConfig",
      "Offset": 17182
    },
    {
      "UniqueName": "Monster_W1_CocoliaP2_00_PassiveSkillMainBattle",
      "TypeId": "TypeId_TurnBasedAbilityConfig",
      "Offset": 17416
    }
  ]
}