{
  "BakeInfoLayouts": [
    {
      "UniqueName": "Monster_W2_Beast01_00_Buff",
      "Offset": 3084
    },
    {
      "UniqueName": "Monster_W2_Beast01_00_SkillP01_Initiate",
      "TypeId": "TypeId_TurnBasedAbilityConfig",
      "Offset": 2
    },
    {
      "UniqueName": "Monster_W2_Beast01_00_SkillP01_Insert",
      "TypeId": "TypeId_TurnBasedAbilityConfig",
      "Offset": 2077
    },
    {
      "UniqueName": "Monster_W2_Beast01_00_SkillP01_Phase02",
      "TypeId": "TypeId_TurnBasedAbilityConfig",
      "Offset": 2253
    },
    {
      "UniqueName": "Monster_W2_Beast01_00_Skill01_Phase01",
      "TypeId": "TypeId_TurnBasedAbilityConfig",
      "Offset": 2480
    },
    {
      "UniqueName": "Monster_W2_Beast01_00_Skill01_Phase02",
      "TypeId": "TypeId_TurnBasedAbilityConfig",
      "Offset": 2745
    }
  ]
}