{
  "AbilityList": [
    {
      "Modifiers": {
        "Monster_W3_Junk_00_AttackListener": {
          "BehaviorFlagList": [
            "STAT_AITargetHigherPriority"
          ],
          "_CallbackList": [
            {
              "Event": "OnBeforeBeingHitAll",
              "CallbackConfig": [
                {
                  "$type": "RPG.GameCore.TriggerEffect",
                  "TargetType": {
                    "$type": "RPG.GameCore.TargetAlias",
                    "Alias": "ModifierOwnerEntity"
                  },
                  "EffectPath": "Effects/Eff_Prefab/Eff_Monster/Eff_W3_Junk_00/Eff_Monster_W3_Junk_00_BeingHit.prefab"
                },
                {
                  "$type": "RPG.GameCore.PredicateTaskList",
                  "Predicate": {
                    "$type": "RPG.GameCore.ByAnd",
                    "PredicateList": [
                      {
                        "$type": "RPG.GameCore.ByAttackType",
                        "TargetType": {
                          "$type": "RPG.GameCore.TargetAlias",
                          "Alias": "ParamEntity"
                        },
                        "AttackTypes": [
                          "Normal",
                          "BPSkill",
                          "Ultra",
                          "Insert"
                        ]
                      },
                      {
                        "$type": "RPG.GameCore.ByTargetTeam",
                        "TargetType": {
                          "$type": "RPG.GameCore.TargetAlias",
                          "Alias": "ParamEntity"
                        },
                        "Team": "TeamLight"
                      },
                      {
                        "$type": "RPG.GameCore.ByCompareDynamicValue",
                        "DynamicKey": "Unlock_Flag",
                        "CompareType": "Equal",
                        "CompareValue": {
                          "IsDynamic": false,
                          "FixedValue": {
                            "Value": 0
                          }
                        }
                      },
                      {
                        "$type": "RPG.GameCore.ByCompareDynamicValue",
                        "DynamicKey": "WeaknessCount",
                        "CompareType": "Less",
                        "CompareValue": {
                          "IsDynamic": false,
                          "FixedValue": {
                            "Value": 2
                          }
                        }
                      }
                    ]
                  },
                  "SuccessTaskList": [
                    {
                      "$type": "RPG.GameCore.SetDynamicValue",
                      "DynamicKey": "Unlock_Flag",
                      "Value": {
                        "IsDynamic": false,
                        "FixedValue": {
                          "Value": 1
                        }
                      }
                    },
                    {
                      "$type": "RPG.GameCore.PredicateTaskList",
                      "Predicate": {
                        "$type": "RPG.GameCore.ByIsDamageType",
                        "TargetType": {
                          "$type": "RPG.GameCore.TargetAlias",
                          "Alias": "ModifierOwnerEntity"
                        },
                        "DamageTypeList": [
                          "Fire"
                        ]
                      },
                      "SuccessTaskList": [
                        {
                          "$type": "RPG.GameCore.StackWeakness",
                          "TargetType": {
                            "$type": "RPG.GameCore.TargetAlias",
                            "Alias": "ModifierOwnerEntity"
                          },
                          "WeakList": [
                            "Fire"
                          ]
                        },
                        {
                          "$type": "RPG.GameCore.AddModifier",
                          "TargetType": {
                            "$type": "RPG.GameCore.TargetAlias",
                            "Alias": "ModifierOwnerEntity"
                          },
                          "ModifierName": "Monster_W3_Junk_00_AttachWeaknessFire"
                        }
                      ]
                    },
                    {
                      "$type": "RPG.GameCore.PredicateTaskList",
                      "Predicate": {
                        "$type": "RPG.GameCore.ByIsDamageType",
                        "TargetType": {
                          "$type": "RPG.GameCore.TargetAlias",
                          "Alias": "ModifierOwnerEntity"
                        },
                        "DamageTypeList": [
                          "Ice"
                        ]
                      },
                      "SuccessTaskList": [
                        {
                          "$type": "RPG.GameCore.StackWeakness",
                          "TargetType": {
                            "$type": "RPG.GameCore.TargetAlias",
                            "Alias": "ModifierOwnerEntity"
                          },
                          "WeakList": [
                            "Ice"
                          ]
                        },
                        {
                          "$type": "RPG.GameCore.AddModifier",
                          "TargetType": {
                            "$type": "RPG.GameCore.TargetAlias",
                            "Alias": "ModifierOwnerEntity"
                          },
                          "ModifierName": "Monster_W3_Junk_00_AttachWeaknessIce"
                        }
                      ]
                    },
                    {
                      "$type": "RPG.GameCore.PredicateTaskList",
                      "Predicate": {
                        "$type": "RPG.GameCore.ByIsDamageType",
                        "TargetType": {
                          "$type": "RPG.GameCore.TargetAlias",
                          "Alias": "ModifierOwnerEntity"
                        },
                        "DamageTypeList": [
                          "Imaginary"
                        ]
                      },
                      "SuccessTaskList": [
                        {
                          "$type": "RPG.GameCore.StackWeakness",
                          "TargetType": {
                            "$type": "RPG.GameCore.TargetAlias",
                            "Alias": "ModifierOwnerEntity"
                          },
                          "WeakList": [
                            "Imaginary"
                          ]
                        },
                        {
                          "$type": "RPG.GameCore.AddModifier",
                          "TargetType": {
                            "$type": "RPG.GameCore.TargetAlias",
                            "Alias": "ModifierOwnerEntity"
                          },
                          "ModifierName": "Monster_W3_Junk_00_AttachWeaknessImaginary"
                        }
                      ]
                    },
                    {
                      "$type": "RPG.GameCore.PredicateTaskList",
                      "Predicate": {
                        "$type": "RPG.GameCore.ByIsDamageType",
                        "TargetType": {
                          "$type": "RPG.GameCore.TargetAlias",
                          "Alias": "ModifierOwnerEntity"
                        },
                        "DamageTypeList": [
                          "Physical"
                        ]
                      },
                      "SuccessTaskList": [
                        {
                          "$type": "RPG.GameCore.StackWeakness",
                          "TargetType": {
                            "$type": "RPG.GameCore.TargetAlias",
                            "Alias": "ModifierOwnerEntity"
                          },
                          "WeakList": [
                            "Physical"
                          ]
                        },
                        {
                          "$type": "RPG.GameCore.AddModifier",
                          "TargetType": {
                            "$type": "RPG.GameCore.TargetAlias",
                            "Alias": "ModifierOwnerEntity"
                          },
                          "ModifierName": "Monster_W3_Junk_00_AttachWeaknessPhysical"
                        }
                      ]
                    },
                    {
                      "$type": "RPG.GameCore.PredicateTaskList",
                      "Predicate": {
                        "$type": "RPG.GameCore.ByIsDamageType",
                        "TargetType": {
                          "$type": "RPG.GameCore.TargetAlias",
                          "Alias": "ModifierOwnerEntity"
                        },
                        "DamageTypeList": [
                          "Quantum"
                        ]
                      },
                      "SuccessTaskList": [
                        {
                          "$type": "RPG.GameCore.StackWeakness",
                          "TargetType": {
                            "$type": "RPG.GameCore.TargetAlias",
                            "Alias": "ModifierOwnerEntity"
                          },
                          "WeakList": [
                            "Quantum"
                          ]
                        },
                        {
                          "$type": "RPG.GameCore.AddModifier",
                          "TargetType": {
                            "$type": "RPG.GameCore.TargetAlias",
                            "Alias": "ModifierOwnerEntity"
                          },
                          "ModifierName": "Monster_W3_Junk_00_AttachWeaknessQuantum"
                        }
                      ]
                    },
                    {
                      "$type": "RPG.GameCore.PredicateTaskList",
                      "Predicate": {
                        "$type": "RPG.GameCore.ByIsDamageType",
                        "TargetType": {
                          "$type": "RPG.GameCore.TargetAlias",
                          "Alias": "ModifierOwnerEntity"
                        },
                        "DamageTypeList": [
                          "Thunder"
                        ]
                      },
                      "SuccessTaskList": [
                        {
                          "$type": "RPG.GameCore.StackWeakness",
                          "TargetType": {
                            "$type": "RPG.GameCore.TargetAlias",
                            "Alias": "ModifierOwnerEntity"
                          },
                          "WeakList": [
                            "Thunder"
                          ]
                        },
                        {
                          "$type": "RPG.GameCore.AddModifier",
                          "TargetType": {
                            "$type": "RPG.GameCore.TargetAlias",
                            "Alias": "ModifierOwnerEntity"
                          },
                          "ModifierName": "Monster_W3_Junk_00_AttachWeaknessThunder"
                        }
                      ]
                    },
                    {
                      "$type": "RPG.GameCore.PredicateTaskList",
                      "Predicate": {
                        "$type": "RPG.GameCore.ByIsDamageType",
                        "TargetType": {
                          "$type": "RPG.GameCore.TargetAlias",
                          "Alias": "ModifierOwnerEntity"
                        },
                        "DamageTypeList": [
                          "Wind"
                        ]
                      },
                      "SuccessTaskList": [
                        {
                          "$type": "RPG.GameCore.StackWeakness",
                          "TargetType": {
                            "$type": "RPG.GameCore.TargetAlias",
                            "Alias": "ModifierOwnerEntity"
                          },
                          "WeakList": [
                            "Wind"
                          ]
                        },
                        {
                          "$type": "RPG.GameCore.AddModifier",
                          "TargetType": {
                            "$type": "RPG.GameCore.TargetAlias",
                            "Alias": "ModifierOwnerEntity"
                          },
                          "ModifierName": "Monster_W3_Junk_00_AttachWeaknessWind"
                        }
                      ]
                    }
                  ]
                }
              ]
            },
            {
              "Event": "OnAfterBeingAttackedEnd",
              "CallbackConfig": [
                {
                  "$type": "RPG.GameCore.SetDynamicValue",
                  "DynamicKey": "Unlock_Flag",
                  "Value": {
                    "IsDynamic": false,
                    "FixedValue": {
                      "Value": 0
                    }
                  }
                }
              ]
            },
            {
              "Event": "OnEnterBattle",
              "CallbackConfig": [
                {
                  "$type": "RPG.GameCore.PredicateTaskList",
                  "Predicate": {
                    "$type": "RPG.GameCore.ByIsContainModifier",
                    "TargetType": {
                      "$type": "RPG.GameCore.TargetAlias",
                      "Alias": "Caster"
                    },
                    "ModifierName": "Monster_W3_Junk_00_ATMark",
                    "Inverse": true
                  },
                  "SuccessTaskList": [
                    {
                      "$type": "RPG.GameCore.ShowUIPage",
                      "AssetPath": "UI/Common/Widget/BattleMonsterNormalHint.prefab",
                      "UITextNodes": [
                        {
                          "TextPath": "AreaInfoPanel/Title/Text",
                          "TextContent": {
                            "Hash": -1538826568
                          }
                        }
                      ],
                      "LifeTime": 2
                    }
                  ]
                }
              ]
            },
            {
              "Event": "OnBeingBreak",
              "CallbackConfig": [
                {
                  "$type": "RPG.GameCore.ForceKill",
                  "TargetType": {
                    "$type": "RPG.GameCore.TargetAlias",
                    "Alias": "ModifierOwnerEntity"
                  },
                  "KillerType": {
                    "$type": "RPG.GameCore.TargetAlias",
                    "Alias": "ParamEntity"
                  }
                }
              ]
            }
          ],
          "Stacking": "Replace"
        },
        "Monster_W3_Junk_00_Deathrattle": {
          "BehaviorFlagList": [
            "Deathrattle",
            "MuteHitFly"
          ],
          "_CallbackList": [
            {
              "Event": "OnLimboWaitHeal",
              "CallbackConfig": []
            },
            {
              "Event": "OnDeathrattle",
              "CallbackConfig": [
                {
                  "$type": "RPG.GameCore.TriggerAnimState",
                  "AnimStateName": "Stagger"
                },
                {
                  "$type": "RPG.GameCore.DispelStatus",
                  "TargetType": {
                    "$type": "RPG.GameCore.TargetAlias",
                    "Alias": "Caster"
                  },
                  "OnlyAlive": false,
                  "IsSlientDispel": true
                },
                {
                  "$type": "RPG.GameCore.SetDieImmediately"
                },
                {
                  "$type": "RPG.GameCore.PredicateTaskList",
                  "Predicate": {
                    "$type": "RPG.GameCore.ByIsContainModifier",
                    "TargetType": {
                      "$type": "RPG.GameCore.TargetAlias",
                      "Alias": "Caster"
                    },
                    "ModifierName": "Monster_W3_Junk_00_ATMark"
                  },
                  "SuccessTaskList": []
                },
                {
                  "$type": "RPG.GameCore.TurnInsertAbility",
                  "AbilityName": "Monster_W3_Junk_00_Insert_Phase01",
                  "InsertAbilityPriority": "MonsterDeathRattle",
                  "OwnerAliveState": "Mask_AliveOrLimbo",
                  "TargetAliveState": "Mask_AliveOrLimbo",
                  "ShowInActionBar": true
                }
              ]
            }
          ],
          "Stacking": "Replace"
        }
      },
      "Name": "Monster_W3_Junk_00_PassiveSkill",
      "TargetInfo": {
        "TargetType": "SkillTargetEntityList"
      },
      "OnStart": [
        {
          "$type": "RPG.GameCore.AddModifier",
          "TargetType": {
            "$type": "RPG.GameCore.TargetAlias",
            "Alias": "Caster"
          },
          "ModifierName": "Monster_W3_Junk_00_AttackListener"
        },
        {
          "$type": "RPG.GameCore.AddModifier",
          "TargetType": {
            "$type": "RPG.GameCore.TargetAlias",
            "Alias": "Caster"
          },
          "ModifierName": "Monster_W3_Junk_00_Deathrattle"
        },
        {
          "$type": "RPG.GameCore.AddModifier",
          "TargetType": {
            "$type": "RPG.GameCore.TargetAlias",
            "Alias": "Caster"
          },
          "ModifierName": "OneMorePerTurn"
        },
        {
          "$type": "RPG.GameCore.AddModifier",
          "TargetType": {
            "$type": "RPG.GameCore.TargetAlias",
            "Alias": "Caster"
          },
          "ModifierName": "W3_Junk_00_BattleScore1"
        }
      ]
    },
    {
      "Name": "Monster_W3_Junk_00_Skill01_Phase01",
      "TargetInfo": {
        "TargetType": "SkillTargetEntityList"
      },
      "OnStart": [
        {
          "$type": "RPG.GameCore.TriggerAbility",
          "TargetType": {
            "$type": "RPG.GameCore.TargetAlias",
            "Alias": "Caster"
          },
          "AbilityName": "Monster_W3_Junk_00_Skill01_Phase02",
          "IsSkillPerform": true
        },
        {
          "$type": "RPG.GameCore.TriggerAbility",
          "TargetType": {
            "$type": "RPG.GameCore.TargetAlias",
            "Alias": "Caster"
          },
          "AbilityName": "Monster_W3_Junk_00_Skill01_Camera",
          "IsSkillPerform": true
        },
        {
          "$type": "RPG.GameCore.LookAt",
          "TargetType": "AbilityTargetEntity"
        },
        {
          "$type": "RPG.GameCore.TriggerAnimStateWithMove",
          "TargetType": {
            "$type": "RPG.GameCore.TargetAlias",
            "Alias": "Caster"
          },
          "AnimStateName": "Skill01",
          "NormalizedTimeEnd": {
            "IsDynamic": false,
            "FixedValue": {
              "Value": 1
            }
          },
          "MovingRangeList": [
            {
              "TargetType": {
                "$type": "RPG.GameCore.TargetAlias",
                "Alias": "AbilityTargetEntity"
              },
              "IgnoreRadius": true,
              "OffsetTargetDistance": {
                "IsDynamic": false,
                "FixedValue": {
                  "Value": 1.5
                }
              },
              "NormalizedTimeStart": {
                "IsDynamic": false,
                "FixedValue": {
                  "Value": 0.303
                }
              },
              "NormalizedTimeEnd": {
                "IsDynamic": false,
                "FixedValue": {
                  "Value": 0.402
                }
              }
            },
            {
              "TargetType": {
                "$type": "RPG.GameCore.TargetAlias",
                "Alias": "TeamFormation"
              },
              "IgnoreRadius": true,
              "OffsetTargetDistance": {
                "IsDynamic": false,
                "FixedValue": {
                  "Value": 0
                }
              },
              "NormalizedTimeStart": {
                "IsDynamic": false,
                "FixedValue": {
                  "Value": 0.666
                }
              },
              "NormalizedTimeEnd": {
                "IsDynamic": false,
                "FixedValue": {
                  "Value": 0.781
                }
              }
            }
          ]
        },
        {
          "$type": "RPG.GameCore.TriggerAnimState",
          "AnimLogicState": "Idle"
        }
      ]
    },
    {
      "Name": "Monster_W3_Junk_00_Skill01_Phase02",
      "TargetInfo": {
        "TargetType": "SkillTargetEntityList"
      },
      "OnStart": [
        {
          "$type": "RPG.GameCore.SkillExecutionStart"
        },
        {
          "$type": "RPG.GameCore.WaitAnimState",
          "TargetType": {
            "$type": "RPG.GameCore.TargetAlias",
            "Alias": "Caster"
          },
          "AnimStateName": "Skill01",
          "NormalizedTimeEnd": {
            "IsDynamic": false,
            "FixedValue": {
              "Value": 0.472
            }
          }
        },
        {
          "$type": "RPG.GameCore.DamageByAttackProperty",
          "TargetType": {
            "$type": "RPG.GameCore.TargetAlias",
            "Alias": "AbilityTargetEntity"
          },
          "AttackProperty": {
            "DamageType": {
              "DamageType": "Physical"
            },
            "DamagePercentage": {
              "IsDynamic": true,
              "PostfixExpr": {
                "OpCodes": "AQAK",
                "FixedValues": [],
                "DynamicHashes": [
                  -1126825319
                ]
              }
            },
            "SPHitRatio": {
              "IsDynamic": false,
              "FixedValue": {
                "Value": 1
              }
            },
            "AttackType": "Normal",
            "HitAnimation": "Hit_H",
            "HitEffect": "Effects/Eff_Prefab/Eff_Monster/Eff_W3_Junk_00/Eff_Monster_W3_Junk_00_Skill01_Hit01.prefab",
            "HitEffectHeight": 0.9,
            "HitTimeSlowType": "Impact",
            "HitTimeSlowIntensity": "Heavy"
          },
          "TriggerHitSound": true,
          "SpecialHitSoundEvent": "Ev_sfx_monster_skill_01_hit_golddigger",
          "DisplayData": {
            "UIMessageHeight": 1
          }
        },
        {
          "$type": "RPG.GameCore.DamagePerformFinish"
        },
        {
          "$type": "RPG.GameCore.WaitAnimState",
          "TargetType": {
            "$type": "RPG.GameCore.TargetAlias",
            "Alias": "Caster"
          },
          "AnimStateName": "Skill01",
          "NormalizedTimeEnd": {
            "IsDynamic": false,
            "FixedValue": {
              "Value": 1
            }
          }
        },
        {
          "$type": "RPG.GameCore.SkillPerformFinish"
        }
      ]
    },
    {
      "Name": "Monster_W3_Junk_00_Skill02_Phase01",
      "TargetInfo": {
        "TargetType": "SkillTargetEntityList"
      },
      "OnStart": [
        {
          "$type": "RPG.GameCore.TriggerAbility",
          "TargetType": {
            "$type": "RPG.GameCore.TargetAlias",
            "Alias": "Caster"
          },
          "AbilityName": "Monster_W3_Junk_00_Skill02_Phase02",
          "IsSkillPerform": true
        },
        {
          "$type": "RPG.GameCore.TriggerAbility",
          "TargetType": {
            "$type": "RPG.GameCore.TargetAlias",
            "Alias": "Caster"
          },
          "AbilityName": "Monster_W3_Junk_00_Skill02_Camera",
          "IsSkillPerform": true
        },
        {
          "$type": "RPG.GameCore.TriggerAnimState",
          "AnimStateName": "Skill02",
          "NormalizedTimeEnd": {
            "IsDynamic": false,
            "FixedValue": {
              "Value": 1
            }
          },
          "NormalizedTimeWait": {
            "IsDynamic": false,
            "FixedValue": {
              "Value": 0.72
            }
          },
          "NormalizedTransitionDuration": {
            "IsDynamic": false,
            "FixedValue": {
              "Value": 0.15
            }
          }
        },
        {
          "$type": "RPG.GameCore.TriggerAnimState",
          "AnimLogicState": "Idle"
        }
      ]
    },
    {
      "Modifiers": {},
      "Name": "Monster_W3_Junk_00_Skill02_Phase02",
      "TargetInfo": {
        "TargetType": "Caster"
      },
      "OnStart": [
        {
          "$type": "RPG.GameCore.WaitAnimState",
          "TargetType": {
            "$type": "RPG.GameCore.TargetAlias",
            "Alias": "Caster"
          },
          "AnimStateName": "Skill02",
          "NormalizedTimeEnd": {
            "IsDynamic": false,
            "FixedValue": {
              "Value": 0.2
            }
          }
        },
        {
          "$type": "RPG.GameCore.SkillExecutionStart"
        },
        {
          "$type": "RPG.GameCore.RemoveModifier",
          "TargetType": {
            "$type": "RPG.GameCore.TargetAlias",
            "Alias": "Caster"
          },
          "ModifierName": "OneMore"
        },
        {
          "$type": "RPG.GameCore.WaitAnimState",
          "TargetType": {
            "$type": "RPG.GameCore.TargetAlias",
            "Alias": "Caster"
          },
          "AnimStateName": "Skill02",
          "NormalizedTimeEnd": {
            "IsDynamic": false,
            "FixedValue": {
              "Value": 0.281
            }
          }
        },
        {
          "$type": "RPG.GameCore.AddModifier",
          "TargetType": {
            "$type": "RPG.GameCore.TargetAlias",
            "Alias": "Caster"
          },
          "ModifierName": "Monster_W3_Junk_00_AttackAddRatio1",
          "DynamicValues": {
            "MDF_PropertyValue": {
              "IsDynamic": true,
              "PostfixExpr": {
                "OpCodes": "AQAK",
                "FixedValues": [],
                "DynamicHashes": [
                  447844149
                ]
              }
            }
          }
        },
        {
          "$type": "RPG.GameCore.ShowUIPage",
          "AssetPath": "UI/Common/Widget/BattleLimitedTurnHint.prefab",
          "UITextNodes": [
            {
              "TextPath": "AreaInfoPanel/Title/Text",
              "TextContent": {
                "Hash": 1332265934
              }
            }
          ],
          "LifeTime": 2
        },
        {
          "$type": "RPG.GameCore.WaitAnimState",
          "TargetType": {
            "$type": "RPG.GameCore.TargetAlias",
            "Alias": "Caster"
          },
          "AnimStateName": "Skill02",
          "NormalizedTimeEnd": {
            "IsDynamic": false,
            "FixedValue": {
              "Value": 0.75
            }
          }
        },
        {
          "$type": "RPG.GameCore.SkillPerformFinish"
        }
      ]
    },
    {
      "Name": "Monster_W3_Junk_00_Insert_Phase01",
      "TargetInfo": {
        "TargetType": "Caster"
      },
      "OnStart": [
        {
          "$type": "RPG.GameCore.ExitBreakState",
          "TargetType": {
            "$type": "RPG.GameCore.TargetAlias",
            "Alias": "Caster"
          },
          "CancelRecoverAnim": true
        },
        {
          "$type": "RPG.GameCore.SetTeamFormation",
          "Team": "TeamLight",
          "FormationType": "LightTeamNormal",
          "CustomFormationIgnoreDying": false
        },
        {
          "$type": "RPG.GameCore.MakeCharacterHUDVisible",
          "TargetType": {
            "$type": "RPG.GameCore.TargetAlias",
            "Alias": "ModifierOwnerEntity"
          },
          "IndependentControl": true
        },
        {
          "$type": "RPG.GameCore.VCameraConfigChange",
          "CameraConfig": {
            "NormalConfig": {
              "CameraState": "CastAnimation",
              "AnchorOffset": {
                "X": 2.5,
                "Y": 0,
                "Z": -5
              },
              "AimTargetType": {
                "$type": "RPG.GameCore.TargetAlias",
                "Alias": "Caster"
              },
              "AimOffset": {
                "X": 0,
                "Y": 0.4,
                "Z": 0
              }
            },
            "ShowEntityConfig": {
              "ShowTargetType": {
                "$type": "RPG.GameCore.TargetAlias",
                "Alias": "AllTeamMember"
              },
              "IsAliveOnly": false
            }
          }
        },
        {
          "$type": "RPG.GameCore.TriggerAnimStateWithMove",
          "TargetType": {
            "$type": "RPG.GameCore.TargetAlias",
            "Alias": "Caster"
          },
          "AnimStateName": "Skill03",
          "NormalizedTimeEnd": {
            "IsDynamic": false,
            "FixedValue": {
              "Value": 1
            }
          },
          "EventList": [
            {
              "NormalizedTime": {
                "IsDynamic": false,
                "FixedValue": {
                  "Value": 0
                }
              },
              "TaskList": [
                {
                  "$type": "RPG.GameCore.PredicateTaskList",
                  "Predicate": {
                    "$type": "RPG.GameCore.ByIsContainModifier",
                    "TargetType": {
                      "$type": "RPG.GameCore.TargetAlias",
                      "Alias": "Caster"
                    },
                    "ModifierName": "Monster_W3_Junk_00_ATMark",
                    "Inverse": true
                  },
                  "SuccessTaskList": [
                    {
                      "$type": "RPG.GameCore.ShowUIPage",
                      "AssetPath": "UI/Common/Widget/BattleSelfStatusHint.prefab",
                      "UITextNodes": [
                        {
                          "TextPath": "AreaInfoPanel/Title/Text",
                          "TextContent": {
                            "Hash": 210995439
                          }
                        }
                      ],
                      "LifeTime": 2
                    }
                  ]
                },
                {
                  "$type": "RPG.GameCore.VCameraConfigChange",
                  "CameraConfig": {
                    "NormalConfig": {
                      "CameraState": "CastAnimation",
                      "AimTargetType": {
                        "$type": "RPG.GameCore.TargetAlias",
                        "Alias": "AbilityTargetEntity"
                      }
                    },
                    "BlendConfig": {
                      "BlendType": "Cut"
                    },
                    "ShowEntityConfig": {
                      "ShowTargetType": {
                        "$type": "RPG.GameCore.TargetAlias",
                        "Alias": "Caster"
                      }
                    }
                  }
                }
              ]
            },
            {
              "NormalizedTime": {
                "IsDynamic": false,
                "FixedValue": {
                  "Value": 0.96
                }
              },
              "TaskList": [
                {
                  "$type": "RPG.GameCore.SetEntityVisible",
                  "TargetType": {
                    "$type": "RPG.GameCore.TargetAlias",
                    "Alias": "Caster"
                  }
                }
              ]
            },
            {
              "NormalizedTime": {
                "IsDynamic": false,
                "FixedValue": {
                  "Value": 1
                }
              },
              "TaskList": [
                {
                  "$type": "RPG.GameCore.SetDieImmediately"
                }
              ]
            }
          ]
        },
        {
          "$type": "RPG.GameCore.TriggerAnimState",
          "AnimLogicState": "Idle",
          "AnimStateName": "StandBy"
        },
        {
          "$type": "RPG.GameCore.LookAt",
          "TargetType": "TeamFormation"
        }
      ]
    },
    {
      "Modifiers": {
        "Monster_W3_Junk_00_ATMark": {
          "BehaviorFlagList": [
            "Deathrattle"
          ]
        }
      },
      "Name": "Monster_W3_Junk_00_ActivityTelevision",
      "TargetInfo": {
        "TargetType": "Caster"
      },
      "OnStart": [
        {
          "$type": "RPG.GameCore.SetDynamicValue",
          "DynamicKey": "WeaknessCount",
          "Value": {
            "IsDynamic": false,
            "FixedValue": {
              "Value": 3
            }
          }
        },
        {
          "$type": "RPG.GameCore.AddModifier",
          "TargetType": {
            "$type": "RPG.GameCore.TargetAlias",
            "Alias": "AllLightTeam"
          },
          "ModifierName": "Monster_W3_Junk_00_AttackListenerForPuzzle",
          "InheritCaster": "TargetSelf"
        },
        {
          "$type": "RPG.GameCore.AddModifier",
          "TargetType": {
            "$type": "RPG.GameCore.TargetAlias",
            "Alias": "Caster"
          },
          "ModifierName": "Monster_W3_Junk_00_ATMark"
        }
      ]
    },
    {
      "Modifiers": {
        "Monster_W3_Junk_00_ExtraWeakness_Physical": {
          "_CallbackList": [
            {
              "Event": "OnCreate",
              "CallbackConfig": [
                {
                  "$type": "RPG.GameCore.StackWeakness",
                  "TargetType": {
                    "$type": "RPG.GameCore.TargetAlias",
                    "Alias": "ParamEntity"
                  },
                  "OPType": "Attach",
                  "WeakList": [
                    "Physical"
                  ]
                }
              ]
            }
          ]
        },
        "Monster_W3_Junk_00_ExtraWeakness_Fire": {
          "_CallbackList": [
            {
              "Event": "OnCreate",
              "CallbackConfig": [
                {
                  "$type": "RPG.GameCore.StackWeakness",
                  "TargetType": {
                    "$type": "RPG.GameCore.TargetAlias",
                    "Alias": "ParamEntity"
                  },
                  "OPType": "Attach",
                  "WeakList": [
                    "Fire"
                  ]
                }
              ]
            }
          ]
        },
        "Monster_W3_Junk_00_ExtraWeakness_Ice": {
          "_CallbackList": [
            {
              "Event": "OnCreate",
              "CallbackConfig": [
                {
                  "$type": "RPG.GameCore.StackWeakness",
                  "TargetType": {
                    "$type": "RPG.GameCore.TargetAlias",
                    "Alias": "ParamEntity"
                  },
                  "OPType": "Attach",
                  "WeakList": [
                    "Ice"
                  ]
                }
              ]
            }
          ]
        },
        "Monster_W3_Junk_00_ExtraWeakness_Thunder": {
          "_CallbackList": [
            {
              "Event": "OnCreate",
              "CallbackConfig": [
                {
                  "$type": "RPG.GameCore.StackWeakness",
                  "TargetType": {
                    "$type": "RPG.GameCore.TargetAlias",
                    "Alias": "ParamEntity"
                  },
                  "OPType": "Attach",
                  "WeakList": [
                    "Thunder"
                  ]
                }
              ]
            }
          ]
        },
        "Monster_W3_Junk_00_ExtraWeakness_Wind": {
          "_CallbackList": [
            {
              "Event": "OnCreate",
              "CallbackConfig": [
                {
                  "$type": "RPG.GameCore.StackWeakness",
                  "TargetType": {
                    "$type": "RPG.GameCore.TargetAlias",
                    "Alias": "ParamEntity"
                  },
                  "OPType": "Attach",
                  "WeakList": [
                    "Wind"
                  ]
                }
              ]
            }
          ]
        },
        "Monster_W3_Junk_00_ExtraWeakness_Quantum": {
          "_CallbackList": [
            {
              "Event": "OnCreate",
              "CallbackConfig": [
                {
                  "$type": "RPG.GameCore.StackWeakness",
                  "TargetType": {
                    "$type": "RPG.GameCore.TargetAlias",
                    "Alias": "ParamEntity"
                  },
                  "OPType": "Attach",
                  "WeakList": [
                    "Quantum"
                  ]
                }
              ]
            }
          ]
        },
        "Monster_W3_Junk_00_ExtraWeakness_Imaginary": {
          "_CallbackList": [
            {
              "Event": "OnCreate",
              "CallbackConfig": [
                {
                  "$type": "RPG.GameCore.StackWeakness",
                  "TargetType": {
                    "$type": "RPG.GameCore.TargetAlias",
                    "Alias": "ParamEntity"
                  },
                  "OPType": "Attach",
                  "WeakList": [
                    "Imaginary"
                  ]
                }
              ]
            }
          ]
        }
      },
      "Name": "BattleEventAbility_Monster_W3_Junk_00_PuzzleAbility",
      "TargetInfo": {
        "TargetType": "InherentTargetEntity"
      },
      "OnStart": [
        {
          "$type": "RPG.GameCore.VCameraConfigChange",
          "CameraConfig": {
            "NormalConfig": {
              "CameraState": "CasterToTargetPerform",
              "AnchorTargetType": {
                "$type": "RPG.GameCore.TargetAlias",
                "Alias": "LightTeamCenter"
              },
              "IsLocalOffset": true,
              "AnchorOffset": {
                "X": 1,
                "Y": 2,
                "Z": -10
              },
              "AnchorRatio": 0.99,
              "AimTargetType": {
                "$type": "RPG.GameCore.TargetAlias",
                "Alias": "DarkTeamCenter"
              },
              "AimOffset": {
                "X": 0,
                "Y": 1.5,
                "Z": 0.001
              },
              "AimRatio": 1
            },
            "BlendConfig": {
              "BlendType": "Cut"
            },
            "ShowEntityConfig": {
              "ShowTargetType": {
                "$type": "RPG.GameCore.TargetAlias",
                "Alias": "AllDarkTeam"
              }
            }
          }
        },
        {
          "$type": "RPG.GameCore.WaitSecond",
          "WaitTime": {
            "IsDynamic": false,
            "FixedValue": {
              "Value": 0.5
            }
          }
        },
        {
          "$type": "RPG.GameCore.Retarget",
          "TargetType": {
            "$type": "RPG.GameCore.TargetAlias",
            "Alias": "AllDarkTeam"
          },
          "Predicate": {
            "$type": "RPG.GameCore.ByCheckCustomValueBool",
            "TargetType": {
              "$type": "RPG.GameCore.TargetAlias",
              "Alias": "ParamEntity"
            },
            "Key": {
              "Hash": 1514167029
            },
            "Inverse": true
          },
          "TaskList": [
            {
              "$type": "RPG.GameCore.ResetStance",
              "TargetType": {
                "$type": "RPG.GameCore.TargetAlias",
                "Alias": "ParamEntity"
              },
              "ConstantValue": {
                "IsDynamic": false,
                "FixedValue": {
                  "Value": 0
                }
              }
            },
            {
              "$type": "RPG.GameCore.TriggerBreak",
              "TargetType": {
                "$type": "RPG.GameCore.TargetAlias",
                "Alias": "ParamEntity"
              }
            }
          ]
        },
        {
          "$type": "RPG.GameCore.WaitSecond",
          "WaitTime": {
            "IsDynamic": false,
            "FixedValue": {
              "Value": 2
            }
          }
        }
      ]
    }
  ],
  "GlobalModifiers": {
    "Monster_W3_Junk_00_AttackAddRatio1": {
      "_CallbackList": [
        {
          "Event": "OnStack",
          "CallbackConfig": [
            {
              "$type": "RPG.GameCore.SetDynamicValue",
              "DynamicKey": "MDF_AttackAddRatioCurrent",
              "Value": {
                "IsDynamic": false,
                "FixedValue": {
                  "Value": 1
                }
              }
            },
            {
              "$type": "RPG.GameCore.PredicateTaskList",
              "Predicate": {
                "$type": "RPG.GameCore.ByCompareDynamicValue",
                "DynamicKey": "MDF_CurrentLayer",
                "CompareType": "Greater",
                "CompareValue": {
                  "IsDynamic": false,
                  "FixedValue": {
                    "Value": 0
                  }
                }
              },
              "SuccessTaskList": [
                {
                  "$type": "RPG.GameCore.LoopExecuteTaskList",
                  "MaxLoopCount": {
                    "IsDynamic": true,
                    "PostfixExpr": {
                      "OpCodes": "AQAK",
                      "FixedValues": [],
                      "DynamicHashes": [
                        -63529766
                      ]
                    }
                  },
                  "TaskList": [
                    {
                      "$type": "RPG.GameCore.SetDynamicValue",
                      "DynamicKey": "MDF_AttackAddRatioCurrent",
                      "Value": {
                        "IsDynamic": true,
                        "PostfixExpr": {
                          "OpCodes": "AQAAAAQK",
                          "FixedValues": [
                            {
                              "Value": 2
                            }
                          ],
                          "DynamicHashes": [
                            -1638428951
                          ]
                        }
                      }
                    }
                  ]
                }
              ]
            },
            {
              "$type": "RPG.GameCore.SetDynamicValueByAddValue",
              "TargetType": {
                "$type": "RPG.GameCore.TargetAlias",
                "Alias": "Caster"
              },
              "Key": "MDF_CurrentLayer",
              "AddValue": {
                "IsDynamic": false,
                "FixedValue": {
                  "Value": 1
                }
              },
              "Min": {
                "IsDynamic": false,
                "FixedValue": {
                  "Value": 0
                }
              },
              "Max": {
                "IsDynamic": false,
                "FixedValue": {
                  "Value": 100
                }
              }
            },
            {
              "$type": "RPG.GameCore.SetDynamicValue",
              "DynamicKey": "MDF_AttackAddRatioCurrent",
              "Value": {
                "IsDynamic": true,
                "PostfixExpr": {
                  "OpCodes": "AQABAQQK",
                  "FixedValues": [],
                  "DynamicHashes": [
                    2128130574,
                    -1638428951
                  ]
                }
              }
            },
            {
              "$type": "RPG.GameCore.StackProperty",
              "TargetType": {
                "$type": "RPG.GameCore.TargetAlias",
                "Alias": "ModifierOwnerEntity"
              },
              "Property": "AttackAddedRatio",
              "PropertyValue": {
                "IsDynamic": true,
                "PostfixExpr": {
                  "OpCodes": "AQAK",
                  "FixedValues": [],
                  "DynamicHashes": [
                    -1638428951
                  ]
                }
              }
            }
          ]
        }
      ],
      "Stacking": "Replace",
      "DynamicValues": {
        "Values": {
          "2128130574": {},
          "-1638428951": {},
          "-63529766": {}
        }
      }
    },
    "Monster_W3_Junk_00_AttackListenerForPuzzle": {
      "_CallbackList": [
        {
          "Event": "OnCreate",
          "CallbackConfig": [
            {
              "$type": "RPG.GameCore.OwnerEntityAddAbility",
              "AbilityName": "BattleEventAbility_Monster_W3_Junk_00_PuzzleAbility"
            }
          ]
        },
        {
          "Event": "OnBeforeHit",
          "CallbackConfig": [
            {
              "$type": "RPG.GameCore.PredicateTaskList",
              "Predicate": {
                "$type": "RPG.GameCore.ByAnd",
                "PredicateList": [
                  {
                    "$type": "RPG.GameCore.ByAttackType",
                    "TargetType": {
                      "$type": "RPG.GameCore.TargetAlias",
                      "Alias": "ModifierOwnerEntity"
                    },
                    "AttackTypes": [
                      "Normal",
                      "BPSkill",
                      "Ultra",
                      "Insert"
                    ]
                  },
                  {
                    "$type": "RPG.GameCore.ByCheckCustomValueBool",
                    "TargetType": {
                      "$type": "RPG.GameCore.TargetAlias",
                      "Alias": "ParamEntity"
                    },
                    "Key": {
                      "Hash": 1514167029
                    }
                  }
                ]
              },
              "SuccessTaskList": [
                {
                  "$type": "RPG.GameCore.PredicateTaskList",
                  "Predicate": {
                    "$type": "RPG.GameCore.ByIsDamageType",
                    "TargetType": {
                      "$type": "RPG.GameCore.TargetAlias",
                      "Alias": "ModifierOwnerEntity"
                    },
                    "DamageTypeList": [
                      "Fire"
                    ]
                  },
                  "SuccessTaskList": [
                    {
                      "$type": "RPG.GameCore.StackWeakness",
                      "TargetType": {
                        "$type": "RPG.GameCore.TargetAlias",
                        "Alias": "ParamEntity"
                      },
                      "OPType": "Attach",
                      "WeakList": [
                        "Fire"
                      ]
                    }
                  ]
                },
                {
                  "$type": "RPG.GameCore.PredicateTaskList",
                  "Predicate": {
                    "$type": "RPG.GameCore.ByIsDamageType",
                    "TargetType": {
                      "$type": "RPG.GameCore.TargetAlias",
                      "Alias": "ModifierOwnerEntity"
                    },
                    "DamageTypeList": [
                      "Ice"
                    ]
                  },
                  "SuccessTaskList": [
                    {
                      "$type": "RPG.GameCore.StackWeakness",
                      "TargetType": {
                        "$type": "RPG.GameCore.TargetAlias",
                        "Alias": "ParamEntity"
                      },
                      "OPType": "Attach",
                      "WeakList": [
                        "Ice"
                      ]
                    }
                  ]
                },
                {
                  "$type": "RPG.GameCore.PredicateTaskList",
                  "Predicate": {
                    "$type": "RPG.GameCore.ByIsDamageType",
                    "TargetType": {
                      "$type": "RPG.GameCore.TargetAlias",
                      "Alias": "ModifierOwnerEntity"
                    },
                    "DamageTypeList": [
                      "Imaginary"
                    ]
                  },
                  "SuccessTaskList": [
                    {
                      "$type": "RPG.GameCore.StackWeakness",
                      "TargetType": {
                        "$type": "RPG.GameCore.TargetAlias",
                        "Alias": "ParamEntity"
                      },
                      "OPType": "Attach",
                      "WeakList": [
                        "Imaginary"
                      ]
                    }
                  ]
                },
                {
                  "$type": "RPG.GameCore.PredicateTaskList",
                  "Predicate": {
                    "$type": "RPG.GameCore.ByIsDamageType",
                    "TargetType": {
                      "$type": "RPG.GameCore.TargetAlias",
                      "Alias": "ModifierOwnerEntity"
                    },
                    "DamageTypeList": [
                      "Physical"
                    ]
                  },
                  "SuccessTaskList": [
                    {
                      "$type": "RPG.GameCore.StackWeakness",
                      "TargetType": {
                        "$type": "RPG.GameCore.TargetAlias",
                        "Alias": "ParamEntity"
                      },
                      "OPType": "Attach",
                      "WeakList": [
                        "Physical"
                      ]
                    }
                  ]
                },
                {
                  "$type": "RPG.GameCore.PredicateTaskList",
                  "Predicate": {
                    "$type": "RPG.GameCore.ByIsDamageType",
                    "TargetType": {
                      "$type": "RPG.GameCore.TargetAlias",
                      "Alias": "ModifierOwnerEntity"
                    },
                    "DamageTypeList": [
                      "Quantum"
                    ]
                  },
                  "SuccessTaskList": [
                    {
                      "$type": "RPG.GameCore.StackWeakness",
                      "TargetType": {
                        "$type": "RPG.GameCore.TargetAlias",
                        "Alias": "ParamEntity"
                      },
                      "OPType": "Attach",
                      "WeakList": [
                        "Quantum"
                      ]
                    }
                  ]
                },
                {
                  "$type": "RPG.GameCore.PredicateTaskList",
                  "Predicate": {
                    "$type": "RPG.GameCore.ByIsDamageType",
                    "TargetType": {
                      "$type": "RPG.GameCore.TargetAlias",
                      "Alias": "ModifierOwnerEntity"
                    },
                    "DamageTypeList": [
                      "Thunder"
                    ]
                  },
                  "SuccessTaskList": [
                    {
                      "$type": "RPG.GameCore.StackWeakness",
                      "TargetType": {
                        "$type": "RPG.GameCore.TargetAlias",
                        "Alias": "ParamEntity"
                      },
                      "OPType": "Attach",
                      "WeakList": [
                        "Thunder"
                      ]
                    }
                  ]
                },
                {
                  "$type": "RPG.GameCore.PredicateTaskList",
                  "Predicate": {
                    "$type": "RPG.GameCore.ByIsDamageType",
                    "TargetType": {
                      "$type": "RPG.GameCore.TargetAlias",
                      "Alias": "ModifierOwnerEntity"
                    },
                    "DamageTypeList": [
                      "Wind"
                    ]
                  },
                  "SuccessTaskList": [
                    {
                      "$type": "RPG.GameCore.StackWeakness",
                      "TargetType": {
                        "$type": "RPG.GameCore.TargetAlias",
                        "Alias": "ParamEntity"
                      },
                      "OPType": "Attach",
                      "WeakList": [
                        "Wind"
                      ]
                    }
                  ]
                }
              ]
            }
          ]
        },
        {
          "Event": "OnTriggerBreak",
          "CallbackConfig": [
            {
              "$type": "RPG.GameCore.PredicateTaskList",
              "Predicate": {
                "$type": "RPG.GameCore.ByCheckCustomValueBool",
                "TargetType": {
                  "$type": "RPG.GameCore.TargetAlias",
                  "Alias": "ParamEntity"
                },
                "Key": {
                  "Hash": 1514167029
                }
              },
              "SuccessTaskList": [
                {
                  "$type": "RPG.GameCore.PredicateTaskList",
                  "Predicate": {
                    "$type": "RPG.GameCore.ByIsContainModifier",
                    "TargetType": {
                      "$type": "RPG.GameCore.TargetAlias",
                      "Alias": "LevelEntity"
                    },
                    "ModifierName": "Modifier_BattleEventAbility_ActivityTelevision_EliteWaveMark",
                    "Inverse": true
                  },
                  "SuccessTaskList": [
                    {
                      "$type": "RPG.GameCore.SetBattleTargetProgress",
                      "BattleTargetID": {
                        "IsDynamic": false,
                        "FixedValue": {
                          "Value": 5000706
                        }
                      },
                      "ModifyValue": {
                        "IsDynamic": false,
                        "FixedValue": {
                          "Value": 1
                        }
                      }
                    },
                    {
                      "$type": "RPG.GameCore.ShowUIPage",
                      "AssetPath": "UI/Common/Widget/BattleSelfStatusHint.prefab",
                      "UITextNodes": [
                        {
                          "TextPath": "AreaInfoPanel/Title/Text",
                          "TextContent": {
                            "Hash": -318401880
                          }
                        }
                      ],
                      "LifeTime": 1.5
                    }
                  ]
                },
                {
                  "$type": "RPG.GameCore.TurnInsertAbility",
                  "AbilityName": "BattleEventAbility_Monster_W3_Junk_00_PuzzleAbility",
                  "AbilityTarget": {
                    "$type": "RPG.GameCore.TargetAlias",
                    "Alias": "ParamEntity"
                  },
                  "InsertAbilityPriority": "MonsterBattleCry",
                  "TargetAliveState": "Mask_AliveOrLimbo"
                }
              ]
            }
          ]
        }
      ]
    },
    "Monster_W3_Junk_00_AttachWeaknessPhysical": {
      "_CallbackList": [
        {
          "Event": "OnStack",
          "CallbackConfig": [
            {
              "$type": "RPG.GameCore.SetDynamicValueByAddValue",
              "TargetType": {
                "$type": "RPG.GameCore.TargetAlias",
                "Alias": "Caster"
              },
              "Key": "WeaknessCount",
              "AddValue": {
                "IsDynamic": false,
                "FixedValue": {
                  "Value": 1
                }
              },
              "Min": {
                "IsDynamic": false,
                "FixedValue": {
                  "Value": 0
                }
              },
              "Max": {
                "IsDynamic": false,
                "FixedValue": {
                  "Value": 2
                }
              },
              "ContextScope": "TargetEntity"
            }
          ]
        }
      ]
    },
    "Monster_W3_Junk_00_AttachWeaknessFire": {
      "_CallbackList": [
        {
          "Event": "OnStack",
          "CallbackConfig": [
            {
              "$type": "RPG.GameCore.SetDynamicValueByAddValue",
              "TargetType": {
                "$type": "RPG.GameCore.TargetAlias",
                "Alias": "Caster"
              },
              "Key": "WeaknessCount",
              "AddValue": {
                "IsDynamic": false,
                "FixedValue": {
                  "Value": 1
                }
              },
              "Min": {
                "IsDynamic": false,
                "FixedValue": {
                  "Value": 0
                }
              },
              "Max": {
                "IsDynamic": false,
                "FixedValue": {
                  "Value": 2
                }
              },
              "ContextScope": "TargetEntity"
            }
          ]
        }
      ]
    },
    "Monster_W3_Junk_00_AttachWeaknessWind": {
      "_CallbackList": [
        {
          "Event": "OnStack",
          "CallbackConfig": [
            {
              "$type": "RPG.GameCore.SetDynamicValueByAddValue",
              "TargetType": {
                "$type": "RPG.GameCore.TargetAlias",
                "Alias": "Caster"
              },
              "Key": "WeaknessCount",
              "AddValue": {
                "IsDynamic": false,
                "FixedValue": {
                  "Value": 1
                }
              },
              "Min": {
                "IsDynamic": false,
                "FixedValue": {
                  "Value": 0
                }
              },
              "Max": {
                "IsDynamic": false,
                "FixedValue": {
                  "Value": 2
                }
              },
              "ContextScope": "TargetEntity"
            }
          ]
        }
      ]
    },
    "Monster_W3_Junk_00_AttachWeaknessThunder": {
      "_CallbackList": [
        {
          "Event": "OnStack",
          "CallbackConfig": [
            {
              "$type": "RPG.GameCore.SetDynamicValueByAddValue",
              "TargetType": {
                "$type": "RPG.GameCore.TargetAlias",
                "Alias": "Caster"
              },
              "Key": "WeaknessCount",
              "AddValue": {
                "IsDynamic": false,
                "FixedValue": {
                  "Value": 1
                }
              },
              "Min": {
                "IsDynamic": false,
                "FixedValue": {
                  "Value": 0
                }
              },
              "Max": {
                "IsDynamic": false,
                "FixedValue": {
                  "Value": 2
                }
              },
              "ContextScope": "TargetEntity"
            }
          ]
        }
      ]
    },
    "Monster_W3_Junk_00_AttachWeaknessImaginary": {
      "_CallbackList": [
        {
          "Event": "OnStack",
          "CallbackConfig": [
            {
              "$type": "RPG.GameCore.SetDynamicValueByAddValue",
              "TargetType": {
                "$type": "RPG.GameCore.TargetAlias",
                "Alias": "Caster"
              },
              "Key": "WeaknessCount",
              "AddValue": {
                "IsDynamic": false,
                "FixedValue": {
                  "Value": 1
                }
              },
              "Min": {
                "IsDynamic": false,
                "FixedValue": {
                  "Value": 0
                }
              },
              "Max": {
                "IsDynamic": false,
                "FixedValue": {
                  "Value": 2
                }
              },
              "ContextScope": "TargetEntity"
            }
          ]
        }
      ]
    },
    "Monster_W3_Junk_00_AttachWeaknessQuantum": {
      "_CallbackList": [
        {
          "Event": "OnStack",
          "CallbackConfig": [
            {
              "$type": "RPG.GameCore.SetDynamicValueByAddValue",
              "TargetType": {
                "$type": "RPG.GameCore.TargetAlias",
                "Alias": "Caster"
              },
              "Key": "WeaknessCount",
              "AddValue": {
                "IsDynamic": false,
                "FixedValue": {
                  "Value": 1
                }
              },
              "Min": {
                "IsDynamic": false,
                "FixedValue": {
                  "Value": 0
                }
              },
              "Max": {
                "IsDynamic": false,
                "FixedValue": {
                  "Value": 2
                }
              },
              "ContextScope": "TargetEntity"
            }
          ]
        }
      ]
    },
    "Monster_W3_Junk_00_AttachWeaknessIce": {
      "_CallbackList": [
        {
          "Event": "OnStack",
          "CallbackConfig": [
            {
              "$type": "RPG.GameCore.SetDynamicValueByAddValue",
              "TargetType": {
                "$type": "RPG.GameCore.TargetAlias",
                "Alias": "Caster"
              },
              "Key": "WeaknessCount",
              "AddValue": {
                "IsDynamic": false,
                "FixedValue": {
                  "Value": 1
                }
              },
              "Min": {
                "IsDynamic": false,
                "FixedValue": {
                  "Value": 0
                }
              },
              "Max": {
                "IsDynamic": false,
                "FixedValue": {
                  "Value": 2
                }
              },
              "ContextScope": "TargetEntity"
            }
          ]
        }
      ]
    }
  }
}