{
  "BakeInfoLayouts": [
    {
      "UniqueName": "Monster_W2_Huanlong_00_PhaseController",
      "Offset": 27093
    },
    {
      "UniqueName": "Monster_W2_Huanlong_00_Endurance",
      "Offset": 27868
    },
    {
      "UniqueName": "Monster_W2_Huanlong_00_BlackBlood",
      "Offset": 27945
    },
    {
      "UniqueName": "Monster_W2_Huanlong_00_Sign",
      "Offset": 28053
    },
    {
      "UniqueName": "Monster_W2_Huanlong_00_Sign02",
      "Offset": 28283
    },
    {
      "UniqueName": "Monster_W2_Huanlong_00_Skill02Mark",
      "Offset": 28518
    },
    {
      "UniqueName": "Monster_W2_Huanlong_00_Skill04Mark",
      "Offset": 28554
    },
    {
      "UniqueName": "Monster_W2_Huanlong_00_Skill08Mark",
      "Offset": 28590
    },
    {
      "UniqueName": "Monster_W2_Huanlong_00_Skill07Mark",
      "Offset": 28626
    },
    {
      "UniqueName": "Monster_W2_Huanlong_00_Skill12Mark",
      "Offset": 28662
    },
    {
      "UniqueName": "Monster_W2_Huanlong_00_Skill06Mark",
      "Offset": 28698
    },
    {
      "UniqueName": "Monster_W2_Huanlong_00_Charge",
      "Offset": 28761
    },
    {
      "UniqueName": "Monster_W2_Huanlong_00_Skill08_Prepare",
      "Offset": 29009
    },
    {
      "UniqueName": "Monster_W2_Huanlong_00_Special",
      "Offset": 29113
    },
    {
      "UniqueName": "Monster_W2_Huanlong_00_SpecialSelf",
      "Offset": 29156
    },
    {
      "UniqueName": "Monster_W2_Huanlong_00_Skill08_First",
      "Offset": 29211
    },
    {
      "UniqueName": "Monster_W2_Huanlong_00_Skill13_Special",
      "Offset": 29251
    },
    {
      "UniqueName": "Monster_W2_Huanlong_00_EntangleEffectController",
      "Offset": 29300
    },
    {
      "UniqueName": "Monster_W2_Huanlong_00_EntangleEffect",
      "Offset": 29624
    },
    {
      "UniqueName": "Monster_W2_Huanlong_00_SpecialWin",
      "Offset": 29797
    },
    {
      "UniqueName": "Monster_W2_Huanlong_00_Phase3Start",
      "Offset": 29953
    },
    {
      "UniqueName": "Monster_W2_Huanlong_00_Phase3End",
      "Offset": 30125
    },
    {
      "UniqueName": "Monster_W2_Huanlong_00_Main",
      "Offset": 30192
    },
    {
      "UniqueName": "Monster_W2_Huanlong_00_Part00_TalkSentence",
      "Offset": 34889
    },
    {
      "UniqueName": "Monster_W2_Huanlong_00_Phase1Lock",
      "Offset": 35057
    },
    {
      "UniqueName": "Monster_W2_Huanlong_00_Phase2Lock",
      "Offset": 35108
    },
    {
      "UniqueName": "Monster_W2_Huanlong_00_JingYuan_DamageUp",
      "Offset": 35166
    },
    {
      "UniqueName": "Monster_W2_Huanlong_00_Phase2_BattlePerform",
      "Offset": 35273
    },
    {
      "UniqueName": "Monster_W2_Huanlong_00_Phase1_BattlePerform",
      "Offset": 35916
    },
    {
      "UniqueName": "Monster_W2_Huanlong_00_Phase2_SpecialPerform",
      "Offset": 36339
    },
    {
      "UniqueName": "Monster_W2_Huanlong_00_Phase3EndForcePerform",
      "Offset": 36646
    },
    {
      "UniqueName": "Monster_W2_Huanlong_00_Phase3EndEndurance",
      "Offset": 36794
    },
    {
      "UniqueName": "Monster_W2_Huanlong_00_PassiveSkillInitiate",
      "TypeId": "TypeId_TurnBasedAbilityConfig",
      "Offset": 2
    },
    {
      "UniqueName": "Monster_W2_Huanlong_00_Skill01_Phase01",
      "TypeId": "TypeId_TurnBasedAbilityConfig",
      "Offset": 1655
    },
    {
      "UniqueName": "Monster_W2_Huanlong_00_Skill01_Phase02",
      "TypeId": "TypeId_TurnBasedAbilityConfig",
      "Offset": 1826
    },
    {
      "UniqueName": "Monster_W2_Huanlong_00_Skill02_Phase01",
      "TypeId": "TypeId_TurnBasedAbilityConfig",
      "Offset": 2258
    },
    {
      "UniqueName": "Monster_W2_Huanlong_00_Skill02_Phase02",
      "TypeId": "TypeId_TurnBasedAbilityConfig",
      "Offset": 2425
    },
    {
      "UniqueName": "Monster_W2_Huanlong_00_Skill03_Phase01",
      "TypeId": "TypeId_TurnBasedAbilityConfig",
      "Offset": 4006
    },
    {
      "UniqueName": "Monster_W2_Huanlong_00_Skill03_Phase02",
      "TypeId": "TypeId_TurnBasedAbilityConfig",
      "Offset": 4181
    },
    {
      "UniqueName": "Monster_W2_Huanlong_00_Skill04_Phase01",
      "TypeId": "TypeId_TurnBasedAbilityConfig",
      "Offset": 4876
    },
    {
      "UniqueName": "Monster_W2_Huanlong_00_Skill04_Phase02",
      "TypeId": "TypeId_TurnBasedAbilityConfig",
      "Offset": 5043
    },
    {
      "UniqueName": "Monster_W2_Huanlong_00_Skill05_Phase01",
      "TypeId": "TypeId_TurnBasedAbilityConfig",
      "Offset": 6107
    },
    {
      "UniqueName": "Monster_W2_Huanlong_00_Skill05_Phase02",
      "TypeId": "TypeId_TurnBasedAbilityConfig",
      "Offset": 6278
    },
    {
      "UniqueName": "Monster_W2_Huanlong_00_Skill06_Phase01",
      "TypeId": "TypeId_TurnBasedAbilityConfig",
      "Offset": 6763
    },
    {
      "UniqueName": "Monster_W2_Huanlong_00_Skill06_Phase02",
      "TypeId": "TypeId_TurnBasedAbilityConfig",
      "Offset": 6939
    },
    {
      "UniqueName": "Monster_W2_Huanlong_00_SkillP06_Phase01",
      "TypeId": "TypeId_TurnBasedAbilityConfig",
      "Offset": 8130
    },
    {
      "UniqueName": "Monster_W2_Huanlong_00_SkillP06_Phase02",
      "TypeId": "TypeId_TurnBasedAbilityConfig",
      "Offset": 8331
    },
    {
      "UniqueName": "Monster_W2_Huanlong_00_Skill07_Phase01",
      "TypeId": "TypeId_TurnBasedAbilityConfig",
      "Offset": 10039
    },
    {
      "UniqueName": "Monster_W2_Huanlong_00_Skill07_Phase02",
      "TypeId": "TypeId_TurnBasedAbilityConfig",
      "Offset": 10206
    },
    {
      "UniqueName": "Monster_W2_Huanlong_00_Skill08_Phase01",
      "TypeId": "TypeId_TurnBasedAbilityConfig",
      "Offset": 11748
    },
    {
      "UniqueName": "Monster_W2_Huanlong_00_Skill08_Phase02",
      "TypeId": "TypeId_TurnBasedAbilityConfig",
      "Offset": 12237
    },
    {
      "UniqueName": "Monster_W2_Huanlong_00_Skill09_Phase01",
      "TypeId": "TypeId_TurnBasedAbilityConfig",
      "Offset": 13094
    },
    {
      "UniqueName": "Monster_W2_Huanlong_00_Skill09_Phase02",
      "TypeId": "TypeId_TurnBasedAbilityConfig",
      "Offset": 13266
    },
    {
      "UniqueName": "Monster_W2_Huanlong_00_Skill10_Phase01",
      "TypeId": "TypeId_TurnBasedAbilityConfig",
      "Offset": 13767
    },
    {
      "UniqueName": "Monster_W2_Huanlong_00_Skill10_Phase02",
      "TypeId": "TypeId_TurnBasedAbilityConfig",
      "Offset": 13934
    },
    {
      "UniqueName": "Monster_W2_Huanlong_00_Skill11_Phase01",
      "TypeId": "TypeId_TurnBasedAbilityConfig",
      "Offset": 14148
    },
    {
      "UniqueName": "Monster_W2_Huanlong_00_Skill11_Phase02",
      "TypeId": "TypeId_TurnBasedAbilityConfig",
      "Offset": 14319
    },
    {
      "UniqueName": "Monster_W2_Huanlong_00_Skill12_Phase01",
      "TypeId": "TypeId_TurnBasedAbilityConfig",
      "Offset": 15169
    },
    {
      "UniqueName": "Monster_W2_Huanlong_00_Skill12_Phase02",
      "TypeId": "TypeId_TurnBasedAbilityConfig",
      "Offset": 15336
    },
    {
      "UniqueName": "Monster_W2_Huanlong_00_Skill13_Phase01",
      "TypeId": "TypeId_TurnBasedAbilityConfig",
      "Offset": 16089
    },
    {
      "UniqueName": "Monster_W2_Huanlong_00_Skill13_Phase02",
      "TypeId": "TypeId_TurnBasedAbilityConfig",
      "Offset": 16256
    },
    {
      "UniqueName": "Monster_W2_Huanlong_00_Skill14_Phase01",
      "TypeId": "TypeId_TurnBasedAbilityConfig",
      "Offset": 18435
    },
    {
      "UniqueName": "Monster_W2_Huanlong_00_Skill14_Phase02",
      "TypeId": "TypeId_TurnBasedAbilityConfig",
      "Offset": 18478
    },
    {
      "UniqueName": "Monster_W2_Huanlong_00_PassiveSkill_Insert",
      "TypeId": "TypeId_TurnBasedAbilityConfig",
      "Offset": 18976
    },
    {
      "UniqueName": "Monster_W2_Huanlong_00_PassiveSkill_Insert2",
      "TypeId": "TypeId_TurnBasedAbilityConfig",
      "Offset": 20766
    },
    {
      "UniqueName": "Monster_W2_Huanlong_00_SpecialWin_Insert",
      "TypeId": "TypeId_TurnBasedAbilityConfig",
      "Offset": 22654
    },
    {
      "UniqueName": "Monster_W2_Huanlong_00_Phase3Start_Camera1_Insert",
      "TypeId": "TypeId_TurnBasedAbilityConfig",
      "Offset": 22866
    },
    {
      "UniqueName": "Monster_W2_Huanlong_00_SkillP12_Phase01",
      "TypeId": "TypeId_TurnBasedAbilityConfig",
      "Offset": 23177
    },
    {
      "UniqueName": "Monster_W2_Huanlong_00_SkillP12_Phase02",
      "TypeId": "TypeId_TurnBasedAbilityConfig",
      "Offset": 23346
    },
    {
      "UniqueName": "Monster_W2_Huanlong_00_Phase3Start_Camera2_Insert",
      "TypeId": "TypeId_TurnBasedAbilityConfig",
      "Offset": 24277
    },
    {
      "UniqueName": "Monster_W2_Huanlong_00_Phase3End_Camera1_Insert",
      "TypeId": "TypeId_TurnBasedAbilityConfig",
      "Offset": 24641
    },
    {
      "UniqueName": "Monster_W2_Huanlong_00_Phase1_Camera1_Insert",
      "TypeId": "TypeId_TurnBasedAbilityConfig",
      "Offset": 24978
    },
    {
      "UniqueName": "Monster_W2_Huanlong_00_Phase1_Camera0_Insert",
      "TypeId": "TypeId_TurnBasedAbilityConfig",
      "Offset": 25238
    },
    {
      "UniqueName": "Monster_W2_Huanlong_00_Phase2_Camera1_Insert",
      "TypeId": "TypeId_TurnBasedAbilityConfig",
      "Offset": 25393
    },
    {
      "UniqueName": "Monster_W2_Huanlong_00_Phase2_Camera2_Insert",
      "TypeId": "TypeId_TurnBasedAbilityConfig",
      "Offset": 25627
    },
    {
      "UniqueName": "Monster_W2_Huanlong_00_Phase2_Camera3_Insert",
      "TypeId": "TypeId_TurnBasedAbilityConfig",
      "Offset": 25783
    },
    {
      "UniqueName": "Monster_W2_Huanlong_00_Phase2_Camera4_Insert",
      "TypeId": "TypeId_TurnBasedAbilityConfig",
      "Offset": 26029
    },
    {
      "UniqueName": "Monster_W2_Huanlong_00_Phase3_Camera1_Insert",
      "TypeId": "TypeId_TurnBasedAbilityConfig",
      "Offset": 26185
    },
    {
      "UniqueName": "Monster_W2_Huanlong_00_Phase3_Camera2_Insert",
      "TypeId": "TypeId_TurnBasedAbilityConfig",
      "Offset": 26340
    },
    {
      "UniqueName": "Monster_W2_Huanlong_00_Phase3_Camera3_Insert",
      "TypeId": "TypeId_TurnBasedAbilityConfig",
      "Offset": 26655
    },
    {
      "UniqueName": "Monster_W2_Huanlong_00_Phase2_Camera5_Insert",
      "TypeId": "TypeId_TurnBasedAbilityConfig",
      "Offset": 26991
    }
  ]
}