{
  "BakeInfoLayouts": [
    {
      "UniqueName": "Monster_XP_Elite02_01_Accelerate",
      "Offset": 24211
    },
    {
      "UniqueName": "Monster_XP_Elite02_01_RemoveEnergyLayer",
      "Offset": 24517
    },
    {
      "UniqueName": "Monster_XP_Elite02_01_EnergyLayer",
      "Offset": 24612
    },
    {
      "UniqueName": "Monster_XP_Elite02_01_Energy",
      "Offset": 24691
    },
    {
      "UniqueName": "Monster_XP_Elite02_01_DisableAction",
      "Offset": 37608
    },
    {
      "UniqueName": "Monster_XP_Elite02_01_Exhausted",
      "Offset": 37654
    },
    {
      "UniqueName": "Monster_XP_Elite02_01_Battle",
      "Offset": 38046
    },
    {
      "UniqueName": "Monster_XP_Elite02_01_Battle_02",
      "Offset": 38079
    },
    {
      "UniqueName": "Monster_XP_Elite02_01_Fragile",
      "Offset": 38110
    },
    {
      "UniqueName": "Monster_XP_Elite02_01_Shield",
      "Offset": 38140
    },
    {
      "UniqueName": "Monster_XP_Elite02_01_Effect",
      "Offset": 38226
    },
    {
      "UniqueName": "Monster_XP_Elite02_01_DamageReduce",
      "Offset": 38541
    },
    {
      "UniqueName": "Monster_XP_Elite02_01_Skill04_Mark",
      "Offset": 38666
    },
    {
      "UniqueName": "Monster_XP_Elite02_01_Passive01",
      "TypeId": "TypeId_TurnBasedAbilityConfig",
      "Offset": 2
    },
    {
      "UniqueName": "Monster_XP_Elite02_01_Skill01_Phase01",
      "TypeId": "TypeId_TurnBasedAbilityConfig",
      "Offset": 1638
    },
    {
      "UniqueName": "Monster_XP_Elite02_01_Skill01_Phase02",
      "TypeId": "TypeId_TurnBasedAbilityConfig",
      "Offset": 1802
    },
    {
      "UniqueName": "Monster_XP_Elite02_01_SkillP01_Phase01",
      "TypeId": "TypeId_TurnBasedAbilityConfig",
      "Offset": 2099
    },
    {
      "UniqueName": "Monster_XP_Elite02_01_SkillP01_Phase02",
      "TypeId": "TypeId_TurnBasedAbilityConfig",
      "Offset": 2310
    },
    {
      "UniqueName": "Monster_XP_Elite02_01_SkillP02_Phase01",
      "TypeId": "TypeId_TurnBasedAbilityConfig",
      "Offset": 2517
    },
    {
      "UniqueName": "Monster_XP_Elite02_01_Skill02_Phase01",
      "TypeId": "TypeId_TurnBasedAbilityConfig",
      "Offset": 3318
    },
    {
      "UniqueName": "Monster_XP_Elite02_01_Skill02_Phase02",
      "TypeId": "TypeId_TurnBasedAbilityConfig",
      "Offset": 3495
    },
    {
      "UniqueName": "Monster_XP_Elite02_01_Skill03_Phase01",
      "TypeId": "TypeId_TurnBasedAbilityConfig",
      "Offset": 4096
    },
    {
      "UniqueName": "Monster_XP_Elite02_01_Skill03_Phase02",
      "TypeId": "TypeId_TurnBasedAbilityConfig",
      "Offset": 4269
    },
    {
      "UniqueName": "Monster_XP_Elite02_01_Skill04_Phase01",
      "TypeId": "TypeId_TurnBasedAbilityConfig",
      "Offset": 5122
    },
    {
      "UniqueName": "Monster_XP_Elite02_01_Skill04_Phase02",
      "TypeId": "TypeId_TurnBasedAbilityConfig",
      "Offset": 5476
    },
    {
      "UniqueName": "Monster_XP_Elite02_01_Skill05_Phase01",
      "TypeId": "TypeId_TurnBasedAbilityConfig",
      "Offset": 23253
    },
    {
      "UniqueName": "Monster_XP_Elite02_01_Skill05_Phase02",
      "TypeId": "TypeId_TurnBasedAbilityConfig",
      "Offset": 23423
    },
    {
      "UniqueName": "Monster_XP_Elite02_01_Skill06_Phase01",
      "TypeId": "TypeId_TurnBasedAbilityConfig",
      "Offset": 23763
    },
    {
      "UniqueName": "Monster_XP_Elite02_01_Skill06_Phase02",
      "TypeId": "TypeId_TurnBasedAbilityConfig",
      "Offset": 23933
    }
  ]
}