{
  "BakeInfoLayouts": [
    {
      "UniqueName": "Monster_XP_Elite02_00_Edict01_Self",
      "Offset": 10838
    },
    {
      "UniqueName": "Monster_XP_Elite02_00_Edict01",
      "Offset": 11707
    },
    {
      "UniqueName": "Monster_XP_Elite02_00_Edict02",
      "Offset": 12135
    },
    {
      "UniqueName": "Monster_XP_Elite02_00_Edict03",
      "Offset": 12857
    },
    {
      "UniqueName": "Monster_XP_Elite02_00_EdictInsert",
      "Offset": 13584
    },
    {
      "UniqueName": "Monster_XP_Elite02_00_Edict_Success",
      "Offset": 14054
    },
    {
      "UniqueName": "Monster_XP_Elite02_00_Edict_Failure",
      "Offset": 14250
    },
    {
      "UniqueName": "Monster_XP_Elite02_00_Confine",
      "Offset": 14621
    },
    {
      "UniqueName": "Monster_XP_Elite02_00_AchievementControl",
      "Offset": 14992
    },
    {
      "UniqueName": "Monster_XP_Elite02_00_Skill07_Mark",
      "Offset": 15108
    },
    {
      "UniqueName": "Monster_XP_Elite02_00_Passive01",
      "TypeId": "TypeId_TurnBasedAbilityConfig",
      "Offset": 2
    },
    {
      "UniqueName": "Monster_XP_Elite02_00_Skill01_Phase01",
      "TypeId": "TypeId_TurnBasedAbilityConfig",
      "Offset": 3290
    },
    {
      "UniqueName": "Monster_XP_Elite02_00_Skill01_Phase02",
      "TypeId": "TypeId_TurnBasedAbilityConfig",
      "Offset": 3465
    },
    {
      "UniqueName": "Monster_XP_Elite02_00_Skill02_Phase01",
      "TypeId": "TypeId_TurnBasedAbilityConfig",
      "Offset": 3966
    },
    {
      "UniqueName": "Monster_XP_Elite02_00_Skill02_Phase02",
      "TypeId": "TypeId_TurnBasedAbilityConfig",
      "Offset": 4142
    },
    {
      "UniqueName": "Monster_XP_Elite02_00_Skill03_Phase01",
      "TypeId": "TypeId_TurnBasedAbilityConfig",
      "Offset": 5578
    },
    {
      "UniqueName": "Monster_XP_Elite02_00_Skill03_Phase02",
      "TypeId": "TypeId_TurnBasedAbilityConfig",
      "Offset": 5749
    },
    {
      "UniqueName": "Monster_XP_Elite02_00_Skill04_Phase01",
      "TypeId": "TypeId_TurnBasedAbilityConfig",
      "Offset": 6267
    },
    {
      "UniqueName": "Monster_XP_Elite02_00_Skill04_Phase02",
      "TypeId": "TypeId_TurnBasedAbilityConfig",
      "Offset": 6438
    },
    {
      "UniqueName": "Monster_XP_Elite02_00_Skill05_Phase01",
      "TypeId": "TypeId_TurnBasedAbilityConfig",
      "Offset": 6910
    },
    {
      "UniqueName": "Monster_XP_Elite02_00_Skill05_Phase02",
      "TypeId": "TypeId_TurnBasedAbilityConfig",
      "Offset": 7081
    },
    {
      "UniqueName": "Monster_XP_Elite02_00_Skill06_Phase01",
      "TypeId": "TypeId_TurnBasedAbilityConfig",
      "Offset": 7553
    },
    {
      "UniqueName": "Monster_XP_Elite02_00_Skill06_Phase02",
      "TypeId": "TypeId_TurnBasedAbilityConfig",
      "Offset": 7724
    },
    {
      "UniqueName": "Monster_XP_Elite02_00_SkillP01_Phase01",
      "TypeId": "TypeId_TurnBasedAbilityConfig",
      "Offset": 8366
    },
    {
      "UniqueName": "Monster_XP_Elite02_00_SkillP01_Phase02",
      "TypeId": "TypeId_TurnBasedAbilityConfig",
      "Offset": 8593
    },
    {
      "UniqueName": "Monster_XP_Elite02_00_SkillP02_Phase01",
      "TypeId": "TypeId_TurnBasedAbilityConfig",
      "Offset": 9615
    },
    {
      "UniqueName": "Monster_XP_Elite02_00_SkillP02_Phase02",
      "TypeId": "TypeId_TurnBasedAbilityConfig",
      "Offset": 9796
    }
  ]
}