{
  "BakeInfoLayouts": [
    {
      "UniqueName": "Monster_XP_Elite01_01_PassiveSkill01",
      "TypeId": "TypeId_TurnBasedAbilityConfig",
      "Offset": 2
    },
    {
      "UniqueName": "Monster_XP_Elite01_01_Skill01_Phase01",
      "TypeId": "TypeId_TurnBasedAbilityConfig",
      "Offset": 712
    },
    {
      "UniqueName": "Monster_XP_Elite01_01_Skill01_Phase02",
      "TypeId": "TypeId_TurnBasedAbilityConfig",
      "Offset": 918
    },
    {
      "UniqueName": "Monster_XP_Elite01_01_Skill04_Phase01",
      "TypeId": "TypeId_TurnBasedAbilityConfig",
      "Offset": 2111
    },
    {
      "UniqueName": "Monster_XP_Elite01_01_Skill04_Phase02",
      "TypeId": "TypeId_TurnBasedAbilityConfig",
      "Offset": 2317
    },
    {
      "UniqueName": "Monster_XP_Elite01_01_Skill02_Phase01",
      "TypeId": "TypeId_TurnBasedAbilityConfig",
      "Offset": 3456
    },
    {
      "UniqueName": "Monster_XP_Elite01_01_Skill02_Phase02",
      "TypeId": "TypeId_TurnBasedAbilityConfig",
      "Offset": 3666
    },
    {
      "UniqueName": "Monster_XP_Elite01_01_Skill03_Phase01",
      "TypeId": "TypeId_TurnBasedAbilityConfig",
      "Offset": 4150
    },
    {
      "UniqueName": "Monster_XP_Elite01_01_Skill03_Phase02",
      "TypeId": "TypeId_TurnBasedAbilityConfig",
      "Offset": 4383
    },
    {
      "UniqueName": "Monster_XP_Elite01_01_Skill05_Phase01",
      "TypeId": "TypeId_TurnBasedAbilityConfig",
      "Offset": 5708
    },
    {
      "UniqueName": "Monster_XP_Elite01_01_Skill05_Phase02",
      "TypeId": "TypeId_TurnBasedAbilityConfig",
      "Offset": 5872
    },
    {
      "UniqueName": "Monster_XP_Elite01_01_Skill06_Phase01",
      "TypeId": "TypeId_TurnBasedAbilityConfig",
      "Offset": 6379
    },
    {
      "UniqueName": "Monster_XP_Elite01_01_Skill06_Phase02",
      "TypeId": "TypeId_TurnBasedAbilityConfig",
      "Offset": 6544
    }
  ]
}