{
  "BakeInfoLayouts": [
    {
      "UniqueName": "Modifier_W3_Death_00_RLBoss_PhaseController_LockHP",
      "Offset": 4146
    },
    {
      "UniqueName": "Monster_W3_Death_00_RLBoss_DamageUp",
      "Offset": 6093
    },
    {
      "UniqueName": "Monster_W3_DeathPart_00_RLBoss_SetMaxHP",
      "Offset": 6349
    },
    {
      "UniqueName": "Monster_W3_DeathPart_00_RLBoss_WeakPointProtected",
      "Offset": 6918
    },
    {
      "UniqueName": "Monster_W3_Death_00_RLBoss_Skill03_Phase01",
      "TypeId": "TypeId_TurnBasedAbilityConfig",
      "Offset": 2
    },
    {
      "UniqueName": "Monster_W3_Death_00_RLBoss_Skill03_Phase02",
      "TypeId": "TypeId_TurnBasedAbilityConfig",
      "Offset": 184
    },
    {
      "UniqueName": "Monster_W3_Death_00_RLBoss_Skill06_Phase01",
      "TypeId": "TypeId_TurnBasedAbilityConfig",
      "Offset": 758
    },
    {
      "UniqueName": "Monster_W3_Death_00_RLBoss_Skill06_Phase02",
      "TypeId": "TypeId_TurnBasedAbilityConfig",
      "Offset": 1002
    },
    {
      "UniqueName": "Monster_W3_Death_00_RLBoss_Phase1T2",
      "TypeId": "TypeId_TurnBasedAbilityConfig",
      "Offset": 2546
    },
    {
      "UniqueName": "Monster_W3_Death_00_RLBoss_Phase2T3",
      "TypeId": "TypeId_TurnBasedAbilityConfig",
      "Offset": 3127
    }
  ]
}