{
  "BakeInfoLayouts": [
    {
      "UniqueName": "Monster_W1_Mecha04_00_RemoveOneMore",
      "Offset": 10104
    },
    {
      "UniqueName": "Monster_W1_Mecha04_00_Sign01",
      "Offset": 10400
    },
    {
      "UniqueName": "Monster_W1_Mecha04_00_Sign02",
      "Offset": 10508
    },
    {
      "UniqueName": "Monster_W1_Mecha04_00_RemoveAim",
      "Offset": 10619
    },
    {
      "UniqueName": "MMonster_W1_Mecha04_00_ChainSawSpeedUp",
      "Offset": 10919
    },
    {
      "UniqueName": "MMonster_W1_Mecha04_00_ChainSawSpeedUpAgain",
      "Offset": 11354
    },
    {
      "UniqueName": "Monster_W1_Mecha04_00_PassiveSkill_KlaraSpecialVictory",
      "TypeId": "TypeId_TurnBasedAbilityConfig",
      "Offset": 2
    },
    {
      "UniqueName": "WMonster_W1_Mecha_05_Skill06_Phase01",
      "TypeId": "TypeId_TurnBasedAbilityConfig",
      "Offset": 320
    },
    {
      "UniqueName": "WMonster_W1_Mecha_05_Skill06_Phase02",
      "TypeId": "TypeId_TurnBasedAbilityConfig",
      "Offset": 731
    },
    {
      "UniqueName": "WMonster_W1_Mecha_05_Skill07_Phase01",
      "TypeId": "TypeId_TurnBasedAbilityConfig",
      "Offset": 3183
    },
    {
      "UniqueName": "WMonster_W1_Mecha_05_Skill07_Phase02",
      "TypeId": "TypeId_TurnBasedAbilityConfig",
      "Offset": 3366
    },
    {
      "UniqueName": "WMonster_W1_Mecha_05_Skill09_Phase01",
      "TypeId": "TypeId_TurnBasedAbilityConfig",
      "Offset": 3841
    },
    {
      "UniqueName": "WMonster_W1_Mecha_05_Skill09_Phase02",
      "TypeId": "TypeId_TurnBasedAbilityConfig",
      "Offset": 4099
    },
    {
      "UniqueName": "WMonster_W1_Mecha_05_SkillP09_Phase01",
      "TypeId": "TypeId_TurnBasedAbilityConfig",
      "Offset": 4642
    },
    {
      "UniqueName": "WMonster_W1_Mecha_05_SkillP09_Phase02",
      "TypeId": "TypeId_TurnBasedAbilityConfig",
      "Offset": 4947
    },
    {
      "UniqueName": "WMonster_W1_Mecha_05_Skill11_Phase01",
      "TypeId": "TypeId_TurnBasedAbilityConfig",
      "Offset": 5468
    },
    {
      "UniqueName": "WMonster_W1_Mecha_05_Skill11_Phase02",
      "TypeId": "TypeId_TurnBasedAbilityConfig",
      "Offset": 5735
    },
    {
      "UniqueName": "WMonster_W1_Mecha_05_Skill12_Phase01",
      "TypeId": "TypeId_TurnBasedAbilityConfig",
      "Offset": 6436
    },
    {
      "UniqueName": "WMonster_W1_Mecha_05_Skill12_Phase02",
      "TypeId": "TypeId_TurnBasedAbilityConfig",
      "Offset": 6619
    },
    {
      "UniqueName": "WMonster_W1_Mecha_05_Passive_AIControlAndHPLock",
      "TypeId": "TypeId_TurnBasedAbilityConfig",
      "Offset": 7446
    }
  ]
}