{
  "BakeInfoLayouts": [
    {
      "UniqueName": "Monster_W2_Kafka_00_IF02_BattleEventSummon",
      "Offset": 10679
    },
    {
      "UniqueName": "Monster_W2_Kafka_00_IF02_LeftMonsterTag",
      "Offset": 11478
    },
    {
      "UniqueName": "Monster_W2_Kafka_00_IF02_RightMonsterTag",
      "Offset": 11520
    },
    {
      "UniqueName": "Monster_W2_Kafka_00_IF02_SecondMonsterTag",
      "Offset": 11563
    },
    {
      "UniqueName": "Monster_W2_Kafka_00_IF02_Skill08_ExecuteTag",
      "Offset": 11608
    },
    {
      "UniqueName": "Monster_W2_Kafka_00_IF02_PhaseController",
      "Offset": 11650
    },
    {
      "UniqueName": "Monster_W2_Kafka_00_IF02_P2ShieldModifier",
      "Offset": 12243
    },
    {
      "UniqueName": "Monster_W2_Kafka_00_IF02_P2ShieldBrokenTag",
      "Offset": 12659
    },
    {
      "UniqueName": "Monster_W2_Kafka_00_IF_SummonRotation",
      "Offset": 12698
    },
    {
      "UniqueName": "Monster_W2_Kafka_00_IF02_ContainJXDTag",
      "Offset": 12771
    },
    {
      "UniqueName": "Monster_W2_Kafka_00_IF02_Passive01",
      "TypeId": "TypeId_TurnBasedAbilityConfig",
      "Offset": 2
    },
    {
      "UniqueName": "Monster_W2_Kafka_00_IF02_Skill02_Phase01",
      "TypeId": "TypeId_TurnBasedAbilityConfig",
      "Offset": 1615
    },
    {
      "UniqueName": "Monster_W2_Kafka_00_IF02_Skill02_Phase02",
      "TypeId": "TypeId_TurnBasedAbilityConfig",
      "Offset": 1992
    },
    {
      "UniqueName": "Monster_W2_Kafka_00_IF02_Skill08_Phase01",
      "TypeId": "TypeId_TurnBasedAbilityConfig",
      "Offset": 7660
    },
    {
      "UniqueName": "Monster_W2_Kafka_00_IF02_Skill08_Phase02",
      "TypeId": "TypeId_TurnBasedAbilityConfig",
      "Offset": 7916
    }
  ]
}