{
  "BakeInfoLayouts": [
    {
      "UniqueName": "Monster_Common_Boss_Dormancy",
      "Offset": 10640
    },
    {
      "UniqueName": "Monster_W1_Gepard_00_RL_AIWatcher",
      "Offset": 10693
    },
    {
      "UniqueName": "Monster_W1_Gepard_00_RL_Revive",
      "Offset": 10758
    },
    {
      "UniqueName": "MMonster_W1_Gepard_00_RL_ListenBeingAttacked",
      "Offset": 11351
    },
    {
      "UniqueName": "Monster_W1_Gepard_00_RL_DamageUP",
      "Offset": 11766
    },
    {
      "UniqueName": "Monster_Common_Endurance",
      "Offset": 11989
    },
    {
      "UniqueName": "Monster_Common_WeakControl",
      "Offset": 12059
    },
    {
      "UniqueName": "MAvatar_Gepard_00_RL_Shield",
      "Offset": 12132
    },
    {
      "UniqueName": "MAvatar_Gepard_00_RL_ShieldPerformance",
      "Offset": 13268
    },
    {
      "UniqueName": "MAvatar_Gepard_00_RL_ShieldIcon",
      "Offset": 13566
    },
    {
      "UniqueName": "MAvatar_Gepard_00_RL_ShieldIcon2",
      "Offset": 13634
    },
    {
      "UniqueName": "MAvatar_Gepard_00_RL_Break",
      "Offset": 13689
    },
    {
      "UniqueName": "SPRL_Flag",
      "Offset": 13875
    },
    {
      "UniqueName": "MAvatar_Gepard_00_SPRL_Shield",
      "Offset": 13906
    },
    {
      "UniqueName": "Monster_W1_Gepard_00_RL_SkillP01_Initiate",
      "TypeId": "TypeId_TurnBasedAbilityConfig",
      "Offset": 2
    },
    {
      "UniqueName": "Monster_W1_Gepard_00_SPRL_SkillP02_EnterBattle",
      "TypeId": "TypeId_TurnBasedAbilityConfig",
      "Offset": 1008
    },
    {
      "UniqueName": "Monster_W1_Gepard_00_RL_PassiveSkillInitiate",
      "TypeId": "TypeId_TurnBasedAbilityConfig",
      "Offset": 1133
    },
    {
      "UniqueName": "Monster_W1_Gepard_00_RL_SkillP01_EnterBattle",
      "TypeId": "TypeId_TurnBasedAbilityConfig",
      "Offset": 1394
    },
    {
      "UniqueName": "Monster_W1_Gepard_00_RL_SkillP01_Insert",
      "TypeId": "TypeId_TurnBasedAbilityConfig",
      "Offset": 1843
    },
    {
      "UniqueName": "Monster_W1_Gepard_00_RL_SkillP01_Insert2",
      "TypeId": "TypeId_TurnBasedAbilityConfig",
      "Offset": 2363
    },
    {
      "UniqueName": "Monster_W1_Gepard_00_RL_Skill01_Phase01",
      "TypeId": "TypeId_TurnBasedAbilityConfig",
      "Offset": 2918
    },
    {
      "UniqueName": "Monster_W1_Gepard_00_RL_Skill01_Phase02",
      "TypeId": "TypeId_TurnBasedAbilityConfig",
      "Offset": 3187
    },
    {
      "UniqueName": "Monster_W1_Gepard_00_RL_Skill02_Phase01",
      "TypeId": "TypeId_TurnBasedAbilityConfig",
      "Offset": 3461
    },
    {
      "UniqueName": "Monster_W1_Gepard_00_RL_Skill02_Phase02",
      "TypeId": "TypeId_TurnBasedAbilityConfig",
      "Offset": 3726
    },
    {
      "UniqueName": "Monster_W1_Gepard_00_RL_Skill03_Phase01",
      "TypeId": "TypeId_TurnBasedAbilityConfig",
      "Offset": 4023
    },
    {
      "UniqueName": "Monster_W1_Gepard_00_RL_Skill03_Phase02",
      "TypeId": "TypeId_TurnBasedAbilityConfig",
      "Offset": 4259
    },
    {
      "UniqueName": "Monster_W1_Gepard_00_RL_Skill03_Insert",
      "TypeId": "TypeId_TurnBasedAbilityConfig",
      "Offset": 5273
    },
    {
      "UniqueName": "Monster_W1_Gepard_00_RL_Skill04_Phase01",
      "TypeId": "TypeId_TurnBasedAbilityConfig",
      "Offset": 5381
    },
    {
      "UniqueName": "Monster_W1_Gepard_00_RL_Skill04_Phase02",
      "TypeId": "TypeId_TurnBasedAbilityConfig",
      "Offset": 5702
    },
    {
      "UniqueName": "Monster_W1_Gepard_00_RL_Skill05_Phase01",
      "TypeId": "TypeId_TurnBasedAbilityConfig",
      "Offset": 6214
    },
    {
      "UniqueName": "Monster_W1_Gepard_00_RL_Skill05_Phase02",
      "TypeId": "TypeId_TurnBasedAbilityConfig",
      "Offset": 6484
    },
    {
      "UniqueName": "Monster_W1_Gepard_00_RL_Skill07_Insert",
      "TypeId": "TypeId_TurnBasedAbilityConfig",
      "Offset": 7146
    },
    {
      "UniqueName": "Monster_W1_Gepard_00_RL_Skill07_Phase02",
      "TypeId": "TypeId_TurnBasedAbilityConfig",
      "Offset": 7478
    },
    {
      "UniqueName": "Monster_W1_Gepard_00_RL_Skill08_Phase01",
      "TypeId": "TypeId_TurnBasedAbilityConfig",
      "Offset": 8051
    },
    {
      "UniqueName": "Monster_W1_Gepard_00_RL_Skill08_Phase02",
      "TypeId": "TypeId_TurnBasedAbilityConfig",
      "Offset": 8232
    },
    {
      "UniqueName": "Monster_W1_Gepard_00_RL_PassiveSkill_Insert",
      "TypeId": "TypeId_TurnBasedAbilityConfig",
      "Offset": 8436
    },
    {
      "UniqueName": "Monster_W1_Gepard_00_RL_PassiveSkill_Insert2",
      "TypeId": "TypeId_TurnBasedAbilityConfig",
      "Offset": 9210
    },
    {
      "UniqueName": "Monster_W1_Gepard_00_RL_Skill14_Phase01",
      "TypeId": "TypeId_TurnBasedAbilityConfig",
      "Offset": 10038
    },
    {
      "UniqueName": "Monster_W1_Gepard_00_RL_Skill14_Phase02",
      "TypeId": "TypeId_TurnBasedAbilityConfig",
      "Offset": 10367
    }
  ]
}