{
  "BakeInfoLayouts": [
    {
      "UniqueName": "Monster_W2_Valkyrie01_00_RLSummon_Skill01_Parallel",
      "TypeId": "TypeId_TurnBasedAbilityConfig",
      "Offset": 2
    },
    {
      "UniqueName": "Monster_W2_Valkyrie01_00_RLSummon_Skill01_Phase01",
      "TypeId": "TypeId_TurnBasedAbilityConfig",
      "Offset": 550
    }
  ]
}