{
  "AbilityList": [
    {
      "Modifiers": {
        "HideMonsterHUD": {
          "_CallbackList": [
            {
              "Event": "OnPhase1",
              "CallbackConfig": [
                {
                  "$type": "RPG.GameCore.MakeCharacterHUDVisible",
                  "TargetType": {
                    "$type": "RPG.GameCore.TargetAlias",
                    "Alias": "ModifierOwnerEntity"
                  }
                }
              ]
            },
            {
              "Event": "OnAllowAction",
              "CallbackConfig": [
                {
                  "$type": "RPG.GameCore.MakeCharacterHUDVisible",
                  "TargetType": {
                    "$type": "RPG.GameCore.TargetAlias",
                    "Alias": "ModifierOwnerEntity"
                  }
                }
              ]
            }
          ]
        },
        "MMonster_W1_WRMecha_01_MuteHitFly": {
          "BehaviorFlagList": [
            "MuteHitFly"
          ]
        },
        "XP_Elite_Ice_ListenStanceBreakModifier": {
          "_CallbackList": [
            {
              "Event": "OnBeingBreak",
              "CallbackConfig": [
                {
                  "$type": "RPG.GameCore.PredicateTaskList",
                  "Predicate": {
                    "$type": "RPG.GameCore.ByCompareDynamicValue",
                    "TargetType": {
                      "$type": "RPG.GameCore.TargetAlias",
                      "Alias": "ModifierOwnerEntity"
                    },
                    "DynamicKey": "StanceBreak_Sign",
                    "ContextScope": "TargetEntity",
                    "CompareType": "Equal",
                    "CompareValue": {
                      "IsDynamic": false,
                      "FixedValue": {
                        "Value": 1
                      }
                    }
                  },
                  "SuccessTaskList": [
                    {
                      "$type": "RPG.GameCore.RemoveModifier",
                      "TargetType": {
                        "$type": "RPG.GameCore.TargetAlias",
                        "Alias": "Caster"
                      },
                      "ModifierName": "XP_Ice_Elite_Powerful_Modifier"
                    },
                    {
                      "$type": "RPG.GameCore.DefineDynamicValue",
                      "TargetType": {
                        "$type": "RPG.GameCore.TargetAlias",
                        "Alias": "Caster"
                      },
                      "DynamicKey": "StanceBreak_Sign",
                      "ContextScope": "TargetEntity"
                    },
                    {
                      "$type": "RPG.GameCore.DefineDynamicValue",
                      "TargetType": {
                        "$type": "RPG.GameCore.TargetAlias",
                        "Alias": "Caster"
                      },
                      "DynamicKey": "Monster_XP_Elite01_01_AIFlag",
                      "ResetValue": {
                        "IsDynamic": false,
                        "FixedValue": {
                          "Value": 1
                        }
                      },
                      "ContextScope": "TargetEntity"
                    },
                    {
                      "$type": "RPG.GameCore.DefineDynamicValue",
                      "TargetType": {
                        "$type": "RPG.GameCore.TargetAlias",
                        "Alias": "Caster"
                      },
                      "DynamicKey": "_HasBeenBroken_",
                      "ResetValue": {
                        "IsDynamic": false,
                        "FixedValue": {
                          "Value": 1
                        }
                      },
                      "ContextScope": "TargetEntity"
                    }
                  ],
                  "FailedTaskList": [
                    {
                      "$type": "RPG.GameCore.DefineDynamicValue",
                      "TargetType": {
                        "$type": "RPG.GameCore.TargetAlias",
                        "Alias": "Caster"
                      },
                      "DynamicKey": "Monster_XP_Elite01_01_AIFlag",
                      "ResetValue": {
                        "IsDynamic": false,
                        "FixedValue": {
                          "Value": 1
                        }
                      },
                      "ContextScope": "TargetEntity"
                    }
                  ]
                },
                {
                  "$type": "RPG.GameCore.RemoveModifier",
                  "TargetType": {
                    "$type": "RPG.GameCore.TargetAlias",
                    "Alias": "Caster"
                  },
                  "ModifierName": "NoWeakAndResistance"
                }
              ]
            },
            {
              "Event": "OnEndBreak",
              "CallbackConfig": [
                {
                  "$type": "RPG.GameCore.AddModifier",
                  "TargetType": {
                    "$type": "RPG.GameCore.TargetAlias",
                    "Alias": "Caster"
                  },
                  "ModifierName": "NoWeakAndResistance"
                }
              ]
            }
          ]
        }
      },
      "Name": "Monster_XP_Elite01_01_PassiveSkill01",
      "TargetInfo": {
        "TargetType": "Caster"
      },
      "OnAdd": [
        {
          "$type": "RPG.GameCore.AddModifier",
          "TargetType": {
            "$type": "RPG.GameCore.TargetAlias",
            "Alias": "Caster"
          },
          "ModifierName": "HideMonsterHUD"
        }
      ],
      "OnStart": [
        {
          "$type": "RPG.GameCore.AddModifier",
          "TargetType": {
            "$type": "RPG.GameCore.TargetAlias",
            "Alias": "Caster"
          },
          "ModifierName": "OneMorePerTurn"
        },
        {
          "$type": "RPG.GameCore.AddModifier",
          "TargetType": {
            "$type": "RPG.GameCore.TargetAlias",
            "Alias": "Caster"
          },
          "ModifierName": "MMonster_W1_WRMecha_01_MuteHitFly"
        },
        {
          "$type": "RPG.GameCore.AddModifier",
          "TargetType": {
            "$type": "RPG.GameCore.TargetAlias",
            "Alias": "Caster"
          },
          "ModifierName": "XP_Elite_Ice_ListenStanceBreakModifier"
        },
        {
          "$type": "RPG.GameCore.AddModifier",
          "TargetType": {
            "$type": "RPG.GameCore.TargetAlias",
            "Alias": "Caster"
          },
          "ModifierName": "NoWeakAndResistance"
        }
      ]
    },
    {
      "Name": "Monster_XP_Elite01_01_Skill01_Phase01",
      "TargetInfo": {
        "TargetType": "SkillTargetEntityList"
      },
      "OnStart": [
        {
          "$type": "RPG.GameCore.TriggerAbility",
          "TargetType": {
            "$type": "RPG.GameCore.TargetAlias",
            "Alias": "Caster"
          },
          "AbilityName": "Monster_XP_Elite01_01_Skill01_Phase02",
          "IsSkillPerform": true
        },
        {
          "$type": "RPG.GameCore.TriggerAbility",
          "TargetType": {
            "$type": "RPG.GameCore.TargetAlias",
            "Alias": "Caster"
          },
          "AbilityName": "Monster_XP_Elite01_01_Skill01_Camera",
          "IsSkillPerform": true
        },
        {
          "$type": "RPG.GameCore.AnimSetParameter",
          "ParameterName": "Skill",
          "ParameterType": "Int",
          "Value": 1
        },
        {
          "$type": "RPG.GameCore.LookAt",
          "TargetType": "AbilityTargetEntity"
        },
        {
          "$type": "RPG.GameCore.TriggerAnimState",
          "AnimStateName": "Skill01",
          "NormalizedTimeEnd": {
            "IsDynamic": false,
            "FixedValue": {
              "Value": 1
            }
          },
          "NormalizedTransitionDuration": {
            "IsDynamic": false,
            "FixedValue": {
              "Value": 0.15
            }
          }
        },
        {
          "$type": "RPG.GameCore.AnimSetParameter",
          "ParameterName": "Skill",
          "ParameterType": "Int"
        },
        {
          "$type": "RPG.GameCore.TriggerAnimState",
          "AnimLogicState": "Idle",
          "NormalizedTransitionDuration": {
            "IsDynamic": false,
            "FixedValue": {
              "Value": 0.25
            }
          }
        }
      ]
    },
    {
      "Name": "Monster_XP_Elite01_01_Skill01_Phase02",
      "TargetInfo": {
        "TargetType": "SkillTargetEntityList"
      },
      "OnStart": [
        {
          "$type": "RPG.GameCore.WaitAnimState",
          "AnimStateName": "Skill01",
          "NormalizedTimeEnd": {
            "IsDynamic": false,
            "FixedValue": {
              "Value": 0.1
            }
          }
        },
        {
          "$type": "RPG.GameCore.SkillExecutionStart"
        },
        {
          "$type": "RPG.GameCore.WaitAnimState",
          "AnimStateName": "Skill01",
          "NormalizedTimeEnd": {
            "IsDynamic": false,
            "FixedValue": {
              "Value": 0.224
            }
          }
        },
        {
          "$type": "RPG.GameCore.WaitAnimState",
          "TargetType": {
            "$type": "RPG.GameCore.TargetAlias",
            "Alias": "Caster"
          },
          "AnimStateName": "Skill01",
          "NormalizedTimeEnd": {
            "IsDynamic": false,
            "FixedValue": {
              "Value": 0.236
            }
          }
        },
        {
          "$type": "RPG.GameCore.TriggerEffect",
          "TargetType": {
            "$type": "RPG.GameCore.TargetAlias",
            "Alias": "Caster"
          },
          "EffectPath": "Effects/Eff_Prefab/Eff_Monster/Eff_XP_Elite01_01/Eff_XP_Elite01_00_01_Skill01_Attack_Ice_Loop.prefab",
          "UniqueEffectName": "Skill01",
          "AttachPoint": "Origin",
          "PositionOffset": {
            "X": 0,
            "Y": 4.5,
            "Z": 0
          },
          "RotationOffset": {
            "X": 23,
            "Y": 0,
            "Z": 0
          }
        },
        {
          "$type": "RPG.GameCore.WaitAnimState",
          "AnimStateName": "Skill01",
          "NormalizedTimeEnd": {
            "IsDynamic": false,
            "FixedValue": {
              "Value": 0.285
            }
          }
        },
        {
          "$type": "RPG.GameCore.WaitAnimState",
          "AnimStateName": "Skill01",
          "NormalizedTimeEnd": {
            "IsDynamic": false,
            "FixedValue": {
              "Value": 0.376
            }
          }
        },
        {
          "$type": "RPG.GameCore.PredicateTaskList",
          "Predicate": {
            "$type": "RPG.GameCore.ByCompareDynamicValue",
            "DynamicKey": "Phase_Flag",
            "ContextScope": "TargetEntity",
            "CompareType": "Equal",
            "CompareValue": {
              "IsDynamic": false,
              "FixedValue": {
                "Value": 2
              }
            }
          },
          "SuccessTaskList": [
            {
              "$type": "RPG.GameCore.StartEffectAim",
              "TargetType": {
                "$type": "RPG.GameCore.TargetAlias",
                "Alias": "AbilityTargetEntity"
              },
              "UniqueEffectName": "Skill01",
              "Duration": 0.01
            },
            {
              "$type": "RPG.GameCore.FireProjectile",
              "TargetType": {
                "$type": "RPG.GameCore.TargetAlias",
                "Alias": "AbilityTargetEntity"
              },
              "Projectile": {
                "FlyTime": 0.15,
                "TargetAttachPoint": "Root",
                "TargetDistanceOffset": -2,
                "HitEffectDistanceOffset": 2,
                "FlyEffectUniqueName": "Skill01",
                "HitEffect": "Effects/Eff_Prefab/Eff_Monster/Eff_XP_Elite01_01/Eff_XP_Elite01_01_01_Skill01_Attack_Ice_Hit.prefab",
                "WriteProgressToEffectAnimator": true
              },
              "OnProjectileHit": [
                {
                  "$type": "RPG.GameCore.DamageByAttackProperty",
                  "TargetType": {
                    "$type": "RPG.GameCore.TargetAlias",
                    "Alias": "AbilityTargetEntity"
                  },
                  "AttackProperty": {
                    "DamageType": {
                      "DamageType": "Ice"
                    },
                    "DamagePercentage": {
                      "IsDynamic": true,
                      "PostfixExpr": {
                        "OpCodes": "AQAK",
                        "FixedValues": [],
                        "DynamicHashes": [
                          -1613317843
                        ]
                      }
                    },
                    "SPHitRatio": {
                      "IsDynamic": false,
                      "FixedValue": {
                        "Value": 1
                      }
                    },
                    "FrameHalt": {
                      "IsDynamic": false,
                      "FixedValue": {
                        "Value": 0.1
                      }
                    },
                    "HitAnimation": "Hit",
                    "HitPosHeight": 0.5
                  },
                  "TriggerHitSound": true,
                  "CanTriggerLastKill": true,
                  "DisplayData": {
                    "UIMessageHeight": 1.2,
                    "DitherRangeX": 0.02,
                    "DitherRangeY": 0.02
                  }
                },
                {
                  "$type": "RPG.GameCore.VCameraConfigChange",
                  "CameraConfig": {
                    "ShakeConfigV2": {
                      "ShakeRange": 0.3,
                      "ShakeTime": 0.2,
                      "ShakeDir": {
                        "X": 0,
                        "Y": 0.3,
                        "Z": 0
                      },
                      "BaseCycle": 0.1,
                      "CycleDamping": 0,
                      "RangeAttenuation": 0.95,
                      "PerlinNoiseAmplitude": {
                        "X": 0.02,
                        "Y": 0.03,
                        "Z": 0
                      },
                      "PerlinNoiseFreq": {
                        "X": 5,
                        "Y": 5,
                        "Z": 0
                      },
                      "RotationFreqV3": {
                        "X": 0,
                        "Y": 0,
                        "Z": 2
                      }
                    }
                  }
                }
              ],
              "WaitProjectileFinish": true
            }
          ],
          "FailedTaskList": [
            {
              "$type": "RPG.GameCore.StartEffectAim",
              "TargetType": {
                "$type": "RPG.GameCore.TargetAlias",
                "Alias": "AbilityTargetEntity"
              },
              "UniqueEffectName": "Skill01",
              "Duration": 0.01
            },
            {
              "$type": "RPG.GameCore.FireProjectile",
              "TargetType": {
                "$type": "RPG.GameCore.TargetAlias",
                "Alias": "AbilityTargetEntity"
              },
              "Projectile": {
                "FlyTime": 0.15,
                "TargetAttachPoint": "Root",
                "TargetDistanceOffset": -2,
                "HitEffectDistanceOffset": 2,
                "FlyEffectUniqueName": "Skill01",
                "HitEffect": "Effects/Eff_Prefab/Eff_Monster/Eff_XP_Elite01_01/Eff_XP_Elite01_01_01_Skill01_Attack_Ice_Hit.prefab",
                "WriteProgressToEffectAnimator": true
              },
              "OnProjectileHit": [
                {
                  "$type": "RPG.GameCore.DamageByAttackProperty",
                  "TargetType": {
                    "$type": "RPG.GameCore.TargetAlias",
                    "Alias": "ProjectileHitEntity"
                  },
                  "AttackProperty": {
                    "DamageType": {
                      "DamageType": "Ice"
                    },
                    "DamagePercentage": {
                      "IsDynamic": true,
                      "PostfixExpr": {
                        "OpCodes": "AQAK",
                        "FixedValues": [],
                        "DynamicHashes": [
                          -1126825319
                        ]
                      }
                    },
                    "SPHitRatio": {
                      "IsDynamic": false,
                      "FixedValue": {
                        "Value": 1
                      }
                    },
                    "AttackType": "Normal",
                    "HitAnimation": "Hit_H"
                  }
                },
                {
                  "$type": "RPG.GameCore.VCameraConfigChange",
                  "CameraConfig": {
                    "ShakeConfigV2": {
                      "ShakeRange": 0.2,
                      "ShakeTime": 0.2,
                      "ShakeDir": {
                        "X": 0,
                        "Y": 0.2,
                        "Z": 0
                      },
                      "BaseCycle": 0.1,
                      "CycleDamping": 0,
                      "RangeAttenuation": 0.95,
                      "PerlinNoiseAmplitude": {
                        "X": 0.02,
                        "Y": 0.03,
                        "Z": 0
                      },
                      "PerlinNoiseFreq": {
                        "X": 5,
                        "Y": 5,
                        "Z": 0
                      },
                      "RotationFreqV3": {
                        "X": 0,
                        "Y": 0,
                        "Z": 2
                      }
                    }
                  }
                }
              ],
              "WaitProjectileFinish": true
            }
          ]
        },
        {
          "$type": "RPG.GameCore.WaitAnimState",
          "AnimStateName": "Skill01",
          "NormalizedTimeEnd": {
            "IsDynamic": false,
            "FixedValue": {
              "Value": 0.38
            }
          }
        },
        {
          "$type": "RPG.GameCore.PredicateTaskList",
          "Predicate": {
            "$type": "RPG.GameCore.ByAnd",
            "PredicateList": [
              {
                "$type": "RPG.GameCore.ByCompareDynamicValue",
                "DynamicKey": "Phase_Flag",
                "ContextScope": "TargetEntity",
                "CompareType": "Equal",
                "CompareValue": {
                  "IsDynamic": false,
                  "FixedValue": {
                    "Value": 2
                  }
                }
              },
              {
                "$type": "RPG.GameCore.ByIsContainModifier",
                "TargetType": {
                  "$type": "RPG.GameCore.TargetAlias",
                  "Alias": "AbilityTargetEntity"
                },
                "ModifierName": "MCommon_CTRL_Frozen"
              }
            ]
          },
          "SuccessTaskList": [
            {
              "$type": "RPG.GameCore.DamageByAttackProperty",
              "TargetType": {
                "$type": "RPG.GameCore.TargetAlias",
                "Alias": "AbilityTargetEntity"
              },
              "AttackProperty": {
                "DamageType": {
                  "DamageType": "Ice"
                },
                "DamagePercentage": {
                  "IsDynamic": true,
                  "PostfixExpr": {
                    "OpCodes": "AQAK",
                    "FixedValues": [],
                    "DynamicHashes": [
                      -1815463466
                    ]
                  }
                },
                "SPHitRatio": {
                  "IsDynamic": false,
                  "FixedValue": {
                    "Value": 1
                  }
                },
                "FrameHalt": {
                  "IsDynamic": false,
                  "FixedValue": {
                    "Value": 0.1
                  }
                },
                "HitAnimation": "Hit",
                "HitPosHeight": 0.5
              },
              "TriggerHitSound": true,
              "CanTriggerLastKill": true,
              "DisplayData": {
                "UIMessageHeight": 1,
                "DitherRangeX": 0.02,
                "DitherRangeY": 0.02
              }
            }
          ]
        },
        {
          "$type": "RPG.GameCore.DamagePerformFinish"
        },
        {
          "$type": "RPG.GameCore.WaitAnimState",
          "AnimStateName": "Skill01",
          "NormalizedTimeEnd": {
            "IsDynamic": false,
            "FixedValue": {
              "Value": 0.8
            }
          }
        },
        {
          "$type": "RPG.GameCore.SkillPerformFinish"
        }
      ]
    },
    {
      "Name": "Monster_XP_Elite01_01_Skill04_Phase01",
      "TargetInfo": {
        "TargetType": "SkillTargetEntityList"
      },
      "OnStart": [
        {
          "$type": "RPG.GameCore.TriggerAbility",
          "TargetType": {
            "$type": "RPG.GameCore.TargetAlias",
            "Alias": "Caster"
          },
          "AbilityName": "Monster_XP_Elite01_01_Skill04_Phase02",
          "IsSkillPerform": true
        },
        {
          "$type": "RPG.GameCore.TriggerAbility",
          "TargetType": {
            "$type": "RPG.GameCore.TargetAlias",
            "Alias": "Caster"
          },
          "AbilityName": "Monster_XP_Elite01_01_Skill04_Camera",
          "IsSkillPerform": true
        },
        {
          "$type": "RPG.GameCore.AnimSetParameter",
          "ParameterName": "Skill",
          "ParameterType": "Int",
          "Value": 1
        },
        {
          "$type": "RPG.GameCore.LookAt",
          "TargetType": "AbilityTargetEntity"
        },
        {
          "$type": "RPG.GameCore.TriggerAnimState",
          "AnimStateName": "Skill01",
          "NormalizedTimeEnd": {
            "IsDynamic": false,
            "FixedValue": {
              "Value": 1
            }
          },
          "NormalizedTransitionDuration": {
            "IsDynamic": false,
            "FixedValue": {
              "Value": 0.15
            }
          }
        },
        {
          "$type": "RPG.GameCore.AnimSetParameter",
          "ParameterName": "Skill",
          "ParameterType": "Int"
        },
        {
          "$type": "RPG.GameCore.TriggerAnimState",
          "AnimLogicState": "Idle",
          "NormalizedTransitionDuration": {
            "IsDynamic": false,
            "FixedValue": {
              "Value": 0.25
            }
          }
        }
      ]
    },
    {
      "Name": "Monster_XP_Elite01_01_Skill04_Phase02",
      "TargetInfo": {
        "TargetType": "SkillTargetEntityList"
      },
      "OnStart": [
        {
          "$type": "RPG.GameCore.WaitAnimState",
          "AnimStateName": "Skill01",
          "NormalizedTimeEnd": {
            "IsDynamic": false,
            "FixedValue": {
              "Value": 0.1
            }
          }
        },
        {
          "$type": "RPG.GameCore.SkillExecutionStart"
        },
        {
          "$type": "RPG.GameCore.WaitAnimState",
          "AnimStateName": "Skill01",
          "NormalizedTimeEnd": {
            "IsDynamic": false,
            "FixedValue": {
              "Value": 0.224
            }
          }
        },
        {
          "$type": "RPG.GameCore.WaitAnimState",
          "TargetType": {
            "$type": "RPG.GameCore.TargetAlias",
            "Alias": "Caster"
          },
          "AnimStateName": "Skill01",
          "NormalizedTimeEnd": {
            "IsDynamic": false,
            "FixedValue": {
              "Value": 0.236
            }
          }
        },
        {
          "$type": "RPG.GameCore.TriggerEffect",
          "TargetType": {
            "$type": "RPG.GameCore.TargetAlias",
            "Alias": "Caster"
          },
          "EffectPath": "Effects/Eff_Prefab/Eff_Monster/Eff_XP_Elite01_01/Eff_XP_Elite01_00_01_Skill01_Attack_Ice_Loop.prefab",
          "UniqueEffectName": "Skill01",
          "AttachPoint": "Origin",
          "PositionOffset": {
            "X": 0,
            "Y": 4.5,
            "Z": 0
          },
          "RotationOffset": {
            "X": 23,
            "Y": 0,
            "Z": 0
          }
        },
        {
          "$type": "RPG.GameCore.WaitAnimState",
          "AnimStateName": "Skill01",
          "NormalizedTimeEnd": {
            "IsDynamic": false,
            "FixedValue": {
              "Value": 0.285
            }
          }
        },
        {
          "$type": "RPG.GameCore.WaitAnimState",
          "AnimStateName": "Skill01",
          "NormalizedTimeEnd": {
            "IsDynamic": false,
            "FixedValue": {
              "Value": 0.376
            }
          }
        },
        {
          "$type": "RPG.GameCore.PredicateTaskList",
          "Predicate": {
            "$type": "RPG.GameCore.ByCompareDynamicValue",
            "DynamicKey": "Phase_Flag",
            "ContextScope": "TargetEntity",
            "CompareType": "Equal",
            "CompareValue": {
              "IsDynamic": false,
              "FixedValue": {
                "Value": 2
              }
            }
          },
          "SuccessTaskList": [
            {
              "$type": "RPG.GameCore.StartEffectAim",
              "TargetType": {
                "$type": "RPG.GameCore.TargetAlias",
                "Alias": "AbilityTargetEntity"
              },
              "UniqueEffectName": "Skill01",
              "Duration": 0.01
            },
            {
              "$type": "RPG.GameCore.FireProjectile",
              "TargetType": {
                "$type": "RPG.GameCore.TargetAlias",
                "Alias": "AbilityTargetEntity"
              },
              "Projectile": {
                "FlyTime": 0.15,
                "TargetAttachPoint": "Root",
                "TargetDistanceOffset": -2,
                "HitEffectDistanceOffset": 2,
                "FlyEffectUniqueName": "Skill01",
                "HitEffect": "Effects/Eff_Prefab/Eff_Monster/Eff_XP_Elite01_01/Eff_XP_Elite01_01_01_Skill01_Attack_Ice_Hit.prefab",
                "WriteProgressToEffectAnimator": true
              },
              "OnProjectileHit": [
                {
                  "$type": "RPG.GameCore.DamageByAttackProperty",
                  "TargetType": {
                    "$type": "RPG.GameCore.TargetAlias",
                    "Alias": "AbilityTargetEntity"
                  },
                  "AttackProperty": {
                    "DamageType": {
                      "DamageType": "Ice"
                    },
                    "DamagePercentage": {
                      "IsDynamic": true,
                      "PostfixExpr": {
                        "OpCodes": "AQAK",
                        "FixedValues": [],
                        "DynamicHashes": [
                          -1613317843
                        ]
                      }
                    },
                    "SPHitRatio": {
                      "IsDynamic": false,
                      "FixedValue": {
                        "Value": 1
                      }
                    },
                    "AttackType": "Normal",
                    "FrameHalt": {
                      "IsDynamic": false,
                      "FixedValue": {
                        "Value": 0.1
                      }
                    },
                    "HitAnimation": "Hit",
                    "HitPosHeight": 0.5
                  },
                  "TriggerHitSound": true,
                  "CanTriggerLastKill": true,
                  "DisplayData": {
                    "UIMessageHeight": 1,
                    "DitherRangeX": 0.02,
                    "DitherRangeY": 0.02
                  }
                },
                {
                  "$type": "RPG.GameCore.VCameraConfigChange",
                  "CameraConfig": {
                    "ShakeConfigV2": {
                      "ShakeRange": 0.3,
                      "ShakeTime": 0.2,
                      "ShakeDir": {
                        "X": 0,
                        "Y": 0.3,
                        "Z": 0
                      },
                      "BaseCycle": 0.1,
                      "CycleDamping": 0,
                      "RangeAttenuation": 0.95,
                      "PerlinNoiseAmplitude": {
                        "X": 0.02,
                        "Y": 0.03,
                        "Z": 0
                      },
                      "PerlinNoiseFreq": {
                        "X": 5,
                        "Y": 5,
                        "Z": 0
                      },
                      "RotationFreqV3": {
                        "X": 0,
                        "Y": 0,
                        "Z": 2
                      }
                    }
                  }
                },
                {
                  "$type": "RPG.GameCore.AddModifier",
                  "TargetType": {
                    "$type": "RPG.GameCore.TargetAlias",
                    "Alias": "AbilityTargetEntity"
                  },
                  "ModifierName": "MCommon_CTRL_Frozen",
                  "Chance": {
                    "IsDynamic": true,
                    "PostfixExpr": {
                      "OpCodes": "AQAK",
                      "FixedValues": [],
                      "DynamicHashes": [
                        514211743
                      ]
                    }
                  },
                  "LifeTime": {
                    "IsDynamic": true,
                    "PostfixExpr": {
                      "OpCodes": "AQAK",
                      "FixedValues": [],
                      "DynamicHashes": [
                        -1305612959
                      ]
                    }
                  },
                  "DynamicValues": {
                    "Modifier_Frozen_DamagePercentage": {
                      "IsDynamic": true,
                      "PostfixExpr": {
                        "OpCodes": "AQAK",
                        "FixedValues": [],
                        "DynamicHashes": [
                          -1815463466
                        ]
                      }
                    }
                  }
                }
              ],
              "WaitProjectileFinish": true
            }
          ],
          "FailedTaskList": [
            {
              "$type": "RPG.GameCore.StartEffectAim",
              "TargetType": {
                "$type": "RPG.GameCore.TargetAlias",
                "Alias": "AbilityTargetEntity"
              },
              "UniqueEffectName": "Skill01",
              "Duration": 0.01
            },
            {
              "$type": "RPG.GameCore.FireProjectile",
              "TargetType": {
                "$type": "RPG.GameCore.TargetAlias",
                "Alias": "AbilityTargetEntity"
              },
              "Projectile": {
                "FlyTime": 0.15,
                "TargetAttachPoint": "Root",
                "TargetDistanceOffset": -2,
                "HitEffectDistanceOffset": 2,
                "FlyEffectUniqueName": "Skill01",
                "HitEffect": "Effects/Eff_Prefab/Eff_Monster/Eff_XP_Elite01_01/Eff_XP_Elite01_01_01_Skill01_Attack_Ice_Hit.prefab",
                "WriteProgressToEffectAnimator": true
              },
              "OnProjectileHit": [
                {
                  "$type": "RPG.GameCore.DamageByAttackProperty",
                  "TargetType": {
                    "$type": "RPG.GameCore.TargetAlias",
                    "Alias": "ProjectileHitEntity"
                  },
                  "AttackProperty": {
                    "DamageType": {
                      "DamageType": "Ice"
                    },
                    "DamagePercentage": {
                      "IsDynamic": true,
                      "PostfixExpr": {
                        "OpCodes": "AQAK",
                        "FixedValues": [],
                        "DynamicHashes": [
                          -1126825319
                        ]
                      }
                    },
                    "SPHitRatio": {
                      "IsDynamic": false,
                      "FixedValue": {
                        "Value": 1
                      }
                    },
                    "AttackType": "Normal",
                    "HitAnimation": "Hit_H"
                  }
                },
                {
                  "$type": "RPG.GameCore.VCameraConfigChange",
                  "CameraConfig": {
                    "ShakeConfigV2": {
                      "ShakeRange": 0.2,
                      "ShakeTime": 0.2,
                      "ShakeDir": {
                        "X": 0,
                        "Y": 0.2,
                        "Z": 0
                      },
                      "BaseCycle": 0.1,
                      "CycleDamping": 0,
                      "RangeAttenuation": 0.95,
                      "PerlinNoiseAmplitude": {
                        "X": 0.02,
                        "Y": 0.03,
                        "Z": 0
                      },
                      "PerlinNoiseFreq": {
                        "X": 5,
                        "Y": 5,
                        "Z": 0
                      },
                      "RotationFreqV3": {
                        "X": 0,
                        "Y": 0,
                        "Z": 2
                      }
                    }
                  }
                }
              ],
              "WaitProjectileFinish": true
            }
          ]
        },
        {
          "$type": "RPG.GameCore.DamagePerformFinish"
        },
        {
          "$type": "RPG.GameCore.WaitAnimState",
          "AnimStateName": "Skill01",
          "NormalizedTimeEnd": {
            "IsDynamic": false,
            "FixedValue": {
              "Value": 0.8
            }
          }
        },
        {
          "$type": "RPG.GameCore.SkillPerformFinish"
        }
      ]
    },
    {
      "Name": "Monster_XP_Elite01_01_Skill02_Phase01",
      "TargetInfo": {
        "TargetType": "Caster"
      },
      "OnStart": [
        {
          "$type": "RPG.GameCore.TriggerAbility",
          "TargetType": {
            "$type": "RPG.GameCore.TargetAlias",
            "Alias": "Caster"
          },
          "AbilityName": "Monster_XP_Elite01_01_Skill02_Phase02",
          "IsSkillPerform": true
        },
        {
          "$type": "RPG.GameCore.TriggerAbility",
          "TargetType": {
            "$type": "RPG.GameCore.TargetAlias",
            "Alias": "Caster"
          },
          "AbilityName": "Monster_XP_Elite01_01_Skill02_Camera",
          "IsSkillPerform": true
        },
        {
          "$type": "RPG.GameCore.AnimSetParameter",
          "ParameterName": "Skill",
          "ParameterType": "Int",
          "Value": 2
        },
        {
          "$type": "RPG.GameCore.TriggerAnimState",
          "AnimStateName": "Skill02",
          "NormalizedTimeEnd": {
            "IsDynamic": false,
            "FixedValue": {
              "Value": 1
            }
          }
        },
        {
          "$type": "RPG.GameCore.MoveToTargetPosition",
          "TargetType": {
            "$type": "RPG.GameCore.TargetAlias",
            "Alias": "TeamFormation"
          },
          "IgnoreRadius": true,
          "OffsetTargetDistance": {
            "IsDynamic": false,
            "FixedValue": {
              "Value": 0
            }
          }
        },
        {
          "$type": "RPG.GameCore.AnimSetParameter",
          "ParameterName": "Skill",
          "ParameterType": "Int"
        },
        {
          "$type": "RPG.GameCore.TriggerAnimState",
          "AnimLogicState": "Idle"
        }
      ]
    },
    {
      "Name": "Monster_XP_Elite01_01_Skill02_Phase02",
      "TargetInfo": {
        "TargetType": "Caster"
      },
      "OnStart": [
        {
          "$type": "RPG.GameCore.WaitAnimState",
          "TargetType": {
            "$type": "RPG.GameCore.TargetAlias",
            "Alias": "Caster"
          },
          "AnimStateName": "Skill02",
          "NormalizedTimeEnd": {
            "IsDynamic": false,
            "FixedValue": {
              "Value": 0.0025000002
            }
          }
        },
        {
          "$type": "RPG.GameCore.SkillExecutionStart"
        },
        {
          "$type": "RPG.GameCore.WaitAnimState",
          "TargetType": {
            "$type": "RPG.GameCore.TargetAlias",
            "Alias": "Caster"
          },
          "AnimStateName": "Skill02",
          "NormalizedTimeEnd": {
            "IsDynamic": false,
            "FixedValue": {
              "Value": 0.315
            }
          }
        },
        {
          "$type": "RPG.GameCore.VCameraConfigChange",
          "CameraConfig": {
            "ShakeConfigV2": {
              "ShakeRange": 0.05,
              "ShakeTime": 0.7,
              "ShakeDir": {
                "X": 0,
                "Y": 0.05,
                "Z": 0
              },
              "BaseCycle": 0.05,
              "CycleDamping": 0,
              "RangeAttenuation": 0.95,
              "PerlinNoiseAmplitude": {
                "X": 0.02,
                "Y": 0.03,
                "Z": 0
              },
              "PerlinNoiseFreq": {
                "X": 5,
                "Y": 20,
                "Z": 0
              },
              "RotationFreqV3": {
                "X": 0,
                "Y": 0,
                "Z": 2
              }
            }
          }
        },
        {
          "$type": "RPG.GameCore.WaitAnimState",
          "TargetType": {
            "$type": "RPG.GameCore.TargetAlias",
            "Alias": "Caster"
          },
          "AnimStateName": "Skill02",
          "NormalizedTimeEnd": {
            "IsDynamic": false,
            "FixedValue": {
              "Value": 0.56
            }
          }
        },
        {
          "$type": "RPG.GameCore.WaitAnimState",
          "TargetType": {
            "$type": "RPG.GameCore.TargetAlias",
            "Alias": "Caster"
          },
          "AnimStateName": "Skill02",
          "NormalizedTimeEnd": {
            "IsDynamic": false,
            "FixedValue": {
              "Value": 0.6
            }
          }
        },
        {
          "$type": "RPG.GameCore.RadialBlurCurveEffect",
          "BlurRadius": 1,
          "Iteration": 4,
          "BlurStart": 0.002,
          "BlurFeather": 0.001,
          "Duration": 0.5,
          "CurveName": "DashBlurCurve"
        },
        {
          "$type": "RPG.GameCore.AddModifier",
          "TargetType": {
            "$type": "RPG.GameCore.TargetAlias",
            "Alias": "Caster"
          },
          "ModifierName": "XP_Ice_Elite_Powerful_Modifier",
          "DynamicValues": {
            "Modifier_AllDamageTypeResistance": {
              "IsDynamic": true,
              "PostfixExpr": {
                "OpCodes": "AQAK",
                "FixedValues": [],
                "DynamicHashes": [
                  187428560
                ]
              }
            },
            "Modifier_StanceWeakAddedRatio": {
              "IsDynamic": true,
              "PostfixExpr": {
                "OpCodes": "AQAK",
                "FixedValues": [],
                "DynamicHashes": [
                  -971359323
                ]
              }
            },
            "Modifier_Stance": {
              "IsDynamic": true,
              "PostfixExpr": {
                "OpCodes": "AQAK",
                "FixedValues": [],
                "DynamicHashes": [
                  -1738174484
                ]
              }
            }
          }
        },
        {
          "$type": "RPG.GameCore.DefineDynamicValue",
          "TargetType": {
            "$type": "RPG.GameCore.TargetAlias",
            "Alias": "Caster"
          },
          "DynamicKey": "StanceBreak_Sign",
          "ResetValue": {
            "IsDynamic": false,
            "FixedValue": {
              "Value": 1
            }
          },
          "ContextScope": "TargetEntity"
        },
        {
          "$type": "RPG.GameCore.WaitAnimState",
          "TargetType": {
            "$type": "RPG.GameCore.TargetAlias",
            "Alias": "Caster"
          },
          "AnimStateName": "Skill02",
          "NormalizedTimeEnd": {
            "IsDynamic": false,
            "FixedValue": {
              "Value": 0.8
            }
          }
        },
        {
          "$type": "RPG.GameCore.SkillPerformFinish"
        }
      ]
    },
    {
      "Name": "Monster_XP_Elite01_01_Skill03_Phase01",
      "TargetInfo": {
        "TargetType": "AllEnemy"
      },
      "OnStart": [
        {
          "$type": "RPG.GameCore.SetTeamFormation",
          "Team": "TeamLight",
          "FormationType": "LightTeamNormal",
          "CustomFormationIgnoreDying": false
        },
        {
          "$type": "RPG.GameCore.SetTeamFormation",
          "Team": "TeamDark",
          "CustomFormationName": "Monster_XP_Elite01_01_Skill03",
          "CustomCenterTargetType": {
            "$type": "RPG.GameCore.TargetAlias",
            "Alias": "LightTeamCenter"
          },
          "CustomFormationIgnoreDying": false
        },
        {
          "$type": "RPG.GameCore.LookAt",
          "TargetType": "LightTeamCenter"
        },
        {
          "$type": "RPG.GameCore.TriggerAbility",
          "TargetType": {
            "$type": "RPG.GameCore.TargetAlias",
            "Alias": "Caster"
          },
          "AbilityName": "Monster_XP_Elite01_01_Skill03_Phase02",
          "IsSkillPerform": true
        },
        {
          "$type": "RPG.GameCore.TriggerAbility",
          "TargetType": {
            "$type": "RPG.GameCore.TargetAlias",
            "Alias": "Caster"
          },
          "AbilityName": "Monster_XP_Elite01_01_Skill03_Camera",
          "IsSkillPerform": true
        },
        {
          "$type": "RPG.GameCore.TriggerAnimState",
          "AnimStateName": "Skill03",
          "NormalizedTimeEnd": {
            "IsDynamic": false,
            "FixedValue": {
              "Value": 1
            }
          }
        },
        {
          "$type": "RPG.GameCore.TriggerAnimState",
          "AnimLogicState": "Idle"
        },
        {
          "$type": "RPG.GameCore.LookAt",
          "TargetType": "TeamFormation"
        }
      ]
    },
    {
      "Name": "Monster_XP_Elite01_01_Skill03_Phase02",
      "TargetInfo": {
        "TargetType": "AllEnemy"
      },
      "OnStart": [
        {
          "$type": "RPG.GameCore.WaitAnimState",
          "AnimStateName": "Skill03",
          "NormalizedTimeEnd": {
            "IsDynamic": false,
            "FixedValue": {
              "Value": 0.536
            }
          }
        },
        {
          "$type": "RPG.GameCore.VCameraConfigChange",
          "CameraConfig": {
            "ShakeConfigV2": {
              "ShakeRange": 0.05,
              "ShakeTime": 0.8,
              "ShakeDir": {
                "X": 0,
                "Y": 0.05,
                "Z": 0
              },
              "BaseCycle": 0.05,
              "CycleDamping": 0,
              "RangeAttenuation": 0.95,
              "PerlinNoiseAmplitude": {
                "X": 0.02,
                "Y": 0.03,
                "Z": 0
              },
              "PerlinNoiseFreq": {
                "X": 5,
                "Y": 20,
                "Z": 0
              },
              "RotationFreqV3": {
                "X": 0,
                "Y": 0,
                "Z": 2
              }
            }
          }
        },
        {
          "$type": "RPG.GameCore.WaitAnimState",
          "AnimStateName": "Skill03",
          "NormalizedTimeEnd": {
            "IsDynamic": false,
            "FixedValue": {
              "Value": 0.661
            }
          }
        },
        {
          "$type": "RPG.GameCore.SkillExecutionStart"
        },
        {
          "$type": "RPG.GameCore.PredicateTaskList",
          "Predicate": {
            "$type": "RPG.GameCore.ByCompareDynamicValue",
            "DynamicKey": "Phase_Flag",
            "ContextScope": "TargetEntity",
            "CompareType": "Equal",
            "CompareValue": {
              "IsDynamic": false,
              "FixedValue": {
                "Value": 2
              }
            }
          },
          "SuccessTaskList": [
            {
              "$type": "RPG.GameCore.DamageByAttackProperty",
              "TargetType": {
                "$type": "RPG.GameCore.TargetAlias",
                "Alias": "AllEnemy"
              },
              "AttackProperty": {
                "DamageType": {
                  "DamageType": "Ice"
                },
                "DamagePercentage": {
                  "IsDynamic": true,
                  "PostfixExpr": {
                    "OpCodes": "AQAAAAQK",
                    "FixedValues": [
                      {
                        "Value": 0.3
                      }
                    ],
                    "DynamicHashes": [
                      -193118985
                    ]
                  }
                },
                "SPHitRatio": {
                  "IsDynamic": false,
                  "FixedValue": {
                    "Value": 0.3
                  }
                },
                "AttackType": "Normal",
                "HitAnimation": "Hit_H",
                "HitTimeSlowIntensity": "Middle"
              }
            },
            {
              "$type": "RPG.GameCore.WaitAnimState",
              "AnimStateName": "Skill03",
              "NormalizedTimeEnd": {
                "IsDynamic": false,
                "FixedValue": {
                  "Value": 0.692
                }
              }
            },
            {
              "$type": "RPG.GameCore.DamageByAttackProperty",
              "TargetType": {
                "$type": "RPG.GameCore.TargetAlias",
                "Alias": "AllEnemy"
              },
              "AttackProperty": {
                "DamageType": {
                  "DamageType": "Ice"
                },
                "DamagePercentage": {
                  "IsDynamic": true,
                  "PostfixExpr": {
                    "OpCodes": "AQAAAAQK",
                    "FixedValues": [
                      {
                        "Value": 0.3
                      }
                    ],
                    "DynamicHashes": [
                      -193118985
                    ]
                  }
                },
                "SPHitRatio": {
                  "IsDynamic": false,
                  "FixedValue": {
                    "Value": 0.3
                  }
                },
                "AttackType": "Normal",
                "HitAnimation": "Hit_H",
                "HitTimeSlowIntensity": "Middle"
              }
            },
            {
              "$type": "RPG.GameCore.WaitAnimState",
              "AnimStateName": "Skill03",
              "NormalizedTimeEnd": {
                "IsDynamic": false,
                "FixedValue": {
                  "Value": 0.722
                }
              }
            },
            {
              "$type": "RPG.GameCore.DamageByAttackProperty",
              "TargetType": {
                "$type": "RPG.GameCore.TargetAlias",
                "Alias": "AllEnemy"
              },
              "AttackProperty": {
                "DamageType": {
                  "DamageType": "Ice"
                },
                "DamagePercentage": {
                  "IsDynamic": true,
                  "PostfixExpr": {
                    "OpCodes": "AQAAAAQK",
                    "FixedValues": [
                      {
                        "Value": 0.4
                      }
                    ],
                    "DynamicHashes": [
                      -193118985
                    ]
                  }
                },
                "SPHitRatio": {
                  "IsDynamic": false,
                  "FixedValue": {
                    "Value": 0.4
                  }
                },
                "AttackType": "Normal",
                "HitAnimation": "Hit_H",
                "HitTimeSlowIntensity": "Middle"
              }
            },
            {
              "$type": "RPG.GameCore.WaitAnimState",
              "AnimStateName": "Skill03",
              "NormalizedTimeEnd": {
                "IsDynamic": false,
                "FixedValue": {
                  "Value": 0.753
                }
              }
            },
            {
              "$type": "RPG.GameCore.PredicateTaskList",
              "Predicate": {
                "$type": "RPG.GameCore.ByCompareAliveEnemyNumber",
                "TargetType": {
                  "$type": "RPG.GameCore.TargetAlias",
                  "Alias": "Caster"
                },
                "CompareType": "Greater",
                "CompareValue": {
                  "IsDynamic": false,
                  "FixedValue": {
                    "Value": 2
                  }
                }
              },
              "SuccessTaskList": [
                {
                  "$type": "RPG.GameCore.PredicateTaskList",
                  "Predicate": {
                    "$type": "RPG.GameCore.ByCompareMonsterID",
                    "TargetType": {
                      "$type": "RPG.GameCore.TargetAlias",
                      "Alias": "Caster"
                    },
                    "TargetMonsterID": {
                      "IsDynamic": false,
                      "FixedValue": {
                        "Value": 8003011
                      }
                    }
                  },
                  "SuccessTaskList": [
                    {
                      "$type": "RPG.GameCore.Retarget",
                      "TargetType": {
                        "$type": "RPG.GameCore.TargetAlias",
                        "Alias": "AllEnemy"
                      },
                      "MaxNumber": {
                        "IsDynamic": false,
                        "FixedValue": {
                          "Value": 2
                        }
                      },
                      "TaskList": [
                        {
                          "$type": "RPG.GameCore.AddModifier",
                          "TargetType": {
                            "$type": "RPG.GameCore.TargetAlias",
                            "Alias": "ParamEntity"
                          },
                          "ModifierName": "MCommon_CTRL_Frozen",
                          "Chance": {
                            "IsDynamic": true,
                            "PostfixExpr": {
                              "OpCodes": "AQAK",
                              "FixedValues": [],
                              "DynamicHashes": [
                                -1896556331
                              ]
                            }
                          },
                          "LifeTime": {
                            "IsDynamic": true,
                            "PostfixExpr": {
                              "OpCodes": "AQAK",
                              "FixedValues": [],
                              "DynamicHashes": [
                                -852129685
                              ]
                            }
                          },
                          "DynamicValues": {
                            "Modifier_Frozen_DamagePercentage": {
                              "IsDynamic": true,
                              "PostfixExpr": {
                                "OpCodes": "AQAK",
                                "FixedValues": [],
                                "DynamicHashes": [
                                  -489103392
                                ]
                              }
                            }
                          },
                          "SuccessTaskList": [
                            {
                              "$type": "RPG.GameCore.SetActionDelay",
                              "TargetType": {
                                "$type": "RPG.GameCore.TargetAlias",
                                "Alias": "ParamEntity"
                              },
                              "NormalizedValue": {
                                "IsDynamic": true,
                                "PostfixExpr": {
                                  "OpCodes": "AQAK",
                                  "FixedValues": [],
                                  "DynamicHashes": [
                                    1305611545
                                  ]
                                }
                              }
                            }
                          ]
                        }
                      ]
                    }
                  ],
                  "FailedTaskList": [
                    {
                      "$type": "RPG.GameCore.Retarget",
                      "TargetType": {
                        "$type": "RPG.GameCore.TargetAlias",
                        "Alias": "AllEnemy"
                      },
                      "Predicate": {
                        "$type": "RPG.GameCore.ByNot",
                        "Predicate": {
                          "$type": "RPG.GameCore.ByIsContainModifier",
                          "TargetType": {
                            "$type": "RPG.GameCore.TargetAlias",
                            "Alias": "ParamEntity"
                          },
                          "ModifierName": "MCommon_CTRL_Frozen"
                        }
                      },
                      "MaxNumber": {
                        "IsDynamic": false,
                        "FixedValue": {
                          "Value": 2
                        }
                      },
                      "TaskList": [
                        {
                          "$type": "RPG.GameCore.AddModifier",
                          "TargetType": {
                            "$type": "RPG.GameCore.TargetAlias",
                            "Alias": "ParamEntity"
                          },
                          "ModifierName": "MCommon_CTRL_Frozen",
                          "Chance": {
                            "IsDynamic": true,
                            "PostfixExpr": {
                              "OpCodes": "AQAK",
                              "FixedValues": [],
                              "DynamicHashes": [
                                -1896556331
                              ]
                            }
                          },
                          "LifeTime": {
                            "IsDynamic": true,
                            "PostfixExpr": {
                              "OpCodes": "AQAK",
                              "FixedValues": [],
                              "DynamicHashes": [
                                -852129685
                              ]
                            }
                          },
                          "DynamicValues": {
                            "Modifier_Frozen_DamagePercentage": {
                              "IsDynamic": true,
                              "PostfixExpr": {
                                "OpCodes": "AQAK",
                                "FixedValues": [],
                                "DynamicHashes": [
                                  -489103392
                                ]
                              }
                            }
                          }
                        }
                      ]
                    }
                  ]
                }
              ],
              "FailedTaskList": [
                {
                  "$type": "RPG.GameCore.PredicateTaskList",
                  "Predicate": {
                    "$type": "RPG.GameCore.ByCompareMonsterID",
                    "TargetType": {
                      "$type": "RPG.GameCore.TargetAlias",
                      "Alias": "Caster"
                    },
                    "TargetMonsterID": {
                      "IsDynamic": false,
                      "FixedValue": {
                        "Value": 8003011
                      }
                    }
                  },
                  "SuccessTaskList": [
                    {
                      "$type": "RPG.GameCore.Retarget",
                      "TargetType": {
                        "$type": "RPG.GameCore.TargetAlias",
                        "Alias": "AllEnemy"
                      },
                      "MaxNumber": {
                        "IsDynamic": false,
                        "FixedValue": {
                          "Value": 1
                        }
                      },
                      "TaskList": [
                        {
                          "$type": "RPG.GameCore.AddModifier",
                          "TargetType": {
                            "$type": "RPG.GameCore.TargetAlias",
                            "Alias": "ParamEntity"
                          },
                          "ModifierName": "MCommon_CTRL_Frozen",
                          "Chance": {
                            "IsDynamic": true,
                            "PostfixExpr": {
                              "OpCodes": "AQAK",
                              "FixedValues": [],
                              "DynamicHashes": [
                                -1896556331
                              ]
                            }
                          },
                          "LifeTime": {
                            "IsDynamic": true,
                            "PostfixExpr": {
                              "OpCodes": "AQAK",
                              "FixedValues": [],
                              "DynamicHashes": [
                                -852129685
                              ]
                            }
                          },
                          "DynamicValues": {
                            "Modifier_Frozen_DamagePercentage": {
                              "IsDynamic": true,
                              "PostfixExpr": {
                                "OpCodes": "AQAK",
                                "FixedValues": [],
                                "DynamicHashes": [
                                  -489103392
                                ]
                              }
                            }
                          },
                          "SuccessTaskList": [
                            {
                              "$type": "RPG.GameCore.SetActionDelay",
                              "TargetType": {
                                "$type": "RPG.GameCore.TargetAlias",
                                "Alias": "ParamEntity"
                              },
                              "NormalizedValue": {
                                "IsDynamic": true,
                                "PostfixExpr": {
                                  "OpCodes": "AQAK",
                                  "FixedValues": [],
                                  "DynamicHashes": [
                                    1305611545
                                  ]
                                }
                              }
                            }
                          ]
                        }
                      ]
                    }
                  ],
                  "FailedTaskList": [
                    {
                      "$type": "RPG.GameCore.Retarget",
                      "TargetType": {
                        "$type": "RPG.GameCore.TargetAlias",
                        "Alias": "AllEnemy"
                      },
                      "Predicate": {
                        "$type": "RPG.GameCore.ByNot",
                        "Predicate": {
                          "$type": "RPG.GameCore.ByIsContainModifier",
                          "TargetType": {
                            "$type": "RPG.GameCore.TargetAlias",
                            "Alias": "ParamEntity"
                          },
                          "ModifierName": "MCommon_CTRL_Frozen"
                        }
                      },
                      "MaxNumber": {
                        "IsDynamic": false,
                        "FixedValue": {
                          "Value": 1
                        }
                      },
                      "TaskList": [
                        {
                          "$type": "RPG.GameCore.AddModifier",
                          "TargetType": {
                            "$type": "RPG.GameCore.TargetAlias",
                            "Alias": "ParamEntity"
                          },
                          "ModifierName": "MCommon_CTRL_Frozen",
                          "Chance": {
                            "IsDynamic": true,
                            "PostfixExpr": {
                              "OpCodes": "AQAK",
                              "FixedValues": [],
                              "DynamicHashes": [
                                -1896556331
                              ]
                            }
                          },
                          "LifeTime": {
                            "IsDynamic": true,
                            "PostfixExpr": {
                              "OpCodes": "AQAK",
                              "FixedValues": [],
                              "DynamicHashes": [
                                -852129685
                              ]
                            }
                          },
                          "DynamicValues": {
                            "Modifier_Frozen_DamagePercentage": {
                              "IsDynamic": true,
                              "PostfixExpr": {
                                "OpCodes": "AQAK",
                                "FixedValues": [],
                                "DynamicHashes": [
                                  -489103392
                                ]
                              }
                            }
                          }
                        }
                      ]
                    }
                  ]
                }
              ]
            }
          ],
          "FailedTaskList": [
            {
              "$type": "RPG.GameCore.DamageByAttackProperty",
              "TargetType": {
                "$type": "RPG.GameCore.TargetAlias",
                "Alias": "AllEnemy"
              },
              "AttackProperty": {
                "DamageType": {
                  "DamageType": "Ice"
                },
                "DamagePercentage": {
                  "IsDynamic": true,
                  "PostfixExpr": {
                    "OpCodes": "AQAAAAQK",
                    "FixedValues": [
                      {
                        "Value": 0.3
                      }
                    ],
                    "DynamicHashes": [
                      -56289053
                    ]
                  }
                },
                "SPHitRatio": {
                  "IsDynamic": false,
                  "FixedValue": {
                    "Value": 0.3
                  }
                },
                "AttackType": "Normal",
                "HitAnimation": "Hit_H"
              }
            },
            {
              "$type": "RPG.GameCore.WaitAnimState",
              "AnimStateName": "Skill03",
              "NormalizedTimeEnd": {
                "IsDynamic": false,
                "FixedValue": {
                  "Value": 0.692
                }
              }
            },
            {
              "$type": "RPG.GameCore.DamageByAttackProperty",
              "TargetType": {
                "$type": "RPG.GameCore.TargetAlias",
                "Alias": "AllEnemy"
              },
              "AttackProperty": {
                "DamageType": {
                  "DamageType": "Ice"
                },
                "DamagePercentage": {
                  "IsDynamic": true,
                  "PostfixExpr": {
                    "OpCodes": "AQAAAAQK",
                    "FixedValues": [
                      {
                        "Value": 0.3
                      }
                    ],
                    "DynamicHashes": [
                      -56289053
                    ]
                  }
                },
                "SPHitRatio": {
                  "IsDynamic": false,
                  "FixedValue": {
                    "Value": 0.3
                  }
                },
                "AttackType": "Normal",
                "HitAnimation": "Hit_H"
              }
            },
            {
              "$type": "RPG.GameCore.WaitAnimState",
              "AnimStateName": "Skill03",
              "NormalizedTimeEnd": {
                "IsDynamic": false,
                "FixedValue": {
                  "Value": 0.722
                }
              }
            },
            {
              "$type": "RPG.GameCore.DamageByAttackProperty",
              "TargetType": {
                "$type": "RPG.GameCore.TargetAlias",
                "Alias": "AllEnemy"
              },
              "AttackProperty": {
                "DamageType": {
                  "DamageType": "Ice"
                },
                "DamagePercentage": {
                  "IsDynamic": true,
                  "PostfixExpr": {
                    "OpCodes": "AQAAAAQK",
                    "FixedValues": [
                      {
                        "Value": 0.4
                      }
                    ],
                    "DynamicHashes": [
                      -56289053
                    ]
                  }
                },
                "SPHitRatio": {
                  "IsDynamic": false,
                  "FixedValue": {
                    "Value": 0.4
                  }
                },
                "AttackType": "Normal",
                "HitAnimation": "Hit_H"
              }
            }
          ]
        },
        {
          "$type": "RPG.GameCore.DamagePerformFinish"
        },
        {
          "$type": "RPG.GameCore.SkillPerformFinish"
        }
      ]
    },
    {
      "Name": "Monster_XP_Elite01_01_Skill05_Phase01",
      "TargetInfo": {
        "TargetType": "Caster"
      },
      "OnStart": [
        {
          "$type": "RPG.GameCore.TriggerAbility",
          "TargetType": {
            "$type": "RPG.GameCore.TargetAlias",
            "Alias": "Caster"
          },
          "AbilityName": "Monster_XP_Elite01_01_Skill05_Phase02",
          "IsSkillPerform": true
        },
        {
          "$type": "RPG.GameCore.TriggerAbility",
          "TargetType": {
            "$type": "RPG.GameCore.TargetAlias",
            "Alias": "Caster"
          },
          "AbilityName": "Monster_XP_Elite01_01_Skill05_Camera",
          "IsSkillPerform": true
        },
        {
          "$type": "RPG.GameCore.TriggerAnimState",
          "AnimStateName": "Skill05",
          "NormalizedTimeEnd": {
            "IsDynamic": false,
            "FixedValue": {
              "Value": 1
            }
          }
        },
        {
          "$type": "RPG.GameCore.TriggerAnimState",
          "AnimLogicState": "Idle"
        }
      ]
    },
    {
      "Name": "Monster_XP_Elite01_01_Skill05_Phase02",
      "TargetInfo": {
        "TargetType": "Caster"
      },
      "OnStart": [
        {
          "$type": "RPG.GameCore.WaitAnimState",
          "TargetType": {
            "$type": "RPG.GameCore.TargetAlias",
            "Alias": "Caster"
          },
          "AnimStateName": "Skill05",
          "NormalizedTimeEnd": {
            "IsDynamic": false,
            "FixedValue": {
              "Value": 0.0025000002
            }
          }
        },
        {
          "$type": "RPG.GameCore.SkillExecutionStart"
        },
        {
          "$type": "RPG.GameCore.WaitAnimState",
          "TargetType": {
            "$type": "RPG.GameCore.TargetAlias",
            "Alias": "Caster"
          },
          "AnimStateName": "Skill05",
          "NormalizedTimeEnd": {
            "IsDynamic": false,
            "FixedValue": {
              "Value": 0.6
            }
          }
        },
        {
          "$type": "RPG.GameCore.Retarget",
          "TargetType": {
            "$type": "RPG.GameCore.TargetAlias",
            "Alias": "AllEnemy"
          },
          "Predicate": {
            "$type": "RPG.GameCore.ByIsContainModifier",
            "TargetType": {
              "$type": "RPG.GameCore.TargetAlias",
              "Alias": "ParamEntity"
            },
            "ModifierName": "MCommon_CTRL_Frozen"
          },
          "TaskList": [
            {
              "$type": "RPG.GameCore.SetDynamicValueByModifierValue",
              "ReadTargetType": {
                "$type": "RPG.GameCore.TargetAlias",
                "Alias": "ParamEntity"
              },
              "ModifierName": "MCommon_CTRL_Frozen",
              "ValueType": "LifeTime",
              "Multiplier": {
                "IsDynamic": false,
                "FixedValue": {
                  "Value": 1
                }
              },
              "DynamicKey": "CurrentFrozenLifeTime"
            },
            {
              "$type": "RPG.GameCore.AddModifier",
              "TargetType": {
                "$type": "RPG.GameCore.TargetAlias",
                "Alias": "ParamEntity"
              },
              "ModifierName": "MCommon_CTRL_Frozen",
              "Chance": {
                "IsDynamic": true,
                "PostfixExpr": {
                  "OpCodes": "AQAK",
                  "FixedValues": [],
                  "DynamicHashes": [
                    514211743
                  ]
                }
              },
              "LifeTime": {
                "IsDynamic": true,
                "PostfixExpr": {
                  "OpCodes": "AQABAQIK",
                  "FixedValues": [],
                  "DynamicHashes": [
                    -1192572158,
                    -1200802180
                  ]
                }
              },
              "DynamicValues": {
                "Modifier_Frozen_DamagePercentage": {
                  "IsDynamic": true,
                  "PostfixExpr": {
                    "OpCodes": "AQAK",
                    "FixedValues": [],
                    "DynamicHashes": [
                      -1815463466
                    ]
                  }
                }
              }
            },
            {
              "$type": "RPG.GameCore.DamageByAttackProperty",
              "TargetType": {
                "$type": "RPG.GameCore.TargetAlias",
                "Alias": "ParamEntity"
              },
              "AttackProperty": {
                "DamageType": {
                  "DamageType": "Ice"
                },
                "DamagePercentage": {
                  "IsDynamic": true,
                  "PostfixExpr": {
                    "OpCodes": "AQAK",
                    "FixedValues": [],
                    "DynamicHashes": [
                      -402291451
                    ]
                  }
                },
                "SPHitRatio": {
                  "IsDynamic": false,
                  "FixedValue": {
                    "Value": 1
                  }
                },
                "AttackType": "Normal",
                "HitAnimation": "Hit_H",
                "HitEffect": "Effects/Eff_Prefab/Eff_Monster/Eff_XP_Elite01_01/Eff_XP_Elite01_01_01_Skill01_Attack_Ice_Hit.prefab"
              }
            }
          ]
        },
        {
          "$type": "RPG.GameCore.WaitAnimState",
          "TargetType": {
            "$type": "RPG.GameCore.TargetAlias",
            "Alias": "Caster"
          },
          "AnimStateName": "Skill05",
          "NormalizedTimeEnd": {
            "IsDynamic": false,
            "FixedValue": {
              "Value": 1
            }
          }
        },
        {
          "$type": "RPG.GameCore.SkillPerformFinish"
        }
      ]
    },
    {
      "Name": "Monster_XP_Elite01_01_Skill06_Phase01",
      "TargetInfo": {
        "TargetType": "SkillTargetEntityList",
        "MaxTargetCount": 3
      },
      "OnStart": [
        {
          "$type": "RPG.GameCore.TriggerAbility",
          "TargetType": {
            "$type": "RPG.GameCore.TargetAlias",
            "Alias": "Caster"
          },
          "AbilityName": "Monster_XP_Elite01_01_Skill06_Phase02",
          "IsSkillPerform": true
        },
        {
          "$type": "RPG.GameCore.TriggerAbility",
          "TargetType": {
            "$type": "RPG.GameCore.TargetAlias",
            "Alias": "Caster"
          },
          "AbilityName": "Monster_XP_Elite01_01_Skill06_Camera",
          "IsSkillPerform": true
        },
        {
          "$type": "RPG.GameCore.TriggerAnimState",
          "AnimStateName": "Skill06",
          "NormalizedTimeEnd": {
            "IsDynamic": false,
            "FixedValue": {
              "Value": 1
            }
          }
        },
        {
          "$type": "RPG.GameCore.TriggerAnimState",
          "AnimLogicState": "Idle"
        }
      ]
    },
    {
      "Name": "Monster_XP_Elite01_01_Skill06_Phase02",
      "TargetInfo": {
        "TargetType": "SkillTargetEntityList",
        "MaxTargetCount": 3
      },
      "OnStart": [
        {
          "$type": "RPG.GameCore.SetTeamFormation",
          "Team": "TeamLight",
          "FormationType": "LightTeamNormal",
          "CustomFormationIgnoreDying": false
        },
        {
          "$type": "RPG.GameCore.WaitAnimState",
          "TargetType": {
            "$type": "RPG.GameCore.TargetAlias",
            "Alias": "Caster"
          },
          "AnimStateName": "Skill06",
          "NormalizedTimeEnd": {
            "IsDynamic": false,
            "FixedValue": {
              "Value": 0.53
            }
          }
        },
        {
          "$type": "RPG.GameCore.LookAt",
          "TargetType": "AbilityTargetEntity"
        },
        {
          "$type": "RPG.GameCore.WaitAnimState",
          "TargetType": {
            "$type": "RPG.GameCore.TargetAlias",
            "Alias": "Caster"
          },
          "AnimStateName": "Skill06",
          "NormalizedTimeEnd": {
            "IsDynamic": false,
            "FixedValue": {
              "Value": 0.545
            }
          }
        },
        {
          "$type": "RPG.GameCore.DamageByAttackProperty",
          "TargetType": {
            "$type": "RPG.GameCore.TargetAlias",
            "Alias": "AbilityTargetEntity"
          },
          "AttackProperty": {
            "DamageType": {
              "DamageType": "Ice"
            },
            "DamagePercentage": {
              "IsDynamic": true,
              "PostfixExpr": {
                "OpCodes": "AQAK",
                "FixedValues": [],
                "DynamicHashes": [
                  -1122549516
                ]
              }
            },
            "SPHitRatio": {
              "IsDynamic": false,
              "FixedValue": {
                "Value": 1
              }
            },
            "AttackType": "Normal",
            "HitAnimation": "Hit",
            "HitEffect": "Effects/Eff_Prefab/Eff_Monster/Eff_W1_CocoliaP1_00/Eff_Monster_W1_CocoliaP1_00_Battleevent_Hit.prefab",
            "HitTimeSlowType": "Impact"
          }
        },
        {
          "$type": "RPG.GameCore.RemoveModifier",
          "TargetType": {
            "$type": "RPG.GameCore.TargetAlias",
            "Alias": "AbilityTargetEntity"
          },
          "ModifierName": "MCommon_CTRL_Frozen"
        },
        {
          "$type": "RPG.GameCore.DamageByAttackProperty",
          "TargetType": {
            "$type": "RPG.GameCore.TargetAlias",
            "Alias": "AbilityTargetAdjoinEntity"
          },
          "AttackProperty": {
            "DamageType": {
              "DamageType": "Ice"
            },
            "DamagePercentage": {
              "IsDynamic": true,
              "PostfixExpr": {
                "OpCodes": "AQAK",
                "FixedValues": [],
                "DynamicHashes": [
                  -331393035
                ]
              }
            },
            "SPHitRatio": {
              "IsDynamic": false,
              "FixedValue": {
                "Value": 0.5
              }
            },
            "AttackType": "Normal",
            "HitAnimation": "Hit",
            "HitEffect": "Effects/Eff_Prefab/Eff_Monster/Eff_W1_CocoliaP1_00/Eff_Monster_W1_CocoliaP1_00_Battleevent_Hit.prefab",
            "HitTimeSlowType": "Impact"
          }
        },
        {
          "$type": "RPG.GameCore.DamagePerformFinish"
        },
        {
          "$type": "RPG.GameCore.VCameraConfigChange",
          "CameraConfig": {
            "ShakeConfigV2": {
              "ShakeRange": 0.31,
              "ShakeTime": 0.2,
              "ShakeDir": {
                "X": 0.15,
                "Y": 0.15,
                "Z": 0
              },
              "BaseCycle": 0.28,
              "CycleDamping": 0,
              "RangeAttenuation": 0.95,
              "PerlinNoiseAmplitude": {
                "X": 0.1,
                "Y": 0.1,
                "Z": 0.1
              },
              "PerlinNoiseFreq": {
                "X": 16,
                "Y": 14,
                "Z": 12
              },
              "RotationalAmplitude": {
                "X": 0,
                "Y": 0,
                "Z": 3.5
              },
              "RotationFreqV3": {
                "X": 4,
                "Y": 0,
                "Z": 8
              }
            }
          }
        },
        {
          "$type": "RPG.GameCore.WaitAnimState",
          "TargetType": {
            "$type": "RPG.GameCore.TargetAlias",
            "Alias": "Caster"
          },
          "AnimStateName": "Skill06",
          "NormalizedTimeEnd": {
            "IsDynamic": false,
            "FixedValue": {
              "Value": 1
            }
          }
        },
        {
          "$type": "RPG.GameCore.SkillPerformFinish"
        }
      ]
    }
  ]
}