{
  "BakeInfoLayouts": [
    {
      "UniqueName": "Monster_W2_Kafka_00_Pursuit",
      "Offset": 10178
    },
    {
      "UniqueName": "Monster_W2_Kafka_00_Enhance",
      "Offset": 10973
    },
    {
      "UniqueName": "Monster_W2_Kafka_00_EnhanceElectricDamage",
      "Offset": 11339
    },
    {
      "UniqueName": "Monster_W2_Kafka_00_EnhanceElectricMark",
      "Offset": 11473
    },
    {
      "UniqueName": "Monster_W2_Kafka_00_CharmControl",
      "Offset": 11507
    },
    {
      "UniqueName": "Monster_W2_Kafka_00_Charm",
      "Offset": 11684
    },
    {
      "UniqueName": "Monster_W2_Kafka_00_CharmDisableAction",
      "Offset": 12554
    },
    {
      "UniqueName": "Monster_W2_Kafka_00_CharmOneAttack",
      "Offset": 12595
    },
    {
      "UniqueName": "Monster_W2_Kafka_00_CharmMark",
      "Offset": 12699
    },
    {
      "UniqueName": "Monster_W2_Kafka_00_CharmTargetMark",
      "Offset": 12768
    },
    {
      "UniqueName": "Monster_W2_Kafka_00_Passive01",
      "TypeId": "TypeId_TurnBasedAbilityConfig",
      "Offset": 2
    },
    {
      "UniqueName": "Monster_W2_Kafka_00_Skill01_Phase01",
      "TypeId": "TypeId_TurnBasedAbilityConfig",
      "Offset": 712
    },
    {
      "UniqueName": "Monster_W2_Kafka_00_Skill01_Phase02",
      "TypeId": "TypeId_TurnBasedAbilityConfig",
      "Offset": 971
    },
    {
      "UniqueName": "Monster_W2_Kafka_00_Skill02_Phase01",
      "TypeId": "TypeId_TurnBasedAbilityConfig",
      "Offset": 2148
    },
    {
      "UniqueName": "Monster_W2_Kafka_00_Skill02_Phase02",
      "TypeId": "TypeId_TurnBasedAbilityConfig",
      "Offset": 2406
    },
    {
      "UniqueName": "Monster_W2_Kafka_00_Skill03_Phase01",
      "TypeId": "TypeId_TurnBasedAbilityConfig",
      "Offset": 4732
    },
    {
      "UniqueName": "Monster_W2_Kafka_00_Skill03_Phase02",
      "TypeId": "TypeId_TurnBasedAbilityConfig",
      "Offset": 5166
    },
    {
      "UniqueName": "Monster_W2_Kafka_00_Skill04_Phase01",
      "TypeId": "TypeId_TurnBasedAbilityConfig",
      "Offset": 6117
    },
    {
      "UniqueName": "Monster_W2_Kafka_00_Skill04_Phase02",
      "TypeId": "TypeId_TurnBasedAbilityConfig",
      "Offset": 6327
    },
    {
      "UniqueName": "Monster_W2_Kafka_00_Skill05_Phase01",
      "TypeId": "TypeId_TurnBasedAbilityConfig",
      "Offset": 6425
    },
    {
      "UniqueName": "Monster_W2_Kafka_00_Skill05_Phase02",
      "TypeId": "TypeId_TurnBasedAbilityConfig",
      "Offset": 6653
    },
    {
      "UniqueName": "Monster_W2_Kafka_00_Skill06_Phase01",
      "TypeId": "TypeId_TurnBasedAbilityConfig",
      "Offset": 7575
    },
    {
      "UniqueName": "Monster_W2_Kafka_00_Skill06_Phase02",
      "TypeId": "TypeId_TurnBasedAbilityConfig",
      "Offset": 7871
    },
    {
      "UniqueName": "Monster_W2_Kafka_00_Skill07_Phase01",
      "TypeId": "TypeId_TurnBasedAbilityConfig",
      "Offset": 9386
    },
    {
      "UniqueName": "Monster_W2_Kafka_00_Skill07_Phase02",
      "TypeId": "TypeId_TurnBasedAbilityConfig",
      "Offset": 9604
    }
  ]
}