{
  "BakeInfoLayouts": [
    {
      "UniqueName": "MMonster_W2_Valkyrie02_00_RLElite_RemoveOneMore",
      "Offset": 8075
    },
    {
      "UniqueName": "MMonster_W2_Valkyrie02_00_RLElite_AimMark",
      "Offset": 10193
    },
    {
      "UniqueName": "Monster_W2_Valkyrie02_00_RLElite_PassiveSkillInitiate",
      "TypeId": "TypeId_TurnBasedAbilityConfig",
      "Offset": 2
    },
    {
      "UniqueName": "Monster_W2_Valkyrie02_00_RLElite_SkillP01",
      "TypeId": "TypeId_TurnBasedAbilityConfig",
      "Offset": 279
    },
    {
      "UniqueName": "Monster_W2_Valkyrie02_00_RLElite_Skill01_Phase01",
      "TypeId": "TypeId_TurnBasedAbilityConfig",
      "Offset": 325
    },
    {
      "UniqueName": "Monster_W2_Valkyrie02_00_RLElite_Skill01_Phase02",
      "TypeId": "TypeId_TurnBasedAbilityConfig",
      "Offset": 624
    },
    {
      "UniqueName": "Monster_W2_Valkyrie02_00_RLElite_Skill02_Phase01",
      "TypeId": "TypeId_TurnBasedAbilityConfig",
      "Offset": 1237
    },
    {
      "UniqueName": "Monster_W2_Valkyrie02_00_RLElite_Skill02_Phase02",
      "TypeId": "TypeId_TurnBasedAbilityConfig",
      "Offset": 1611
    },
    {
      "UniqueName": "Monster_W2_Valkyrie02_00_RLElite_Skill03_Phase01",
      "TypeId": "TypeId_TurnBasedAbilityConfig",
      "Offset": 2129
    },
    {
      "UniqueName": "Monster_W2_Valkyrie02_00_RLElite_Skill03_Phase02",
      "TypeId": "TypeId_TurnBasedAbilityConfig",
      "Offset": 2386
    },
    {
      "UniqueName": "Monster_W2_Valkyrie02_00_RLElite_Skill04_Phase01",
      "TypeId": "TypeId_TurnBasedAbilityConfig",
      "Offset": 3218
    },
    {
      "UniqueName": "Monster_W2_Valkyrie02_00_RLElite_Skill04_Phase02",
      "TypeId": "TypeId_TurnBasedAbilityConfig",
      "Offset": 3618
    },
    {
      "UniqueName": "Monster_W2_Valkyrie02_00_RLElite_Skill04_Insert_Phase01",
      "TypeId": "TypeId_TurnBasedAbilityConfig",
      "Offset": 5202
    },
    {
      "UniqueName": "Monster_W2_Valkyrie02_00_RLElite_Skill04_Insert_Phase02",
      "TypeId": "TypeId_TurnBasedAbilityConfig",
      "Offset": 5577
    },
    {
      "UniqueName": "Monster_W2_Valkyrie02_00_RLElite_Skill05_Phase01",
      "TypeId": "TypeId_TurnBasedAbilityConfig",
      "Offset": 5830
    },
    {
      "UniqueName": "Monster_W2_Valkyrie02_00_RLElite_Skill05_Phase02",
      "TypeId": "TypeId_TurnBasedAbilityConfig",
      "Offset": 6043
    },
    {
      "UniqueName": "Monster_W2_Valkyrie02_00_RLElite_Skill06_Phase01",
      "TypeId": "TypeId_TurnBasedAbilityConfig",
      "Offset": 6446
    },
    {
      "UniqueName": "Monster_W2_Valkyrie02_00_RLElite_Skill06_Phase02",
      "TypeId": "TypeId_TurnBasedAbilityConfig",
      "Offset": 6846
    }
  ]
}