{
  "BakeInfoLayouts": [
    {
      "UniqueName": "MMonster_W3_TV_00_Flop",
      "Offset": 5846
    },
    {
      "UniqueName": "MModifier_Monster_W3_TV_00_ATMark",
      "Offset": 6329
    },
    {
      "UniqueName": "MModifier_Monster_W3_TV_00_ReduceSPEffect",
      "Offset": 6379
    },
    {
      "UniqueName": "MModifier_Monster_W3_TV_00_Side1",
      "Offset": 6513
    },
    {
      "UniqueName": "MModifier_Monster_W3_TV_00_Side2",
      "Offset": 6554
    },
    {
      "UniqueName": "Monster_W3_TV_00_PassiveSkillInitiate",
      "TypeId": "TypeId_TurnBasedAbilityConfig",
      "Offset": 2
    },
    {
      "UniqueName": "Monster_W3_TV_00_Skill01_Phase01",
      "TypeId": "TypeId_TurnBasedAbilityConfig",
      "Offset": 1786
    },
    {
      "UniqueName": "Monster_W3_TV_00_Skill01_Phase02",
      "TypeId": "TypeId_TurnBasedAbilityConfig",
      "Offset": 1986
    },
    {
      "UniqueName": "Monster_W3_TV_00_Skill02_Phase01",
      "TypeId": "TypeId_TurnBasedAbilityConfig",
      "Offset": 2394
    },
    {
      "UniqueName": "Monster_W3_TV_00_Skill02_Phase02",
      "TypeId": "TypeId_TurnBasedAbilityConfig",
      "Offset": 2560
    },
    {
      "UniqueName": "Monster_W3_TV_00_Skill03_Phase01",
      "TypeId": "TypeId_TurnBasedAbilityConfig",
      "Offset": 3058
    },
    {
      "UniqueName": "Monster_W3_TV_00_Skill03_Phase02",
      "TypeId": "TypeId_TurnBasedAbilityConfig",
      "Offset": 3221
    },
    {
      "UniqueName": "Monster_W3_TV_00_PuzzleGamePassive",
      "TypeId": "TypeId_TurnBasedAbilityConfig",
      "Offset": 3520
    },
    {
      "UniqueName": "BattleEventAbility_Monster_W3_TV_00_PuzzleAbility",
      "TypeId": "TypeId_TurnBasedAbilityConfig",
      "Offset": 5279
    }
  ]
}