{
  "BakeInfoLayouts": [
    {
      "UniqueName": "Monster_W2_BossPart_02_Revive",
      "Offset": 2943
    },
    {
      "UniqueName": "Monster_W2_BossPart_02_Stealth",
      "Offset": 3979
    },
    {
      "UniqueName": "Monster_W2_BossPart_02_Dormancy",
      "Offset": 4016
    },
    {
      "UniqueName": "Monster_W2_BossPart_02_WeakControl",
      "Offset": 4301
    },
    {
      "UniqueName": "Monster_W2_BossPart_02_Activity",
      "Offset": 4378
    },
    {
      "UniqueName": "Monster_W2_BossPart_02_Success",
      "Offset": 5965
    },
    {
      "UniqueName": "Monster_W2_BossPart_02_PassiveSkillInitiate",
      "TypeId": "TypeId_TurnBasedAbilityConfig",
      "Offset": 2
    },
    {
      "UniqueName": "Monster_W2_BossPart_02_Skill01_Phase01",
      "TypeId": "TypeId_TurnBasedAbilityConfig",
      "Offset": 390
    },
    {
      "UniqueName": "Monster_W2_BossPart_02_Skill01_Phase02",
      "TypeId": "TypeId_TurnBasedAbilityConfig",
      "Offset": 602
    },
    {
      "UniqueName": "Monster_W2_BossPart_02_Skill02_Phase01",
      "TypeId": "TypeId_TurnBasedAbilityConfig",
      "Offset": 1201
    },
    {
      "UniqueName": "Monster_W2_BossPart_02_Skill02_Phase02",
      "TypeId": "TypeId_TurnBasedAbilityConfig",
      "Offset": 1347
    },
    {
      "UniqueName": "Monster_W2_BossPart_02_Skill03_Phase01",
      "TypeId": "TypeId_TurnBasedAbilityConfig",
      "Offset": 1743
    },
    {
      "UniqueName": "Monster_W2_BossPart_02_Skill03_Phase02",
      "TypeId": "TypeId_TurnBasedAbilityConfig",
      "Offset": 2021
    },
    {
      "UniqueName": "Monster_W2_BossPart_02_PassiveSkill_Insert_Phase01",
      "TypeId": "TypeId_TurnBasedAbilityConfig",
      "Offset": 2581
    }
  ]
}