{
  "OnInitSequece": [],
  "OnStartSequece": [
    {
      "TaskList": [
        {
          "$type": "RPG.GameCore.LevelPerformanceInitialize",
          "PerformanceType": "D"
        },
        {
          "$type": "RPG.GameCore.PlayFullScreenTransfer",
          "Action": [
            {
              "$type": "RPG.GameCore.ScrTrfActPerformanceGroup",
              "AdvCreateGroupEntity": {
                "TaskEnabled": false
              },
              "AdvDestroyGroupEntity": {
                "TaskEnabled": false
              },
              "CaptureNpc": [],
              "SwitchCharacterAnchor": {
                "IsLocalPlayer": true,
                "CharacterUniqueName": "LocalPlayer",
                "AreaName": {
                  "Value": "LevelArea_P20331_F20331001_G295"
                },
                "AnchorName": {
                  "Value": "Anchor3"
                }
              },
              "ActiveVirtualCamera": {
                "AreaName": "LevelArea_P20331_F20331001_G295",
                "AnchorName": "Anchor4"
              },
              "ActiveTemplateVirtualCamera": {
                "TaskEnabled": false
              },
              "AdvNpcFaceToPlayer": {
                "SteerImmediately": true,
                "FinishImmadiate": true,
                "TaskEnabled": false
              }
            },
            {
              "$type": "RPG.GameCore.ScrTrfActTaskList",
              "TaskList": [
                {
                  "$type": "RPG.GameCore.AdvEntityFaceTo",
                  "SourceType": {
                    "$type": "RPG.GameCore.TargetFetchAdvLocalPlayer"
                  },
                  "TargetType": {
                    "$type": "RPG.GameCore.TargetFetchAnchor",
                    "GroupID": 295,
                    "GroupInstanceID": 1
                  }
                },
                {
                  "$type": "RPG.GameCore.SetMissionCustomValue",
                  "SubmissionID": 434011702,
                  "MissionCustomValue": {
                    "Index": 1,
                    "isLocal": true,
                    "ValidValueParamList": [
                      0,
                      1,
                      2,
                      3
                    ]
                  }
                }
              ]
            }
          ]
        },
        {
          "$type": "RPG.GameCore.PlayAndWaitSimpleTalk",
          "SimpleTalkList": [
            {
              "TextSpeed": 0,
              "TalkSentenceID": 434025026,
              "ProtectTime": 0
            }
          ]
        },
        {
          "$type": "RPG.GameCore.PlayOptionTalk",
          "OptionList": [
            {
              "TalkSentenceID": 434025027,
              "OptionIconType": "ChatContinueIcon",
              "TriggerCustomString": "TalkSentence_434025028"
            },
            {
              "TalkSentenceID": 434025029,
              "OptionIconType": "ChatOutIcon",
              "TriggerCustomString": "TalkSentence_434025030"
            }
          ]
        }
      ]
    },
    {
      "TaskList": [
        {
          "$type": "RPG.GameCore.WaitCustomString",
          "CustomString": {
            "Value": "TalkSentence_434025028"
          }
        },
        {
          "$type": "RPG.GameCore.SetMissionCustomValue",
          "SubmissionID": 434011702,
          "MissionCustomValue": {
            "Index": 2,
            "isLocal": true,
            "ValidValueParamList": [
              1,
              2
            ]
          },
          "CustomValue": 1
        },
        {
          "$type": "RPG.GameCore.PlayAndWaitSimpleTalk",
          "SimpleTalkList": [
            {
              "TextSpeed": 0,
              "TalkSentenceID": 434025028,
              "ProtectTime": 0
            }
          ]
        },
        {
          "$type": "RPG.GameCore.PlayAndWaitSimpleTalk",
          "SimpleTalkList": [
            {
              "TextSpeed": 0,
              "TalkSentenceID": 434025031,
              "ProtectTime": 0
            },
            {
              "TextSpeed": 0,
              "TalkSentenceID": 434025032,
              "ProtectTime": 0
            },
            {
              "TextSpeed": 0,
              "TalkSentenceID": 434025033,
              "ProtectTime": 0
            }
          ]
        },
        {
          "$type": "RPG.GameCore.CharacterTriggerFreeStyle",
          "CharacterUniqueName": "LocalPlayer",
          "StoryAvatarID": "NPC_Player",
          "StoryMotionID": 221
        },
        {
          "$type": "RPG.GameCore.PlayOptionTalk",
          "OptionList": [
            {
              "TalkSentenceID": 434025034,
              "OptionIconType": "ChatContinueIcon",
              "TriggerCustomString": "TalkSentence_434025035"
            }
          ]
        }
      ]
    },
    {
      "TaskList": [
        {
          "$type": "RPG.GameCore.WaitCustomString",
          "CustomString": {
            "Value": "TalkSentence_434025030"
          }
        },
        {
          "$type": "RPG.GameCore.SetMissionCustomValue",
          "SubmissionID": 434011702,
          "MissionCustomValue": {
            "Index": 2,
            "isLocal": true,
            "ValidValueParamList": [
              1,
              2
            ]
          },
          "CustomValue": 2
        },
        {
          "$type": "RPG.GameCore.PlayAndWaitSimpleTalk",
          "SimpleTalkList": [
            {
              "TextSpeed": 0,
              "TalkSentenceID": 434025030,
              "ProtectTime": 0
            }
          ]
        },
        {
          "$type": "RPG.GameCore.TriggerCustomString",
          "CustomString": {
            "Value": "ALL_TALK_END"
          }
        }
      ]
    },
    {
      "TaskList": [
        {
          "$type": "RPG.GameCore.WaitCustomString",
          "CustomString": {
            "Value": "TalkSentence_434025035"
          }
        },
        {
          "$type": "RPG.GameCore.PlayAndWaitSimpleTalk",
          "SimpleTalkList": [
            {
              "TextSpeed": 0,
              "TalkSentenceID": 434025035,
              "ProtectTime": 0
            }
          ]
        },
        {
          "$type": "RPG.GameCore.CharacterTriggerFreeStyle",
          "CharacterUniqueName": "LocalPlayer",
          "StoryAvatarID": "NPC_Player",
          "StoryMotionID": 223
        },
        {
          "$type": "RPG.GameCore.PlayAndWaitSimpleTalk",
          "SimpleTalkList": [
            {
              "TextSpeed": 0,
              "TalkSentenceID": 434025036,
              "ProtectTime": 0
            }
          ]
        },
        {
          "$type": "RPG.GameCore.CharacterTriggerFreeStyle",
          "CharacterUniqueName": "LocalPlayer",
          "StoryAvatarID": "NPC_Player",
          "StoryMotionID": 209
        },
        {
          "$type": "RPG.GameCore.PlayOptionTalk",
          "OptionList": [
            {
              "TalkSentenceID": 434025037,
              "OptionIconType": "ChatContinueIcon",
              "TriggerCustomString": "TalkSentence_434025038"
            },
            {
              "TalkSentenceID": 434025041,
              "OptionIconType": "ChatContinueIcon",
              "TriggerCustomString": "TalkSentence_434025042"
            },
            {
              "TalkSentenceID": 434025046,
              "OptionIconType": "ChatContinueIcon",
              "TriggerCustomString": "TalkSentence_434025047"
            }
          ]
        }
      ]
    },
    {
      "TaskList": [
        {
          "$type": "RPG.GameCore.WaitCustomString",
          "CustomString": {
            "Value": "TalkSentence_434025038"
          }
        },
        {
          "$type": "RPG.GameCore.PlayAndWaitSimpleTalk",
          "SimpleTalkList": [
            {
              "TextSpeed": 0,
              "TalkSentenceID": 434025038,
              "ProtectTime": 0
            },
            {
              "TextSpeed": 0,
              "TalkSentenceID": 434025039,
              "ProtectTime": 0
            },
            {
              "TextSpeed": 0,
              "TalkSentenceID": 434025040,
              "ProtectTime": 0
            }
          ]
        },
        {
          "$type": "RPG.GameCore.TriggerCustomString",
          "CustomString": {
            "Value": "TalkSentence_434025049"
          }
        }
      ]
    },
    {
      "TaskList": [
        {
          "$type": "RPG.GameCore.WaitCustomString",
          "CustomString": {
            "Value": "TalkSentence_434025042"
          }
        },
        {
          "$type": "RPG.GameCore.PlayAndWaitSimpleTalk",
          "SimpleTalkList": [
            {
              "TextSpeed": 0,
              "TalkSentenceID": 434025042,
              "ProtectTime": 0
            },
            {
              "TextSpeed": 0,
              "TalkSentenceID": 434025043,
              "ProtectTime": 0
            },
            {
              "TextSpeed": 0,
              "TalkSentenceID": 434025044,
              "ProtectTime": 0
            },
            {
              "TextSpeed": 0,
              "TalkSentenceID": 434025045,
              "ProtectTime": 0
            }
          ]
        },
        {
          "$type": "RPG.GameCore.TriggerCustomString",
          "CustomString": {
            "Value": "TalkSentence_434025049"
          }
        }
      ]
    },
    {
      "TaskList": [
        {
          "$type": "RPG.GameCore.WaitCustomString",
          "CustomString": {
            "Value": "TalkSentence_434025047"
          }
        },
        {
          "$type": "RPG.GameCore.CalculateMissionCustomValue",
          "TargetSubmissionID": 434011702,
          "TargetMissionCustomValue": {
            "Index": 1,
            "isLocal": true,
            "ValidValueParamList": [
              0,
              1,
              2,
              3
            ]
          },
          "ValueA": {
            "Type": "CustomValue",
            "MainMissionID": 4340117,
            "MissionCustomValue": {
              "Index": 1,
              "isLocal": true,
              "ValidValueParamList": [
                0,
                1,
                2,
                3
              ]
            }
          },
          "ValueB": {
            "DirectValue": 1
          }
        },
        {
          "$type": "RPG.GameCore.PlayAndWaitSimpleTalk",
          "SimpleTalkList": [
            {
              "TextSpeed": 0,
              "TalkSentenceID": 434025047,
              "ProtectTime": 0
            },
            {
              "TextSpeed": 0,
              "TalkSentenceID": 434025048,
              "ProtectTime": 0
            }
          ]
        },
        {
          "$type": "RPG.GameCore.TriggerCustomString",
          "CustomString": {
            "Value": "TalkSentence_434025049"
          }
        }
      ]
    },
    {
      "TaskList": [
        {
          "$type": "RPG.GameCore.WaitCustomString",
          "CustomString": {
            "Value": "TalkSentence_434025049"
          }
        },
        {
          "$type": "RPG.GameCore.CharacterTriggerFreeStyle",
          "CharacterUniqueName": "LocalPlayer",
          "StoryAvatarID": "NPC_Player",
          "StoryMotionID": 211
        },
        {
          "$type": "RPG.GameCore.PlayAndWaitSimpleTalk",
          "SimpleTalkList": [
            {
              "TextSpeed": 0,
              "TalkSentenceID": 434025049,
              "ProtectTime": 0
            }
          ]
        },
        {
          "$type": "RPG.GameCore.CharacterTriggerFreeStyle",
          "CharacterUniqueName": "LocalPlayer",
          "StoryAvatarID": "NPC_Player",
          "StoryMotionID": 230
        },
        {
          "$type": "RPG.GameCore.PlayOptionTalk",
          "OptionList": [
            {
              "TalkSentenceID": 434025050,
              "OptionIconType": "ChatContinueIcon",
              "TriggerCustomString": "TalkSentence_434025051"
            },
            {
              "TalkSentenceID": 434025054,
              "OptionIconType": "ChatContinueIcon",
              "TriggerCustomString": "TalkSentence_434025055"
            },
            {
              "TalkSentenceID": 434025058,
              "OptionIconType": "ChatContinueIcon",
              "TriggerCustomString": "TalkSentence_434025059"
            }
          ]
        }
      ]
    },
    {
      "TaskList": [
        {
          "$type": "RPG.GameCore.WaitCustomString",
          "CustomString": {
            "Value": "TalkSentence_434025051"
          }
        },
        {
          "$type": "RPG.GameCore.PlayAndWaitSimpleTalk",
          "SimpleTalkList": [
            {
              "TextSpeed": 0,
              "TalkSentenceID": 434025051,
              "ProtectTime": 0
            },
            {
              "TextSpeed": 0,
              "TalkSentenceID": 434025052,
              "ProtectTime": 0
            },
            {
              "TextSpeed": 0,
              "TalkSentenceID": 434025053,
              "ProtectTime": 0
            }
          ]
        },
        {
          "$type": "RPG.GameCore.TriggerCustomString",
          "CustomString": {
            "Value": "TalkSentence_434025061"
          }
        }
      ]
    },
    {
      "TaskList": [
        {
          "$type": "RPG.GameCore.WaitCustomString",
          "CustomString": {
            "Value": "TalkSentence_434025055"
          }
        },
        {
          "$type": "RPG.GameCore.PlayAndWaitSimpleTalk",
          "SimpleTalkList": [
            {
              "TextSpeed": 0,
              "TalkSentenceID": 434025055,
              "ProtectTime": 0
            },
            {
              "TextSpeed": 0,
              "TalkSentenceID": 434025056,
              "ProtectTime": 0
            },
            {
              "TextSpeed": 0,
              "TalkSentenceID": 434025057,
              "ProtectTime": 0
            }
          ]
        },
        {
          "$type": "RPG.GameCore.TriggerCustomString",
          "CustomString": {
            "Value": "TalkSentence_434025061"
          }
        }
      ]
    },
    {
      "TaskList": [
        {
          "$type": "RPG.GameCore.WaitCustomString",
          "CustomString": {
            "Value": "TalkSentence_434025059"
          }
        },
        {
          "$type": "RPG.GameCore.CalculateMissionCustomValue",
          "TargetSubmissionID": 434011702,
          "TargetMissionCustomValue": {
            "Index": 1,
            "isLocal": true,
            "ValidValueParamList": [
              0,
              1,
              2,
              3
            ]
          },
          "ValueA": {
            "Type": "CustomValue",
            "MainMissionID": 4340117,
            "MissionCustomValue": {
              "Index": 1,
              "isLocal": true,
              "ValidValueParamList": [
                0,
                1,
                2,
                3
              ]
            }
          },
          "ValueB": {
            "DirectValue": 1
          }
        },
        {
          "$type": "RPG.GameCore.PlayAndWaitSimpleTalk",
          "SimpleTalkList": [
            {
              "TextSpeed": 0,
              "TalkSentenceID": 434025059,
              "ProtectTime": 0
            },
            {
              "TextSpeed": 0,
              "TalkSentenceID": 434025060,
              "ProtectTime": 0
            }
          ]
        },
        {
          "$type": "RPG.GameCore.TriggerCustomString",
          "CustomString": {
            "Value": "TalkSentence_434025061"
          }
        }
      ]
    },
    {
      "TaskList": [
        {
          "$type": "RPG.GameCore.WaitCustomString",
          "CustomString": {
            "Value": "TalkSentence_434025061"
          }
        },
        {
          "$type": "RPG.GameCore.CharacterTriggerFreeStyle",
          "CharacterUniqueName": "LocalPlayer",
          "StoryAvatarID": "NPC_Player",
          "StoryMotionID": 232
        },
        {
          "$type": "RPG.GameCore.PlayAndWaitSimpleTalk",
          "SimpleTalkList": [
            {
              "TextSpeed": 0,
              "TalkSentenceID": 434025061,
              "ProtectTime": 0
            }
          ]
        },
        {
          "$type": "RPG.GameCore.CharacterTriggerFreeStyle",
          "CharacterUniqueName": "LocalPlayer",
          "StoryAvatarID": "NPC_Player",
          "StoryMotionID": 221
        },
        {
          "$type": "RPG.GameCore.PlayOptionTalk",
          "OptionList": [
            {
              "TalkSentenceID": 434025062,
              "OptionIconType": "ChatContinueIcon",
              "TriggerCustomString": "TalkSentence_434025063"
            },
            {
              "TalkSentenceID": 434025066,
              "OptionIconType": "ChatContinueIcon",
              "TriggerCustomString": "TalkSentence_434025067"
            }
          ]
        }
      ]
    },
    {
      "TaskList": [
        {
          "$type": "RPG.GameCore.WaitCustomString",
          "CustomString": {
            "Value": "TalkSentence_434025063"
          }
        },
        {
          "$type": "RPG.GameCore.PlayAndWaitSimpleTalk",
          "SimpleTalkList": [
            {
              "TextSpeed": 0,
              "TalkSentenceID": 434025063,
              "ProtectTime": 0
            },
            {
              "TextSpeed": 0,
              "TalkSentenceID": 434025064,
              "ProtectTime": 0
            },
            {
              "TextSpeed": 0,
              "TalkSentenceID": 434025065,
              "ProtectTime": 0
            }
          ]
        },
        {
          "$type": "RPG.GameCore.TriggerCustomString",
          "CustomString": {
            "Value": "TalkSentence_434025069"
          }
        }
      ]
    },
    {
      "TaskList": [
        {
          "$type": "RPG.GameCore.WaitCustomString",
          "CustomString": {
            "Value": "TalkSentence_434025067"
          }
        },
        {
          "$type": "RPG.GameCore.CalculateMissionCustomValue",
          "TargetSubmissionID": 434011702,
          "TargetMissionCustomValue": {
            "Index": 1,
            "isLocal": true,
            "ValidValueParamList": [
              0,
              1,
              2,
              3
            ]
          },
          "ValueA": {
            "Type": "CustomValue",
            "MainMissionID": 4340117,
            "MissionCustomValue": {
              "Index": 1,
              "isLocal": true,
              "ValidValueParamList": [
                0,
                1,
                2,
                3
              ]
            }
          },
          "ValueB": {
            "DirectValue": 1
          }
        },
        {
          "$type": "RPG.GameCore.PlayAndWaitSimpleTalk",
          "SimpleTalkList": [
            {
              "TextSpeed": 0,
              "TalkSentenceID": 434025067,
              "ProtectTime": 0
            },
            {
              "TextSpeed": 0,
              "TalkSentenceID": 434025068,
              "ProtectTime": 0
            }
          ]
        },
        {
          "$type": "RPG.GameCore.TriggerCustomString",
          "CustomString": {
            "Value": "TalkSentence_434025069"
          }
        }
      ]
    },
    {
      "TaskList": [
        {
          "$type": "RPG.GameCore.WaitCustomString",
          "CustomString": {
            "Value": "TalkSentence_434025069"
          }
        },
        {
          "$type": "RPG.GameCore.CharacterTriggerFreeStyle",
          "CharacterUniqueName": "LocalPlayer",
          "StoryAvatarID": "NPC_Player",
          "StoryMotionID": 223
        },
        {
          "$type": "RPG.GameCore.PlayAndWaitSimpleTalk",
          "SimpleTalkList": [
            {
              "TextSpeed": 0,
              "TalkSentenceID": 434025069,
              "ProtectTime": 0
            },
            {
              "TextSpeed": 0,
              "TalkSentenceID": 434025070,
              "ProtectTime": 0
            }
          ]
        },
        {
          "$type": "RPG.GameCore.PlayFullScreenTransfer",
          "TextInfo": {
            "TextList": [
              {
                "TalkSentenceID": 434025071
              }
            ]
          },
          "Action": [
            {
              "$type": "RPG.GameCore.ScrTrfActPerformanceGroup",
              "AdvCreateGroupEntity": {
                "TaskEnabled": false
              },
              "AdvDestroyGroupEntity": {
                "InstanceIDList": [
                  300001,
                  300002,
                  400001
                ]
              },
              "CaptureNpc": [],
              "SwitchCharacterAnchor": {
                "TaskEnabled": false
              },
              "ActiveVirtualCamera": {
                "AreaName": "LevelArea_P20331_F20331001_G295",
                "AnchorName": "Anchor4",
                "IsActive": false
              },
              "ActiveTemplateVirtualCamera": {
                "TaskEnabled": false
              },
              "AdvNpcFaceToPlayer": {
                "SteerImmediately": true,
                "FinishImmadiate": true,
                "TaskEnabled": false
              }
            }
          ]
        },
        {
          "$type": "RPG.GameCore.TriggerCustomString",
          "CustomString": {
            "Value": "ALL_TALK_END"
          }
        }
      ]
    },
    {
      "TaskList": [
        {
          "$type": "RPG.GameCore.CollectDataConditions",
          "TaskIDList": [],
          "MainMissionIDList": [],
          "PerformanceIDList": [],
          "PerformanceIDDsList": [],
          "CustomValueMainMissionIDList": [
            4340117
          ]
        },
        {
          "$type": "RPG.GameCore.WaitCustomString",
          "CustomString": {
            "Value": "ALL_TALK_END"
          }
        },
        {
          "$type": "RPG.GameCore.PredicateTaskList",
          "Predicate": {
            "$type": "RPG.GameCore.ByCompareMissionCustomValue",
            "MainMissionID": 4340117,
            "MissionCustomValue": {
              "Index": 2,
              "isLocal": true,
              "ValidValueParamList": [
                1,
                2
              ]
            },
            "EquationType": "Equal",
            "TargetValue": 1
          },
          "SuccessTaskList": [
            {
              "$type": "RPG.GameCore.PredicateTaskList",
              "Predicate": {
                "$type": "RPG.GameCore.ByCompareMissionCustomValue",
                "MainMissionID": 4340117,
                "MissionCustomValue": {
                  "Index": 1,
                  "isLocal": true,
                  "ValidValueParamList": [
                    0,
                    1,
                    2,
                    3
                  ]
                },
                "EquationType": "GreaterEqual",
                "TargetValue": 2
              },
              "SuccessTaskList": [
                {
                  "$type": "RPG.GameCore.SetMissionCustomValue",
                  "SubmissionID": 434011702,
                  "MissionCustomValue": {
                    "ValidValueParamList": [
                      1,
                      2
                    ]
                  },
                  "CustomValue": 1
                },
                {
                  "$type": "RPG.GameCore.EndPerformance"
                }
              ],
              "FailedTaskList": [
                {
                  "$type": "RPG.GameCore.SetMissionCustomValue",
                  "SubmissionID": 434011702,
                  "MissionCustomValue": {
                    "ValidValueParamList": [
                      1,
                      2
                    ]
                  },
                  "CustomValue": 2
                },
                {
                  "$type": "RPG.GameCore.EndPerformance"
                }
              ]
            }
          ],
          "FailedTaskList": [
            {
              "$type": "RPG.GameCore.EndPerformance"
            }
          ]
        }
      ]
    },
    {
      "TaskList": [
        {
          "$type": "RPG.GameCore.WaitPerformanceEnd"
        },
        {
          "$type": "RPG.GameCore.FinishLevelGraph"
        }
      ]
    }
  ]
}