{
  "OnInitSequece": [],
  "OnStartSequece": [
    {
      "TaskList": [
        {
          "$type": "RPG.GameCore.LevelPerformanceInitialize",
          "PerformanceType": "D",
          "CreateCharacterList": [],
          "CaptureNPCList": [],
          "EntityVisiableList": [],
          "HideProp": true,
          "PropVisiableList": [],
          "StreamingSourcesInBlackMask": [],
          "StreamingSourcesAfterBlackMask": [],
          "MarkStreamingItems": []
        },
        {
          "$type": "RPG.GameCore.PerformanceTransition",
          "CreateNpcList": [],
          "CaptureNpcList": [],
          "DestroyNpcList": [],
          "CreateProp": {
            "TaskEnabled": false
          },
          "DestroyProp": {
            "TargetType": {
              "$type": "RPG.GameCore.TargetFetchAdvPropEx"
            },
            "TaskEnabled": false
          },
          "AdvCreateGroupEntity": {
            "InstanceIDList": [
              400002,
              400003
            ]
          },
          "AdvDestroyGroupEntity": {
            "InstanceIDList": [],
            "TaskEnabled": false
          },
          "ActiveVirtualCamera": {
            "AreaName": "LevelArea_P43210_F43210001_G7",
            "AnchorName": "Anchor1"
          },
          "ActiveTemplateVirtualCamera": {
            "TaskEnabled": false
          },
          "SwitchCharacterAnchor": {
            "IsLocalPlayer": true,
            "CharacterUniqueName": "LocalPlayer",
            "AreaName": {
              "Value": "LevelArea_P43210_F43210001_G7"
            },
            "AnchorName": {
              "Value": "Anchor2"
            }
          },
          "AdvNpcFaceToPlayer": {
            "TaskEnabled": false
          },
          "WaitStreamingFinish": true
        },
        {
          "$type": "RPG.GameCore.CaptureNPCToCharacter",
          "CharacterUniqueName": {
            "Value": "tail"
          },
          "TargetType": {
            "$type": "RPG.GameCore.TargetFetchAdvNpcEx",
            "FetchType": "SingleNpcByNpcID",
            "SingleNpcID": {
              "GroupID": {
                "IsDynamic": false,
                "FixedValue": {
                  "Value": 7
                }
              },
              "GroupNpcID": {
                "IsDynamic": false,
                "FixedValue": {
                  "Value": 400003
                }
              }
            }
          }
        },
        {
          "$type": "RPG.GameCore.CaptureNPCToCharacter",
          "CharacterUniqueName": {
            "Value": "huohuo"
          },
          "TargetType": {
            "$type": "RPG.GameCore.TargetFetchAdvNpcEx",
            "FetchType": "SingleNpcByNpcID",
            "SingleNpcID": {
              "GroupID": {
                "IsDynamic": false,
                "FixedValue": {
                  "Value": 7
                }
              },
              "GroupNpcID": {
                "IsDynamic": false,
                "FixedValue": {
                  "Value": 400002
                }
              }
            }
          }
        },
        {
          "$type": "RPG.GameCore.PlayAndWaitSimpleTalk",
          "UseTargetBehavior": true,
          "TargetBehaviors": [
            {
              "UniqueName": "tail",
              "UseMouthTalk": true
            },
            {
              "UniqueName": "xueyi"
            },
            {
              "UniqueName": "huohuo",
              "UseMouthTalk": true
            }
          ],
          "SimpleTalkList": [
            {
              "TalkSentenceID": 202260779,
              "ProtectTime": 0.3
            },
            {
              "TalkSentenceID": 202260780,
              "ProtectTime": 0.3
            },
            {
              "TalkSentenceID": 202260781,
              "ProtectTime": 0.3
            }
          ]
        },
        {
          "$type": "RPG.GameCore.PlayOptionTalk",
          "OptionList": [
            {
              "TalkSentenceID": 202260782,
              "OptionIconType": "ChatContinueIcon",
              "TriggerCustomString": "TalkSentence_202260783"
            },
            {
              "TalkSentenceID": 202260786,
              "OptionIconType": "ChatContinueIcon",
              "TriggerCustomString": "TalkSentence_202260787"
            }
          ]
        }
      ]
    },
    {
      "TaskList": [
        {
          "$type": "RPG.GameCore.WaitCustomString",
          "CustomString": {
            "Value": "TalkSentence_202260783"
          }
        },
        {
          "$type": "RPG.GameCore.PlayAndWaitSimpleTalk",
          "UseTargetBehavior": true,
          "TargetBehaviors": [
            {
              "UniqueName": "xueyi"
            },
            {
              "UniqueName": "xueyi"
            },
            {
              "UniqueName": "tail",
              "UseMouthTalk": true
            }
          ],
          "SimpleTalkList": [
            {
              "TalkSentenceID": 202260783,
              "ProtectTime": 0.3
            },
            {
              "TalkSentenceID": 202260784,
              "ProtectTime": 0.3
            },
            {
              "TalkSentenceID": 202260785,
              "ProtectTime": 0.3
            }
          ]
        },
        {
          "$type": "RPG.GameCore.TriggerCustomString",
          "CustomString": {
            "Value": "TalkSentence_202260789"
          }
        }
      ]
    },
    {
      "TaskList": [
        {
          "$type": "RPG.GameCore.WaitCustomString",
          "CustomString": {
            "Value": "TalkSentence_202260787"
          }
        },
        {
          "$type": "RPG.GameCore.PlayAndWaitSimpleTalk",
          "UseTargetBehavior": true,
          "TargetBehaviors": [
            {
              "UniqueName": "xueyi"
            },
            {
              "UniqueName": "tail",
              "UseMouthTalk": true
            }
          ],
          "SimpleTalkList": [
            {
              "TalkSentenceID": 202260787,
              "ProtectTime": 0.3
            },
            {
              "TalkSentenceID": 202260788,
              "ProtectTime": 0.3
            }
          ]
        },
        {
          "$type": "RPG.GameCore.TriggerCustomString",
          "CustomString": {
            "Value": "TalkSentence_202260789"
          }
        }
      ]
    },
    {
      "TaskList": [
        {
          "$type": "RPG.GameCore.WaitCustomString",
          "CustomString": {
            "Value": "TalkSentence_202260789"
          }
        },
        {
          "$type": "RPG.GameCore.PlayAndWaitSimpleTalk",
          "UseTargetBehavior": true,
          "TargetBehaviors": [
            {
              "UniqueName": "huohuo",
              "UseMouthTalk": true
            }
          ],
          "SimpleTalkList": [
            {
              "TalkSentenceID": 202260789,
              "ProtectTime": 0.3
            }
          ]
        },
        {
          "$type": "RPG.GameCore.PlayFullScreenTransfer",
          "Action": [
            {
              "$type": "RPG.GameCore.ScrTrfActPerformanceGroup",
              "AdvCreateGroupEntity": {
                "TaskEnabled": false
              },
              "AdvDestroyGroupEntity": {
                "InstanceIDList": [
                  400002,
                  400003
                ]
              },
              "CaptureNpc": [],
              "SwitchCharacterAnchor": {
                "IsLocalPlayer": true,
                "CharacterUniqueName": "LocalPlayer",
                "AreaName": {
                  "Value": "LevelArea_P43210_F43210001_G7"
                },
                "AnchorName": {
                  "Value": "Anchor2"
                }
              },
              "ActiveVirtualCamera": {
                "AreaName": "LevelArea_P43210_F43210001_G7",
                "AnchorName": "Anchor1",
                "IsActive": false
              },
              "ActiveTemplateVirtualCamera": {
                "TaskEnabled": false
              },
              "AdvNpcFaceToPlayer": {
                "SteerImmediately": true,
                "FinishImmadiate": true,
                "TaskEnabled": false
              }
            },
            {
              "$type": "RPG.GameCore.ScrTrfActTaskList",
              "TaskList": [
                {
                  "$type": "RPG.GameCore.TriggerSound",
                  "SoundName": {
                    "Value": "Ev_sfx_suigarden_mirror_teleport"
                  },
                  "EmitterType": "LocalPlayer"
                }
              ]
            }
          ]
        },
        {
          "$type": "RPG.GameCore.EndPerformance"
        }
      ]
    },
    {
      "TaskList": [
        {
          "$type": "RPG.GameCore.WaitPerformanceEnd"
        },
        {
          "$type": "RPG.GameCore.FinishLevelGraph"
        }
      ]
    }
  ]
}