{
  "OnInitSequece": [],
  "OnStartSequece": [
    {
      "TaskList": [
        {
          "$type": "RPG.GameCore.LevelPerformanceInitialize",
          "PerformanceType": "E",
          "HideMunicipalCrowd": false,
          "HideMunicipalPedestrian": false
        },
        {
          "$type": "RPG.GameCore.AdvEntityFaceTo",
          "SourceType": {
            "$type": "RPG.GameCore.TargetFetchAdvLocalPlayer"
          },
          "TargetType": {
            "$type": "RPG.GameCore.TargetFetchAdvPropEx",
            "FetchType": "SinglePropByPropID",
            "SinglePropID": {
              "GroupID": {
                "IsDynamic": false,
                "FixedValue": {
                  "Value": 4
                }
              },
              "ID": {
                "IsDynamic": false,
                "FixedValue": {
                  "Value": 300005
                }
              }
            }
          },
          "EnableSteer": true,
          "LookAtPoint": "CameraRoot",
          "FinishImmediately": false,
          "ForceToStandBy": true
        },
        {
          "$type": "RPG.GameCore.PlayAndWaitSimpleTalk",
          "SimpleTalkList": [
            {
              "TalkSentenceID": 202260747,
              "ProtectTime": 0.3
            },
            {
              "TalkSentenceID": 202260748,
              "ProtectTime": 0.3
            }
          ]
        },
        {
          "$type": "RPG.GameCore.TriggerCustomString",
          "CustomString": {
            "Value": "Wait_Option_202170230_10"
          }
        }
      ]
    },
    {
      "IsLoop": true,
      "TaskList": [
        {
          "$type": "RPG.GameCore.WaitCustomString",
          "CustomString": {
            "Value": "Wait_Option_202170230_10"
          }
        },
        {
          "$type": "RPG.GameCore.PlayOptionTalk",
          "OptionList": [
            {
              "TalkSentenceID": 202260749,
              "OptionIconType": "ChatLoopIcon",
              "TriggerCustomString": "TalkSentence_202260750"
            },
            {
              "TalkSentenceID": 202260753,
              "OptionIconType": "ChatLoopIcon",
              "TriggerCustomString": "TalkSentence_202260754"
            },
            {
              "TalkSentenceID": 202260756,
              "OptionIconType": "ChatContinueIcon",
              "TriggerCustomString": "TalkSentence_202260757"
            }
          ],
          "HideSelected": true
        }
      ]
    },
    {
      "IsLoop": true,
      "TaskList": [
        {
          "$type": "RPG.GameCore.WaitCustomString",
          "CustomString": {
            "Value": "TalkSentence_202260750"
          }
        },
        {
          "$type": "RPG.GameCore.PlayAndWaitSimpleTalk",
          "SimpleTalkList": [
            {
              "TalkSentenceID": 202260750,
              "ProtectTime": 0.3
            },
            {
              "TalkSentenceID": 202260751,
              "ProtectTime": 0.3
            },
            {
              "TalkSentenceID": 202260752,
              "ProtectTime": 0.3
            }
          ]
        },
        {
          "$type": "RPG.GameCore.TriggerCustomString",
          "CustomString": {
            "Value": "Wait_Option_202170230_10"
          }
        }
      ]
    },
    {
      "IsLoop": true,
      "TaskList": [
        {
          "$type": "RPG.GameCore.WaitCustomString",
          "CustomString": {
            "Value": "TalkSentence_202260754"
          }
        },
        {
          "$type": "RPG.GameCore.PlayAndWaitSimpleTalk",
          "SimpleTalkList": [
            {
              "TalkSentenceID": 202260754,
              "ProtectTime": 0.3
            },
            {
              "TalkSentenceID": 202260755,
              "ProtectTime": 0.3
            }
          ]
        },
        {
          "$type": "RPG.GameCore.TriggerCustomString",
          "CustomString": {
            "Value": "Wait_Option_202170230_10"
          }
        }
      ]
    },
    {
      "IsLoop": true,
      "TaskList": [
        {
          "$type": "RPG.GameCore.WaitCustomString",
          "CustomString": {
            "Value": "TalkSentence_202260757"
          }
        },
        {
          "$type": "RPG.GameCore.PlayAndWaitSimpleTalk",
          "SimpleTalkList": [
            {
              "TalkSentenceID": 202260757,
              "ProtectTime": 0.3
            }
          ]
        },
        {
          "$type": "RPG.GameCore.PlayOptionTalk",
          "OptionList": [
            {
              "TalkSentenceID": 202260758,
              "OptionIconType": "ChatContinueIcon",
              "TriggerCustomString": "TalkSentence_202260759"
            },
            {
              "TalkSentenceID": 202260760,
              "OptionIconType": "ChatOutIcon",
              "TriggerCustomString": "ALL_TALK_END"
            }
          ],
          "HideSelected": true
        }
      ]
    },
    {
      "IsLoop": true,
      "TaskList": [
        {
          "$type": "RPG.GameCore.WaitCustomString",
          "CustomString": {
            "Value": "TalkSentence_202260759"
          }
        },
        {
          "$type": "RPG.GameCore.PlayAndWaitSimpleTalk",
          "SimpleTalkList": [
            {
              "TalkSentenceID": 202260759,
              "ProtectTime": 0.3
            }
          ]
        },
        {
          "$type": "RPG.GameCore.PlayFullScreenTransfer",
          "Action": [
            {
              "$type": "RPG.GameCore.ScrTrfActTaskList",
              "TaskList": [
                {
                  "$type": "RPG.GameCore.TriggerSound",
                  "SoundName": {
                    "Value": "Ev_sfx_suigarden_mirror_teleport"
                  },
                  "EmitterType": "LocalPlayer"
                },
                {
                  "$type": "RPG.GameCore.RandomConfig",
                  "OddsList": [
                    {
                      "IsDynamic": false,
                      "FixedValue": {
                        "Value": 1
                      }
                    },
                    {
                      "IsDynamic": false,
                      "FixedValue": {
                        "Value": 1
                      }
                    },
                    {
                      "IsDynamic": false,
                      "FixedValue": {
                        "Value": 1
                      }
                    },
                    {
                      "IsDynamic": false,
                      "FixedValue": {
                        "Value": 1
                      }
                    }
                  ],
                  "TaskList": [
                    {
                      "$type": "RPG.GameCore.SwitchCharacterAnchor",
                      "IsLocalPlayer": true,
                      "CharacterUniqueName": "LocalPlayer",
                      "AreaName": {
                        "Value": "LevelArea_P43210_F43210001_G4"
                      },
                      "AnchorName": {
                        "Value": "WrongAnchor1"
                      }
                    },
                    {
                      "$type": "RPG.GameCore.SwitchCharacterAnchor",
                      "IsLocalPlayer": true,
                      "CharacterUniqueName": "LocalPlayer",
                      "AreaName": {
                        "Value": "LevelArea_P43210_F43210001_G4"
                      },
                      "AnchorName": {
                        "Value": "WrongAnchor2"
                      }
                    },
                    {
                      "$type": "RPG.GameCore.SwitchCharacterAnchor",
                      "IsLocalPlayer": true,
                      "CharacterUniqueName": "LocalPlayer",
                      "AreaName": {
                        "Value": "LevelArea_P43210_F43210001_G4"
                      },
                      "AnchorName": {
                        "Value": "WrongAnchor4"
                      }
                    },
                    {
                      "$type": "RPG.GameCore.SwitchCharacterAnchor",
                      "IsLocalPlayer": true,
                      "CharacterUniqueName": "LocalPlayer",
                      "AreaName": {
                        "Value": "LevelArea_P43210_F43210001_G4"
                      },
                      "AnchorName": {
                        "Value": "WrongAnchor4"
                      }
                    }
                  ]
                }
              ]
            },
            {
              "$type": "RPG.GameCore.ScrTrfActPerformanceGroup",
              "AdvCreateGroupEntity": {
                "TaskEnabled": false
              },
              "AdvDestroyGroupEntity": {
                "TaskEnabled": false
              },
              "CaptureNpc": [],
              "SwitchCharacterAnchor": {
                "TaskEnabled": false
              },
              "ActiveVirtualCamera": {
                "TaskEnabled": false
              },
              "ActiveTemplateVirtualCamera": {
                "TaskEnabled": false
              },
              "AdvNpcFaceToPlayer": {
                "SteerImmediately": true,
                "FinishImmadiate": true,
                "TaskEnabled": false
              },
              "WaitStreamingFinish": true
            }
          ]
        },
        {
          "$type": "RPG.GameCore.AdvEntityStopLookAt",
          "SourceType": {
            "$type": "RPG.GameCore.TargetFetchAdvLocalPlayer"
          }
        },
        {
          "$type": "RPG.GameCore.PlayAndWaitSimpleTalk",
          "SimpleTalkList": [
            {
              "TalkSentenceID": 202260033
            }
          ]
        },
        {
          "$type": "RPG.GameCore.TriggerGroupEvent",
          "EventName": {
            "Value": "300005_Selected"
          }
        },
        {
          "$type": "RPG.GameCore.TriggerCustomString",
          "CustomString": {
            "Value": "ALL_TALK_END"
          }
        }
      ]
    },
    {
      "TaskList": [
        {
          "$type": "RPG.GameCore.WaitCustomString",
          "CustomString": {
            "Value": "ALL_TALK_END"
          }
        },
        {
          "$type": "RPG.GameCore.EndPerformance"
        }
      ]
    },
    {
      "TaskList": [
        {
          "$type": "RPG.GameCore.WaitPerformanceEnd"
        },
        {
          "$type": "RPG.GameCore.FinishLevelGraph"
        }
      ]
    }
  ]
}