{
  "-1835491474": "Mất kết nối, hãy kiểm tra lại đường truyền...",
  "893391881": "Yêu cầu kết nối mạng quá hạn, hãy kiểm tra đường truyền...",
  "-672692060": "Tải bị lỗi, hãy thử lại sau...",
  "1575214836": "Rất tiếc, bạn không có quyền hạn",
  "-539900375": "Xác Nhận",
  "-268532022": "Thoát Game",
  "628734941": "Client bạn cài đặt không phải bản mới nhất, vui lòng gỡ và cài đặt lại hoặc liên hệ CSKH",
  "875924975": "Tiếng Trung",
  "633642276": "简体中文",
  "-1281611725": "Nhắc Nhở",
  "776664556": "Xác Nhận",
  "-1344836126": "Hủy",
  "-66948286": "Tiếp Tục",
  "753711393": "Không",
  "-193842297": "Có",
  "-1112638896": "Mất kết nối tới máy chủ, hãy đăng nhập lại",
  "-374251478": "Tiếng Anh",
  "1782768777": "English",
  "-755645786": "Español",
  "983886567": "Français",
  "213298305": "Deutsch",
  "-1628012770": "Lỗi phân phối toàn cầu, vui lòng kiểm tra kết nối mạng, khởi động lại rồi thử lại",
  "1027467793": "Cập nhật tài nguyên thất bại, vui lòng kiểm tra kết nối mạng, khởi động lại rồi thử kết nối lại",
  "-2007616050": "Cập nhật tài nguyên hoàn thành, vui lòng khởi động lại để vào game",
  "1967160651": "Cập nhật dữ liệu thất bại, vui lòng kiểm tra kết nối mạng, khởi động lại rồi thử kết nối lại",
  "-1532802051": "Cập nhật tệp dữ liệu thất bại, vui lòng kiểm tra kết nối mạng, khởi động lại rồi thử kết nối lại",
  "-488115304": "Cập nhật hoàn tất, game sẽ khởi động lại",
  "12093101": "Bahasa Indonesia",
  "-1391003685": "Tiếng Nhật",
  "317185992": "日本語",
  "-1597323374": "Tiếng Hàn",
  "-595256385": "한국어",
  "-1502079221": "Xóa tài nguyên thất bại, vui lòng khởi động lại game",
  "-1502079222": "Xóa tài nguyên thành công, vui lòng khởi động lại game",
  "-1906570110": "Liên Kết Tài Khoản",
  "-1360809191": "Mật khẩu tài khoản đã được thay đổi, tài khoản này bị buộc phải đăng xuất",
  "-1990965415": "Tài khoản hiện tại đã offline",
  "4301758": "Português",
  "1251875567": "Honkai: Star Rail",
  "-101987035": "Nhận tin thành công",
  "1464096906": "Nhận tin thất bại",
  "-1854797350": "Thao tác quá nhanh, hãy thử lại sau",
  "1058611706": "Tự động đăng nhập lại",
  "1058611705": "Chuẩn bị đăng nhập lại",
  "1058611704": "Đang đăng nhập, vui lòng chờ giây lát",
  "1058611703": "Tài khoản của bạn không thể đăng nhập",
  "1058611710": "Tài khoản của bạn không thể đăng nhập",
  "1058611709": "Kiểm chứng tài khoản bị lỗi",
  "1058611708": "Thông tin tài khoản bị lỗi",
  "1058611707": "Cấm đăng nhập để tránh nghiện game",
  "1058611698": "Kiểm tra thất bại (<unbreak>1008</unbreak>)",
  "1058611697": "Server hiện tại quá nhiều người, hãy thử lại sau.",
  "-507472235": "Nhà Khai Phá đã xác định tên và giới tính",
  "-507472236": "Chọn giới tính bị lỗi (<unbreak>1011</unbreak>)",
  "-507472237": "Đang nhận thông tin người chơi",
  "-507472238": "Tài khoản này đang ở trạng thái khóa, tạm thời không thể đăng nhập, chi tiết vui lòng liên hệ CSKH.",
  "-1854797351": "Hệ thống bận",
  "1058611737": "Đã nhận phần thưởng nhiệm vụ",
  "1058611738": "Nhận nhiệm vụ thất bại",
  "1058611735": "Nhiệm vụ không thể hoàn thành",
  "1058611736": "Nhận trạng thái nhiệm vụ bị lỗi",
  "1058611741": "Chưa đạt được cấp thành tựu tương ứng",
  "1058611742": "Đã nhận thưởng",
  "1058611640": "Thông tin nhân vật không tồn tại",
  "1058611639": "Lỗi chưa xác định (<unbreak>1201</unbreak>)",
  "1058611642": "EXP đã đạt giới hạn, hãy nâng bậc nhân vật",
  "1058611641": "Đã nâng đến cấp cao nhất",
  "1058611644": "Nhận thiết lập Vết Tích bị lỗi",
  "1058611643": "Vết Tích đã được mở khóa",
  "1058611646": "Hãy bật sáng Vết Tích ở bước trước",
  "1058611645": "Cấp nhân vật không đủ",
  "1058611632": "Nhân vật cần được nâng bậc",
  "1058611631": "Nhân vật chưa trang bị Nón Ánh Sáng",
  "-507472301": "Không thể tìm thấy vật phẩm EXP",
  "-507472302": "Vết Tích này chưa mở khóa",
  "-507472299": "Vết Tích chưa đạt cấp chỉ định",
  "-507472300": "Vết Tích đã đạt cấp tối đa",
  "-507472297": "Chưa đạt cấp Cân Bằng yêu cầu",
  "-507472298": "Chưa đạt đến cấp khai phá mục tiêu",
  "-507472295": "Tinh Hồn không tồn tại",
  "-507472296": "Tinh Hồn đã đạt tối đa",
  "-507472309": "Nhân vật nhận Vận Mệnh hiện tại thất bại (<unbreak>1218</unbreak>)",
  "-507472310": "Lỗi hệ thống (<unbreak>1219</unbreak>)",
  "-2073556242": "Lỗi hệ thống (<unbreak>1220</unbreak>)",
  "-2073556243": "Đã nhận Thưởng Nâng Bậc",
  "1058611671": "Đạo cụ không tồn tại",
  "1058611672": "Số lượng đạo cụ không đủ",
  "1058611673": "Không thể tiêu hao nhiều vật phẩm hơn",
  "1058611674": "Lỗi chưa xác định (<unbreak>1303</unbreak>)",
  "1058611675": "Số lượng đạo cụ trong túi không đủ",
  "1058611676": "Đạo cụ không tồn tại",
  "1058611677": "Nhận thiết lập đạo cụ thất bại",
  "1058611678": "Điểm tín dụng không đủ",
  "1058611663": "Số lượng hiện có của một số vật phẩm trong túi đã đạt giới hạn, hãy xóa bớt.",
  "1058611664": "Nhận loại đạo cụ thất bại, không thể sử dụng",
  "-507472270": "Nhận dữ liệu sử dụng đạo cụ thất bại",
  "-507472269": "Nhận thưởng thất bại",
  "-507472268": "Số lượng <color=#f29e38ff>#1</color> hiện có trong túi đã đạt giới hạn, hãy sắp xếp lại trước.",
  "-507472267": "Dữ liệu đạo cụ bị lỗi",
  "-507472266": "Dữ liệu đạo cụ bị lỗi",
  "-507472265": "Đã hết số lần nhận trị liệu",
  "-507472264": "Không thể nhận công thức nguyên liệu",
  "-507472263": "Không thể nhận công thức ghép Di Vật",
  "-507472278": "Vật phẩm này không thể bán",
  "-507472277": "Vật phẩm bán ra đã vượt giới hạn",
  "-2073556211": "Nhận công thức thất bại",
  "-2073556210": "Không đủ nguyên liệu",
  "-2073556209": "Lỗi chọn nguyên liệu",
  "-2073556208": "Nhận công thức thất bại",
  "-2073556207": "Nhận thông tin gói quà thất bại",
  "-2073556206": "Hãy chọn Di Vật cần ghép",
  "-2073556205": "Lỗi hệ thống (<unbreak>1326</unbreak>)",
  "-2073556204": "Nhận thông tin công thức thất bại (<unbreak>1327</unbreak>)",
  "-2073556219": "Nhận thông tin Di Vật thất bại (<unbreak>1328</unbreak>)",
  "-2073556218": "Số lượng ghép Di Vật bị lỗi (<unbreak>1329</unbreak>)",
  "655327144": "Hệ thống bị lỗi (<unbreak>1330</unbreak>)",
  "655327145": "Số ngày tích lũy đã đạt giới hạn",
  "655327146": "Số lượng hiện có của một số vật phẩm đã đạt giới hạn, không thể nhận nữa.",
  "655327147": "Lỗi hệ thống (<unbreak>1333</unbreak>)",
  "655327148": "Lỗi hệ thống (<unbreak>1334</unbreak>)",
  "655327149": "Vật phẩm này không thể hủy",
  "655327151": "Đã đạt giới hạn sưu tập",
  "655327137": "Chưa thiết lập Vật Tiêu Hao Nhanh",
  "-1266987157": "Đã thiết lập Vật Tiêu Hao Nhanh",
  "-1266987156": "Loại Vật Tiêu Hao này không thể thiết lập",
  "-1266987153": "Số lượng đổi quá nhiều, vui lòng giảm bớt cho phù hợp rồi thử lại sau",
  "1461896198": "Nón Ánh Sáng đã được trang bị",
  "1461896199": "Không thể tìm thấy Nón Ánh Sáng mục tiêu",
  "1461896200": "Cấp trang bị đã đạt giới hạn",
  "1461896201": "Không thể dùng bản thân làm nguyên liệu tiêu hao",
  "1461896202": "Nón Ánh Sáng đã được khóa",
  "1461896203": "Nón Ánh Sáng đã được mở khóa",
  "1461896204": "Nón Ánh Sáng đã được khóa",
  "1461896205": "Không thể tiêu hao quá nhiều vật phẩm",
  "1461896190": "Tích tầng Nón Ánh Sáng cần phải dùng Nón Ánh Sáng giống nhau",
  "1461896191": "Đã nâng đến cấp tối đa",
  "-104187743": "Đã đạt cấp tích tầng tối đa",
  "-104187742": "Đã đạt cấp tối đa",
  "-104187741": "Số lượng <color=#f29e38ff>Nón Ánh Sáng</color> hiện có trong túi đã đạt giới hạn, hãy sắp xếp lại trước.",
  "-104187740": "Di Vật không tồn tại",
  "-104187739": "Di Vật đã đạt cấp tối đa",
  "-104187738": "Không thể dùng Di Vật này để cường hóa",
  "-104187737": "Di Vật đã trang bị",
  "-104187736": "Di Vật đã khóa",
  "-104187751": "Di Vật đã khóa",
  "-104187750": "Di Vật đã mở khóa",
  "-1670271684": "Cấp Di Vật không được bằng 0",
  "-1670271683": "Thông tin Di Vật trùng lặp",
  "-1670271682": "Nón Ánh Sáng không đủ cấp",
  "-1670271681": "Nguyên liệu Tích Tầng Nón Ánh Sáng bị lỗi",
  "-1670271680": "Hệ thống bị lỗi (<unbreak>1374</unbreak>)",
  "-1670271679": "Hệ thống bị lỗi (<unbreak>1375</unbreak>)",
  "-1670271678": "Số lượng <color=#f29e38ff>Di Vật</color> hiện có trong túi đã đạt giới hạn, hãy sắp xếp lại trước.",
  "-1670271691": "Thao tác quá nhanh, hãy thử lại sau",
  "1058611838": "Số thứ tự đội bị lỗi",
  "1058611837": "Vị trí trong đội bị lỗi",
  "1058611836": "Đổi vị trí thành viên trong đội",
  "1058611835": "Thành viên đã ở trong đội",
  "1058611834": "Dữ liệu đội ra trận bị lỗi",
  "1058611833": "Khởi tạo nhân vật thất bại (<unbreak>1405</unbreak>)",
  "1058611832": "Đội không tồn tại",
  "1058611831": "Đội phải có tối thiểu 1 thành viên",
  "1058611830": "Lỗi chưa xác định (<unbreak>1408</unbreak>)",
  "1058611829": "Đội phải có tối thiểu 1 nhân vật để thao tác",
  "-507472103": "Thông tin đội bị lỗi (<unbreak>1410</unbreak>)",
  "-507472104": "Thành viên đội không tồn tại",
  "-507472105": "Nhân vật dùng thử không thể rời khỏi đội",
  "-507472106": "Thông tin cảnh nhân vật dùng thử không đồng bộ",
  "-507472107": "Lỗi chưa xác định (<unbreak>1414</unbreak>)",
  "-507472108": "Đổi đội bị trùng",
  "-507472109": "Đội không thành viên",
  "-507472110": "Định dạng tên đội bị lỗi",
  "-507472111": "Loại hình đội không tương thích",
  "-507472112": "Thay thế lập đội thất bại (<unbreak>1419</unbreak>)",
  "-2073556044": "Đội hiện tại không thể thay đổi",
  "-2073556045": "Lỗi #0X<unbreak>001421</unbreak>: Nhân vật đã hồi sinh",
  "-2073556046": "Đội không thể trống",
  "-2073556047": "Trong đội đã tồn tại Nhân Vật Chi Viện",
  "-2073556048": "Nhân vật này không thể gia nhập đội",
  "-2073556049": "Trong nội dung có chứa ký tự sai",
  "-2073556050": "Nhân vật hiện tại đã mở khóa",
  "1058611803": "Thư không tồn tại",
  "1058611804": "Nhận thư thất bại",
  "1058611805": "ID thư không hợp lệ",
  "1058611806": "Không có thư để nhận",
  "1058611799": "Không có thư cần xóa",
  "1058611800": "Loại thư bị lỗi (<unbreak>1705</unbreak>)",
  "1058611801": "Tham số thư bị lỗi (<unbreak>1706</unbreak>)",
  "1058611802": "Tham số thư bị lỗi (<unbreak>1707</unbreak>)",
  "1058611795": "Tham số thư bị lỗi (<unbreak>1708</unbreak>)",
  "1058611796": "Tham số thư bị lỗi (<unbreak>1709</unbreak>)",
  "1058611442": "Tổng kết ải bị lỗi",
  "1058611441": "Thiết lập ải không tồn tại",
  "1058611440": "Không tìm thấy dữ liệu ải tương ứng",
  "1058611446": "Thông tin Đài Hoa Nhân Tạo không tồn tại",
  "1058611445": "Nhận đợt chiến đấu Đài Hoa Nhân Tạo thất bại",
  "1058611444": "ID vật tương tác bất thường",
  "1058611443": "Số đợt được tạo và số lựa chọn không tương ứng",
  "1058611450": "Đã hết số lần sử dụng",
  "1058611449": "Thời gian mở bị lỗi (<unbreak>1809</unbreak>)",
  "-507472499": "Tính năng chưa mở",
  "-507472500": "Chưa mở Ải Hạn Giờ",
  "-507472501": "Loại Đài Hoa bị lỗi",
  "1058611473": "Lỗi chưa xác định (<unbreak>1900</unbreak>)",
  "1058611474": "Lỗi chưa xác định (<unbreak>1901</unbreak>)",
  "1058611471": "Lỗi chưa xác định (<unbreak>1902</unbreak>)",
  "1058611472": "Lỗi chưa xác định (<unbreak>1903</unbreak>)",
  "1060812379": "Tương tác server bị lỗi",
  "2080248619": "Thông tin ải bị lỗi (<unbreak>2000</unbreak>)",
  "2080248618": "Đã trong trận đấu",
  "2080248617": "Kiểm tra ải thất bại (<unbreak>2002</unbreak>)",
  "2080248616": "Chiến đấu thất bại",
  "2080248623": "Không thể nhận đội xuất chiến",
  "2080248622": "Không thể nhận nhân vật đội",
  "2080248621": "Đồng bộ chiến đấu thất bại, hãy khởi động lại game rồi thử lại",
  "2080248620": "Lỗi dữ liệu khiến bị thoát khỏi trận đấu (<unbreak>2007</unbreak>)",
  "2080248611": "Đang xác nhận, vui lòng chờ",
  "2080248610": "Lỗi chưa biết",
  "-648634736": "Kiểm tra bị lỗi (<unbreak>2010</unbreak>)",
  "2080248650": "Không thể đổi thêm Sức Mạnh Khai Phá",
  "2080248651": "Sức Mạnh Khai Phá không đủ",
  "2080248648": "Sức Mạnh Khai Phá quá nhiều, không thể đổi!",
  "2080248649": "Lỗi chưa xác định (<unbreak>2103</unbreak>)",
  "2080248654": "Lỗi chưa xác định (<unbreak>2104</unbreak>)",
  "2080248655": "Nội dung bạn nhập chứa ký tự không hợp lệ",
  "2080248652": "Tên có chứa từ hoặc ký hiệu nhạy cảm",
  "2080248653": "Phần thưởng cấp đã nhận",
  "2080248642": "Phần thưởng cấp bị lỗi",
  "2080248643": "Ngôn ngữ chưa hỗ trợ",
  "-648634705": "Không thể đổi tên, hãy thử lại sau",
  "-648634704": "Lỗi định dạng ngày tháng",
  "-648634707": "Ngày sinh không được thay đổi",
  "-648634706": "Trong nội dung có chứa ký tự sai",
  "-648634701": "Không vượt quá 6 chữ số và ký tự",
  "-648634700": "Hệ thống đang bận, hãy thử lại sau, hoặc liên hệ CSKH",
  "2080248553": "Rãnh Nứt chưa hoàn thành",
  "2080248552": "Lỗi chưa xác định (<unbreak>2201</unbreak>)",
  "2080248555": "Khu vực này chưa đạt điều kiện mở khóa",
  "2080248554": "Lỗi chưa xác định (<unbreak>2203</unbreak>)",
  "2080248557": "Chưa chọn buff",
  "2080248556": "Không thể định vị khu vực này",
  "2080248559": "Ải Rãnh Nứt không tương thích",
  "2080248558": "Thiết lập bản đồ không tồn tại",
  "2080248545": "Loại Rãnh Nứt không tồn tại, vui lòng kiểm tra thiết lập",
  "2080248544": "Rãnh Nứt đã hoàn thành",
  "-648634802": "Thiết lập Rãnh Nứt bị lỗi (<unbreak>2210</unbreak>)",
  "-648634803": "Nhận vị trí Rãnh Nứt bị lỗi (<unbreak>2211</unbreak>)",
  "-648634800": "Không thể sử dụng Bí Kỹ",
  "-648634801": "Điểm Bí Kỹ không đủ",
  "-648634798": "Chưa Mở",
  "-648634799": "Mỏ Neo Không Gian đang trong thời gian chờ",
  "-648634796": "Quá xa",
  "-648634797": "Không thể định vị vị trí Rãnh Nứt",
  "-648634810": "Nhận vị trí khu vực thất bại (<unbreak>2218</unbreak>)",
  "-648634811": "Không thể định vị vị trí Rãnh Nứt (<unbreak>2219</unbreak>)",
  "917449139": "Không thể định vị vị trí Rãnh Nứt (<unbreak>2220</unbreak>)",
  "917449138": "Không đủ lượt sử dụng (<unbreak>2221</unbreak>)",
  "917449141": "Đã hoàn thành trạng thái thiết lập thời gian bản đồ",
  "917449140": "Thiết lập thời gian bản đồ bị lỗi (<unbreak>2223</unbreak>)",
  "917449143": "Cốt truyện hiện tại không thể dùng dịch chuyển",
  "2080248584": "Chưa mở khóa cốt truyện",
  "2080248751": "Không thể nhận thông tin nhiệm vụ",
  "2080248750": "Nhiệm vụ đã hoàn thành",
  "2080248749": "Nhiệm vụ mỗi ngày chưa hoàn thành",
  "2080248748": "Phần thưởng nhiệm vụ ngày đã nhận",
  "2080248747": "Nhiệm vụ thám hiểm chưa hoàn thành",
  "2080248746": "Nhiệm vụ không trong giai đoạn tiến hành",
  "2080248745": "Loại hình hoàn thành nhiệm vụ bị lỗi",
  "2080248744": "Cảnh nhiệm vụ không tương thích",
  "2080248743": "Tham số bị lỗi (<unbreak>2408</unbreak>)",
  "2080248742": "Nhiệm vụ không tương thích (<unbreak>2409</unbreak>)",
  "2080248782": "Lỗi chưa xác định (<unbreak>2500</unbreak>)",
  "2080248685": "Nhận cảnh thất bại (<unbreak>2600</unbreak>)",
  "2080248684": "Nhận cảnh thất bại (<unbreak>2601</unbreak>)",
  "2080248687": "Kẻ địch không tồn tại",
  "2080248686": "Thiết lập tương tác không tồn tại",
  "2080248681": "Trạng thái chưa hỗ trợ",
  "2080248680": "Cảnh chưa được tải",
  "2080248683": "Kiểm tra di chuyển thất bại",
  "2080248682": "Mục tiêu phe địch vượt giới hạn",
  "2080248677": "Sử dụng kỹ năng thất bại",
  "2080248676": "Client không thể thấy thông tin chủ thể",
  "-648634670": "Tải cảnh thành công",
  "-648634671": "Loại hình tương tác không chính xác",
  "-648634668": "Loại tính năng tương tác chưa hỗ trợ",
  "-648634669": "Kiểm chứng phạm vi tương tác thất bại",
  "-648634674": "Loại con tính năng tương tác không hỗ trợ",
  "-648634675": "Nhận thông tin đội trưởng bị lỗi",
  "-648634672": "Thiết lập Hư Ảnh Ngưng Đọng bị lỗi (<unbreak>2616</unbreak>)",
  "-648634673": "Thiết lập thông tin kẻ địch bị lỗi (<unbreak>2617</unbreak>)",
  "-648634678": "HP nhân vật đã đầy",
  "-648634679": "Nội dung tương tác không tương thích (<unbreak>2619</unbreak>)",
  "917449271": "Cảnh tương tác bị lỗi (<unbreak>2620</unbreak>)",
  "917449270": "Lỗi nhận dữ liệu bản đồ",
  "917449273": "Lưu dữ liệu quá nhanh",
  "917449272": "Lỗi chưa biết",
  "917449267": "Nhận kết quả chiến đấu thất bại",
  "917449266": "Nhận thông tin ải thất bại",
  "917449269": "Tham số bị lỗi (<unbreak>2626</unbreak>)",
  "917449262": "Lỗi hệ thống (<unbreak>2629</unbreak>)",
  "2080248716": "Số lượng mua đã đạt giới hạn",
  "2080248717": "Không đủ điều kiện mua",
  "2080248718": "Chưa mở cửa hàng",
  "2080248719": "Chưa có vật phẩm",
  "2080248712": "Đã nhận thưởng",
  "2080248713": "Chưa đạt điều kiện nhận",
  "2080248714": "Đã đạt giới hạn mua",
  "1320733830": "Hướng dẫn chưa mở khóa",
  "1320733831": "Hướng dẫn đã mở khóa",
  "1320733832": "Hướng dẫn đã hoàn thành",
  "1320733825": "Hướng dẫn trước đó chưa mở khóa",
  "1320733826": "Cấp khai phá không đủ",
  "1320733827": "Nhận hướng dẫn thất bại",
  "2080248354": "Sảnh Đường Lãng Quên không tồn tại",
  "2080248353": "Sảnh Đường Lãng Quên chưa mở khóa",
  "2080248352": "Sảnh Đường Lãng Quên đang tiến hành",
  "2080248359": "Hiện không thể thay đổi đội hình",
  "2080248358": "Chưa tìm thấy đội",
  "2080248357": "Ải hiện tại đang tiến hành",
  "2080248356": "Sảnh Đường Lãng Quên chưa kết thúc",
  "2080248363": "Mục tiêu khiêu chiến chưa hoàn thành",
  "2080248362": "Đã nhận thưởng",
  "-648635000": "Thời gian mở hệ thống bị lỗi (<unbreak>2810</unbreak>)",
  "-648635001": "Lỗi điều kiện nhận thưởng",
  "-648635002": "Đã nhận thưởng",
  "-648635003": "Nhận thông tin phần thưởng thất bại",
  "1320733468": "Đã chuyển đến Vận Mệnh giống như vậy",
  "1320733467": "Nhận Vận Mệnh thất bại",
  "1320733466": "Chọn Vận Mệnh bị lỗi (<unbreak>2852</unbreak>)",
  "1320733465": "Không thể chuyển đổi Vận Mệnh",
  "1320733472": "Hãy chọn chủ thể",
  "2080248387": "Lỗi #0X<unbreak>002901</unbreak>: Vũ Trụ Mô Phỏng bị gián đoạn",
  "2080248384": "Lỗi #0X<unbreak>002902</unbreak>: Dữ liệu Chúc Phúc đã chọn không tương thích",
  "2080248385": "Lỗi #0X<unbreak>002903</unbreak>: Số lượng Mảnh Vũ Trụ không đủ",
  "2080248391": "Lỗi #0X<unbreak>002905</unbreak>: Vận hành mã thất bại",
  "2080248388": "Lỗi #0X<unbreak>002906</unbreak>: Module hiện tại đã được sử dụng",
  "2080248389": "Lỗi #0X<unbreak>002907</unbreak>: Hoàn thành lưu trữ",
  "2080248394": "Lỗi #0X<unbreak>002908</unbreak>: Số lần làm mới đã đạt giới hạn",
  "2080248395": "Lỗi #0X<unbreak>002909</unbreak>: Hiện không thể đổi nhân vật",
  "-648634969": "Lỗi #0X<unbreak>002910</unbreak>: Ủy thác đã quá hạn",
  "-648634968": "Lỗi #0X<unbreak>002911</unbreak>: Thưởng đã nhận",
  "-648634971": "Số lần hồi sinh không đủ",
  "-648634970": "Lỗi nhận thông tin bản đồ",
  "-648634965": "Nhận thông tin phần thưởng thất bại",
  "-648634964": "Nhận thông tin phần thưởng thất bại",
  "-648634967": "Cấp Nhận Thức chưa đạt",
  "-648634966": "Đã nhận thưởng (<unbreak>2917</unbreak>)",
  "-648634961": "Lỗi hệ thống (<unbreak>2918</unbreak>)",
  "-648634960": "Lỗi hệ thống (<unbreak>2919</unbreak>)",
  "917448972": "Đã nhận phần thưởng Cổng Thông Tin Vũ Trụ Mô Phỏng",
  "917448973": "Lỗi hệ thống (<unbreak>2921</unbreak>)",
  "917448970": "Vật phẩm không tồn tại",
  "917448971": "Đã mua vật phẩm",
  "917448976": "Đã sở hữu vật phẩm",
  "917448977": "Vật Thể Lạ không tồn tại",
  "917448974": "Chưa mở cửa hàng",
  "917448975": "Cửa hàng không thể làm mới",
  "1320733500": "Sự kiện không tồn tại",
  "1320733497": "Lỗi chưa xác định (<unbreak>2952</unbreak>)",
  "1320733498": "Sự kiện đã hoàn thành",
  "1320733503": "Đang tiến hành sự kiện",
  "1320733504": "Đang khiêu chiến sự kiện khác",
  "1320733501": "Không phải sự kiện khiêu chiến",
  "-1668070976": "Server quá giờ",
  "776286703": "Không thể thực hiện Bước Nhảy",
  "776286702": "Nhận số lần Bước Nhảy thất bại",
  "776286701": "Hãy thực hiện 1 lần Bước Nhảy",
  "776286708": "Lỗi thông tin Bước Nhảy (<unbreak>3004</unbreak>)",
  "776286707": "Lỗi thông tin Bước Nhảy (<unbreak>3005</unbreak>)",
  "776286706": "Lỗi thông tin Bước Nhảy (<unbreak>3006</unbreak>)",
  "776286705": "Số lần Bước Nhảy hôm nay đã đạt giới hạn",
  "776286696": "Thông tin Bước Nhảy bị lỗi",
  "776286695": "Số lần Bước Nhảy không đủ, không thể chọn thưởng thêm",
  "-789797237": "Đã nhận nhân vật thưởng",
  "1179571230": "Ghi Chép Khai Phá không tồn tại",
  "1179571229": "Phần thưởng cấp khám phá bị lỗi",
  "1179571228": "Đã nhận thưởng (<unbreak>3053</unbreak>)",
  "1179571235": "Nhận nhiệm vụ thất bại",
  "1179571234": "Nhiệm vụ chưa hoàn thành",
  "1179571233": "Đã nhận thưởng (<unbreak>3056</unbreak>)",
  "776286736": "Nhận tiến độ thất bại (<unbreak>3101</unbreak>)",
  "776286733": "Đang tiến hành",
  "776286734": "Tương tác vật phẩm thất bại (<unbreak>3103</unbreak>)",
  "776286739": "Tương tác vật phẩm thất bại (<unbreak>3104</unbreak>)",
  "776286740": "Khởi động lại Hang Động Xâm Thực thất bại (<unbreak>3105</unbreak>)",
  "776286737": "Không đủ điều kiện vào",
  "776286738": "Danh sách nhân vật trống",
  "776286727": "Nhân vật không tồn tại",
  "776286728": "Đã nhận thưởng",
  "-789797206": "Khiêu chiến không đủ điểm",
  "-789797205": "Sự kiện chưa mở",
  "-789797208": "Đã hoàn thành phó bản",
  "-789797207": "Hãy hoàn thành khiêu chiến với độ khó trước",
  "-789797202": "Không thể mở Chi Viện",
  "-789797201": "Nhân vật không tương thích",
  "-789797204": "Hệ thống bị lỗi (<unbreak>3116</unbreak>)",
  "-789797203": "Hệ thống bị lỗi (<unbreak>3117</unbreak>)",
  "-789797214": "Phó bản sự kiện chưa mở",
  "-789797213": "Thông tin đội bị lỗi",
  "1179571263": "Đã nhận phần thưởng trò chuyện",
  "1179571260": "Đã hoàn thành trò chuyện ban đầu (<unbreak>3152</unbreak>)",
  "1179571261": "Nhận thông tin trò chuyện thất bại (<unbreak>3153</unbreak>)",
  "1179571266": "Đối thoại NPC không tương thích",
  "1179571267": "Lựa chọn đối thoại lỗi (<unbreak>3155</unbreak>)",
  "1179571264": "Điều kiện nhận thưởng không tương thích",
  "1179571265": "Lỗi xác minh phần thưởng",
  "776286637": "Thiết lập cử đi ủy thác không tồn tại (<unbreak>3201</unbreak>)",
  "776286640": "Nhận phần thưởng cử đi ủy thác thất bại (<unbreak>3202</unbreak>)",
  "776286639": "Lỗi hệ thống (<unbreak>3203</unbreak>)",
  "776286642": "Lỗi hệ thống (<unbreak>3204</unbreak>)",
  "776286641": "Lỗi hệ thống (<unbreak>3205</unbreak>)",
  "776286644": "Lỗi hệ thống (<unbreak>3206</unbreak>)",
  "776286643": "Lỗi hệ thống (<unbreak>3207</unbreak>)",
  "776286630": "Lỗi hệ thống (<unbreak>3208</unbreak>)",
  "776286629": "Lỗi hệ thống (<unbreak>3209</unbreak>)",
  "-789797303": "Đội cử đi ủy thác đạt giới hạn",
  "-789797304": "Hệ thống bị lỗi (<unbreak>3211</unbreak>)",
  "-789797301": "Sự kiện chưa mở",
  "-789797302": "Nhân vật trợ chiến bị lỗi",
  "-789797299": "Ủy thác vẫn chưa mở",
  "776286670": "Đã nhận thưởng",
  "776286671": "Chưa đạt yêu cầu",
  "776286672": "Đã nhận thưởng",
  "776286673": "Chưa hoàn thành ải",
  "776286674": "Đã nhận thưởng",
  "776286675": "Chưa giao nguyên liệu thí nghiệm",
  "776286676": "Hệ thống bị lỗi (<unbreak>3307</unbreak>)",
  "776286661": "Lỗi hệ thống (<unbreak>3308</unbreak>)",
  "776286662": "Lỗi hệ thống (<unbreak>3309</unbreak>)",
  "-789797272": "Lỗi hệ thống (<unbreak>3310</unbreak>)",
  "-789797271": "Lỗi hệ thống (<unbreak>3311</unbreak>)",
  "-789797270": "Lỗi hệ thống (<unbreak>3312</unbreak>)",
  "-789797269": "Lỗi hệ thống (<unbreak>3313</unbreak>)",
  "-789797268": "Lỗi hệ thống (<unbreak>3314</unbreak>)",
  "-789797267": "Bạn đang trong Dùng Thử Nhân Vật",
  "776286868": "Nhận tin không tồn tại (<unbreak>3501</unbreak>)",
  "776286865": "Nhận tin không tồn tại (<unbreak>3502</unbreak>)",
  "776286866": "Nhận tin không tồn tại (<unbreak>3503</unbreak>)",
  "776286863": "Nhận tin không tồn tại (<unbreak>3504</unbreak>)",
  "776286864": "Nhận tin không tồn tại (<unbreak>3505</unbreak>)",
  "776286861": "Nhận tin không tồn tại (<unbreak>3506</unbreak>)",
  "776286862": "Nhận tin không tồn tại (<unbreak>3507</unbreak>)",
  "776286769": "Người này đã là bạn bè",
  "776286772": "Người này vẫn chưa là bạn bè",
  "776286771": "Yêu cầu kết bạn đã quá hạn",
  "776286766": "Người chơi đã nằm trong danh sách đen",
  "776286765": "Người chơi không nằm trong danh sách đen",
  "776286768": "Số lượng bạn bè đã đạt giới hạn",
  "776286767": "Danh sách đen đã đạt giới hạn",
  "776286762": "Số lần yêu cầu mỗi ngày đã đạt giới hạn",
  "776286761": "Yêu cầu chờ xử lý đã đạt giới hạn",
  "-789797171": "Thao tác quá nhanh, hãy thử lại sau",
  "-789797172": "Lỗi định dạng tên ghi chú",
  "-789797169": "Chưa tìm được người chơi",
  "-789797170": "Không thể thêm bạn bè, hãy thử lại sau",
  "-789797175": "Số lượng bạn bè của đối phương đã đạt giới hạn",
  "-789797176": "Yêu cầu quá nhanh, hãy thử lại sau",
  "-789797173": "Nhân Vật Chi Viện không tồn tại",
  "-789797174": "Nhân Vật Chi Viện đã ở trong đội",
  "-789797179": "Lỗi định dạng thông tin tố cáo",
  "-789797180": "Thông tin bao gồm từ ngữ không chính xác",
  "-386512644": "Số lần Chi Viện đã đạt giới hạn",
  "-386512645": "Không có Nhân Vật Chi Viện để chọn",
  "-386512642": "Nhân Vật Chi Viện đã ở trong đội",
  "-386512643": "Không có phần thưởng chi viện để nhận",
  "-386512648": "Thao tác quá nhanh, hãy thử lại sau",
  "-386512649": "Thao tác quá nhanh, hãy thử lại sau",
  "-386512646": "Trong nội dung có chứa ký tự sai",
  "-386512647": "Trong nội dung có chứa ký tự sai",
  "-386512652": "Nhân Vật Chi Viện đã tồn tại",
  "-386512653": "Người chơi tạm thời không đồng ý yêu cầu kết bạn",
  "-1952596584": "Thao tác quá nhanh",
  "-1952596589": "Hồ Sơ Nhà Khai Phá đang trong thời gian chờ",
  "776286802": "Ảnh đại diện không tồn tại",
  "776286803": "Ảnh đại diện chưa mở khóa",
  "776286804": "Ảnh đại diện đã mở khóa",
  "776286797": "Nhân vật hiển thị không tồn tại",
  "776286798": "Nhân vật hiển thị đã đạt số lượng tối đa",
  "776286799": "Nhân vật hiển thị bị trùng",
  "776286800": "Vị trí nhân vật hiển thị không phù hợp",
  "776286793": "Nhân vật hiển thị chưa mở khóa",
  "776286794": "Nội dung giới thiệu vượt giới hạn cho phép",
  "-789797140": "Nội dung giới thiệu có từ nhạy cảm",
  "-789797139": "Trong danh sách hiển thị nhân vật có vị trí trống",
  "-789797138": "Nhân Vật Chi Viện không tồn tại",
  "-789797137": "Nhân Vật Chi Viện chưa mở khóa",
  "-789797144": "Trong nội dung có chứa ký tự sai",
  "776286439": "Lỗi nhận dữ liệu (<unbreak>3801</unbreak>)",
  "776286438": "Không thể nhận phần thưởng này (<unbreak>3802</unbreak>)",
  "776286437": "Đã nhận thưởng (<unbreak>3803</unbreak>)",
  "776286444": "Kích hoạt thất bại (<unbreak>3804</unbreak>)",
  "776286443": "Chưa mở Vinh Dự Vô Danh",
  "776286442": "Mua thất bại (<unbreak>3806</unbreak>)",
  "776286441": "Chưa mở Vinh Dự Vô Danh",
  "776286448": "Nhận thưởng thất bại (<unbreak>3808</unbreak>)",
  "776286447": "Nhận nhiệm vụ thất bại (<unbreak>3809</unbreak>)",
  "-789797501": "Chưa nhận thưởng tự chọn",
  "-789797502": "Không có phần thưởng để nhận",
  "-789797503": "Lỗi nhận thông tin phần thưởng",
  "-789797504": "Không thể mua trùng",
  "-789797497": "Đạo cụ này hiện không thể dùng",
  "776286472": "Chưa mở khóa bài hát",
  "776286469": "Không tìm được bài này (<unbreak>3902</unbreak>)",
  "776286470": "Mở khóa bài hát thất bại (<unbreak>3903</unbreak>)",
  "1867381433": "Yêu cầu trùng lặp",
  "-1367743672": "Số lần trinh sát không đủ",
  "-1367743673": "Mục tiêu có thể trinh sát đã đạt giới hạn",
  "-1367743674": "Lỗi nhận thông tin mục tiêu",
  "-1367743667": "Đã phát động Hợp Sức Tấn Công",
  "-1367743668": "Thông tin mục tiêu đã quá hạn",
  "-1367743669": "Số lần tấn công mục tiêu đã đạt giới hạn",
  "-1367743670": "Số lượng Đầu Đạn Pixel không đủ",
  "-1367743679": "Mục tiêu đã bị đánh bại",
  "-1367743680": "Số người tham gia tấn công đã đạt giới hạn",
  "198340270": "Chưa đạt cấp Cân Bằng chỉ định",
  "198340269": "Nhận thông tin phần thưởng thất bại",
  "198340268": "Chưa đạt điểm yêu cầu",
  "198340267": "Đang tấn công",
  "198340274": "Thao tác quá nhanh, hãy thử lại sau",
  "198340273": "Đã nhận thưởng",
  "198340272": "Phần thưởng nhận được vượt quá giới hạn",
  "198340271": "Sự kiện không trong thời gian mở",
  "198340262": "Chưa tham gia tấn công mục tiêu",
  "198340261": "Chưa đánh bại mục tiêu",
  "-204944257": "Đã nhận thưởng (<unbreak>4020</unbreak>)",
  "-204944258": "Đã nhận thưởng (<unbreak>4021</unbreak>)",
  "-1367743639": "Lỗi điều kiện nhận thưởng",
  "-1367743642": "Đã nhận thưởng",
  "-1367743641": "Độ Năng Động không đủ, không thể nhận thưởng",
  "-1771028265": "Nhận thông tin phát lại thất bại (<unbreak>4251</unbreak>)",
  "-1771028262": "Nhận thông tin phát lại thất bại (<unbreak>4252</unbreak>)",
  "-1367743705": "Chưa đạt điều kiện nhận",
  "-1367743704": "Đã nhận thưởng",
  "-1367743703": "Chưa mở ải",
  "-1771028232": "Hệ thống bị lỗi (<unbreak>4351</unbreak>)",
  "-1771028231": "Hệ thống bị lỗi (<unbreak>4352</unbreak>)",
  "-1771028230": "Hệ thống bị lỗi (<unbreak>4353</unbreak>)",
  "-1367743540": "Lỗi hệ thống (<unbreak>4401</unbreak>)",
  "-1367743541": "Lỗi hệ thống (<unbreak>4402</unbreak>)",
  "-1367743542": "Lỗi hệ thống (<unbreak>4403</unbreak>)",
  "-1367743543": "Lỗi hệ thống (<unbreak>4404</unbreak>)",
  "-1367743544": "Lỗi hệ thống (<unbreak>4405</unbreak>)",
  "-1367743545": "Lỗi hệ thống (<unbreak>4406</unbreak>)",
  "-1367743546": "Lỗi hệ thống (<unbreak>4407</unbreak>)",
  "-1367743547": "Trong nội dung có chứa ký tự sai",
  "-1367743548": "Lỗi hệ thống (<unbreak>4409</unbreak>)",
  "198340402": "Yêu cầu trùng lặp",
  "198340401": "Lỗi hệ thống (<unbreak>4411</unbreak>)",
  "198340400": "Lỗi nhân vật",
  "198340399": "Lỗi hệ thống (<unbreak>4413</unbreak>)",
  "-1771028067": "Hệ thống bị lỗi (<unbreak>4451</unbreak>)",
  "-1771028068": "Hệ thống bị lỗi (<unbreak>4452</unbreak>)",
  "-1367743507": "Hệ thống bị lỗi (<unbreak>4501</unbreak>)",
  "-1367743510": "Hệ thống bị lỗi (<unbreak>4502</unbreak>)",
  "-1367743509": "Hệ thống bị lỗi (<unbreak>4503</unbreak>)",
  "-1367743512": "Nội dung trò chuyện trống",
  "-1367743511": "Độ dài nội dung vượt giới hạn cho phép",
  "-1367743514": "Trong nội dung chứa từ cấm",
  "-1367743513": "Trong nội dung có chứa ký tự sai",
  "-1367743516": "Cổng tính năng không khả dụng",
  "-1367743515": "Lỗi hệ thống (<unbreak>4509</unbreak>)",
  "198340433": "Trong nội dung có chứa ký tự sai",
  "198340434": "Biểu cảm bị lỗi",
  "198340431": "Biểu cảm bị lỗi",
  "198340429": "Biểu cảm đã sưu tập",
  "198340430": "Đã đạt giới hạn sưu tập",
  "-1367743606": "Mùa giải hiện tại chưa mở",
  "-1771028133": "Sự kiện chưa mở",
  "-1771028130": "Chưa hoàn thành hoạt động kinh doanh trong ngày mở cửa hiện tại",
  "-1771028131": "Lỗi giai đoạn kinh doanh",
  "-1771028136": "Trợ lý bị lỗi",
  "-1771028137": "Khu trưng bày bị lỗi",
  "-1771028134": "Lỗi thiết lập",
  "-1771028135": "Trợ lý đã được chỉ định cho khu vực này",
  "-1771028140": "Trợ lý chưa được chỉ định cho khu vực này",
  "-1771028141": "Đã thuê trợ lý này",
  "2120654637": "Chưa thuê trợ lý này",
  "2120654636": "Quỹ không đủ",
  "2120654639": "Khu trưng bày đã chọn bị lỗi",
  "2120654638": "Lỗi hệ thống",
  "2120654633": "Thời gian bị lỗi",
  "2120654632": "Không tìm thấy sự kiện",
  "2120654635": "Sự kiện bị lỗi",
  "2120654634": "Chưa đạt giai đoạn kinh doanh mục tiêu",
  "2120654629": "Không tồn tại manh mối",
  "2120654628": "Đã hoàn thành tăng cấp khu trưng bày",
  "-608228718": "Trợ lý đã được chỉ định",
  "-608228719": "Chưa mở khóa sự kiện này",
  "-608228716": "Trợ lý đã được chỉ định đến khu trưng bày",
  "-608228717": "Trợ lý đang được cử đi",
  "-608228722": "Sự kiện đã kết thúc",
  "-608228723": "Trợ lý đang được cử đi",
  "-608228726": "Còn nhiệm vụ Thuê Nhân Viên hoặc Thu Thập Vật Trưng Bày chưa hoàn thành",
  "-608228727": "Lỗi hệ thống (<unbreak>4679</unbreak>)",
  "-1723973965": "Đã nhận thưởng",
  "-1723973966": "Vật Trưng Bày hoặc nhiệm vụ trợ lý đã đạt giới hạn",
  "-1367743573": "Sự kiện chưa mở",
  "-1367743572": "Làm mới quá nhanh, hãy thử lại sau",
  "-204944159": "Lỗi hệ thống (<unbreak>4721</unbreak>)",
  "-204944158": "Lỗi hệ thống (<unbreak>4722</unbreak>)",
  "-204944164": "Lỗi hệ thống (<unbreak>4724</unbreak>)",
  "-204944163": "Lỗi hệ thống (<unbreak>4725</unbreak>)",
  "-204944162": "Lỗi hệ thống (<unbreak>4726</unbreak>)",
  "-204944161": "Cửa tiệm chưa mở khóa",
  "-204944167": "Cần kết nối tất cả cửa tiệm",
  "1361139781": "Lỗi hệ thống (<unbreak>4730</unbreak>)",
  "1361139782": "Lỗi hệ thống (<unbreak>4731</unbreak>)",
  "1361139783": "Lỗi hệ thống (<unbreak>4732</unbreak>)",
  "1361139784": "Lỗi hệ thống (<unbreak>4733</unbreak>)",
  "1361139777": "Lỗi hệ thống (<unbreak>4734</unbreak>)",
  "1361139778": "Lỗi hệ thống (<unbreak>4735</unbreak>)",
  "1361139779": "Chứng Nhận Náo Nhiệt không đủ",
  "1361139780": "Chất hàng hóa trống",
  "1361139773": "Lỗi hệ thống (<unbreak>4738</unbreak>)",
  "1361139774": "Lỗi hệ thống (<unbreak>4739</unbreak>)",
  "957855254": "Thuyền Sao Vận Tải chưa mở khóa",
  "957855255": "Lỗi hệ thống (<unbreak>4741</unbreak>)",
  "957855256": "Hàng hóa chưa mở khóa",
  "957855250": "Đơn Theo Yêu Cầu và đơn đặt hàng hiện tại không phù hợp",
  "957855251": "Hàng hóa Đơn Theo Yêu Cầu vượt quá giới hạn đơn đặt hàng",
  "957855252": "Đơn Theo Yêu Cầu chưa đạt đủ điều kiện",
  "957855246": "Số lượng hàng hóa không đủ",
  "957855247": "Lỗi hệ thống (<unbreak>4749</unbreak>)",
  "-1771028101": "Đã nhận thưởng",
  "-1771028100": "Lỗi hệ thống (<unbreak>4751</unbreak>)",
  "-1771028099": "Lỗi hệ thống (<unbreak>4752</unbreak>)",
  "-1771028098": "Lỗi hệ thống (<unbreak>4753</unbreak>)",
  "-1771028105": "Lỗi hệ thống (<unbreak>4754</unbreak>)",
  "-1771028103": "Lỗi hệ thống (<unbreak>4755</unbreak>)",
  "-1771028102": "Lỗi hệ thống (<unbreak>4756</unbreak>)",
  "-1771028108": "Chưa quy hoạch vận chuyển",
  "2120654669": "Chưa hoàn thành sự kiện",
  "2120654670": "Chưa đủ điều kiện vận đơn",
  "-1367743936": "Hành Trình Trở Về chưa mở",
  "-1367743937": "Đã hoàn thành điểm danh",
  "-1367743938": "Điểm hiện tại không đủ",
  "-1367743931": "Hiện giờ không thể điểm danh",
  "-1367743932": "Đã hoàn thành điểm danh",
  "-1367743933": "Đã nhận thưởng",
  "-1771028463": "Đội Cuộc Chiến Aetherium không tồn tại",
  "-1771028464": "Đội Cuộc Chiến Aetherium không thể dùng",
  "-1367743903": "Chưa tìm thấy vật phẩm liên quan",
  "-1367743906": "Chưa mở khóa khung trò chuyện",
  "-1367743905": "Lỗi hệ thống (<unbreak>4903</unbreak>)",
  "-1367743900": "Chưa mở khóa Hình Nền Điện Thoại",
  "-1771028430": "Lỗi hệ thống (<unbreak>4951</unbreak>)",
  "-1771028433": "Lỗi thiết lập",
  "2120654337": "Chưa tìm thấy khu vực có hiệu lực",
  "2120654342": "Chưa tìm thấy thông tin khu vực",
  "2120654343": "Khu vực chưa hoàn thành",
  "2120654340": "Khu vực chưa mở khóa",
  "2120654341": "Lối chơi chưa bắt đầu",
  "2120654346": "Lỗi hệ thống (<unbreak>4968</unbreak>)",
  "2120654347": "Lỗi hệ thống (<unbreak>4969</unbreak>)",
  "-608229017": "Lỗi đội hiện tại",
  "-1723974264": "Lỗi hệ thống (<unbreak>4980</unbreak>)",
  "-1723974263": "Vào khu vực thất bại",
  "-1723974266": "Ném thất bại",
  "-1723974265": "Hệ thống bị lỗi (<unbreak>4983</unbreak>)",
  "-1723974260": "Số lần sử dụng không đủ",
  "-1723974259": "Lỗi hệ thống (<unbreak>4985</unbreak>)",
  "-1723974262": "Lỗi thiết bị tải",
  "-1723974261": "Không thể sử dụng nhân vật",
  "-861501922": "Tham số không tồn tại",
  "1623261643": "Lỗi hệ thống (<unbreak>5201</unbreak>)",
  "1623261646": "Sự kiện chưa mở",
  "1623261645": "Vượt quá giới hạn số lần nhận thưởng",
  "1623261648": "Điểm Thí Luyện không đủ",
  "1623261647": "Đã nhận thưởng",
  "1267031446": "Người này vẫn chưa là bạn bè",
  "1267031439": "Đã thích",
  "1623261445": "Lỗi hệ thống (<unbreak>5801</unbreak>)",
  "1623261444": "Lỗi hệ thống (<unbreak>5802</unbreak>)",
  "1623261443": "Lỗi hệ thống (<unbreak>5803</unbreak>)",
  "1623261450": "Lỗi hệ thống (<unbreak>5804</unbreak>)",
  "1623261449": "Vật phẩm này đã tăng đến cấp tối đa",
  "1623261448": "Lỗi hệ thống (<unbreak>5806</unbreak>)",
  "1623261447": "Vật phẩm này không thể tiếp tục giảm cấp",
  "1623261454": "Lỗi hệ thống (<unbreak>5808</unbreak>)",
  "1623261453": "Lỗi hệ thống (<unbreak>5809</unbreak>)",
  "57177505": "Lỗi hệ thống (<unbreak>5810</unbreak>)",
  "57177504": "Sự kiện chưa mở",
  "57177503": "Lỗi hệ thống (<unbreak>5812</unbreak>)",
  "57177502": "Lỗi hệ thống (<unbreak>5813</unbreak>)",
  "57177509": "Lỗi hệ thống (<unbreak>5814</unbreak>)",
  "57177508": "Lỗi hệ thống (<unbreak>5815</unbreak>)",
  "57177507": "Lỗi hệ thống (<unbreak>5816</unbreak>)",
  "57177506": "Đã nhận toàn bộ thưởng Danh Vọng",
  "-1912190964": "Lỗi hệ thống (<unbreak>5851</unbreak>)",
  "-1912190965": "Lỗi hệ thống (<unbreak>5852</unbreak>)",
  "-1912190966": "Lỗi hệ thống (<unbreak>5853</unbreak>)",
  "-1912190959": "Lỗi hệ thống (<unbreak>5854</unbreak>)",
  "-1912190960": "Lỗi hệ thống (<unbreak>5855</unbreak>)",
  "-1912190961": "Lỗi hệ thống (<unbreak>5856</unbreak>)",
  "-1912190962": "Lỗi hệ thống (<unbreak>5857</unbreak>)",
  "-1912190955": "Lỗi hệ thống (<unbreak>5858</unbreak>)",
  "-1912190956": "Lỗi hệ thống (<unbreak>5859</unbreak>)",
  "816692392": "Lỗi hệ thống (<unbreak>5860</unbreak>)",
  "816692391": "Lỗi hệ thống (<unbreak>5861</unbreak>)",
  "816692390": "Lỗi hệ thống (<unbreak>5862</unbreak>)",
  "816692389": "Lỗi hệ thống (<unbreak>5863</unbreak>)",
  "816692396": "Lỗi hệ thống (<unbreak>5864</unbreak>)",
  "816692395": "Lỗi hệ thống (<unbreak>5865</unbreak>)",
  "-1264786449": "Dữ liệu người chơi bị lỗi",
  "301297492": "Client không phản hồi",
  "-458217395": "Xác minh tính năng không thành công",
  "1107866546": "Tính năng này tạm đóng",
  "746042362": "Русский",
  "1608850492": "Khởi tạo game thất bại, vui lòng khởi động lại rồi thử kết nối lại",
  "507567562": "Lỗi phân phối máy chủ, vui lòng kiểm tra kết nối mạng, sau đó khởi động lại rồi thử lại",
  "1183680304": "Đã hoàn thành phái đi ủy thác, hãy kiểm tra ngay.",
  "-1527203779": "Sức Mạnh Khai Phá đã hồi phục tất cả, hãy sử dụng ngay.",
  "-1105107601": "Đã hoàn thành phái đi ủy thác",
  "-492664622": "Sức Mạnh Khai Phá Đã Đầy Rồi!",
  "-314612542": "K",
  "-717897069": "0K",
  "848186872": "M",
  "-363821157": "ภาษาไทย",
  "-2136827345": "繁體中文",
  "1912906754": "Không gian lưu trữ không đủ, hãy xóa bớt rồi thử lại",
  "1025718490": "Bạn đang không sử dụng wifi, có muốn tiếp tục tải tài nguyên chứ?",
  "1301123177": "Xóa tài nguyên đã tải về máy thất bại, hãy thử khởi động lại game rồi xóa",
  "-2092908827": "Xóa tài nguyên đã tải về máy thành công, vui lòng khởi động lại game.",
  "-81114143": "Cập nhật thành công, game sẽ khởi động lại ngay bây giờ",
  "-259848768": "Đang áp dụng bản vá",
  "2082905966": "Đang kiểm tra cập nhật dữ liệu...{SPACE}",
  "1352780993": "Đang kiểm tra cập nhật phiên bản",
  "-253064026": "Đang tải tài nguyên...{SPACE}",
  "1349227356": "Lỗi tải tài nguyên, cần kiểm tra và tải lại tài nguyên",
  "-1480277831": "Kiểm tra tài nguyên thất bại, hãy xóa tài nguyên và tải lại hoặc cài lại gói game rồi thử lại",
  "719011705": "Tải tài nguyên thất bại, bạn có muốn thử tải lại?",
  "-1976536638": "Lỗi tài nguyên, vui lòng dùng tính năng \"Cập Nhật\" ở góc trên bên phải giao diện đăng nhập để kiểm tra và chỉnh sửa tài nguyên.",
  "1959735889": "Đang cài đặt tài nguyên...{SPACE}",
  "1128105648": "Đang tải các chỉ số...{SPACE}",
  "1896342672": "Đang xác minh tài nguyên cục bộ{SPACE}",
  "1476062893": "Đang xóa tệp tạm thời{SPACE}",
  "2059891064": "Bắt đầu áp dụng bản vá",
  "1228392776": "Bắt đầu xác minh tài nguyên cục bộ...{SPACE}",
  "-2093505287": "Bắt đầu xóa tệp tạm thời",
  "701492679": "Bắt đầu giải nén gói tài nguyên{SPACE}",
  "271414171": "Bắt đầu xác minh tài nguyên{SPACE}",
  "-1220166647": "Hoàn thành kiểm tra tài nguyên, nhấn để khởi động lại",
  "1427390957": "Hoàn thành kiểm tra tài nguyên, không tìm thấy lỗi",
  "-1861574693": "Đang giải nén gói tài nguyên{SPACE}",
  "477354111": "Đang xác minh tài nguyên{SPACE}",
  "-1734649926": "Chọn",
  "-1159186496": "Phiên bản test, không phải chất lượng cuối cùng",
  "-1513126819": "Trở Về",
  "-1024198625": "Vui lòng vào \"Trung Tâm Người Dùng - An Toàn Tài Khoản HoYoverse\" để thiết lập",
  "-714248207": "Chụp Ảnh Và Báo Cáo",
  "43235784": "Hủy",
  "657177150": "Xác Nhận",
  "2106114571": "Khởi Động Lại",
  "619467309": "Đến Khu Vực Cộng Đồng",
  "1439172572": "Tải tài nguyên thất bại, vui lòng thử lại sau",
  "299305438": "Buộc cập nhật tất cả tập tin đã tải về",
  "1863702846": "Bạn đồng ý kiểm tra lại tính hoàn chỉnh của tài nguyên đã tải?",
  "-1596856485": "Kiểm Tra Tài Nguyên",
  "296444951": "Không thể sử dụng WLAN hoặc dữ liệu di động, vui lòng kiểm tra lại cài đặt mạng",
  "-1026500224": "Nhắc Nhở Lỗi",
  "-82214061": "Game vào trạng thái chạy ngầm sẽ phát nhạc nền",
  "-966128796": "Lỗi đăng nhập bất thường, xin vui lòng thử lại sau. Mã lỗi: #1",
  "310545576": "本公司积极履行《网络游戏行业防沉迷自律公约》",
  "316852424": "Cập Nhật",
  "2146831397": "Thoát",
  "-1936148297": "Ngôn Ngữ",
  "1053410410": "Đăng Nhập",
  "137785819": "Đăng Xuất",
  "-695628513": "Thông Báo",
  "342122252": "Hãy chọn máy chủ",
  "-494723770": "Hoàn Tất Tải Tài Nguyên",
  "1814096353": "Nhấn Để Vào",
  "-94882978": "본 게임은 <unbreak>12</unbreak>세 이용가 게임물로 만 <unbreak>12</unbreak>세 미만의 어린이나 청소년이 이용하기 부적절합니다",
  "1234897861": "Đang tải tài nguyên...{SPACE}",
  "1347209599": "Quét Mã",
  "-1808034669": "1、本游戏是一款3D角色扮演类回合制游戏，适用于年满<unbreak>12</unbreak>周岁及以上的用户，建议未成年人在家长监护下使用游戏产品。\\n\\n2、本游戏基于架空背景展开剧情，用户可通过对话、交互、完成任务推进剧情，游戏内还可以自由探索场景地图。游戏中有需要使用游戏角色进行的人机对战，玩法基于一定难度的思考判断，鼓励玩家随机应变、制定策略来取得对战胜利。游戏中有少量自定义文字系统，该社交系统遵循相关法律法规进行管理。\\n\\n3、本游戏中有用户实名认证系统，认证为未成年的用户将受到以下游戏限制：\\n未满8周岁的用户不能充值；8周岁以上未满<unbreak>16</unbreak>周岁的未成年用户，单次充值金额不得超过<unbreak>50</unbreak>元人民币，每月充值金额累计不得超过<unbreak>200</unbreak>元人民币；<unbreak>16</unbreak>周岁以上的未成年用户，单次充值金额不得超过<unbreak>100</unbreak>元人民币，每月充值金额累计不得超过<unbreak>400</unbreak>元人民币。\\n游戏仅会在周五、周六、周日和法定节假日的<unbreak>20</unbreak>时至<unbreak>21</unbreak>时，向未成年人提供1小时游戏服务。\\n\\n4、游戏玩法鼓励玩家积极思考，制定和应用策略来取得对战的胜利。同时，在游戏中呈现了精美细腻的画面效果，能够为玩家提供优质的视觉体验。",
  "-1282310801": "1、本游戏是一款3D角色扮演类回合制游戏，适用于年满<unbreak>12</unbreak>周岁及以上的用户，建议未成年人在家长监护下使用游戏产品。\\n\\n2、本游戏基于架空背景展开剧情，用户可通过对话、交互、完成任务推进剧情，游戏内还可以自由探索场景地图。游戏中有需要使用游戏角色进行的人机对战，玩法基于一定难度的思考判断，鼓励玩家随机应变、制定策略来取得对战胜利。游戏中有少量自定义文字系统，该社交系统遵循相关法律法规进行管理。\\n\\n3、<unbreak>PlayStation™Network (\"PSN\")</unbreak>的中国大陆用户需要进行实名认证，认证为未成年人的用户无法在<unbreak>PlayStation™Store</unbreak>消费，包括且不限于游戏购买，订阅购买/升级/延长，以及游戏内商品购买内容和服务。\\n未成年人用户仅限于每周五、周六、周日的<unbreak>20</unbreak>时至<unbreak>21</unbreak>时登录及游玩。\\n\\n4、游戏玩法鼓励玩家积极思考，制定和应用策略来取得对战的胜利。同时，在游戏中呈现了精美细腻的画面效果，能够为玩家提供优质的视觉体验。",
  "1211532780": "适龄提示",
  "-584092019": "BẮT ĐẦU",
  "2004081699": "Đăng Nhập Gần Đây",
  "-828304337": "Danh Sách Server",
  "1770448309": "CSKH",
  "1064284207": "Nếu bạn gặp phải các vấn đề liên quan đến việc không thể đăng nhập game, vui lòng liên hệ với chúng tôi qua email CSKH để được hỗ trợ kịp thời.\\nEmail: hsrcs_vn@hoyoverse.com",
  "-472476664": "Email CSKH",
  "1377868803": "Tắt âm thanh khi cửa sổ không kích hoạt",
  "-488673265": "Kháng",
  "2085583028": "Xem Chi Tiết",
  "2106720550": "Đóng server, sẽ mở lại lúc #1.",
  "314524367": "Danh Sách Đen <unbreak>PlayStation™Network</unbreak>",
  "782329688": "Chỉ chơi cùng với người dùng <unbreak>PlayStation™Network</unbreak>",
  "-1612423078": "Bạn bè từ <unbreak>PlayStation™Network</unbreak>, danh sách bạn bè này chỉ dùng để xem nhanh",
  "-650647438": "Có thể thêm bạn bè thông qua <unbreak>PlayStation™Network</unbreak>",
  "863714791": "Chưa có bạn bè từ <unbreak>PlayStation™Network</unbreak>",
  "-1137848582": "Chưa vào game",
  "-2077891673": "Không thể sử dụng tính năng này vì lý do giới hạn nội dung",
  "-2119394949": "Lưu hình thất bại",
  "-216138017": "Nhiệm vụ hiện tại cần có gói hoàn chỉnh mới có thể chơi tiếp, xin hãy chờ game hoàn tất quá trình tải\\n(Đã tải <unbreak>#1[f1]%</unbreak>)",
  "1469469656": "Đã tải xong, để tiếp tục, vui lòng xác nhận và trở về màn hình đăng nhập.",
  "581389205": "Nhiệm vụ hiện tại cần có gói hoàn chỉnh mới có thể chơi tiếp, xin hãy chờ game hoàn tất quá trình tải",
  "-1825251286": "(Xin hãy chờ game hoàn tất quá trình tải)",
  "1051467476": "Nhắc Nhở",
  "374299751": "Quyền Lợi",
  "250912545": "Bạn có thể truy cập trang web chính thức của chúng tôi hoặc liên hệ với dịch vụ CSKH để hủy liên kết và xóa mọi thông tin liên quan đến tài khoản của bạn bất cứ lúc nào.\\nKhi bạn nhìn thấy bất kỳ thông tin hoặc phát ngôn không phù hợp, vui lòng báo cáo với chúng tôi bất kỳ lúc nào thông qua \"Phản Hồi Bug\" trong game.",
  "-1937952402": "Quyền Lợi Của Người Chơi",
  "250912557": "Bạn có thể truy cập trang web chính thức của chúng tôi hoặc liên hệ với dịch vụ CSKH để hủy liên kết và xóa mọi thông tin liên quan đến tài khoản của bạn bất cứ lúc nào.\\nKhi bạn nhìn thấy bất kỳ thông tin hoặc phát ngôn không phù hợp, vui lòng báo cáo với chúng tôi bất kỳ lúc nào thông qua hsrcs_psn@hoyoverse.com.",
  "630074059": "Tính năng đang bảo trì",
  "989248170": "Tải Trước Tài Nguyên",
  "-750517657": "Đang dự tính kích thước tài nguyên...",
  "-142421313": "Sau khi hoàn thành tải trước, có thể vào game nhanh hơn khi phiên bản mới được phát hành.\\nXác nhận tải trước tài nguyên phiên bản mới?",
  "-1870906904": "Đã hoàn tất tải trước",
  "1894204417": "Đang tải tài nguyên...{SPACE}",
  "-344983707": "Quay về giao diện chính sẽ <color=#f29e38ff>tạm dừng tải gói tài nguyên</color>, lần sau vào lại có thể tải tiếp, đồng ý về giao diện chính?",
  "1507264103": "Đang tải tài nguyên",
  "-1170157658": "Nhà Khai Phá thân mến! Hiện tại đã tải xong tài nguyên trải nghiệm, vui lòng tải toàn bộ tài nguyên để tiếp tục chuyến hành trình đầy lý thú này nhé! Trong quá trình tải và cập nhật tài nguyên sẽ không thể chơi game.\\nCó hỗ trợ tải chương trình chạy ngầm, sau khi tải xong sẽ có tin thông báo từ hệ thống.",
  "39175154": "Nhà Khai Phá thân mến, hãy tải tài nguyên hoàn chỉnh để có thể trải nghiệm hành trình.\\nHỗ trợ tải ngầm, sau khi tải xong sẽ có thông báo hệ thống.",
  "-1261593137": "Tải Tài Nguyên Hoàn Tất",
  "519445645": "Kích thước tài nguyên:{SPACE}",
  "1822513095": "Đã chuyển sang dữ liệu di động, bạn có chắc muốn tiếp tục tải về?",
  "-521799574": "Nhắc Nhở Tải",
  "1364852514": "Lỗi hệ thống (#1)",
  "951352232": "Trở Về",
  "-2027882201": "Kéo trỏ chuột để đọc",
  "-1063251765": "Tải Hoàn Tất",
  "-539780618": "Đang tải tài nguyên...{SPACE}",
  "-1194070923": "Tốc độ tải:{SPACE}",
  "1101186259": ", còn:{SPACE}",
  "158747613": "Chỉ số của client hoặc phiên bản tài nguyên hiện tại không đồng nhất với phiên bản server, hãy liên hệ với nhân viên hỗ trợ.",
  "-2002758923": "Đã chọn máy chủ tốt nhất cho bạn\\nBạn đồng ý chuyển đến máy chủ \\n#1?\\n\\nChú ý: Dữ liệu nhân vật của các máy chủ không liên thông với nhau",
  "-2025942164": "Thay đổi dạng hiển thị sẽ có hiệu lực khi khởi động lại game",
  "-1721157021": "Dạng Thường",
  "-1712056345": "Dạng Tương Thích",
  "-1604595962": "Thiết Lập Hiển Thị",
  "778308962": "Phạm Vi Động",
  "2089768880": "Tự Động",
  "1301793381": "Tai Nghe",
  "-1100339724": "Mặc Định",
  "812122310": "Điều Chỉnh Độ Sáng",
  "-1773639219": "Đóng",
  "-605891328": "Mở thông báo hệ thống để nhận thông báo đẩy",
  "-628496434": "Trung Tâm Người Dùng",
  "-1036797452": "Khử Răng Cưa",
  "1571467294": "Chất Lượng Nhân Vật",
  "2121425095": "Hiệu Ứng Tỏa Sáng",
  "-1790528414": "Quản lý tùy chọn chia sẻ quảng cáo",
  "-1028540803": "Độ Phân Giải",
  "1322368159": "Đã hoàn thành phái đi ủy thác",
  "-495583877": "FPS",
  "532924288": "Chất Lượng Hình Ảnh",
  "-358081377": "Chất Lượng Ánh Sáng",
  "-1635836839": "Âm Lượng Nhạc",
  "-964786894": "Chính Sách Về Quyền Riêng Tư",
  "-2146107594": "Chất Lượng Phản Chiếu",
  "-324016192": "Chất Lượng Hiệu Ứng",
  "-1576424918": "Chi Tiết Cảnh Vật",
  "417386691": "Chất Lượng Bóng Đổ",
  "397299267": "Âm Lượng Hiệu Ứng",
  "1975808096": "Hồi Đầy Sức Mạnh Khai Phá",
  "-1839757053": "Ngôn Ngữ Văn Bản",
  "23538652": "Âm Lượng Chung",
  "-1085323529": "Điều Khoản Dịch Vụ",
  "-370309163": "Đồng Bộ Dọc",
  "1144050928": "Ngôn Ngữ Lồng Tiếng",
  "1906999544": "Âm Lượng Lồng Tiếng",
  "-1166267866": "Nhấn để chuyển tiếp",
  "-539037458": "#1 x#2",
  "-1379977021": "Kiểm Tra Độ Sáng Tối Đa Màn Hình HDR",
  "-1340173514": "Đặt Lại",
  "-1394624238": "Quay Lại",
  "1927252486": "Sau khi vào game, có thể điều chỉnh trong \"Thiết Lập - Hình Ảnh\"",
  "-801630869": "Điều chỉnh hoa văn ở giữa sao cho có thể nhìn thấy được",
  "-784871167": "Sáng",
  "-462760445": "Tối",
  "-985988607": "Tải trọng của thiết bị hiện tại quá cao, có thể sẽ dẫn đến nóng máy và bị đứng máy khi chơi game.",
  "1249857882": "<unbreak>120</unbreak>",
  "-478651376": "<unbreak>30</unbreak>",
  "1209683745": "<unbreak>60</unbreak>",
  "-953688934": "Tắt",
  "-1328219103": "Tùy chỉnh",
  "-848478178": "FXAA",
  "841606793": "#1x#2 Toàn Màn Hình",
  "-1144097826": "Cao",
  "17481744": "Thấp",
  "994881107": "Vừa",
  "1080743946": "Mở",
  "1240890064": "TAA",
  "996001262": "Rất Cao",
  "-2028362208": "Rất Thấp",
  "-59544482": "MetalFX",
  "554533651": "Mở",
  "-1934528832": "Thiết Lập",
  "-663055993": "Độ Chính Xác Kết Xuất",
  "1414319684": "Tài Khoản",
  "-458466366": "Hình Ảnh",
  "-1723423623": "Ngôn Ngữ",
  "-1543303433": "Tin Nhắn",
  "1026638059": "Âm Thanh",
  "1933636533": "Thiết Lập Tài Khoản",
  "-132770945": "Thiết Lập Đồ Họa",
  "-1456349696": "Thiết Lập Ngôn Ngữ",
  "1110226542": "Thiết Lập Thông Báo Đẩy",
  "450754340": "Thiết Lập Âm Thanh",
  "-968657836": "Cân Bằng Âm Lượng",
  "-317856315": "健康游戏忠告",
  "2141265850": "抵制不良游戏，拒绝盗版游戏。注意自我保护，谨防受骗上当。适度游戏益脑，沉迷游戏伤身。合理安排时间，享受健康生活。",
  "-1249895293": "Có một số ít người bị động kinh đột ngột khi xem một số hình ảnh trực quan, bao gồm đèn flash hoặc đồ họa xuất hiện trong các trò chơi điện tử. Khi chơi trò chơi điện tử, những người này có thể có triệu chứng động kinh. Ngay cả những người không có tiền sử động kinh cũng có thể gặp các triệu chứng giống như động kinh khi chơi trò chơi điện tử. Nếu bạn hoặc gia đình bạn có tiền sử bệnh động kinh, vui lòng tham khảo ý kiến bác sĩ trước khi chơi trò chơi. Nếu bạn gặp các triệu chứng dưới đây khi chơi trò chơi, bao gồm đau mắt, bất thường về thị giác, đau nửa đầu, chuột rút hoặc bất tỉnh (như hôn mê), vui lòng dừng trò chơi ngay lập tức và tham khảo ý kiến bác sĩ trước khi chơi lại trò chơi này.",
  "-740499222": "Cảnh báo: Xem kỹ trước khi chơi trò chơi",
  "-1363477176": "{LAYOUT_MOBILE#审批文号：国新出审[<unbreak>2023</unbreak>]<unbreak>16</unbreak>号 ISBN <unbreak>978</unbreak>-7-<unbreak>498</unbreak>-<unbreak>10006</unbreak>-1 出版单位：上海声像电子出版社\\n著作权人：上海米哈游海渊城科技有限公司}{LAYOUT_CONTROLLER#审批文号：国新出审[<unbreak>2023</unbreak>]<unbreak>16</unbreak>号 ISBN <unbreak>978</unbreak>-7-<unbreak>498</unbreak>-<unbreak>10006</unbreak>-1 出版单位：上海声像电子出版社\\n著作权人：上海米哈游海渊城科技有限公司}{LAYOUT_KEYBOARD#审批文号：国新出审[<unbreak>2023</unbreak>]<unbreak>16</unbreak>号 ISBN <unbreak>978</unbreak>-7-<unbreak>498</unbreak>-<unbreak>10006</unbreak>-1 出版单位：上海声像电子出版社\\n著作权人：上海米哈游海渊城科技有限公司}{LAYOUT_CONTROLLER_PS#著作权人：上海米哈游海渊城科技有限公司}",
  "1714821062": "Tư cách test đã quá hạn",
  "27517590": "Tính năng tạm đóng, xin theo dõi thông báo của game để biết thêm chi tiết",
  "430802117": "Phần thưởng lỗi bất thường, không thể nhận, xin theo dõi thông báo của game để biết thêm chi tiết",
  "1655744409": "Đang sử dụng",
  "-13012819": "Xóa",
  "-209117183": "Quản Lý Tài Nguyên Lồng Tiếng",
  "-601256312": "Quản Lý Tài Nguyên Lồng Tiếng",
  "-65896461": "Bạn xác nhận xóa #1 chứ?",
  "-1967373540": "Nhắc Nhở Xóa",
  "1986863792": "Tải",
  "2079876877": "Hủy Tải",
  "-1191067045": "Gói lồng tiếng đã được tải xong, bạn muốn sử dụng #1 chứ?",
  "-1532151295": "Hoàn tất tải tài nguyên",
  "-1040668088": "Đang tải tài nguyên...{SPACE}",
  "971030287": "Tải Tài Nguyên",
  "-1617346749": "Gói mở rộng lồng tiếng hiện tại vẫn chưa tải xong, bạn muốn tải #1 chứ?",
  "-1943128427": "Kích thước tài nguyên:{SPACE}",
  "-1681198979": "Lựa chọn lồng tiếng không khả dụng",
  "-368945552": "Tiếng Việt"
}