{
  "-1835491474": "การเชื่อมต่อเครือข่ายล้มเหลว โปรดตรวจสอบเครือข่าย...",
  "893391881": "หมดเวลาเชื่อมต่อเครือข่าย โปรดตรวจสอบเครือข่าย...",
  "-672692060": "เกิดข้อผิดพลาดในการดาวน์โหลด โปรดลองใหม่อีกครั้งในภายหลัง...",
  "1575214836": "ขออภัย คุณยังไม่ได้รับสิทธิ์ในส่วนนี้",
  "-539900375": "ยืนยัน",
  "-268532022": "ออกจากเกม",
  "628734941": "ไคลเอนต์ที่คุณติดตั้งไม่ใช่เวอร์ชันล่าสุด โปรดถอนการติดตั้งและติดตั้งใหม่ หรือติดต่อฝ่ายบริการลูกค้า",
  "875924975": "ภาษาจีน",
  "633642276": "简体中文",
  "-1281611725": "แจ้งเตือน",
  "776664556": "ยืนยัน",
  "-1344836126": "ยกเลิก",
  "-66948286": "ต่อไป",
  "753711393": "ไม่",
  "-193842297": "ใช่",
  "-1112638896": "ถูกตัดการเชื่อมต่อกับเซิร์ฟเวอร์ โปรดเข้าสู่ระบบใหม่อีกครั้ง",
  "-374251478": "ภาษาอังกฤษ",
  "1782768777": "English",
  "-755645786": "Español",
  "983886567": "Français",
  "213298305": "Deutsch",
  "-1628012770": "เกิดข้อผิดพลาดในการกระจายข้อมูลทั่วโลก โปรดตรวจสอบการเชื่อมต่อเครือข่าย จากนั้นรีสตาร์ตใหม่ แล้วลองเชื่อมต่อดูอีกครั้ง",
  "1027467793": "การดาวน์โหลดทรัพยากรแก้ไขด่วนล้มเหลว โปรดตรวจสอบการเชื่อมต่อเครือข่าย จากนั้นรีสตาร์ตใหม่ แล้วลองเชื่อมต่อดูอีกครั้ง",
  "-2007616050": "อัปเดตทรัพยากรเสร็จสมบูรณ์ โปรดรีสตาร์ตเพื่อเข้าสู่เกม",
  "1967160651": "ข้อมูลการแก้ไขด่วนล้มเหลว โปรดตรวจสอบการเชื่อมต่อเครือข่าย จากนั้นรีสตาร์ตใหม่ แล้วลองเชื่อมต่อดูอีกครั้ง",
  "-1532802051": "การอัปเดตไฟล์ข้อมูลล้มเหลว โปรดตรวจสอบการเชื่อมต่อเครือข่าย จากนั้นรีสตาร์ตใหม่ แล้วลองเชื่อมต่อดูอีกครั้ง",
  "-488115304": "เกมอัปเดตแล้ว และจะรีสตาร์ตใหม่อีกครั้ง",
  "12093101": "Bahasa Indonesia",
  "-1391003685": "ภาษาญี่ปุ่น",
  "317185992": "日本語",
  "-1597323374": "ภาษาเกาหลี",
  "-595256385": "한국어",
  "-1502079221": "การลบทรัพยากรล้มเหลว โปรดรีสตาร์ตเกมอีกครั้ง",
  "-1502079222": "ลบทรัพยากรสำเร็จแล้ว โปรดรีสตาร์ตเกมอีกครั้ง",
  "-1906570110": "ผูกบัญชี",
  "-1360809191": "เนื่องจากรหัสผ่านบัญชีมีการเปลี่ยนแปลง จึงถูกบังคับให้ออกจากระบบ",
  "-1990965415": "บัญชีนี้ออฟไลน์แล้ว",
  "4301758": "Português",
  "1251875567": "Honkai: Star Rail",
  "-101987035": "ได้รับข้อมูลเรียบร้อยแล้ว",
  "1464096906": "การรับข้อมูลล้มเหลว",
  "-1854797350": "ดำเนินการถี่เกินไป โปรดลองใหม่อีกครั้งในภายหลัง",
  "1058611706": "เข้าสู่ระบบใหม่โดยอัตโนมัติ",
  "1058611705": "เตรียมเข้าสู่ระบบใหม่อีกครั้ง",
  "1058611704": "กำลังเข้าสู่ระบบ โปรดรอสักครู่",
  "1058611703": "ไม่สามารถล็อกอินเข้าสู่บัญชีของคุณได้",
  "1058611710": "ไม่สามารถล็อกอินเข้าสู่บัญชีของคุณได้",
  "1058611709": "การยืนยันบัญชีเกิดข้อผิดพลาด",
  "1058611708": "ข้อมูลบัญชีผิดพลาด",
  "1058611707": "ห้ามเข้าสู่ระบบเพื่อป้องกันการติดเกม",
  "1058611698": "การตรวจสอบล้มเหลว (<unbreak>1008</unbreak>)",
  "1058611697": "จำนวนผู้ใช้งานในเซิร์ฟเวอร์ปัจจุบันมีมากเกินไป โปรดลองใหม่อีกครั้งในภายหลัง",
  "-507472235": "ผู้บุกเบิกได้ยืนยันชื่อและเพศแล้ว",
  "-507472236": "การเลือกเพศเกิดข้อผิดพลาด (<unbreak>1011</unbreak>)",
  "-507472237": "กำลังดึงข้อมูลผู้เล่น",
  "-507472238": "บัญชีนี้อยู่ในสถานะถูกระงับการใช้งาน ไม่สามารถล็อกอินได้ชั่วคราว สำหรับรายละเอียดเพิ่มเติม โปรดติดต่อฝ่ายบริการลูกค้า",
  "-1854797351": "ระบบไม่ว่าง",
  "1058611737": "รับรางวัลภารกิจแล้ว",
  "1058611738": "การรับภารกิจล้มเหลว",
  "1058611735": "ไม่สามารถทำภารกิจให้สำเร็จได้",
  "1058611736": "การรับสถานะภารกิจเกิดข้อผิดพลาด",
  "1058611741": "เลเวลความสำเร็จยังไม่ถึงตามที่กำหนด",
  "1058611742": "รับรางวัลไปแล้ว",
  "1058611640": "ไม่มีข้อมูลตัวละครนี้อยู่",
  "1058611639": "เกิดข้อผิดพลาดไม่ทราบสาเหตุ (<unbreak>1201</unbreak>)",
  "1058611642": "EXP ถึงขีดจำกัดสูงสุดแล้ว โปรดเลื่อนขั้นตัวละคร",
  "1058611641": "เลื่อนขั้นถึงระดับสูงสุด",
  "1058611644": "เกิดข้อผิดพลาดในการรับการตั้งค่า Trace",
  "1058611643": "ปลอดล็อก Trace แล้ว",
  "1058611646": "เปิดใช้งาน \"Trace\" ก่อนหน้านี้",
  "1058611645": "เลเวลตัวละครต่ำเกินไป",
  "1058611632": "ต้องเลื่อนขั้นตัวละคร",
  "1058611631": "ตัวละครไม่ได้สวมใส่ Light Cone",
  "-507472301": "ไม่พบไอเทม EXP",
  "-507472302": "Trace นี้ยังไม่ปลดล็อก",
  "-507472299": "Trace ยังไม่ถึงเลเวลที่กำหนด",
  "-507472300": "Trace ถึงเลเวลสูงสุดแล้ว",
  "-507472297": "ยังไม่ถึงระดับความสมดุลที่ระบุ",
  "-507472298": "ยังไม่ถึงเลเวลบุกเบิกที่ระบุ",
  "-507472295": "ไม่มี Eidolon อยู่",
  "-507472296": "Eidolon ถึงค่าสูงสุดแล้ว",
  "-507472309": "การรับ Path ในปัจจุบันของตัวละครหลักล้มเหลว (<unbreak>1218</unbreak>)",
  "-507472310": "ระบบเกิดข้อผิดพลาด (<unbreak>1219</unbreak>)",
  "-2073556242": "ระบบเกิดข้อผิดพลาด (<unbreak>1220</unbreak>)",
  "-2073556243": "รับรางวัลการเลื่อนขั้นแล้ว",
  "1058611671": "ไม่มีไอเทมนี้อยู่",
  "1058611672": "จำนวนไอเทมไม่พอ",
  "1058611673": "ไม่สามารถใช้ไอเทมเพิ่มได้",
  "1058611674": "เกิดข้อผิดพลาดไม่ทราบสาเหตุ (<unbreak>1303</unbreak>)",
  "1058611675": "ไอเทมในช่องเก็บของไม่เพียงพอ",
  "1058611676": "ไม่มีไอเทมนี้อยู่",
  "1058611677": "รับการตั้งค่าไอเทมล้มเหลว",
  "1058611678": "เครดิตไม่เพียงพอ",
  "1058611663": "ไอเทมบางส่วนในช่องเก็บของถึงขีดจำกัดสูงสุดแล้ว โปรดจัดการช่องเก็บของก่อน",
  "1058611664": "การรับชนิดไอเทมล้มเหลว ไม่สามารถใช้ไอเทมได้",
  "-507472270": "การรับข้อมูลการใช้ไอเทมล้มเหลว",
  "-507472269": "การรับรางวัลล้มเหลว",
  "-507472268": "<color=#f29e38ff>#1</color> ในช่องเก็บของถึงขีดจำกัดสูงสุดแล้ว โปรดจัดการช่องเก็บของก่อน",
  "-507472267": "ข้อมูลไอเทมผิดพลาด",
  "-507472266": "ข้อมูลไอเทมผิดพลาด",
  "-507472265": "ได้รับการรักษาถึงจำนวนสูงสุดแล้ว",
  "-507472264": "ไม่สามารถรับสูตรของวัสดุได้",
  "-507472263": "ไม่สามารถรับสูตรการผสานรีลิกส์ได้",
  "-507472278": "ไม่สามารถขายไอเทมนี้ได้",
  "-507472277": "สินค้าที่ขายเกินขีดจำกัดสูงสุดแล้ว",
  "-2073556211": "การรับสูตรล้มเหลว",
  "-2073556210": "วัสดุไม่เพียงพอ",
  "-2073556209": "การเลือกวัสดุเกิดข้อผิดพลาด",
  "-2073556208": "การรับสูตรล้มเหลว",
  "-2073556207": "การรับข้อมูลแพ็กของขวัญล้มเหลว",
  "-2073556206": "โปรดเลือกรีลิกส์ที่ต้องการผสาน",
  "-2073556205": "ระบบเกิดข้อผิดพลาด (<unbreak>1326</unbreak>)",
  "-2073556204": "การรับข้อมูลสูตรล้มเหลว (<unbreak>1327</unbreak>)",
  "-2073556219": "การรับข้อมูลรีลิกส์ล้มเหลว (<unbreak>1328</unbreak>)",
  "-2073556218": "จำนวนรีลิกส์ที่จะผสานเกิดข้อผิดพลาด (<unbreak>1329</unbreak>)",
  "655327144": "ระบบเกิดข้อผิดพลาด (<unbreak>1330</unbreak>)",
  "655327145": "จำนวนวันที่มีผลสะสมถึงขีดจำกัดสูงสุดแล้ว",
  "655327146": "ไอเทมบางส่วนถึงขีดจำกัดสูงสุดแล้ว จึงไม่สามารถรับได้",
  "655327147": "ระบบเกิดข้อผิดพลาด (<unbreak>1333</unbreak>)",
  "655327148": "ระบบเกิดข้อผิดพลาด (<unbreak>1334</unbreak>)",
  "655327149": "ไอเทมนี้ไม่สามารถทำลายได้",
  "655327151": "รายการโปรดถึงขีดจำกัดสูงสุดแล้ว",
  "655327137": "ยังไม่ได้ตั้งค่าวัสดุพกพา",
  "-1266987157": "ตั้งค่าวัสดุพกพาแล้ว",
  "-1266987156": "ไม่สามารถตั้งค่าวัสดุใช้งานประเภทนี้ได้",
  "-1266987153": "จำนวนที่จะแลกเปลี่ยนมากเกินไป โปรดลดจำนวนลง แล้วลองใหม่อีกครั้ง",
  "1461896198": "สวมใส่ Light Cone แล้ว",
  "1461896199": "ไม่พบ Light Cone เป้าหมาย",
  "1461896200": "เลเวลของอุปกรณ์ถึงขีดจำกัดสูงสุดแล้ว",
  "1461896201": "ไม่สามารถใช้สิ่งนี้เป็นวัสดุได้",
  "1461896202": "Light Cone ถูกล็อกแล้ว",
  "1461896203": "ปลดล็อก Light Cone แล้ว",
  "1461896204": "Light Cone ถูกล็อกแล้ว",
  "1461896205": "ไม่สามารถใช้ไอเทมมากเกินไปได้",
  "1461896190": "การวางซ้อน Light Cone จะต้องใช้ Light Cone แบบเดียวกัน",
  "1461896191": "เลื่อนขั้นถึงเลเวลสูงสุดแล้ว",
  "-104187743": "ถึงเลเวลสูงสุดของการวางซ้อนแล้ว",
  "-104187742": "ถึงเลเวลสูงสุดแล้ว",
  "-104187741": "<color=#f29e38ff>Light Cone</color> ในช่องเก็บของถึงขีดจำกัดสูงสุดแล้ว โปรดจัดการช่องเก็บของก่อน",
  "-104187740": "ไม่มีรีลิกส์อยู่",
  "-104187739": "รีลิกส์ถึงเลเวลสูงสุดแล้ว",
  "-104187738": "ไม่สามารถใช้รีลิกส์ชิ้นนี้เสริมพลังได้",
  "-104187737": "สวมใส่รีลิกส์แล้ว",
  "-104187736": "ล็อกรีลิกส์แล้ว",
  "-104187751": "ล็อกรีลิกส์แล้ว",
  "-104187750": "ปลดล็อกรีลิกส์แล้ว",
  "-1670271684": "เลเวลรีลิกส์ไม่สามารถเป็น 0 ได้",
  "-1670271683": "ข้อมูลรีลิกส์ซ้ำ",
  "-1670271682": "เลเวล Light Cone ไม่เพียงพอ",
  "-1670271681": "วัสดุวางซ้อน Light Cone เกิดข้อผิดพลาด",
  "-1670271680": "ระบบเกิดข้อผิดพลาด (<unbreak>1374</unbreak>)",
  "-1670271679": "ระบบเกิดข้อผิดพลาด (<unbreak>1375</unbreak>)",
  "-1670271678": "<color=#f29e38ff>รีลิกส์</color>ในช่องเก็บของถึงขีดจำกัดสูงสุดแล้ว โปรดจัดการช่องเก็บของก่อน",
  "-1670271691": "ดำเนินการถี่เกินไป โปรดลองใหม่ในภายหลัง",
  "1058611838": "หมายเลขทีมผิดพลาด",
  "1058611837": "ตำแหน่งทีมผิดพลาด",
  "1058611836": "เปลี่ยนตำแหน่งสมาชิกทีม",
  "1058611835": "สมาชิกอยู่ในทีมแล้ว",
  "1058611834": "ข้อมูลทีมที่ใช้งานอยู่ล้มเหลว",
  "1058611833": "การเริ่มต้นตัวละครล้มเหลว (<unbreak>1405</unbreak>)",
  "1058611832": "ไม่มีทีมนี้อยู่",
  "1058611831": "สมาชิกในทีมต้องไม่น้อยกว่า 1 คน",
  "1058611830": "เกิดข้อผิดพลาดไม่ทราบสาเหตุ (<unbreak>1408</unbreak>)",
  "1058611829": "ในทีมต้องมีตัวละครที่สามารถใช้งานได้อย่างน้อย 1 ตัว",
  "-507472103": "ข้อมูลทีมเกิดข้อผิดพลาด (<unbreak>1410</unbreak>)",
  "-507472104": "ไม่มีสมาชิกทีมอยู่",
  "-507472105": "ตัวละครทดลองใช้ไม่สามารถออกจากทีมได้",
  "-507472106": "ข้อมูลฉากของตัวละครที่ทดลองใช้ไม่ตรงกัน",
  "-507472107": "เกิดข้อผิดพลาดไม่ทราบสาเหตุ (<unbreak>1414</unbreak>)",
  "-507472108": "เปลี่ยนทีมซ้ำกัน",
  "-507472109": "ไม่มีสมาชิกอยู่ในทีม",
  "-507472110": "รูปแบบชื่อทีมผิดพลาด",
  "-507472111": "ประเภทของทีมไม่ตรงกัน",
  "-507472112": "การแก้ไขรูปแบบทีมล้มเหลว (<unbreak>1419</unbreak>)",
  "-2073556044": "ไม่สามารถแก้ไขทีมปัจจุบันได้",
  "-2073556045": "ข้อผิดพลาด #0X<unbreak>001421</unbreak>: ตัวละครฟื้นแล้ว",
  "-2073556046": "ทีมไม่สามารถเว้นว่างได้",
  "-2073556047": "มีตัวละครสนับสนุนอยู่แล้วในทีม",
  "-2073556048": "ไม่สามารถนำตัวละครนี้เข้าสู่ทีมได้",
  "-2073556049": "ข้อความที่คุณกรอกมีตัวอักษรที่ไม่ถูกต้องอยู่",
  "-2073556050": "ตัวละครถูกล็อกแล้ว",
  "1058611803": "ไม่มีจดหมายอยู่",
  "1058611804": "การรับจดหมายล้มเหลว",
  "1058611805": "ID จดหมายไม่ถูกต้อง",
  "1058611806": "ไม่มีจดหมายให้กดรับได้",
  "1058611799": "ไม่มีจดหมายที่ต้องลบ",
  "1058611800": "ประเภทจดหมายมีข้อผิดพลาด (<unbreak>1705</unbreak>)",
  "1058611801": "พารามิเตอร์จดหมายมีข้อผิดพลาด (<unbreak>1706</unbreak>)",
  "1058611802": "พารามิเตอร์จดหมายมีข้อผิดพลาด (<unbreak>1707</unbreak>)",
  "1058611795": "พารามิเตอร์จดหมายมีข้อผิดพลาด (<unbreak>1708</unbreak>)",
  "1058611796": "พารามิเตอร์จดหมายมีข้อผิดพลาด (<unbreak>1709</unbreak>)",
  "1058611442": "การสรุปผลของด่านเกิดข้อผิดพลาด",
  "1058611441": "ไม่มีการตั้งค่าด่านอยู่",
  "1058611440": "ไม่พบข้อมูลด่านที่เกี่ยวข้อง",
  "1058611446": "ไม่มีข้อมูลเกี่ยวกับ Calyx อยู่",
  "1058611445": "การรับ Wave ต่อสู้ของ Calyx ล้มเหลว",
  "1058611444": "ID สิ่งที่โต้ตอบผิดปกติ",
  "1058611443": "Wave ที่สร้างขึ้นไม่ตรงกับหมายเลขที่เลือก",
  "1058611450": "จำนวนการใช้งานหมดแล้ว",
  "1058611449": "เวลาเริ่มต้นเกิดข้อผิดพลาด (<unbreak>1809</unbreak>)",
  "-507472499": "ฟังก์ชันยังไม่เปิด",
  "-507472500": "ยังไม่เปิดด่านจำกัดเวลา",
  "-507472501": "ประเภทของ Calyx ผิดพลาด",
  "1058611473": "เกิดข้อผิดพลาดไม่ทราบสาเหตุ (<unbreak>1900</unbreak>)",
  "1058611474": "เกิดข้อผิดพลาดไม่ทราบสาเหตุ (<unbreak>1901</unbreak>)",
  "1058611471": "เกิดข้อผิดพลาดไม่ทราบสาเหตุ (<unbreak>1902</unbreak>)",
  "1058611472": "เกิดข้อผิดพลาดไม่ทราบสาเหตุ (<unbreak>1903</unbreak>)",
  "1060812379": "ข้อผิดพลาดในการโต้ตอบกับเซิร์ฟเวอร์",
  "2080248619": "ข้อมูลด่านผิดพลาด (<unbreak>2000</unbreak>)",
  "2080248618": "อยู่ในการต่อสู้แล้ว",
  "2080248617": "การตรวจสอบด่านล้มเหลว (<unbreak>2002</unbreak>)",
  "2080248616": "การต่อสู้ล้มเหลว",
  "2080248623": "ไม่สามารถรับรายชื่อทีมได้",
  "2080248622": "ไม่สามารถรับตัวละครในทีมได้",
  "2080248621": "การซิงค์การต่อสู้ล้มเหลว โปรดรีสตาร์ทเกมแล้วลองดูอีกครั้ง",
  "2080248620": "ออกจากการต่อสู้เนื่องจากข้อมูลเกิดข้อผิดพลาด (<unbreak>2007</unbreak>)",
  "2080248611": "กำลังตรวจสอบ โปรดรอสักครู่...",
  "2080248610": "เกิดข้อผิดพลาดไม่ทราบสาเหตุ",
  "-648634736": "การตรวจสอบเกิดข้อผิดพลาด (<unbreak>2010</unbreak>)",
  "2080248650": "ไม่สามารถแลกพลังบุกเบิกเพิ่มเติมได้",
  "2080248651": "พลังบุกเบิกไม่เพียงพอ",
  "2080248648": "มีพลังบุกเบิกมากเกินไป ไม่สามารถแลกได้!",
  "2080248649": "เกิดข้อผิดพลาดไม่ทราบสาเหตุ (<unbreak>2103</unbreak>)",
  "2080248654": "เกิดข้อผิดพลาดไม่ทราบสาเหตุ (<unbreak>2104</unbreak>)",
  "2080248655": "ข้อความที่คุณกรอกมีตัวอักษรที่ไม่ถูกต้องอยู่",
  "2080248652": "ชื่อมีสัญลักษณ์หรือคำที่ล่อแหลม",
  "2080248653": "รับรางวัลเลเวลแล้ว",
  "2080248642": "การรับรางวัลเลเวลผิดพลาด",
  "2080248643": "ไม่รองรับชนิดของภาษา",
  "-648634705": "ไม่สามารถเปลี่ยนชื่อได้ชั่วคราว โปรดลองอีกครั้งในภายหลัง",
  "-648634704": "รูปแบบวันที่และเวลาเกิดข้อผิดพลาด",
  "-648634707": "ตั้งค่าวันเกิดซ้ำ",
  "-648634706": "ข้อความที่คุณกรอกมีตัวอักษรที่ไม่ถูกต้องอยู่",
  "-648634701": "ต้องประกอบด้วยตัวอักษรและตัวเลขไม่เกิน 6 ตัว",
  "-648634700": "ขณะนี้ระบบไม่ว่าง โปรดลองใหม่อีกครั้งในภายหลังหรือติดต่อฝ่ายบริการลูกค้า",
  "2080248553": "Fragmentum ยังไม่เสร็จสิ้น",
  "2080248552": "เกิดข้อผิดพลาดไม่ทราบสาเหตุ (<unbreak>2201</unbreak>)",
  "2080248555": "ไม่ตรงตามเงื่อนไขการปลดล็อกพื้นที่นี้",
  "2080248554": "เกิดข้อผิดพลาดไม่ทราบสาเหตุ (<unbreak>2203</unbreak>)",
  "2080248557": "ยังไม่ได้เลือกเอฟเฟกต์ Buff",
  "2080248556": "ไม่สามารถกำหนดตำแหน่งของพื้นที่นี้ได้",
  "2080248559": "ด่าน Fragmentum ไม่ตรงกัน",
  "2080248558": "ไม่มีการตั้งค่าแผนที่",
  "2080248545": "ไม่มี Fragmentum ชนิดนี้อยู่ โปรดตรวจสอบการตั้งค่า",
  "2080248544": "Fragmentum เสร็จสิ้นแล้ว",
  "-648634802": "การตั้งค่า Fragmentum ผิดพลาด (<unbreak>2210</unbreak>)",
  "-648634803": "การรับตำแหน่ง Fragmentum ผิดพลาด (<unbreak>2211</unbreak>)",
  "-648634800": "ไม่สามารถใช้เทคนิคได้",
  "-648634801": "แต้มเทคนิคไม่พอ",
  "-648634798": "ยังไม่เปิดใช้งาน",
  "-648634799": "Space Anchor อยู่ระหว่างคูลดาวน์",
  "-648634796": "ไกลเกินไป",
  "-648634797": "ไม่สามารถกำหนดตำแหน่ง Fragmentum ได้",
  "-648634810": "การรับตำแหน่งพื้นที่เกิดข้อผิดพลาด (<unbreak>2218</unbreak>)",
  "-648634811": "ไม่สามารถกำหนดตำแหน่ง Fragmentum ได้ (<unbreak>2219</unbreak>)",
  "917449139": "ไม่สามารถกำหนดตำแหน่ง Fragmentum ได้ (<unbreak>2220</unbreak>)",
  "917449138": "จำนวนการใช้งานไม่เพียงพอ (<unbreak>2221</unbreak>)",
  "917449141": "การตั้งค่าเวลาบนแผนที่เสร็จสมบูรณ์แล้ว",
  "917449140": "เกิดข้อผิดพลาดการตั้งค่าเวลาบนแผนที่ (<unbreak>2223</unbreak>)",
  "917449143": "เนื้อเรื่องปัจจุบันไม่สามารถเทเลพอร์ตได้",
  "2080248584": "ยังไม่ได้ปลดล็อกเนื้อเรื่อง",
  "2080248751": "ไม่สามารถรับข้อมูลภารกิจได้",
  "2080248750": "ภารกิจสำเร็จแล้ว",
  "2080248749": "ภารกิจประจำวันยังไม่เสร็จสิ้น",
  "2080248748": "รับรางวัลภารกิจประจำวันแล้ว",
  "2080248747": "ภารกิจผจญภัยยังไม่เสร็จสิ้น",
  "2080248746": "ภารกิจไม่อยู่ระหว่างดำเนินการ",
  "2080248745": "ประเภทของภารกิจที่เสร็จสิ้นเกิดข้อผิดพลาด",
  "2080248744": "ฉากของภารกิจไม่ตรงกัน",
  "2080248743": "ข้อมูลเกิดข้อผิดพลาด (<unbreak>2408</unbreak>)",
  "2080248742": "ภารกิจไม่ตรงกัน (<unbreak>2409</unbreak>)",
  "2080248782": "เกิดข้อผิดพลาดไม่ทราบสาเหตุ (<unbreak>2500</unbreak>)",
  "2080248685": "การรับฉากหลังล้มเหลว (<unbreak>2600</unbreak>)",
  "2080248684": "การรับฉากหลังล้มเหลว (<unbreak>2601</unbreak>)",
  "2080248687": "ไม่มีศัตรูอยู่",
  "2080248686": "ไม่มีการตั้งค่าการโต้ตอบอยู่",
  "2080248681": "ยังไม่รองรับสถานะของวัตถุ",
  "2080248680": "ยังไม่ได้โหลดฉากหลัง",
  "2080248683": "การตรวจสอบผ่านอุปกรณ์เคลื่อนที่ล้มเหลว",
  "2080248682": "ศัตรูเป้าหมายเกินขีดจำกัดสูงสุด",
  "2080248677": "การใช้สกิลล้มเหลว",
  "2080248676": "ข้อมูลวัตถุไม่ปรากฏบนไคลเอนต์",
  "-648634670": "โหลดฉากหลังเสร็จสิ้น",
  "-648634671": "ประเภทการโต้ตอบไม่ถูกต้อง",
  "-648634668": "ไม่รองรับประเภทการโต้ตอบ",
  "-648634669": "การยืนยันขอบเขตการโต้ตอบล้มเหลว",
  "-648634674": "ไม่รองรับฟังก์ชันการโต้ตอบชนิดย่อย",
  "-648634675": "การรับข้อมูลทีมผิดพลาด",
  "-648634672": "การตั้งค่า Stagnant Shadow เกิดข้อผิดพลาด (<unbreak>2616</unbreak>)",
  "-648634673": "การตั้งค่าข้อมูลศัตรูเกิดข้อผิดพลาด (<unbreak>2617</unbreak>)",
  "-648634678": "HP ของตัวละครเต็มแล้ว",
  "-648634679": "เนื้อหาที่โต้ตอบไม่ตรงกัน (<unbreak>2619</unbreak>)",
  "917449271": "ฉากที่โต้ตอบเกิดข้อผิดพลาด (<unbreak>2620</unbreak>)",
  "917449270": "การรับข้อมูลแผนที่เกิดข้อผิดพลาด",
  "917449273": "การจัดเก็บข้อมูลถี่เกินไป",
  "917449272": "เกิดข้อผิดพลาดไม่ทราบสาเหตุ",
  "917449267": "การรับผลการต่อสู้ล้มเหลว",
  "917449266": "การรับข้อมูลด่านล้มเหลว",
  "917449269": "ข้อมูลเกิดข้อผิดพลาด (<unbreak>2626</unbreak>)",
  "917449262": "ระบบเกิดข้อผิดพลาด (<unbreak>2629</unbreak>)",
  "2080248716": "จำนวนการซื้อถึงขีดจำกัดสูงสุดแล้ว",
  "2080248717": "ไม่ตรงตามเงื่อนไขการซื้อ",
  "2080248718": "ร้านค้ายังไม่เปิดใช้งาน",
  "2080248719": "สินค้ายังไม่เปิด",
  "2080248712": "รับรางวัลแล้ว",
  "2080248713": "ไม่ตรงตามเงื่อนไขในการรับ",
  "2080248714": "ถึงขีดจำกัดการซื้อแล้ว",
  "1320733830": "ไกด์แนะนำยังไม่ปลดล็อก",
  "1320733831": "ปลดล็อกไกด์แนะนำแล้ว",
  "1320733832": "เสร็จสิ้นไกด์แนะนำแล้ว",
  "1320733825": "ยังไม่ได้ปลดล็อกไกด์แนะนำก่อนหน้า",
  "1320733826": "เลเวลบุกเบิกไม่เพียงพอ",
  "1320733827": "การรับไกด์แนะนำล้มเหลว",
  "2080248354": "ไม่มี Forgotten Hall",
  "2080248353": "ยังไม่ได้ปลดล็อก Forgotten Hall",
  "2080248352": "Forgotten Hall อยู่ระหว่างดำเนินการ",
  "2080248359": "ไม่สามารถแก้ไขทีมได้ในขณะนี้",
  "2080248358": "ไม่พบทีม",
  "2080248357": "ด่านปัจจุบันอยู่ระหว่างดำเนินการ",
  "2080248356": "Forgotten Hall ยังไม่จบ",
  "2080248363": "เป้าหมายการท้าทายยังไม่เสร็จสิ้น",
  "2080248362": "รับรางวัลแล้ว",
  "-648635000": "เวลาเริ่มต้นของระบบเกิดข้อผิดพลาด (<unbreak>2810</unbreak>)",
  "-648635001": "เงื่อนไขการรับรางวัลเกิดข้อผิดพลาด",
  "-648635002": "รับรางวัลแล้ว",
  "-648635003": "การรับข้อมูลรางวัลล้มเหลว",
  "1320733468": "สลับไปยัง Path ที่เหมือนกันเรียบร้อยแล้ว",
  "1320733467": "การรับ Path ล้มเหลว",
  "1320733466": "เกิดข้อผิดพลาดในการเลือก Path (<unbreak>2852</unbreak>)",
  "1320733465": "ไม่สามารถสลับ Path ได้ในขณะนี้",
  "1320733472": "โปรดเลือกตัวเดินเรื่อง",
  "2080248387": "ข้อผิดพลาด #0X<unbreak>002901</unbreak>: เซิร์ฟเวอร์ \"Simulated Universe\" ถูกตัดการเชื่อมต่อ",
  "2080248384": "ข้อผิดพลาด #0X<unbreak>002902</unbreak>: ข้อมูลพรที่เลือกไม่ตรงกัน",
  "2080248385": "ข้อผิดพลาด #0X<unbreak>002903</unbreak>: จำนวน Cosmic Fragment ไม่เพียงพอ",
  "2080248391": "ข้อผิดพลาด #0X<unbreak>002905</unbreak>: การรันรหัสล้มเหลว",
  "2080248388": "ข้อผิดพลาด #0X<unbreak>002906</unbreak>: โมดูลปัจจุบันถูกใช้งานแล้ว",
  "2080248389": "ข้อผิดพลาด #0X<unbreak>002907</unbreak>: บันทึกไฟล์สำเร็จ",
  "2080248394": "ข้อผิดพลาด #0X<unbreak>002908</unbreak>: จำนวนการรีเซ็ตถึงขีดจำกัดสูงสุดแล้ว",
  "2080248395": "ข้อผิดพลาด #0X<unbreak>002909</unbreak>: ไม่สามารถสลับตัวละครได้ในขณะนี้",
  "-648634969": "ข้อผิดพลาด #0X<unbreak>002910</unbreak>: คำขอหมดเวลาแล้ว",
  "-648634968": "ข้อผิดพลาด #0X<unbreak>002911</unbreak>: ได้รับรางวัลแล้ว",
  "-648634971": "จำนวนคืนชีพไม่เพียงพอ",
  "-648634970": "การรับข้อมูลแผนที่เกิดข้อผิดพลาด",
  "-648634965": "การรับข้อมูลรางวัลล้มเหลว",
  "-648634964": "การรับข้อมูลรางวัลล้มเหลว",
  "-648634967": "เลเวลการรับรู้ไม่เพียงพอ",
  "-648634966": "รับรางวัลแล้ว (<unbreak>2917</unbreak>)",
  "-648634961": "ระบบเกิดข้อผิดพลาด (<unbreak>2918</unbreak>)",
  "-648634960": "ระบบเกิดข้อผิดพลาด (<unbreak>2919</unbreak>)",
  "917448972": "ได้รับรางวัลแกลเลอรี Simulated Universe แล้ว",
  "917448973": "ระบบเกิดข้อผิดพลาด (<unbreak>2921</unbreak>)",
  "917448970": "ไม่มีสินค้า",
  "917448971": "ซื้อสินค้าแล้ว",
  "917448976": "มีสินค้าแล้ว",
  "917448977": "ไม่มีวัตถุหายากอยู่",
  "917448974": "ร้านค้ายังไม่เปิดใช้งาน",
  "917448975": "ไม่สามารถรีเฟรชร้านค้าได้",
  "1320733500": "ไม่มีอิเวนต์นี้อยู่",
  "1320733497": "เกิดข้อผิดพลาดไม่ทราบสาเหตุ (<unbreak>2952</unbreak>)",
  "1320733498": "อิเวนต์นี้เสร็จสิ้นแล้ว",
  "1320733503": "อยู่ระหว่างทำอิเวนต์นี้",
  "1320733504": "มีอิเวนต์ท้าทายที่อยู่ระหว่างดำเนินการ",
  "1320733501": "ไม่ใช่อิเวนต์ท้าทาย",
  "-1668070976": "เซิร์ฟเวอร์หมดเวลา",
  "776286703": "ไม่สามารถวาร์ปได้",
  "776286702": "การรับจำนวนวาร์ปล้มเหลว",
  "776286701": "โปรดทำการวาร์ปครั้งเดียวก่อน",
  "776286708": "ข้อมูลการวาร์ปเกิดข้อผิดพลาด (<unbreak>3004</unbreak>)",
  "776286707": "ข้อมูลการวาร์ปเกิดข้อผิดพลาด (<unbreak>3005</unbreak>)",
  "776286706": "ข้อมูลการวาร์ปเกิดข้อผิดพลาด (<unbreak>3006</unbreak>)",
  "776286705": "จำนวนการวาร์ปในวันนี้ถึงขีดจำกัดสูงสุดแล้ว",
  "776286696": "ข้อมูลการวาร์ปเกิดข้อผิดพลาด",
  "776286695": "จำนวนการวาร์ปไม่เพียงพอ ยังไม่สามารถเลือกรางวัลเพิ่มเติมได้",
  "-789797237": "รับรางวัลตัวละครแล้ว",
  "1179571230": "ไม่มีบันทึกการบุกเบิกอยู่",
  "1179571229": "รางวัลเลเวลการสำรวจเกิดข้อผิดพลาด",
  "1179571228": "รับรางวัลแล้ว (<unbreak>3053</unbreak>)",
  "1179571235": "การรับภารกิจล้มเหลว",
  "1179571234": "ภารกิจยังไม่สำเร็จ",
  "1179571233": "รับรางวัลแล้ว (<unbreak>3056</unbreak>)",
  "776286736": "การรับความคืบหน้าล้มเหลว (<unbreak>3101</unbreak>)",
  "776286733": "อยู่ระหว่างดำเนินการ",
  "776286734": "การแลกเปลี่ยนไอเทมล้มเหลว (<unbreak>3103</unbreak>)",
  "776286739": "การแลกเปลี่ยนไอเทมล้มเหลว (<unbreak>3104</unbreak>)",
  "776286740": "การรีสตาร์ต Cavern of Corrosion ล้มเหลว (<unbreak>3105</unbreak>)",
  "776286737": "ไม่ตรงตามเงื่อนไขในการเข้า",
  "776286738": "รายชื่อตัวละครว่างเปล่า",
  "776286727": "ไม่มีตัวละครนี้อยู่",
  "776286728": "รับรางวัลแล้ว",
  "-789797206": "คะแนนท้าทายไม่เพียงพอ",
  "-789797205": "กิจกรรมยังไม่เปิด",
  "-789797208": "ดันเจี้ยนสำเร็จแล้ว",
  "-789797207": "โปรดทำการท้าทายระดับความยากก่อนหน้านี้ให้สำเร็จ",
  "-789797202": "ไม่สามารถเปิดใช้งานการสนับสนุนได้",
  "-789797201": "ตัวละครไม่ตรงกัน",
  "-789797204": "ระบบเกิดข้อผิดพลาด (<unbreak>3116</unbreak>)",
  "-789797203": "ระบบเกิดข้อผิดพลาด (<unbreak>3117</unbreak>)",
  "-789797214": "ดันเจี้ยนกิจกรรมยังไม่เปิด",
  "-789797213": "ข้อมูลทีมเกิดข้อผิดพลาด",
  "1179571263": "รับรางวัลบทสนทนาแล้ว",
  "1179571260": "เสร็จสิ้นบทสนทนาเริ่มต้นแล้ว (<unbreak>3152</unbreak>)",
  "1179571261": "การรับข้อมูลการสนทนาล้มเหลว (<unbreak>3153</unbreak>)",
  "1179571266": "บทสนทนาของ NPC ไม่ตรงกัน",
  "1179571267": "ตัวเลือกการสนทนาเกิดข้อผิดพลาด (<unbreak>3155</unbreak>)",
  "1179571264": "ไม่ตรงกับเงื่อนไขการรับรางวัล",
  "1179571265": "การตรวจสอบรางวัลเกิดข้อผิดพลาด",
  "776286637": "การกำหนดคำขอไม่มีอยู่ (<unbreak>3201</unbreak>)",
  "776286640": "การรับรางวัลคำขอล้มเหลว (<unbreak>3202</unbreak>)",
  "776286639": "ระบบเกิดข้อผิดพลาด (<unbreak>3203</unbreak>)",
  "776286642": "ระบบเกิดข้อผิดพลาด (<unbreak>3204</unbreak>)",
  "776286641": "ระบบเกิดข้อผิดพลาด (<unbreak>3205</unbreak>)",
  "776286644": "ระบบเกิดข้อผิดพลาด (<unbreak>3206</unbreak>)",
  "776286643": "ระบบเกิดข้อผิดพลาด (<unbreak>3207</unbreak>)",
  "776286630": "ระบบเกิดข้อผิดพลาด (<unbreak>3208</unbreak>)",
  "776286629": "ระบบเกิดข้อผิดพลาด (<unbreak>3209</unbreak>)",
  "-789797303": "มอบหมายให้ทีมทำคำขอถึงขีดจำกัดสูงสุดแล้ว",
  "-789797304": "ระบบเกิดข้อผิดพลาด (<unbreak>3211</unbreak>)",
  "-789797301": "กิจกรรมยังไม่เปิด",
  "-789797302": "ตัวละครสนับสนุนเกิดข้อผิดพลาด",
  "-789797299": "คำขอยังไม่เปิด",
  "776286670": "รับรางวัลแล้ว",
  "776286671": "ยังไม่ตรงตามเงื่อนไขที่กำหนด",
  "776286672": "รับรางวัลแล้ว",
  "776286673": "ยังไม่เสร็จสิ้นด่าน",
  "776286674": "รับรางวัลแล้ว",
  "776286675": "ยังไม่ได้ส่งมอบวัสดุทดลอง",
  "776286676": "ระบบเกิดข้อผิดพลาด (<unbreak>3307</unbreak>)",
  "776286661": "ระบบเกิดข้อผิดพลาด (<unbreak>3308</unbreak>)",
  "776286662": "ระบบเกิดข้อผิดพลาด (<unbreak>3309</unbreak>)",
  "-789797272": "ระบบเกิดข้อผิดพลาด (<unbreak>3310</unbreak>)",
  "-789797271": "ระบบเกิดข้อผิดพลาด (<unbreak>3311</unbreak>)",
  "-789797270": "ระบบเกิดข้อผิดพลาด (<unbreak>3312</unbreak>)",
  "-789797269": "ระบบเกิดข้อผิดพลาด (<unbreak>3313</unbreak>)",
  "-789797268": "ระบบเกิดข้อผิดพลาด (<unbreak>3314</unbreak>)",
  "-789797267": "ขณะนี้อยู่ในการทดลองใช้ตัวละครแล้ว",
  "776286868": "ไม่มีการรับข้อมูล (<unbreak>3501</unbreak>)",
  "776286865": "ไม่มีการรับข้อมูล (<unbreak>3502</unbreak>)",
  "776286866": "ไม่มีการรับข้อมูล (<unbreak>3503</unbreak>)",
  "776286863": "ไม่มีการรับข้อมูล (<unbreak>3504</unbreak>)",
  "776286864": "ไม่มีการรับข้อมูล (<unbreak>3505</unbreak>)",
  "776286861": "ไม่มีการรับข้อมูล (<unbreak>3506</unbreak>)",
  "776286862": "ไม่มีการรับข้อมูล (<unbreak>3507</unbreak>)",
  "776286769": "ผู้เล่นคนนี้เป็นเพื่อนของคุณ",
  "776286772": "ผู้เล่นคนนี้ยังไม่เป็นเพื่อนของคุณ",
  "776286771": "คำขอเพิ่มเพื่อนหมดอายุแล้ว",
  "776286766": "ผู้เล่นอยู่ในแบล็กลิสต์แล้ว",
  "776286765": "ผู้เล่นไม่อยู่ในแบล็กลิสต์",
  "776286768": "จำนวนเพื่อนถึงขีดจำกัดสูงสุดแล้ว",
  "776286767": "แบล็กลิสต์ถึงขีดจำกัดสูงสุดแล้ว",
  "776286762": "จำนวนคำเชิญต่อวันถึงขีดจำกัดสูงสุดแล้ว",
  "776286761": "คำเชิญที่รอดำเนินการถึงขีดจำกัดสูงสุดแล้ว",
  "-789797171": "ดำเนินการถี่เกินไป โปรดลองใหม่อีกครั้งในภายหลัง",
  "-789797172": "รูปแบบชื่อเล่นเกิดข้อผิดพลาด",
  "-789797169": "ไม่พบผู้เล่น",
  "-789797170": "ไม่สามารถเพิ่มเพื่อนได้ชั่วคราว โปรดลองใหม่ภายหลัง",
  "-789797175": "จำนวนเพื่อนของอีกฝ่ายถึงขีดจำกัดแล้ว",
  "-789797176": "ส่งคำขอถี่เกินไป โปรดลองใหม่ภายหลัง",
  "-789797173": "ไม่มีตัวละครสนับสนุนอยู่",
  "-789797174": "ตัวละครสนับสนุนอยู่ในทีมแล้ว",
  "-789797179": "รูปแบบข้อมูลการรายงานเกิดข้อผิดพลาด",
  "-789797180": "ข้อความมีคำที่ไม่ถูกต้อง",
  "-386512644": "การสนับสนุนถึงขีดจำกัดสูงสุดแล้ว",
  "-386512645": "ไม่มีตัวละครสนับสนุนที่สามารถเลือกได้",
  "-386512642": "ตัวละครสนับสนุนอยู่ในทีมแล้ว",
  "-386512643": "ไม่มีรางวัลสนับสนุนที่สามารถรับได้",
  "-386512648": "ดำเนินการถี่เกินไป โปรดลองใหม่อีกครั้งในภายหลัง",
  "-386512649": "ดำเนินการถี่เกินไป โปรดลองใหม่อีกครั้งในภายหลัง",
  "-386512646": "ข้อความที่คุณกรอกมีตัวอักษรที่ไม่ถูกต้องอยู่",
  "-386512647": "ข้อความที่คุณกรอกมีตัวอักษรที่ไม่ถูกต้องอยู่",
  "-386512652": "มีตัวละครสนับสนุนอยู่แล้ว",
  "-386512653": "ผู้เล่นไม่รับคำขอเพิ่มเพื่อนในขณะนี้",
  "-1952596584": "ดำเนินการถี่เกินไป",
  "-1952596589": "การดูข้อมูลผู้บุกเบิกอยู่ระหว่างคูลดาวน์",
  "776286802": "ไม่มีรูปโปรไฟล์",
  "776286803": "ยังไม่ปลดล็อกรูปโปรไฟล์",
  "776286804": "ปลดล็อกรูปโปรไฟล์แล้ว",
  "776286797": "ไม่มีตัวละครที่แสดง",
  "776286798": "แสดงตัวละครเกินจำนวนที่กำหนด",
  "776286799": "แสดงตัวละครซ้ำ",
  "776286800": "ตำแหน่งที่แสดงตัวละครถูกใช้แล้ว",
  "776286793": "ยังไม่ปลดล็อกตัวละครที่แสดง",
  "776286794": "คำอธิบายยาวเกินขีดจำกัดที่กำหนด",
  "-789797140": "คำอธิบายส่วนตัวมีคำที่ละเอียดอ่อน",
  "-789797139": "ในทีมมีตำแหน่งว่างอยู่",
  "-789797138": "ไม่มีตัวละครสนับสนุนอยู่",
  "-789797137": "ยังไม่ปลดล็อกตัวละครสนับสนุน",
  "-789797144": "ข้อความที่คุณกรอกมีตัวอักษรที่ไม่ถูกต้องอยู่",
  "776286439": "การรับข้อมูลเกิดข้อผิดพลาด (<unbreak>3801</unbreak>)",
  "776286438": "ไม่สามารถรับรางวัลนี้ได้ชั่วคราว (<unbreak>3802</unbreak>)",
  "776286437": "รับรางวัลแล้ว (<unbreak>3803</unbreak>)",
  "776286444": "การเปิดใช้งานล้มเหลว (<unbreak>3804</unbreak>)",
  "776286443": "เกียรติยศนิรนามยังไม่เปิด",
  "776286442": "การซื้อล้มเหลว (<unbreak>3806</unbreak>)",
  "776286441": "เกียรติยศนิรนามยังไม่เปิด",
  "776286448": "การรับรางวัลล้มเหลว (<unbreak>3808</unbreak>)",
  "776286447": "การรับภารกิจล้มเหลว (<unbreak>3809</unbreak>)",
  "-789797501": "ยังไม่ได้เลือกรับของรางวัล",
  "-789797502": "ไม่มีรางวัลที่สามารถรับได้",
  "-789797503": "การรับข้อมูลรางวัลเกิดข้อผิดพลาด",
  "-789797504": "ไม่สามารถซื้อซ้ำได้",
  "-789797497": "ไอเทมดังกล่าวไม่สามารถใช้งานได้ในขณะนี้",
  "776286472": "แทร็กยังไม่ปลดล็อก",
  "776286469": "ไม่พบแทร็กดังกล่าว (<unbreak>3902</unbreak>)",
  "776286470": "การปลดล็อกแทร็กล้มเหลว (<unbreak>3903</unbreak>)",
  "1867381433": "ส่งคำขอซ้ำ",
  "-1367743672": "จำนวนการลาดตระเวนไม่เพียงพอ",
  "-1367743673": "เป้าหมายที่ลาดตระเวนได้ถึงขีดจำกัดสูงสุดแล้ว",
  "-1367743674": "การรับข้อมูลเป้าหมายเกิดข้อผิดพลาด",
  "-1367743667": "ปล่อยการโจมตีแบบทีมแล้ว",
  "-1367743668": "ข้อมูลของเป้าหมายหมดอายุแล้ว",
  "-1367743669": "จำนวนการโจมตีเป้าหมายถึงขีดจำกัดสูงสุดแล้ว",
  "-1367743670": "จำนวน Pixel Warhead ไม่เพียงพอ",
  "-1367743679": "เป้าหมายถูกกำจัดแล้ว",
  "-1367743680": "จำนวนผู้เข้าร่วมการโจมตีถึงขีดจำกัดสูงสุดแล้ว",
  "198340270": "ยังไม่ถึงระดับความสมดุลที่กำหนด",
  "198340269": "การรับข้อมูลรางวัลล้มเหลว",
  "198340268": "คะแนนยังไม่ถึงตามเงื่อนไขที่กำหนด",
  "198340267": "กำลังเข้าสู่การโจมตี",
  "198340274": "ดำเนินการถี่เกินไป โปรดลองใหม่อีกครั้งในภายหลัง",
  "198340273": "รับรางวัลแล้ว",
  "198340272": "การรับรางวัลเกินขีดจำกัด",
  "198340271": "ยังไม่ถึงช่วงเปิดกิจกรรม",
  "198340262": "ยังไม่ได้เข้าร่วมการโจมตีเป้าหมาย",
  "198340261": "เป้าหมายยังไม่ถูกกำจัด",
  "-204944257": "รับรางวัลแล้ว (<unbreak>4020</unbreak>)",
  "-204944258": "รับรางวัลแล้ว (<unbreak>4021</unbreak>)",
  "-1367743639": "เงื่อนไขการรับรางวัลเกิดข้อผิดพลาด",
  "-1367743642": "รับรางวัลแล้ว",
  "-1367743641": "ค่าแอ็กทิฟไม่เพียงพอ ไม่สามารถรับรางวัลได้",
  "-1771028265": "การรับข้อมูลเล่นซ้ำล้มเหลว (<unbreak>4251</unbreak>)",
  "-1771028262": "การรับข้อมูลเล่นซ้ำล้มเหลว (<unbreak>4252</unbreak>)",
  "-1367743705": "ยังไม่ตรงตามเงื่อนไขการรับ",
  "-1367743704": "รับรางวัลแล้ว",
  "-1367743703": "ยังไม่เปิดด่าน",
  "-1771028232": "ระบบเกิดข้อผิดพลาด (<unbreak>4351</unbreak>)",
  "-1771028231": "ระบบเกิดข้อผิดพลาด (<unbreak>4352</unbreak>)",
  "-1771028230": "ระบบเกิดข้อผิดพลาด (<unbreak>4353</unbreak>)",
  "-1367743540": "ระบบเกิดข้อผิดพลาด (<unbreak>4401</unbreak>)",
  "-1367743541": "ระบบเกิดข้อผิดพลาด (<unbreak>4402</unbreak>)",
  "-1367743542": "ระบบเกิดข้อผิดพลาด (<unbreak>4403</unbreak>)",
  "-1367743543": "ระบบเกิดข้อผิดพลาด (<unbreak>4404</unbreak>)",
  "-1367743544": "ระบบเกิดข้อผิดพลาด (<unbreak>4405</unbreak>)",
  "-1367743545": "ระบบเกิดข้อผิดพลาด (<unbreak>4406</unbreak>)",
  "-1367743546": "ระบบเกิดข้อผิดพลาด (<unbreak>4407</unbreak>)",
  "-1367743547": "ข้อความที่คุณกรอกมีตัวอักษรที่ไม่ถูกต้องอยู่",
  "-1367743548": "ระบบเกิดข้อผิดพลาด (<unbreak>4409</unbreak>)",
  "198340402": "ส่งคำขอซ้ำ",
  "198340401": "ระบบเกิดข้อผิดพลาด (<unbreak>4411</unbreak>)",
  "198340400": "ตัวละครผิดพลาด",
  "198340399": "ระบบเกิดข้อผิดพลาด (<unbreak>4413</unbreak>)",
  "-1771028067": "ระบบเกิดข้อผิดพลาด (<unbreak>4451</unbreak>)",
  "-1771028068": "ระบบเกิดข้อผิดพลาด (<unbreak>4452</unbreak>)",
  "-1367743507": "ระบบเกิดข้อผิดพลาด (<unbreak>4501</unbreak>)",
  "-1367743510": "ระบบเกิดข้อผิดพลาด (<unbreak>4502</unbreak>)",
  "-1367743509": "ระบบเกิดข้อผิดพลาด (<unbreak>4503</unbreak>)",
  "-1367743512": "ไม่มีเนื้อหาสนทนา",
  "-1367743511": "ข้อความที่คุณกรอกมีความยาวเกินขีดจำกัดที่กำหนด",
  "-1367743514": "ข้อความที่คุณกรอกมีเนื้อหาที่เป็นคำต้องห้ามอยู่",
  "-1367743513": "ข้อความที่คุณกรอกมีตัวอักษรที่ไม่ถูกต้องอยู่",
  "-1367743516": "ไม่สามารถใช้ฟังก์ชันได้ชั่วคราว",
  "-1367743515": "ระบบเกิดข้อผิดพลาด (<unbreak>4509</unbreak>)",
  "198340433": "ข้อความที่คุณกรอกมีตัวอักษรที่ไม่ถูกต้องอยู่",
  "198340434": "สติกเกอร์เกิดข้อผิดพลาด",
  "198340431": "สติกเกอร์เกิดข้อผิดพลาด",
  "198340429": "เก็บสติกเกอร์เป็นรายการโปรดแล้ว",
  "198340430": "รายการโปรดถึงขีดจำกัดสูงสุดแล้ว",
  "-1367743606": "ยังไม่เปิดการแข่งขัน",
  "-1771028133": "กิจกรรมยังไม่เปิด",
  "-1771028130": "การจัดการสำหรับวันนี้ยังไม่เสร็จสมบูรณ์",
  "-1771028131": "ระดับการจัดการเกิดข้อผิดพลาด",
  "-1771028136": "ผู้ช่วยเกิดข้อผิดพลาด",
  "-1771028137": "โซนจัดแสดงเกิดข้อผิดพลาด",
  "-1771028134": "การตั้งค่าเกิดข้อผิดพลาด",
  "-1771028135": "ทำการแต่งตั้งผู้ช่วยแล้ว",
  "-1771028140": "ยังไม่กำหนดผู้ช่วย",
  "-1771028141": "ว่าจ้างผู้ช่วยคนนี้แล้ว",
  "2120654637": "ยังไม่ว่าจ้างผู้ช่วยคนนี้",
  "2120654636": "เงินทุนไม่เพียงพอ",
  "2120654639": "โซนจัดแสดงที่เลือกเกิดข้อผิดพลาด",
  "2120654638": "ระบบเกิดข้อผิดพลาด",
  "2120654633": "เวลาผิดพลาด",
  "2120654632": "ไม่พบอิเวนต์",
  "2120654635": "อิเวนต์เกิดข้อผิดพลาด",
  "2120654634": "ยังไม่ถึงระดับการจัดการที่กำหนด",
  "2120654629": "ไม่มีเบาะแสอยู่",
  "2120654628": "อัปเกรดโซนจัดแสดงเรียบร้อยแล้ว",
  "-608228718": "ผู้ช่วยได้รับการแต่งตั้งแล้ว",
  "-608228719": "ยังไม่ปลดล็อกอิเวนต์นี้",
  "-608228716": "กำหนดผู้ช่วยไปยังโซนจัดแสดงแล้ว",
  "-608228717": "ผู้ช่วยอยู่ระหว่างการมอบหมาย",
  "-608228722": "กิจกรรมสิ้นสุดลงแล้ว",
  "-608228723": "ผู้ช่วยอยู่ระหว่างการมอบหมาย",
  "-608228726": "ยังมีภารกิจรวบรวมวัตถุจัดแสดงหรือภารกิจว่าจ้างพนักงานที่ยังทำไม่สำเร็จ",
  "-608228727": "ระบบเกิดข้อผิดพลาด (<unbreak>4679</unbreak>)",
  "-1723973965": "รับรางวัลแล้ว",
  "-1723973966": "ภารกิจวัตถุจัดแสดงและภารกิจผู้ช่วย ถึงขีดจำกัดสูงสุดแล้ว",
  "-1367743573": "กิจกรรมยังไม่เปิด",
  "-1367743572": "รีเฟรชถี่เกินไป โปรดลองใหม่อีกครั้งในภายหลัง",
  "-204944159": "ระบบเกิดข้อผิดพลาด (<unbreak>4721</unbreak>)",
  "-204944158": "ระบบเกิดข้อผิดพลาด (<unbreak>4722</unbreak>)",
  "-204944164": "ระบบเกิดข้อผิดพลาด (<unbreak>4724</unbreak>)",
  "-204944163": "ระบบเกิดข้อผิดพลาด (<unbreak>4725</unbreak>)",
  "-204944162": "ระบบเกิดข้อผิดพลาด (<unbreak>4726</unbreak>)",
  "-204944161": "ร้านค้ายังไม่ได้ปลดล็อก",
  "-204944167": "ต้องเชื่อมต่อร้านค้าทั้งหมด",
  "1361139781": "ระบบเกิดข้อผิดพลาด (<unbreak>4730</unbreak>)",
  "1361139782": "ระบบเกิดข้อผิดพลาด (<unbreak>4731</unbreak>)",
  "1361139783": "ระบบเกิดข้อผิดพลาด (<unbreak>4732</unbreak>)",
  "1361139784": "ระบบเกิดข้อผิดพลาด (<unbreak>4733</unbreak>)",
  "1361139777": "ระบบเกิดข้อผิดพลาด (<unbreak>4734</unbreak>)",
  "1361139778": "ระบบเกิดข้อผิดพลาด (<unbreak>4735</unbreak>)",
  "1361139779": "ตราพลังการค้าไม่เพียงพอ",
  "1361139780": "การโหลดสินค้าว่างเปล่า",
  "1361139773": "ระบบเกิดข้อผิดพลาด (<unbreak>4738</unbreak>)",
  "1361139774": "ระบบเกิดข้อผิดพลาด (<unbreak>4739</unbreak>)",
  "957855254": "Starskiff ขนส่งสินค้ายังไม่ปลดล็อก",
  "957855255": "ระบบเกิดข้อผิดพลาด (<unbreak>4741</unbreak>)",
  "957855256": "สินค้ายังไม่ปลดล็อก",
  "957855250": "รายการขนส่งแบบกำหนดเอง และรายการขนส่งปัจจุบันไม่สอดคล้องกัน",
  "957855251": "สินค้าสำหรับรายการขนส่งแบบกำหนดเอง เกินขีดจำกัดรายการขนส่ง",
  "957855252": "ยังไม่บรรลุตามเงื่อนไขของรายการขนส่งแบบกำหนดเองทั้งหมด",
  "957855246": "จำนวนสินค้าไม่เพียงพอ",
  "957855247": "ระบบเกิดข้อผิดพลาด (<unbreak>4749</unbreak>)",
  "-1771028101": "รับรางวัลแล้ว",
  "-1771028100": "ระบบเกิดข้อผิดพลาด (<unbreak>4751</unbreak>)",
  "-1771028099": "ระบบเกิดข้อผิดพลาด (<unbreak>4752</unbreak>)",
  "-1771028098": "ระบบเกิดข้อผิดพลาด (<unbreak>4753</unbreak>)",
  "-1771028105": "ระบบเกิดข้อผิดพลาด (<unbreak>4754</unbreak>)",
  "-1771028103": "ระบบเกิดข้อผิดพลาด (<unbreak>4755</unbreak>)",
  "-1771028102": "ระบบเกิดข้อผิดพลาด (<unbreak>4756</unbreak>)",
  "-1771028108": "ยังไม่ได้วางแผนการขนส่ง",
  "2120654669": "ยังทำอิเวนต์ไม่สำเร็จ",
  "2120654670": "ยังไม่บรรลุตามเงื่อนไขของรายการขนส่ง",
  "-1367743936": "ดาราที่หวนคืนยังไม่เปิด",
  "-1367743937": "เช็คอินเสร็จสิ้น",
  "-1367743938": "คะแนนปัจจุบันไม่เพียงพอ",
  "-1367743931": "ขณะนี้ไม่สามารถเช็คอินได้",
  "-1367743932": "เช็คอินเสร็จสิ้น",
  "-1367743933": "รับรางวัลแล้ว",
  "-1771028463": "ไม่มีทีมแนวรบ Aetherium นี้อยู่",
  "-1771028464": "ไม่สามารถใช้ทีมแนวรบ Aetherium นี้",
  "-1367743903": "ไม่พบไอเทมที่เกี่ยวข้อง",
  "-1367743906": "ยังไม่ปลดล็อกกรอบแชท",
  "-1367743905": "ระบบเกิดข้อผิดพลาด (<unbreak>4903</unbreak>)",
  "-1367743900": "วอลล์เปเปอร์มือถือยังไม่ปลดล็อก",
  "-1771028430": "ระบบเกิดข้อผิดพลาด (<unbreak>4951</unbreak>)",
  "-1771028433": "การตั้งค่าเกิดข้อผิดพลาด",
  "2120654337": "ไม่พบพื้นที่ที่ใช้ได้",
  "2120654342": "ไม่พบข้อมูลของพื้นที่",
  "2120654343": "ยังไม่สำเร็จพื้นที่",
  "2120654340": "ยังไม่ปลดล็อกพื้นที่",
  "2120654341": "ยังไม่เริ่มเกมเพลย์",
  "2120654346": "ระบบเกิดข้อผิดพลาด (<unbreak>4968</unbreak>)",
  "2120654347": "ระบบเกิดข้อผิดพลาด (<unbreak>4969</unbreak>)",
  "-608229017": "ทีมในปัจจุบันผิดพลาด",
  "-1723974264": "ระบบเกิดข้อผิดพลาด (<unbreak>4980</unbreak>)",
  "-1723974263": "เข้าสู่พื้นที่ล้มเหลว",
  "-1723974266": "การทอยล้มเหลว",
  "-1723974265": "ระบบเกิดข้อผิดพลาด (<unbreak>4983</unbreak>)",
  "-1723974260": "จำนวนการใช้งานไม่เพียงพอ",
  "-1723974259": "ระบบเกิดข้อผิดพลาด (<unbreak>4985</unbreak>)",
  "-1723974262": "อุปกรณ์ดาวน์โหลดผิดพลาด",
  "-1723974261": "ไม่สามารถใช้งานตัวละคร",
  "-861501922": "ไม่มีค่าพารามิเตอร์อยู่",
  "1623261643": "ระบบเกิดข้อผิดพลาด (<unbreak>5201</unbreak>)",
  "1623261646": "กิจกรรมยังไม่เปิด",
  "1623261645": "เกินขีดจำกัดจำนวนครั้งที่สามารถรับได้แล้ว",
  "1623261648": "คะแนนทดสอบไม่เพียงพอ",
  "1623261647": "รับรางวัลแล้ว",
  "1267031446": "ผู้เล่นคนนี้ยังไม่เป็นเพื่อนของคุณ",
  "1267031439": "กดไลก์แล้ว",
  "1623261445": "ระบบเกิดข้อผิดพลาด (<unbreak>5801</unbreak>)",
  "1623261444": "ระบบเกิดข้อผิดพลาด (<unbreak>5802</unbreak>)",
  "1623261443": "ระบบเกิดข้อผิดพลาด (<unbreak>5803</unbreak>)",
  "1623261450": "ระบบเกิดข้อผิดพลาด (<unbreak>5804</unbreak>)",
  "1623261449": "ไอเทมนี้เพิ่มถึงเลเวลสูงสุดแล้ว",
  "1623261448": "ระบบเกิดข้อผิดพลาด (<unbreak>5806</unbreak>)",
  "1623261447": "ไอเทมนี้ไม่สามารถลดเลเวลต่อได้",
  "1623261454": "ระบบเกิดข้อผิดพลาด (<unbreak>5808</unbreak>)",
  "1623261453": "ระบบเกิดข้อผิดพลาด (<unbreak>5809</unbreak>)",
  "57177505": "ระบบเกิดข้อผิดพลาด (<unbreak>5810</unbreak>)",
  "57177504": "กิจกรรมยังไม่เปิด",
  "57177503": "ระบบเกิดข้อผิดพลาด (<unbreak>5812</unbreak>)",
  "57177502": "ระบบเกิดข้อผิดพลาด (<unbreak>5813</unbreak>)",
  "57177509": "ระบบเกิดข้อผิดพลาด (<unbreak>5814</unbreak>)",
  "57177508": "ระบบเกิดข้อผิดพลาด (<unbreak>5815</unbreak>)",
  "57177507": "ระบบเกิดข้อผิดพลาด (<unbreak>5816</unbreak>)",
  "57177506": "รับรางวัลความนิยมทั้งหมดแล้ว",
  "-1912190964": "ระบบเกิดข้อผิดพลาด (<unbreak>5851</unbreak>)",
  "-1912190965": "ระบบเกิดข้อผิดพลาด (<unbreak>5852</unbreak>)",
  "-1912190966": "ระบบเกิดข้อผิดพลาด (<unbreak>5853</unbreak>)",
  "-1912190959": "ระบบเกิดข้อผิดพลาด (<unbreak>5854</unbreak>)",
  "-1912190960": "ระบบเกิดข้อผิดพลาด (<unbreak>5855</unbreak>)",
  "-1912190961": "ระบบเกิดข้อผิดพลาด (<unbreak>5856</unbreak>)",
  "-1912190962": "ระบบเกิดข้อผิดพลาด (<unbreak>5857</unbreak>)",
  "-1912190955": "ระบบเกิดข้อผิดพลาด (<unbreak>5858</unbreak>)",
  "-1912190956": "ระบบเกิดข้อผิดพลาด (<unbreak>5859</unbreak>)",
  "816692392": "ระบบเกิดข้อผิดพลาด (<unbreak>5860</unbreak>)",
  "816692391": "ระบบเกิดข้อผิดพลาด (<unbreak>5861</unbreak>)",
  "816692390": "ระบบเกิดข้อผิดพลาด (<unbreak>5862</unbreak>)",
  "816692389": "ระบบเกิดข้อผิดพลาด (<unbreak>5863</unbreak>)",
  "816692396": "ระบบเกิดข้อผิดพลาด (<unbreak>5864</unbreak>)",
  "816692395": "ระบบเกิดข้อผิดพลาด (<unbreak>5865</unbreak>)",
  "-1264786449": "ข้อมูลผู้เล่นผิดพลาด",
  "301297492": "ไม่มีการตอบกลับจากไคลเอนต์",
  "-458217395": "การตรวจสอบฟังก์ชันล้มเหลว",
  "1107866546": "ฟังก์ชันนี้ปิดชั่วคราว",
  "746042362": "Русский",
  "1608850492": "การเริ่มต้นเกมล้มเหลว โปรดรีสตาร์ตแล้วลองเชื่อมต่ออีกครั้ง",
  "507567562": "เกิดข้อผิดพลาดในการกระจายข้อมูลเซิร์ฟเวอร์ โปรดตรวจสอบการเชื่อมต่อเครือข่าย จากนั้นรีสตาร์ตใหม่ แล้วลองเชื่อมต่อดูอีกครั้ง",
  "1183680304": "มอบหมายการทำคำขอเสร็จสิ้นแล้ว โปรดตรวจสอบ",
  "-1527203779": "พลังบุกเบิกฟื้นฟูเต็มแล้ว โปรดอย่าลืมใช้งาน",
  "-1105107601": "มอบหมายการทำคำขอเสร็จสิ้น",
  "-492664622": "พลังบุกเบิกฟื้นฟูเต็มแล้ว!",
  "-314612542": "k",
  "-717897069": "k",
  "848186872": "M",
  "-363821157": "ภาษาไทย",
  "-2136827345": "繁體中文",
  "1912906754": "พื้นที่จัดเก็บไม่เพียงพอ โปรดจัดการพื้นที่ให้เพียงพอแล้วลองใหม่อีกครั้ง",
  "1025718490": "ขณะนี้คุณไม่ได้เชื่อมต่อกับ Wi-Fi ต้องการดาวน์โหลดทรัพยากรต่อหรือไม่?",
  "1301123177": "การลบทรัพยากรที่ดาวน์โหลดล้มเหลว โปรดลองรีสตาร์ตเกมแล้วทำการลบอีกครั้ง",
  "-2092908827": "ทรัพยากรที่ดาวน์โหลดถูกลบเรียบร้อยแล้ว โปรดรีสตาร์ตเกมอีกครั้ง",
  "-81114143": "อัปเดตสำเร็จแล้ว เกมจะทำการรีสตาร์ต",
  "-259848768": "กำลังใช้งานแพตช์",
  "2082905966": "กำลังตรวจสอบการอัปเดตข้อมูล...",
  "1352780993": "กำลังตรวจสอบการอัปเดตเวอร์ชัน",
  "-253064026": "กำลังดาวน์โหลดทรัพยากร...",
  "1349227356": "การดาวน์โหลดทรัพยากรเกิดข้อผิดพลาด โปรดตรวจสอบและดาวน์โหลดทรัพยากรอีกครั้ง",
  "-1480277831": "การตรวจสอบทรัพยากรล้มเหลว โปรดลบทรัพยากรแล้วดาวน์โหลดใหม่ หรือติดตั้งแพ็กทรัพยากรใหม่แล้วลองดูอีกครั้ง",
  "719011705": "การดาวน์โหลดทรัพยากรล้มเหลว ต้องการลองใหม่อีกครั้งหรือไม่?",
  "-1976536638": "ทรัพยากรเกิดข้อผิดพลาด โปรดใช้ฟังก์ชัน \"อัปเดต\" ที่มุมขวาบนของหน้าเมนูล็อกอิน เพื่อทำการตรวจสอบและซ่อมแซมทรัพยากร",
  "1959735889": "กำลังติดตั้งทรัพยากร...",
  "1128105648": "กำลังโหลดข้อมูล",
  "1896342672": "กำลังตรวจสอบทรัพยากรในพื้นที่",
  "1476062893": "กำลังลบไฟล์ชั่วคราว",
  "2059891064": "เริ่มการใช้งานแพตช์",
  "1228392776": "เริ่มการตรวจสอบทรัพยากรในพื้นที่...",
  "-2093505287": "เริ่มลบไฟล์ชั่วคราว",
  "701492679": "เริ่มการเปิดแพ็กทรัพยากร",
  "271414171": "เริ่มตรวจสอบทรัพยากร",
  "-1220166647": "ตรวจสอบทรัพยากรเสร็จสิ้นแล้ว {LAYOUT_MOBILE#แตะ}{LAYOUT_CONTROLLER#กด}{LAYOUT_KEYBOARD#คลิก}เพื่อรีสตาร์ตเกม",
  "1427390957": "ตรวจสอบทรัพยากรเสร็จสิ้น ไม่พบข้อผิดพลาดใด",
  "-1861574693": "กำลังเปิดแพ็กทรัพยากร",
  "477354111": "กำลังตรวจสอบทรัพยากร",
  "-1734649926": "เลือก",
  "-1159186496": "เวอร์ชันปัจจุบันคือเวอร์ชันทดสอบ ซึ่งไม่ได้บ่งบอกถึงคุณภาพสุดท้ายของเกม",
  "-1513126819": "กลับ",
  "-1024198625": "สามารถปรับการตั้งค่าได้ที่ \"ศูนย์ผู้ใช้งาน - บัญชี HoYoverse และความปลอดภัย\"",
  "-714248207": "ถ่ายภาพหน้าจอและรายงานปัญหา",
  "43235784": "ยกเลิก",
  "657177150": "ยืนยัน",
  "2106114571": "รีสตาร์ต",
  "619467309": "ไปที่คอมมูนิตี้ทางการ",
  "1439172572": "การดาวน์โหลดทรัพยากรล้มเหลว โปรดลองใหม่อีกครั้งในภายหลัง",
  "299305438": "บังคับให้อัปเดตไฟล์ที่ดาวน์โหลดทั้งหมด",
  "1863702846": "คุณต้องการตรวจสอบความสมบูรณ์ของทรัพยากรที่ดาวน์โหลดอีกครั้งหรือไม่?",
  "-1596856485": "ตรวจสอบทรัพยากร",
  "296444951": "ไม่สามารถใช้ WLAN หรือเครือข่ายมือถือได้ โปรดตรวจสอบการตั้งค่าเครือข่าย",
  "-1026500224": "แจ้งเตือนข้อผิดพลาด",
  "-82214061": "เพลงประกอบจะถูกเล่นเมื่อเกมเข้าสู่พื้นหลัง",
  "-966128796": "การล็อกอินผิดปกติ โปรดลองใหม่อีกครั้งในภายหลัง รหัสข้อผิดพลาด: #1",
  "310545576": "本公司积极履行《网络游戏行业防沉迷自律公约》",
  "316852424": "อัปเดต",
  "2146831397": "ออก",
  "-1936148297": "ภาษา",
  "1053410410": "เข้าสู่ระบบ",
  "137785819": "ออกจากระบบ",
  "-695628513": "ประกาศ",
  "342122252": "โปรดเลือกเซิร์ฟเวอร์",
  "-494723770": "ดาวน์โหลดชุดทรัพยากรที่สมบูรณ์",
  "1814096353": "{LAYOUT_MOBILE#แตะ}{LAYOUT_CONTROLLER#กด}{LAYOUT_KEYBOARD#คลิก}เพื่อเริ่ม",
  "-94882978": "본 게임은 <unbreak>12</unbreak>세 이용가 게임물로 만 <unbreak>12</unbreak>세 미만의 어린이나 청소년이 이용하기 부적절합니다",
  "1234897861": "กำลังโหลดทรัพยากร...",
  "1347209599": "สแกน",
  "-1808034669": "1、本游戏是一款3D角色扮演类回合制游戏，适用于年满<unbreak>12</unbreak>周岁及以上的用户，建议未成年人在家长监护下使用游戏产品。\\n\\n2、本游戏基于架空背景展开剧情，用户可通过对话、交互、完成任务推进剧情，游戏内还可以自由探索场景地图。游戏中有需要使用游戏角色进行的人机对战，玩法基于一定难度的思考判断，鼓励玩家随机应变、制定策略来取得对战胜利。游戏中有少量自定义文字系统，该社交系统遵循相关法律法规进行管理。\\n\\n3、本游戏中有用户实名认证系统，认证为未成年的用户将受到以下游戏限制：\\n未满8周岁的用户不能充值；8周岁以上未满<unbreak>16</unbreak>周岁的未成年用户，单次充值金额不得超过<unbreak>50</unbreak>元人民币，每月充值金额累计不得超过<unbreak>200</unbreak>元人民币；<unbreak>16</unbreak>周岁以上的未成年用户，单次充值金额不得超过<unbreak>100</unbreak>元人民币，每月充值金额累计不得超过<unbreak>400</unbreak>元人民币。\\n游戏仅会在周五、周六、周日和法定节假日的<unbreak>20</unbreak>时至<unbreak>21</unbreak>时，向未成年人提供1小时游戏服务。\\n\\n4、游戏玩法鼓励玩家积极思考，制定和应用策略来取得对战的胜利。同时，在游戏中呈现了精美细腻的画面效果，能够为玩家提供优质的视觉体验。",
  "-1282310801": "1、本游戏是一款3D角色扮演类回合制游戏，适用于年满<unbreak>12</unbreak>周岁及以上的用户，建议未成年人在家长监护下使用游戏产品。\\n\\n2、本游戏基于架空背景展开剧情，用户可通过对话、交互、完成任务推进剧情，游戏内还可以自由探索场景地图。游戏中有需要使用游戏角色进行的人机对战，玩法基于一定难度的思考判断，鼓励玩家随机应变、制定策略来取得对战胜利。游戏中有少量自定义文字系统，该社交系统遵循相关法律法规进行管理。\\n\\n3、<unbreak>PlayStation™Network (\"PSN\")</unbreak>的中国大陆用户需要进行实名认证，认证为未成年人的用户无法在<unbreak>PlayStation™Store</unbreak>消费，包括且不限于游戏购买，订阅购买/升级/延长，以及游戏内商品购买内容和服务。\\n未成年人用户仅限于每周五、周六、周日的<unbreak>20</unbreak>时至<unbreak>21</unbreak>时登录及游玩。\\n\\n4、游戏玩法鼓励玩家积极思考，制定和应用策略来取得对战的胜利。同时，在游戏中呈现了精美细腻的画面效果，能够为玩家提供优质的视觉体验。",
  "1211532780": "适龄提示",
  "-584092019": "เริ่มเกม",
  "2004081699": "เข้าสู่ระบบล่าสุด",
  "-828304337": "รายชื่อเซิร์ฟเวอร์",
  "1770448309": "ฝ่ายบริการลูกค้า",
  "1064284207": "หากคุณพบปัญหาเช่น ไม่สามารถล็อกอินเข้าสู่เกมได้ โปรดติดต่อเราผ่านอีเมลของฝ่ายบริการลูกค้า เพื่อรับความช่วยเหลือในขั้นต่อไป\\nอีเมล: hsrcs_th@hoyoverse.com",
  "-472476664": "อีเมลฝ่ายบริการลูกค้า",
  "1377868803": "ปิดเสียงเมื่อย่อหน้าต่างลง",
  "-488673265": "ความต้านทาน",
  "2085583028": "ดูรายละเอียด",
  "2106720550": "เซิร์ฟเวอร์ปิดให้บริการ และจะเปิดใน #1",
  "314524367": "แบล็กลิสต์ของ <unbreak>PlayStation™Network</unbreak>",
  "782329688": "สามารถเข้าสู่โหมดเล่นหลายคนได้กับผู้ใช้ของระบบ <unbreak>PlayStation™Network</unbreak> เท่านั้น",
  "-1612423078": "เพื่อนจาก <unbreak>PlayStation™Network</unbreak> รายชื่อเพื่อนนี้มีไว้สำหรับแสดงเท่านั้น",
  "-650647438": "สามารถเพิ่มเพื่อนผ่าน <unbreak>PlayStation™Network</unbreak>",
  "863714791": "ยังไม่มีเพื่อนจาก <unbreak>PlayStation™Network</unbreak>",
  "-1137848582": "ยังไม่ได้เข้าสู่เกม",
  "-2077891673": "ฟังก์ชันนี้ไม่สามารถใช้งานได้เนื่องจากข้อจำกัดด้านเนื้อหา",
  "-2119394949": "บันทึกภาพไม่สำเร็จ",
  "-216138017": "ภารกิจปัจจุบันต้องการแพ็กทรัพยากรที่สมบูรณ์เพื่อดำเนินการต่อ โปรดรอจนกว่าการดาวน์โหลดจะเสร็จสิ้น\\n(ความคืบหน้าปัจจุบัน <unbreak>#1[f1]%</unbreak>)",
  "1469469656": "ดาวน์โหลดเสร็จสิ้น โปรดยืนยันและกลับไปที่หน้าล็อกอินเพื่อดำเนินการต่อ",
  "581389205": "ภารกิจปัจจุบันต้องการแพ็กทรัพยากรที่สมบูรณ์เพื่อดำเนินการต่อ โปรดรอจนกว่าการดาวน์โหลดจะเสร็จสิ้น",
  "-1825251286": "(โปรดรอจนกว่าการดาวน์โหลดเนื้อหาจะเสร็จสิ้น)",
  "1051467476": "แจ้งเตือน",
  "374299751": "สิทธิประโยชน์",
  "250912545": "คุณสามารถไปยังเว็บไซต์ทางการหรือติดต่อฝ่ายบริการลูกค้า เพื่อยกเลิกการผูกบัญชีและลบข้อมูลบัญชีของคุณได้ทุกเมื่อ\\nเมื่อคุณพบเห็นข้อความหรือความคิดเห็นใดๆ ที่ไม่เหมาะสม สามารถรายงานผ่านการ \"แจ้งปัญหา\" ภายในเกมได้ทุกเมื่อ",
  "-1937952402": "สิทธิประโยชน์ของผู้เล่น",
  "250912557": "คุณสามารถไปยังเว็บไซต์ทางการหรือติดต่อฝ่ายบริการลูกค้า เพื่อยกเลิกการผูกบัญชีและลบข้อมูลบัญชีของคุณได้ทุกเมื่อ\\nเมื่อคุณพบเห็นข้อความหรือความคิดเห็นใดๆ ที่ไม่เหมาะสม สามารถแจ้งฝ่ายบริการลูกค้าผ่านทาง hsrcs_psn@hoyoverse.com ได้ทุกเมื่อ",
  "630074059": "ฟังก์ชันนี้อยู่ระหว่างการปิดปรับปรุง",
  "989248170": "ดาวน์โหลดทรัพยากรล่วงหน้า",
  "-750517657": "กำลังคำนวณขนาดทรัพยากร...",
  "-142421313": "หลังจากดาวน์โหลดล่วงหน้าสำเร็จแล้ว เมื่อปล่อยเวอร์ชันใหม่ออกมา คุณจะสามารถเข้าสู่เกมได้เร็วยิ่งขึ้น\\nยืนยันที่จะดาวน์โหลดทรัพยากรเวอร์ชันใหม่ล่วงหน้าหรือไม่?",
  "-1870906904": "ดาวน์โหลดล่วงหน้าเสร็จสิ้นแล้ว",
  "1894204417": "กำลังดาวน์โหลดทรัพยากร...",
  "-344983707": "การกลับไปที่หน้าเมนูหลักจะ <color=#f29e38ff>หยุดการดาวน์โหลดแพ็กทรัพยากรชั่วคราว</color> โดยจะสามารถทำการดาวน์โหลดต่อได้ เมื่อกลับเข้ามาในครั้งถัดไป ต้องการกลับไปที่หน้าเมนูหลักหรือไม่?",
  "1507264103": "กำลังดาวน์โหลดทรัพยากร",
  "-1170157658": "ผู้บุกเบิกที่รัก ขณะนี้การดาวน์โหลดทรัพยากรได้เสร็จสิ้นแล้ว โปรดดาวน์โหลดทรัพยากรที่สมบูรณ์เพื่อสานต่อการเดินทางที่น่าตื่นเต้นต่อไป ทั้งนี้ระหว่างการดาวน์โหลด รวมไปถึงการอัปเดตทรัพยากรของไคลเอนต์เกม จะไม่สามารถเข้าสู่เกมได้\\nรองรับการดาวน์โหลดต่อในพื้นหลัง และระบบจะทำการแจ้งเตือนเมื่อดาวน์โหลดเสร็จสิ้น",
  "39175154": "ผู้บุกเบิกที่รัก เราขอแนะนำให้คุณดาวน์โหลดทรัพยากรที่สมบูรณ์ เพื่อสัมผัสประสบการณ์การเดินทางของคุณ\\nรองรับการดาวน์โหลดต่อในพื้นหลัง และระบบจะทำการแจ้งเตือนเมื่อดาวน์โหลดเสร็จสิ้น",
  "-1261593137": "ดาวน์โหลดชุดทรัพยากรที่สมบูรณ์",
  "519445645": "ขนาดทรัพยากร:",
  "1822513095": "คุณได้เปลี่ยนมาเป็นเครือข่ายมือถือแล้ว ต้องการดาวน์โหลดต่อหรือไม่?",
  "-521799574": "แจ้งเตือนการดาวน์โหลด",
  "1364852514": "ระบบเกิดข้อผิดพลาด (#1)",
  "951352232": "กลับ",
  "-2027882201": "เลื่อนอ่าน",
  "-1063251765": "ดาวน์โหลดเสร็จสิ้น",
  "-539780618": "กำลังดาวน์โหลดทรัพยากร...",
  "-1194070923": "ความเร็วในดาวน์โหลดปัจจุบัน:",
  "1101186259": ", เวลาที่เหลือ:",
  "158747613": "ค่าไคลเอนต์ปัจจุบันหรือเวอร์ชันของทรัพยากร ไม่สอดคล้องกับเวอร์ชันของเซิร์ฟเวอร์ โปรดติดต่อเจ้าหน้าที่ที่เกี่ยวข้อง",
  "-2002758923": "เราได้เลือกเซิร์ฟเวอร์ที่คุณภาพดีที่สุดสำหรับคุณแล้ว\\nแน่ใจหรือไม่ที่จะเปลี่ยนเซิร์ฟเวอร์เป็น\\n\"#1\"\\n\\nหมายเหตุ: ข้อมูลตัวละครของแต่ละเซิร์ฟเวอร์จะไม่เชื่อมต่อกัน",
  "-2025942164": "การเปลี่ยนโหมดแสดงผล จะมีผลเมื่อรีสตาร์ตเกมในครั้งต่อไป",
  "-1721157021": "โหมดปกติ",
  "-1712056345": "โหมดความเข้ากันได้",
  "-1604595962": "ตั้งค่าการแสดงผล",
  "778308962": "ช่วงเสียงไดนามิก",
  "2089768880": "อัตโนมัติ",
  "1301793381": "หูฟัง",
  "-1100339724": "ค่าเริ่มต้น",
  "812122310": "ปรับความสว่างของเกม",
  "-1773639219": "ปิด",
  "-605891328": "เปิดการแจ้งเตือนของระบบ เพื่อรับข้อความแจ้งเตือน",
  "-628496434": "ศูนย์ผู้ใช้งาน",
  "-1036797452": "Anti-Aliasing",
  "1571467294": "คุณภาพตัวละคร",
  "2121425095": "เอฟเฟกต์แสง (Bloom)",
  "-1790528414": "การจัดการโฆษณา",
  "-1028540803": "ความละเอียด",
  "1322368159": "มอบหมายการทำคำขอเสร็จสิ้น",
  "-495583877": "FPS",
  "532924288": "คุณภาพกราฟิก",
  "-358081377": "คุณภาพแสง",
  "-1635836839": "ระดับเสียงดนตรี",
  "-964786894": "นโยบายความเป็นส่วนตัว",
  "-2146107594": "คุณภาพการสะท้อน",
  "-324016192": "คุณภาพของเอฟเฟกต์",
  "-1576424918": "รายละเอียดฉาก",
  "417386691": "คุณภาพของเงา",
  "397299267": "ระดับเสียงเอฟเฟกต์",
  "1975808096": "พลังบุกเบิกฟื้นฟูเต็มแล้ว",
  "-1839757053": "ภาษาในเกม",
  "23538652": "ระดับเสียงหลัก",
  "-1085323529": "ข้อตกลงการบริการ",
  "-370309163": "V-Sync",
  "1144050928": "ภาษาเสียงพากย์",
  "1906999544": "ระดับเสียงสนทนา",
  "-1166267866": "ไป",
  "-539037458": "#1x#2",
  "-1379977021": "ตรวจหาค่าความสว่างสูงสุดของหน้าจอ HDR",
  "-1340173514": "รีเซ็ต",
  "-1394624238": "กลับไปขั้นก่อนหน้า",
  "1927252486": "สามารถปรับได้ใน \"ตั้งค่า - กราฟิก\" หลังจากเข้าสู่เกม",
  "-801630869": "ปรับจนกว่าจะมองเห็นลวดลายที่อยู่ตรงกลางได้เล็กน้อย",
  "-784871167": "สว่าง",
  "-462760445": "มืด",
  "-985988607": "การตั้งค่าการแสดงผลปัจจุบันนั้นค่อนข้างสูง ซึ่งอาจทำให้อุปกรณ์ร้อนขึ้น จนทำให้เกมสะดุดได้",
  "1249857882": "<unbreak>120</unbreak>",
  "-478651376": "<unbreak>30</unbreak>",
  "1209683745": "<unbreak>60</unbreak>",
  "-953688934": "ปิด",
  "-1328219103": "กำหนดเอง",
  "-848478178": "FXAA",
  "841606793": "#1x#2 เต็มจอ",
  "-1144097826": "สูง",
  "17481744": "ต่ำ",
  "994881107": "กลาง",
  "1080743946": "เปิด",
  "1240890064": "TAA",
  "996001262": "สูงมาก",
  "-2028362208": "ต่ำมาก",
  "-59544482": "MetalFX",
  "554533651": "เปิด",
  "-1934528832": "ตั้งค่า",
  "-663055993": "ความละเอียดการเรนเดอร์",
  "1414319684": "บัญชี",
  "-458466366": "กราฟิก",
  "-1723423623": "ภาษา",
  "-1543303433": "ข้อความ",
  "1026638059": "เสียง",
  "1933636533": "ตั้งค่าบัญชี",
  "-132770945": "ตั้งค่ากราฟิก",
  "-1456349696": "ตั้งค่าภาษา",
  "1110226542": "ตั้งค่าการแจ้งเตือนแบบพุช",
  "450754340": "ตั้งค่าเสียง",
  "-968657836": "ความสมดุลของเสียง",
  "-317856315": "健康游戏忠告",
  "2141265850": "抵制不良游戏，拒绝盗版游戏。注意自我保护，谨防受骗上当。适度游戏益脑，沉迷游戏伤身。合理安排时间，享受健康生活。",
  "-1249895293": "บางคนอาจมีอาการลมชักเฉียบพลันเมื่อได้รับชมภาพบางภาพ รวมถึงแสงกะพริบหรือฉากที่ปรากฏในเกม ซึ่งการเล่นเกมอาจกระตุ้นให้บุคคลเหล่านี้เกิดอาการลมชักได้ แม้กระทั่งผู้ที่ไม่เคยมีประวัติว่าเป็นโรคลมชักมาก่อน ก็อาจมีอาการคล้ายกับลมชักขณะเล่นเกมได้ หากคุณหรือครอบครัวเคยมีประวัติว่าเป็นโรคลมชัก กรุณาปรึกษาแพทย์ก่อนการเล่นเกม ขณะเล่นเกมหากคุณมีอาการปวดตา, ความผิดปกติทางสายตา, ปวดไมเกรน, เป็นตะคริวหรือเกิดความผิดปกติทางการรู้สึกตัว (เช่น หมดสติ) โปรดหยุดเล่นเกมทันทีและปรึกษาแพทย์ก่อนที่จะกลับมาเล่นเกมอีกครั้ง",
  "-740499222": "คำเตือน: สิ่งที่ควรทราบก่อนเล่นเกม",
  "-1363477176": "{LAYOUT_MOBILE#审批文号：国新出审[<unbreak>2023</unbreak>]<unbreak>16</unbreak>号 ISBN <unbreak>978</unbreak>-7-<unbreak>498</unbreak>-<unbreak>10006</unbreak>-1 出版单位：上海声像电子出版社\\n著作权人：上海米哈游海渊城科技有限公司}{LAYOUT_CONTROLLER#审批文号：国新出审[<unbreak>2023</unbreak>]<unbreak>16</unbreak>号 ISBN <unbreak>978</unbreak>-7-<unbreak>498</unbreak>-<unbreak>10006</unbreak>-1 出版单位：上海声像电子出版社\\n著作权人：上海米哈游海渊城科技有限公司}{LAYOUT_KEYBOARD#审批文号：国新出审[<unbreak>2023</unbreak>]<unbreak>16</unbreak>号 ISBN <unbreak>978</unbreak>-7-<unbreak>498</unbreak>-<unbreak>10006</unbreak>-1 出版单位：上海声像电子出版社\\n著作权人：上海米哈游海渊城科技有限公司}{LAYOUT_CONTROLLER_PS#著作权人：上海米哈游海渊城科技有限公司}",
  "1714821062": "สิทธิ์การทดสอบหมดอายุแล้ว",
  "27517590": "ฟังก์ชันนี้ปิดชั่วคราว โปรดติดตามประกาศของเกมเพื่อดูรายละเอียดเพิ่มเติม",
  "430802117": "ไม่สามารถรับรางวัลได้เนื่องจากความผิดปกติ โปรดติดตามประกาศของเกมเพื่อดูรายละเอียดเพิ่มเติม",
  "1655744409": "กำลังใช้งาน",
  "-13012819": "ลบ",
  "-209117183": "จัดการทรัพยากรเสียง",
  "-601256312": "จัดการทรัพยากรเสียง",
  "-65896461": "คุณยืนยันที่จะลบ #1 หรือไม่?",
  "-1967373540": "แจ้งเตือนการลบ",
  "1986863792": "ดาวน์โหลด",
  "2079876877": "ยกเลิกการดาวน์โหลด",
  "-1191067045": "ดาวน์โหลดแพ็กขยายเสียงสำเร็จแล้ว ต้องการใช้ #1 หรือไม่?",
  "-1532151295": "ดาวน์โหลดทรัพยากรเสร็จสิ้น",
  "-1040668088": "กำลังดาวน์โหลดทรัพยากร...",
  "971030287": "ดาวน์โหลดทรัพยากร",
  "-1617346749": "การดาวน์โหลดแพ็กขยายเสียงยังไม่เสร็จสมบูรณ์ ต้องการดาวน์โหลด #1 หรือไม่?",
  "-1943128427": "ขนาดทรัพยากร:",
  "-1681198979": "ไม่มีตัวเลือกเสียงที่สามารถใช้งานได้",
  "-368945552": "Tiếng Việt"
}