{
  "-1835491474": "Se interrumpió la conexión, revisa tu red...",
  "893391881": "Tiempo de espera de la red sobrepasado, revisa tu red...",
  "-672692060": "Error en la descarga. Inténtalo de nuevo más tarde.",
  "1575214836": "En estos momentos no tienes permiso para esto.",
  "-539900375": "Confirmar",
  "-268532022": "Salir del juego",
  "628734941": "El cliente instalado no es la última versión. Reinstálalo o ponte en contacto con Atención al Cliente.",
  "875924975": "Chino",
  "633642276": "简体中文",
  "-1281611725": "Aviso",
  "776664556": "Confirmar",
  "-1344836126": "Cancelar",
  "-66948286": "Continuar",
  "753711393": "No",
  "-193842297": "Sí",
  "-1112638896": "Se perdió la conexión con el servidor. Vuelve a iniciar sesión.",
  "-374251478": "Inglés",
  "1782768777": "English",
  "-755645786": "Español",
  "983886567": "Français",
  "213298305": "Deutsch",
  "-1628012770": "Error de distribución global. Revisa tu conexión de red, reinicia e inténtalo de nuevo.",
  "1027467793": "Error en la descarga de recursos del parche rápido. Revisa tu conexión de red, reinicia el juego e inténtalo de nuevo.",
  "-2007616050": "Se completó la actualización de recursos, reinicia el juego y vuelve a entrar.",
  "1967160651": "Error en los datos del parche rápido. Revisa tu conexión de red, reinicia el juego e inténtalo de nuevo.",
  "-1532802051": "No se pudieron actualizar los datos. Revisa tu conexión de red, reinicia el juego e inténtalo de nuevo.",
  "-488115304": "Actualización completada. El juego se reiniciará.",
  "12093101": "Bahasa Indonesia",
  "-1391003685": "Japonés",
  "317185992": "日本語",
  "-1597323374": "Coreano",
  "-595256385": "한국어",
  "-1502079221": "No se pudieron borrar los recursos. Reinicia el juego.",
  "-1502079222": "Recursos borrados. Reinicia el juego.",
  "-1906570110": "Vincular cuenta",
  "-1360809191": "La contraseña ha cambiado. Se ha forzado el cierre de sesión.",
  "-1990965415": "La cuenta no está en línea",
  "4301758": "Português",
  "1251875567": "Honkai: Star Rail",
  "-101987035": "Información obtenida correctamente.",
  "1464096906": "No se pudo obtener la información.",
  "-1854797350": "Demasiadas operaciones, inténtalo de nuevo más tarde.",
  "1058611706": "Volviendo a iniciar sesión automáticamente...",
  "1058611705": "Preparando el reinicio de sesión...",
  "1058611704": "Iniciando sesión, espera...",
  "1058611703": "No se puede iniciar sesión en tu cuenta.",
  "1058611710": "No se puede iniciar sesión en tu cuenta.",
  "1058611709": "Error de verificación de cuenta.",
  "1058611708": "Error de información de la cuenta.",
  "1058611707": "No puedes entrar para prevenir la adicción al juego.",
  "1058611698": "Error de verificación (<unbreak>1008</unbreak>)",
  "1058611697": "El servidor está demasiado lleno, inténtalo de nuevo más tarde.",
  "-507472235": "Ya se estableció el nombre y el sexo del personaje.",
  "-507472236": "Error de selección de sexo (<unbreak>1011</unbreak>)",
  "-507472237": "Obteniendo la información del jugador...",
  "-507472238": "Esta cuenta está suspendida y por el momento no puedes iniciar sesión. Ponte en contacto con atención al cliente para obtener más detalles.",
  "-1854797351": "Sistema ocupado.",
  "1058611737": "¡Recompensa ya recogida!",
  "1058611738": "No se pudo recibir la misión.",
  "1058611735": "No se puede completar la misión.",
  "1058611736": "Error al obtener el estado de la misión.",
  "1058611741": "Nivel de logro no alcanzado.",
  "1058611742": "Recompensa ya recogida.",
  "1058611640": "La información del personaje no existe.",
  "1058611639": "Error desconocido (<unbreak>1201</unbreak>)",
  "1058611642": "EXP máxima alcanzada, asciende al personaje.",
  "1058611641": "Nivel máximo de ascensión alcanzado.",
  "1058611644": "Error al obtener la configuración del Rastro.",
  "1058611643": "Rastro ya desbloqueado.",
  "1058611646": "Activa el Rastro anterior.",
  "1058611645": "El nivel del personaje es demasiado bajo.",
  "1058611632": "Tienes que ascender el personaje.",
  "1058611631": "El personaje no tiene ningún cono de luz equipado.",
  "-507472301": "No se encontraron materiales de EXP.",
  "-507472302": "Este Rastro está bloqueado.",
  "-507472299": "No se ha alcanzado el nivel de Rastro requerido.",
  "-507472300": "Nivel máximo de Rastro alcanzado.",
  "-507472297": "No se ha alcanzado el nivel de Equilibrio requerido.",
  "-507472298": "No se ha alcanzado el nivel trazacaminos requerido.",
  "-507472295": "El Eidolon no existe.",
  "-507472296": "Nivel máximo de Eidolon alcanzado.",
  "-507472309": "No se pudo obtener la Vía del personaje principal (<unbreak>1218</unbreak>)",
  "-507472310": "Error del sistema (<unbreak>1219</unbreak>)",
  "-2073556242": "Error del sistema (<unbreak>1220</unbreak>)",
  "-2073556243": "Recompensa de ascensión ya recogida.",
  "1058611671": "El objeto no existe.",
  "1058611672": "Cantidad insuficiente.",
  "1058611673": "No se pueden consumir más objetos.",
  "1058611674": "Error desconocido (<unbreak>1303</unbreak>)",
  "1058611675": "¡Objetos insuficientes en el inventario!",
  "1058611676": "El objeto no existe.",
  "1058611677": "No se pudo obtener la configuración del objeto.",
  "1058611678": "¡Créditos insuficientes!",
  "1058611663": "Algunos de los objetos de tu inventario han alcanzado el límite. Elimina algunos.",
  "1058611664": "No se pudo obtener el tipo de objeto, no se puede usar.",
  "-507472270": "No se pudieron obtener los datos de uso del objeto.",
  "-507472269": "No se pudieron obtener las recompensas.",
  "-507472268": "Has alcanzado el número máximo de <color=#f29e38ff>#1</color> en el inventario. Elimina algunos.",
  "-507472267": "Los datos del objeto no son válidos.",
  "-507472266": "Los datos del objeto no son válidos.",
  "-507472265": "Cantidad máxima de curaciones alcanzada.",
  "-507472264": "No se pudo obtener la fórmula del material.",
  "-507472263": "No se pudo obtener la fórmula para sintetizar el artefacto.",
  "-507472278": "Este objeto no se puede vender.",
  "-507472277": "Se superó el límite de objetos en venta.",
  "-2073556211": "No se pudo obtener la receta.",
  "-2073556210": "Materiales insuficientes.",
  "-2073556209": "Error de selección de material.",
  "-2073556208": "No se pudo obtener la receta.",
  "-2073556207": "No se pudo obtener la información del paquete.",
  "-2073556206": "Selecciona el artefacto que quieras sintetizar.",
  "-2073556205": "Error del sistema (<unbreak>1326</unbreak>)",
  "-2073556204": "No se pudo obtener la información de la receta (<unbreak>1327</unbreak>)",
  "-2073556219": "No se pudo obtener la información del artefacto (<unbreak>1328</unbreak>)",
  "-2073556218": "Error en la cantidad de artefactos a sintetizar (<unbreak>1329</unbreak>)",
  "655327144": "Error del sistema (<unbreak>1330</unbreak>)",
  "655327145": "Límite de días efectivos acumulados alcanzado.",
  "655327146": "Algunos objetos de tu inventario han alcanzado el límite y no se pueden seguir obteniendo.",
  "655327147": "Error del sistema (<unbreak>1333</unbreak>)",
  "655327148": "Error del sistema (<unbreak>1334</unbreak>)",
  "655327149": "¡Este objeto no se puede destruir!",
  "655327151": "¡Has alcanzado el máximo de favoritos!",
  "655327137": "¡No has equipado ningún consumible de urgencia!",
  "-1266987157": "¡Ya has equipado un consumible de urgencia!",
  "-1266987156": "No puedes equiparte este tipo de consumibles.",
  "-1266987153": "Estás canjeando demasiados artículos. Reduce la cantidad y vuelve a intentarlo.",
  "1461896198": "Cono de luz ya equipado.",
  "1461896199": "No se encontró el cono de luz objetivo.",
  "1461896200": "Nivel máximo de equipamiento alcanzado.",
  "1461896201": "No se puede consumir el sujeto como material.",
  "1461896202": "Cono de luz ya bloqueado.",
  "1461896203": "Cono de luz ya desbloqueado.",
  "1461896204": "Cono de luz ya bloqueado.",
  "1461896205": "No se pueden consumir demasiados objetos.",
  "1461896190": "La superposición requiere un cono de luz igual.",
  "1461896191": "Mayor nivel de ascensión alcanzado.",
  "-104187743": "Nivel máx. de superposición alcanzado.",
  "-104187742": "Nivel máximo alcanzado.",
  "-104187741": "Has alcanzado el número máximo de <color=#f29e38ff>conos de luz</color> en el inventario. Elimina algunos.",
  "-104187740": "El artefacto no existe.",
  "-104187739": "El artefacto ya alcanzó el nivel máximo.",
  "-104187738": "No se puede usar la potenciación del artefacto.",
  "-104187737": "Artefacto ya equipado.",
  "-104187736": "Artefacto bloqueado.",
  "-104187751": "Artefacto bloqueado.",
  "-104187750": "Artefacto desbloqueado.",
  "-1670271684": "El nivel del artefacto no puede ser 0.",
  "-1670271683": "Información de artefacto repetida.",
  "-1670271682": "Nivel de cono de luz insuficiente.",
  "-1670271681": "Error en los materiales de superposición del cono de luz.",
  "-1670271680": "Error del sistema (<unbreak>1374</unbreak>)",
  "-1670271679": "Error del sistema (<unbreak>1375</unbreak>)",
  "-1670271678": "Has alcanzado el número máximo de <color=#f29e38ff>artefactos</color> en el inventario. Elimina algunos.",
  "-1670271691": "Demasiadas operaciones, inténtalo de nuevo más tarde.",
  "1058611838": "Error del número de equipo.",
  "1058611837": "Error de posición del equipo.",
  "1058611836": "Cambiar posición de los miembros",
  "1058611835": "Ese miembro ya está en el equipo.",
  "1058611834": "Fallo en los datos de despliegue del equipo.",
  "1058611833": "No se pudo inicializar el personaje (<unbreak>1405</unbreak>)",
  "1058611832": "El equipo no existe.",
  "1058611831": "No puede haber menos de un miembro en el equipo.",
  "1058611830": "Error desconocido (<unbreak>1408</unbreak>)",
  "1058611829": "En el equipo debe haber al menos un personaje que pueda usarse.",
  "-507472103": "Error de información del equipo (<unbreak>1410</unbreak>)",
  "-507472104": "El miembro del equipo no existe.",
  "-507472105": "El personaje de prueba no puede abandonar el equipo.",
  "-507472106": "La información del escenario del personaje de prueba no está sincronizada.",
  "-507472107": "Error desconocido (<unbreak>1414</unbreak>)",
  "-507472108": "Cambio de equipo repetido.",
  "-507472109": "¡No hay miembros en el equipo!",
  "-507472110": "Error en el formato de nombre del equipo.",
  "-507472111": "El tipo de equipo no es compatible.",
  "-507472112": "No se pudo modificar la formación (<unbreak>1419</unbreak>)",
  "-2073556044": "No se puede editar el equipo actual.",
  "-2073556045": "Error #0X<unbreak>001421</unbreak>: Personaje ya revivido.",
  "-2073556046": "El equipo no puede estar vacío.",
  "-2073556047": "En el equipo ya hay personajes de apoyo.",
  "-2073556048": "Ese personaje no puede unirse a la formación.",
  "-2073556049": "Se han introducido caracteres incorrectos.",
  "-2073556050": "Personaje bloqueado.",
  "1058611803": "El correo no existe.",
  "1058611804": "No se pudo obtener el correo.",
  "1058611805": "ID de correo ilegal.",
  "1058611806": "No hay mensajes para recoger.",
  "1058611799": "No hay mensajes para borrar.",
  "1058611800": "Error del tipo de correo (<unbreak>1705</unbreak>)",
  "1058611801": "Error de parámetro del correo (<unbreak>1706</unbreak>)",
  "1058611802": "Error de parámetro del correo (<unbreak>1707</unbreak>)",
  "1058611795": "Error de parámetro del correo (<unbreak>1708</unbreak>)",
  "1058611796": "Error de parámetro del correo (<unbreak>1709</unbreak>)",
  "1058611442": "Error en la finalización de la etapa.",
  "1058611441": "La configuración de la etapa no existe.",
  "1058611440": "No se pudieron encontrar los datos de la etapa correspondiente.",
  "1058611446": "No existe información del Cáliz.",
  "1058611445": "No se pudo obtener la oleada del Cáliz.",
  "1058611444": "Anomalía en el ID del objeto interactuable.",
  "1058611443": "La oleada generada y la cantidad seleccionada no coinciden.",
  "1058611450": "No queda ningún intento de uso.",
  "1058611449": "Error de hora de comienzo (<unbreak>1809</unbreak>)",
  "-507472499": "Función aún no disponible.",
  "-507472500": "¡La etapa limitada aún no está disponible!",
  "-507472501": "¡Tipo de Cáliz erróneo!",
  "1058611473": "Error desconocido (<unbreak>1900</unbreak>)",
  "1058611474": "Error desconocido (<unbreak>1901</unbreak>)",
  "1058611471": "Error desconocido (<unbreak>1902</unbreak>)",
  "1058611472": "Error desconocido (<unbreak>1903</unbreak>)",
  "1060812379": "Error de interacción del servidor.",
  "2080248619": "Error de información de la etapa (<unbreak>2000</unbreak>)",
  "2080248618": "¡Ya estás en una batalla!",
  "2080248617": "No se pudo verificar la etapa (<unbreak>2002</unbreak>)",
  "2080248616": "Fallo en la batalla.",
  "2080248623": "No se pudo obtener la composición del equipo.",
  "2080248622": "No se pudo obtener el personaje del equipo.",
  "2080248621": "Error de sincronización de batalla. Reinicia el juego y vuelve a intentarlo.",
  "2080248620": "Se abandonó la batalla por un error de los datos (<unbreak>2007</unbreak>)",
  "2080248611": "Verificando, espera un momento.",
  "2080248610": "Error desconocido.",
  "-648634736": "Error de verificación (<unbreak>2010</unbreak>)",
  "2080248650": "No se puede canjear más Poder trazacaminos.",
  "2080248651": "Poder trazacaminos insuficiente.",
  "2080248648": "Tienes demasiado Poder trazacaminos. ¡No puedes canjearlo!",
  "2080248649": "Error desconocido (<unbreak>2103</unbreak>)",
  "2080248654": "Error desconocido (<unbreak>2104</unbreak>)",
  "2080248655": "Lo que has escrito contiene caracteres inválidos.",
  "2080248652": "El nombre contiene palabras o símbolos no permitidos.",
  "2080248653": "Recompensa de nivel ya reclamada.",
  "2080248642": "Error al obtener la recompensa de nivel.",
  "2080248643": "Tipo de idioma no compatible.",
  "-648634705": "No se puede cambiar el nombre en este momento, inténtalo de nuevo más tarde.",
  "-648634704": "Error en el formato de fecha/hora.",
  "-648634707": "No se puede cambiar la fecha del cumpleaños.",
  "-648634706": "Se han introducido caracteres incorrectos.",
  "-648634701": "Máximo 6 caracteres.",
  "-648634700": "Sistema ocupado, intenta de nuevo más tarde o ponte en contacto con Atención al Cliente.",
  "2080248553": "Fragmentum sin completar.",
  "2080248552": "Error desconocido (<unbreak>2201</unbreak>)",
  "2080248555": "¡No se cumplen las condiciones de desbloqueo de esa zona!",
  "2080248554": "Error desconocido (<unbreak>2203</unbreak>)",
  "2080248557": "No has seleccionado un efecto positivo.",
  "2080248556": "No se puede localizar esa zona.",
  "2080248559": "La etapa del Fragmentum no coincide.",
  "2080248558": "La configuración del mapa no existe.",
  "2080248545": "El tipo de Fragmentum no existe, revisa la configuración.",
  "2080248544": "Fragmentum completado.",
  "-648634802": "Error de configuración del Fragmentum (<unbreak>2210</unbreak>)",
  "-648634803": "Error al obtener la ubicación del Fragmentum (<unbreak>2211</unbreak>)",
  "-648634800": "No se puede usar la técnica.",
  "-648634801": "Puntos de técnica insuficientes.",
  "-648634798": "Sin activar.",
  "-648634799": "Ancla del espacio en TdE.",
  "-648634796": "Demasiado lejos.",
  "-648634797": "No se pudo localizar la ubicación del Fragmentum.",
  "-648634810": "No se pudo obtener la ubicación de la zona (<unbreak>2218</unbreak>)",
  "-648634811": "No se pudo localizar la ubicación del Fragmentum (<unbreak>2219</unbreak>)",
  "917449139": "No se pudo localizar la ubicación del Fragmentum (<unbreak>2220</unbreak>)",
  "917449138": "Intentos de uso insuficientes (<unbreak>2221</unbreak>)",
  "917449141": "Configuración horaria del mapa completada.",
  "917449140": "Error en la configuración horaria del mapa (<unbreak>2223</unbreak>)",
  "917449143": "En la historia actual no se puede usar la teletransportación.",
  "2080248584": "Historia bloqueada.",
  "2080248751": "No se pudo obtener la información de la misión.",
  "2080248750": "Misión completada.",
  "2080248749": "Misión diaria sin completar.",
  "2080248748": "Recompensa de la misión diaria ya recogida.",
  "2080248747": "Misión de aventura sin completar.",
  "2080248746": "La misión no está en curso.",
  "2080248745": "Error en el tipo de compleción de la misión.",
  "2080248744": "Desajuste en el escenario de la misión.",
  "2080248743": "Error de los datos (<unbreak>2408</unbreak>)",
  "2080248742": "La misión no coincide (<unbreak>2409</unbreak>)",
  "2080248782": "Error desconocido (<unbreak>2500</unbreak>)",
  "2080248685": "¡No se pudo obtener el escenario! (<unbreak>2600</unbreak>)",
  "2080248684": "¡No se pudo obtener el escenario! (<unbreak>2601</unbreak>)",
  "2080248687": "El enemigo no existe.",
  "2080248686": "La configuración de interacción no existe.",
  "2080248681": "Estado de objeto no compatible.",
  "2080248680": "No se cargó el escenario.",
  "2080248683": "Error en la verificación móvil.",
  "2080248682": "Límite de objetivos enemigos superado.",
  "2080248677": "No se pudo usar la habilidad.",
  "2080248676": "El cliente no puede ver la información del objeto.",
  "-648634670": "Escenario cargado correctamente.",
  "-648634671": "Tipo de interacción incorrecto.",
  "-648634668": "Tipo de interacción no compatible.",
  "-648634669": "Fallo en la verificación de alcance de interacción.",
  "-648634674": "Subtipo de función de interacción no compatible.",
  "-648634675": "Error al obtener la información del equipo.",
  "-648634672": "Error en la configuración de Sombra paralizada (<unbreak>2616</unbreak>)",
  "-648634673": "Error en la configuración de información de enemigo (<unbreak>2617</unbreak>)",
  "-648634678": "PV del personaje al máximo.",
  "-648634679": "El contenido de interacción no coincide (<unbreak>2619</unbreak>)",
  "917449271": "Error en la escena de interacción (<unbreak>2620</unbreak>)",
  "917449270": "Error al obtener los datos del mapa.",
  "917449273": "Demasiados intentos para guardar los datos.",
  "917449272": "Error desconocido.",
  "917449267": "No se pudieron obtener los resultados de la batalla.",
  "917449266": "No se pudo obtener la información de la etapa.",
  "917449269": "Error de los datos (<unbreak>2626</unbreak>)",
  "917449262": "Error del sistema (<unbreak>2629</unbreak>)",
  "2080248716": "Límite de compra alcanzado.",
  "2080248717": "¡No se cumplen las condiciones de compra!",
  "2080248718": "Tienda no disponible.",
  "2080248719": "Producto no disponible.",
  "2080248712": "Recompensa ya recogida.",
  "2080248713": "No se cumplen los requisitos de recogida.",
  "2080248714": "Límite de compra alcanzado.",
  "1320733830": "Tutorial bloqueado.",
  "1320733831": "Tutorial desbloqueado.",
  "1320733832": "Tutorial completado.",
  "1320733825": "Tutorial prerrequisito bloqueado.",
  "1320733826": "Nivel trazacaminos insuficiente.",
  "1320733827": "No se pudo obtener el tutorial.",
  "2080248354": "El Salón olvidado no existe.",
  "2080248353": "El Salón olvidado está bloqueado.",
  "2080248352": "Salón olvidado en curso.",
  "2080248359": "Ahora mismo no se puede editar el equipo.",
  "2080248358": "No se encontró el equipo.",
  "2080248357": "Etapa en curso.",
  "2080248356": "Salón olvidado no finalizado.",
  "2080248363": "No se completó el objetivo del desafío.",
  "2080248362": "Ya se recogió la recompensa.",
  "-648635000": "Error de hora de comienzo del sistema (<unbreak>2810</unbreak>)",
  "-648635001": "Error en los requisitos de la recompensa.",
  "-648635002": "Recompensa ya recogida.",
  "-648635003": "No se pudo obtener la información de la recompensa.",
  "1320733468": "Ya cambiado a la misma Vía.",
  "1320733467": "No se pudo obtener la Vía.",
  "1320733466": "Error de selección de Vía (<unbreak>2852</unbreak>)",
  "1320733465": "En este momento no se puede cambiar la Vía.",
  "1320733472": "Selecciona el receptáculo.",
  "2080248387": "Error #0X<unbreak>002901</unbreak>: Interrupción del servicio del Universo Simulado.",
  "2080248384": "Error #0X<unbreak>002902</unbreak>: Los datos de la bendición seleccionada no coinciden.",
  "2080248385": "Error #0X<unbreak>002903</unbreak>: Fragmentos cósmicos insuficientes.",
  "2080248391": "Error #0X<unbreak>002905</unbreak>: No se pudo ejecutar el código.",
  "2080248388": "Error #0X<unbreak>002906</unbreak>: Módulo actual ya en uso.",
  "2080248389": "Error #0X<unbreak>002907</unbreak>: Partida ya guardada.",
  "2080248394": "Error #0X<unbreak>002908</unbreak>: Límite de reinicios alcanzado.",
  "2080248395": "Error 0X<unbreak>002909</unbreak>: no se puede cambiar de personaje en este momento.",
  "-648634969": "Error #0X<unbreak>002910</unbreak>: El encargo ha caducado.",
  "-648634968": "Error 0X<unbreak>002911</unbreak>: recompensa ya recogida.",
  "-648634971": "Intentos para revivir insuficientes.",
  "-648634970": "Error al obtener la información del mapa.",
  "-648634965": "No se pudo obtener la información de la recompensa.",
  "-648634964": "No se pudo obtener la información de la recompensa.",
  "-648634967": "Nivel de percepción insuficiente.",
  "-648634966": "Recompensa ya recogida (<unbreak>2917</unbreak>)",
  "-648634961": "Error del sistema (<unbreak>2918</unbreak>)",
  "-648634960": "Error del sistema (<unbreak>2919</unbreak>)",
  "917448972": "Recompensa de la enciclopedia del Universo Simulado recogida",
  "917448973": "Error del sistema (<unbreak>2921</unbreak>)",
  "917448970": "¡Este producto no existe!",
  "917448971": "¡Ya has comprado este producto!",
  "917448976": "¡Ya tienes este producto!",
  "917448977": "El objeto raro no existe.",
  "917448974": "Tienda no disponible.",
  "917448975": "No se puede actualizar la tienda.",
  "1320733500": "El evento no existe.",
  "1320733497": "Error desconocido (<unbreak>2952</unbreak>)",
  "1320733498": "Evento ya completado.",
  "1320733503": "Evento en curso.",
  "1320733504": "Ya hay un desafío en curso.",
  "1320733501": "El evento no es de desafío.",
  "-1668070976": "Tiempo de espera del servidor excedido.",
  "776286703": "No se puede realizar el Salto.",
  "776286702": "No se pudo obtener el número de Saltos.",
  "776286701": "Primero realiza un Salto individual.",
  "776286708": "Error en la información del Salto (<unbreak>3004</unbreak>)",
  "776286707": "Error en la información del Salto (<unbreak>3005</unbreak>)",
  "776286706": "Error en la información del Salto (<unbreak>3006</unbreak>)",
  "776286705": "Hoy ya llegaste al límite de Saltos.",
  "776286696": "Error en la información del Salto.",
  "776286695": "Intentos de Saltos insuficientes, no puedes seleccionar la recompensa adicional.",
  "-789797237": "Ya se recogió el personaje de recompensa.",
  "1179571230": "Registros trazacaminos inexistentes.",
  "1179571229": "Error en las recompensas del nivel de exploración.",
  "1179571228": "Recompensa ya recogida (<unbreak>3053</unbreak>)",
  "1179571235": "No se pudo obtener la misión.",
  "1179571234": "No se completó la misión.",
  "1179571233": "Recompensa ya recogida (<unbreak>3056</unbreak>)",
  "776286736": "No se pudo obtener el progreso (<unbreak>3101</unbreak>)",
  "776286733": "En curso",
  "776286734": "No se pudo interactuar con el objeto (<unbreak>3103</unbreak>)",
  "776286739": "No se pudo interactuar con el objeto (<unbreak>3104</unbreak>)",
  "776286740": "No se pudo reiniciar la Caverna de la corrosión (<unbreak>3105</unbreak>)",
  "776286737": "No se cumplen los requisitos de entrada.",
  "776286738": "La lista de personajes está vacía.",
  "776286727": "El personaje no existe.",
  "776286728": "Recompensa ya recogida.",
  "-789797206": "Puntos del desafío insuficientes.",
  "-789797205": "El evento no ha comenzado.",
  "-789797208": "Mazmorra ya completada.",
  "-789797207": "Completa el desafío de dificultad anterior.",
  "-789797202": "No se puede comenzar el apoyo.",
  "-789797201": "Disparidad de personajes.",
  "-789797204": "Error del sistema (<unbreak>3116</unbreak>)",
  "-789797203": "Error del sistema (<unbreak>3117</unbreak>)",
  "-789797214": "La mazmorra del evento aún no ha abierto.",
  "-789797213": "Error en la información del equipo.",
  "1179571263": "Ya se recogieron las recompensas de diálogo.",
  "1179571260": "Diálogo inicial ya completado (<unbreak>3152</unbreak>)",
  "1179571261": "No se pudo obtener la información del diálogo (<unbreak>3153</unbreak>)",
  "1179571266": "Desajuste en el diálogo del PNJ.",
  "1179571267": "Error de selección de diálogo (<unbreak>3155</unbreak>)",
  "1179571264": "Disparidad en los requisitos de recompensa.",
  "1179571265": "Error en la verificación de recompensa.",
  "776286637": "El encargo no existe (<unbreak>3201</unbreak>)",
  "776286640": "Error al obtener las recompensas del encargo (<unbreak>3202</unbreak>)",
  "776286639": "Error del sistema (<unbreak>3203</unbreak>)",
  "776286642": "Error del sistema (<unbreak>3204</unbreak>)",
  "776286641": "Error del sistema (<unbreak>3205</unbreak>)",
  "776286644": "Error del sistema (<unbreak>3206</unbreak>)",
  "776286643": "Error del sistema (<unbreak>3207</unbreak>)",
  "776286630": "Error del sistema (<unbreak>3208</unbreak>)",
  "776286629": "Error del sistema (<unbreak>3209</unbreak>)",
  "-789797303": "¡Has enviado el máximo de equipos permitidos!",
  "-789797304": "Error del sistema (<unbreak>3211</unbreak>)",
  "-789797301": "¡El evento no ha comenzado!",
  "-789797302": "¡Error de personaje de apoyo!",
  "-789797299": "¡El encargo aún no está disponible!",
  "776286670": "Recompensa ya recogida.",
  "776286671": "No se alcanzaron los requisitos.",
  "776286672": "Recompensa ya recogida.",
  "776286673": "Etapa sin completar.",
  "776286674": "¡Recompensa recogida!",
  "776286675": "No se han enviado los materiales para el experimento.",
  "776286676": "Error del sistema (<unbreak>3307</unbreak>)",
  "776286661": "Error del sistema (<unbreak>3308</unbreak>)",
  "776286662": "Error del sistema (<unbreak>3309</unbreak>)",
  "-789797272": "Error del sistema (<unbreak>3310</unbreak>)",
  "-789797271": "Error del sistema (<unbreak>3311</unbreak>)",
  "-789797270": "Error del sistema (<unbreak>3312</unbreak>)",
  "-789797269": "Error del sistema (<unbreak>3313</unbreak>)",
  "-789797268": "Error del sistema (<unbreak>3314</unbreak>)",
  "-789797267": "Te encuentras en una prueba de personaje",
  "776286868": "No existe la obtención del mensaje (<unbreak>3501</unbreak>)",
  "776286865": "No existe la obtención del mensaje (<unbreak>3502</unbreak>)",
  "776286866": "No existe la obtención del mensaje (<unbreak>3503</unbreak>)",
  "776286863": "No existe la obtención del mensaje (<unbreak>3504</unbreak>)",
  "776286864": "No existe la obtención del mensaje (<unbreak>3505</unbreak>)",
  "776286861": "No existe la obtención del mensaje (<unbreak>3506</unbreak>)",
  "776286862": "No existe la obtención del mensaje (<unbreak>3507</unbreak>)",
  "776286769": "Este jugador ya es tu amigo.",
  "776286772": "Este jugador aún no es tu amigo.",
  "776286771": "¡La solicitud de amistad ha caducado!",
  "776286766": "¡Este jugador ya está en tu lista negra!",
  "776286765": "Ese jugador no está en tu lista negra.",
  "776286768": "Límite de amigos alcanzado.",
  "776286767": "Límite máximo de la lista negra alcanzado.",
  "776286762": "Límite de solicitudes diarias alcanzado.",
  "776286761": "Límite de solicitudes pendientes alcanzado.",
  "-789797171": "Demasiadas operaciones, inténtalo de nuevo más tarde.",
  "-789797172": "Error en el formato del nombre de la nota.",
  "-789797169": "¡No se pudo encontrar a este jugador!",
  "-789797170": "¡No puedes añadir a este amigo en este momento! Inténtalo de nuevo más tarde.",
  "-789797175": "¡Este jugador ya alcanzó el límite de amigos!",
  "-789797176": "Demasiadas solicitudes, inténtalo de nuevo más tarde.",
  "-789797173": "El personaje de apoyo no existe.",
  "-789797174": "El personaje de apoyo ya está en el equipo.",
  "-789797179": "Error en el formato del reporte.",
  "-789797180": "El texto contiene palabras incorrectas.",
  "-386512644": "Límite de uso de apoyos alcanzado.",
  "-386512645": "No hay ningún personaje de apoyo que se pueda elegir.",
  "-386512642": "El personaje de apoyo ya está en el equipo.",
  "-386512643": "No hay ninguna recompensa de apoyo que se pueda recoger.",
  "-386512648": "Demasiadas operaciones, inténtalo de nuevo más tarde.",
  "-386512649": "Demasiadas operaciones, inténtalo de nuevo más tarde.",
  "-386512646": "Se han introducido caracteres incorrectos.",
  "-386512647": "Se han introducido caracteres incorrectos.",
  "-386512652": "Ya hay un personaje de apoyo.",
  "-386512653": "¡Este jugador no acepta solicitudes de amistad!",
  "-1952596584": "Demasiadas operaciones.",
  "-1952596589": "El Perfil trazacaminos está en tiempo de espera y no puede verse.",
  "776286802": "El avatar no existe.",
  "776286803": "Ese avatar no se ha desbloqueado.",
  "776286804": "Ese avatar ya se ha desbloqueado.",
  "776286797": "Ese personaje mostrado no existe.",
  "776286798": "¡Límite de personajes para mostrar excedido!",
  "776286799": "Los personajes mostrados están repetidos.",
  "776286800": "Conflicto en la ubicación de los personajes mostrados.",
  "776286793": "Personaje mostrado sin desbloquear.",
  "776286794": "Presentación demasiado larga.",
  "-789797140": "La presentación contiene palabras no apropiadas.",
  "-789797139": "Hay un espacio vacío en la exhibición de la formación.",
  "-789797138": "El personaje de apoyo no existe.",
  "-789797137": "No se ha desbloqueado el personaje de apoyo.",
  "-789797144": "Se han introducido caracteres incorrectos.",
  "776286439": "Error al obtener los datos (<unbreak>3801</unbreak>)",
  "776286438": "No es posible recoger la recompensa por el momento (<unbreak>3802</unbreak>)",
  "776286437": "Recompensa ya recogida (<unbreak>3803</unbreak>)",
  "776286444": "No se pudo activar (<unbreak>3804</unbreak>)",
  "776286443": "Aún no se ha desbloqueado Honor anónimo.",
  "776286442": "Error en la compra (<unbreak>3806</unbreak>)",
  "776286441": "Aún no se ha desbloqueado Honor anónimo.",
  "776286448": "No se pudo recoger la recompensa (<unbreak>3808</unbreak>)",
  "776286447": "No se pudo obtener la misión (<unbreak>3809</unbreak>)",
  "-789797501": "Recompensa no seleccionada.",
  "-789797502": "No hay ninguna recompensa que se pueda recoger.",
  "-789797503": "Error al obtener la información de la recompensa.",
  "-789797504": "No se puede comprar repetidamente.",
  "-789797497": "Este objeto no puede usarse por el momento",
  "776286472": "Canción bloqueada.",
  "776286469": "No se pudo encontrar la canción correspondiente (<unbreak>3902</unbreak>)",
  "776286470": "No se pudo desbloquear la canción (<unbreak>3903</unbreak>)",
  "1867381433": "Solicitudes repetidas.",
  "-1367743672": "Intentos para buscar objetivos insuficientes.",
  "-1367743673": "Se ha alcanzado el límite de objetivos que se pueden buscar.",
  "-1367743674": "Error al obtener la información del objetivo.",
  "-1367743667": "Ataque cooperativo en curso.",
  "-1367743668": "Información del objetivo caducada.",
  "-1367743669": "Límite de ataques al objetivo alcanzado.",
  "-1367743670": "Misiles píxel insuficientes.",
  "-1367743679": "Objetivo ya derrotado.",
  "-1367743680": "Límite de participantes en el ataque alcanzado.",
  "198340270": "No se ha alcanzado el nivel de Equilibrio requerido.",
  "198340269": "No se pudo obtener la información de la recompensa.",
  "198340268": "No se alcanzaron los puntos requeridos.",
  "198340267": "Ataque en curso.",
  "198340274": "Demasiadas operaciones, inténtalo de nuevo más tarde.",
  "198340273": "Recompensa ya recogida.",
  "198340272": "Límite de recogida de recompensas sobrepasado.",
  "198340271": "El evento no está en curso.",
  "198340262": "Sin participación en el ataque al objetivo.",
  "198340261": "Objetivo sin derrotar.",
  "-204944257": "Recompensa ya recogida (<unbreak>4020</unbreak>)",
  "-204944258": "Recompensa ya recogida (<unbreak>4021</unbreak>)",
  "-1367743639": "Error en los requisitos de la recompensa.",
  "-1367743642": "Recompensa ya recogida.",
  "-1367743641": "Actividad acumulada insuficiente, no se puede recoger la recompensa.",
  "-1771028265": "No se pudo obtener la información de la repetición (<unbreak>4251</unbreak>)",
  "-1771028262": "No se pudo obtener la información de la repetición (<unbreak>4252</unbreak>)",
  "-1367743705": "Aún no se cumplen los requisitos.",
  "-1367743704": "Recompensa ya recogida.",
  "-1367743703": "La etapa aún no está disponible.",
  "-1771028232": "Error del sistema (<unbreak>4351</unbreak>)",
  "-1771028231": "Error del sistema (<unbreak>4352</unbreak>)",
  "-1771028230": "Error del sistema (<unbreak>4353</unbreak>)",
  "-1367743540": "Error del sistema (<unbreak>4401</unbreak>)",
  "-1367743541": "Error del sistema (<unbreak>4402</unbreak>)",
  "-1367743542": "Error del sistema (<unbreak>4403</unbreak>)",
  "-1367743543": "Error del sistema (<unbreak>4404</unbreak>)",
  "-1367743544": "Error del sistema (<unbreak>4405</unbreak>)",
  "-1367743545": "Error del sistema (<unbreak>4406</unbreak>)",
  "-1367743546": "Error del sistema (<unbreak>4407</unbreak>)",
  "-1367743547": "Se han introducido caracteres incorrectos.",
  "-1367743548": "Error del sistema (<unbreak>4409</unbreak>)",
  "198340402": "¡Solicitud repetida!",
  "198340401": "Error del sistema (<unbreak>4411</unbreak>)",
  "198340400": "¡Error de personaje!",
  "198340399": "Error del sistema (<unbreak>4413</unbreak>)",
  "-1771028067": "Error del sistema (<unbreak>4451</unbreak>)",
  "-1771028068": "Error del sistema (<unbreak>4452</unbreak>)",
  "-1367743507": "Error del sistema (<unbreak>4501</unbreak>)",
  "-1367743510": "Error del sistema (<unbreak>4502</unbreak>)",
  "-1367743509": "Error del sistema (<unbreak>4503</unbreak>)",
  "-1367743512": "No hay contenido de conversación.",
  "-1367743511": "El texto introducido es más largo de lo permitido.",
  "-1367743514": "El texto introducido contiene palabras no permitidas.",
  "-1367743513": "Se han introducido caracteres incorrectos.",
  "-1367743516": "Función no disponible.",
  "-1367743515": "Error del sistema (<unbreak>4509</unbreak>)",
  "198340433": "Se han introducido caracteres incorrectos.",
  "198340434": "¡Error de emoji!",
  "198340431": "¡Error de emoji!",
  "198340429": "¡Este emoji ya está en tus favoritos!",
  "198340430": "¡Has alcanzado el máximo de favoritos!",
  "-1367743606": "¡Esta liga no está disponible!",
  "-1771028133": "El evento no ha comenzado.",
  "-1771028130": "No se ha completado la gestión del día en curso.",
  "-1771028131": "Error de fase de gestión.",
  "-1771028136": "Error de asistente.",
  "-1771028137": "Error en la zona de exposición.",
  "-1771028134": "Error de configuración.",
  "-1771028135": "Asistente ya asignado.",
  "-1771028140": "No se ha asignado ningún asistente.",
  "-1771028141": "Ya se ha contratado a ese asistente.",
  "2120654637": "No se ha contratado a ese asistente.",
  "2120654636": "Fondos insuficientes.",
  "2120654639": "Error en la zona de exposición elegida.",
  "2120654638": "Error del sistema",
  "2120654633": "Hora incorrecta.",
  "2120654632": "No se encontró el evento.",
  "2120654635": "Error de evento.",
  "2120654634": "No se ha alcanzado la fase de gestión requerida.",
  "2120654629": "No hay pistas.",
  "2120654628": "¡La zona de exposición ya ha subido de nivel!",
  "-608228718": "Este asistente ya se ha asignado.",
  "-608228719": "Evento sin desbloquear.",
  "-608228716": "El asistente ya se ha asignado a una zona de exposición.",
  "-608228717": "El asistente está en un encargo.",
  "-608228722": "El evento ha finalizado.",
  "-608228723": "El asistente está en un encargo.",
  "-608228726": "Aún no se ha completado ninguna misión de recogida de objetos de exposición ni de contratación de personal.",
  "-608228727": "Error del sistema (<unbreak>4679</unbreak>)",
  "-1723973965": "¡Recompensa recogida!",
  "-1723973966": "Límite de misiones de objeto u asistente alcanzado.",
  "-1367743573": "¡El evento no ha comenzado!",
  "-1367743572": "Demasiados intentos de actualización, inténtalo de nuevo más tarde.",
  "-204944159": "Error del sistema (<unbreak>4721</unbreak>)",
  "-204944158": "Error del sistema (<unbreak>4722</unbreak>)",
  "-204944164": "Error del sistema (<unbreak>4724</unbreak>)",
  "-204944163": "Error del sistema (<unbreak>4725</unbreak>)",
  "-204944162": "Error del sistema (<unbreak>4726</unbreak>)",
  "-204944161": "¡Tienda bloqueada!",
  "-204944167": "¡Conecta todas las tiendas!",
  "1361139781": "Error del sistema (<unbreak>4730</unbreak>)",
  "1361139782": "Error del sistema (<unbreak>4731</unbreak>)",
  "1361139783": "Error del sistema (<unbreak>4732</unbreak>)",
  "1361139784": "Error del sistema (<unbreak>4733</unbreak>)",
  "1361139777": "Error del sistema (<unbreak>4734</unbreak>)",
  "1361139778": "Error del sistema (<unbreak>4735</unbreak>)",
  "1361139779": "¡No tienes suficientes certificados de prosperidad!",
  "1361139780": "¡No hay mercancías cargadas!",
  "1361139773": "Error del sistema (<unbreak>4738</unbreak>)",
  "1361139774": "Error del sistema (<unbreak>4739</unbreak>)",
  "957855254": "¡Astroesquife de carga bloqueado!",
  "957855255": "Error del sistema (<unbreak>4741</unbreak>)",
  "957855256": "¡Mercancía bloqueada!",
  "957855250": "¡El pedido personalizado y el pedido actual no coinciden!",
  "957855251": "¡Las mercancías del pedido personalizado han superado la capacidad máxima!",
  "957855252": "¡No cumples con todos los requisitos del pedido personalizado!",
  "957855246": "¡Mercancías insuficientes!",
  "957855247": "Error del sistema (<unbreak>4749</unbreak>)",
  "-1771028101": "¡Ya has recogido esta recompensa!",
  "-1771028100": "Error del sistema (<unbreak>4751</unbreak>)",
  "-1771028099": "Error del sistema (<unbreak>4752</unbreak>)",
  "-1771028098": "Error del sistema (<unbreak>4753</unbreak>)",
  "-1771028105": "Error del sistema (<unbreak>4754</unbreak>)",
  "-1771028103": "Error del sistema (<unbreak>4755</unbreak>)",
  "-1771028102": "Error del sistema (<unbreak>4756</unbreak>)",
  "-1771028108": "¡No hay ninguna planificación logística!",
  "2120654669": "¡El evento no se ha completado!",
  "2120654670": "¡No cumples con los requisitos del pedido!",
  "-1367743936": "¡Regreso a las estrellas aún no está disponible!",
  "-1367743937": "¡Ya has registrado tu sesión!",
  "-1367743938": "¡Puntos actuales insuficientes!",
  "-1367743931": "¡Ahora no puedes registrar tu sesión!",
  "-1367743932": "¡Ya has registrado tu sesión!",
  "-1367743933": "¡Recompensa ya recogida!",
  "-1771028463": "El equipo de Guerras Etéreas no existe.",
  "-1771028464": "No se puede usar el equipo de Guerras Etéreas",
  "-1367743903": "No se han encontrado objetos relacionados",
  "-1367743906": "Marco de conversación sin desbloquear",
  "-1367743905": "Error del sistema (<unbreak>4903</unbreak>)",
  "-1367743900": "¡No has desbloqueado este fondo de pantalla del teléfono!",
  "-1771028430": "Error del sistema (<unbreak>4951</unbreak>)",
  "-1771028433": "Error de configuración.",
  "2120654337": "¡No se encontró una zona efectiva!",
  "2120654342": "¡No se encontró información de la zona!",
  "2120654343": "Zona sin completar.",
  "2120654340": "Zona sin desbloquear.",
  "2120654341": "¡Este modo de juego aún no está disponible!",
  "2120654346": "Error del sistema (<unbreak>4968</unbreak>)",
  "2120654347": "Error del sistema (<unbreak>4969</unbreak>)",
  "-608229017": "Error de equipo actual.",
  "-1723974264": "Error del sistema (<unbreak>4980</unbreak>)",
  "-1723974263": "¡Error al entrar en la zona!",
  "-1723974266": "¡Error al tirar el dado!",
  "-1723974265": "Error del sistema (<unbreak>4983</unbreak>)",
  "-1723974260": "¡No te quedan más intentos!",
  "-1723974259": "Error del sistema (<unbreak>4985</unbreak>)",
  "-1723974262": "¡Error en el descargador!",
  "-1723974261": "¡No puedes usar este personaje!",
  "-861501922": "Los parámetros de números no existen.",
  "1623261643": "Error del sistema (<unbreak>5201</unbreak>)",
  "1623261646": "¡El evento no ha comenzado!",
  "1623261645": "Has excedido el número de veces que puedes reclamar la recompensa.",
  "1623261648": "Pts. de prueba insuficientes.",
  "1623261647": "Recompensa ya recogida.",
  "1267031446": "Este jugador aún no es tu amigo.",
  "1267031439": "Ya le has dado a \"me gusta\".",
  "1623261445": "Error del sistema (<unbreak>5801</unbreak>)",
  "1623261444": "Error del sistema (<unbreak>5802</unbreak>)",
  "1623261443": "Error del sistema (<unbreak>5803</unbreak>)",
  "1623261450": "Error del sistema (<unbreak>5804</unbreak>)",
  "1623261449": "¡Este objeto está al nivel máximo!",
  "1623261448": "Error del sistema (<unbreak>5806</unbreak>)",
  "1623261447": "No se puede seguir bajando el nivel de este objeto.",
  "1623261454": "Error del sistema (<unbreak>5808</unbreak>)",
  "1623261453": "Error del sistema (<unbreak>5809</unbreak>)",
  "57177505": "Error del sistema (<unbreak>5810</unbreak>)",
  "57177504": "¡El evento no ha comenzado!",
  "57177503": "Error del sistema (<unbreak>5812</unbreak>)",
  "57177502": "Error del sistema (<unbreak>5813</unbreak>)",
  "57177509": "Error del sistema (<unbreak>5814</unbreak>)",
  "57177508": "Error del sistema (<unbreak>5815</unbreak>)",
  "57177507": "Error del sistema (<unbreak>5816</unbreak>)",
  "57177506": "Ya se recogieron todas las recompensas de reputación.",
  "-1912190964": "Error del sistema (<unbreak>5851</unbreak>)",
  "-1912190965": "Error del sistema (<unbreak>5852</unbreak>)",
  "-1912190966": "Error del sistema (<unbreak>5853</unbreak>)",
  "-1912190959": "Error del sistema (<unbreak>5854</unbreak>)",
  "-1912190960": "Error del sistema (<unbreak>5855</unbreak>)",
  "-1912190961": "Error del sistema (<unbreak>5856</unbreak>)",
  "-1912190962": "Error del sistema (<unbreak>5857</unbreak>)",
  "-1912190955": "Error del sistema (<unbreak>5858</unbreak>)",
  "-1912190956": "Error del sistema (<unbreak>5859</unbreak>)",
  "816692392": "Error del sistema (<unbreak>5860</unbreak>)",
  "816692391": "Error del sistema (<unbreak>5861</unbreak>)",
  "816692390": "Error del sistema (<unbreak>5862</unbreak>)",
  "816692389": "Error del sistema (<unbreak>5863</unbreak>)",
  "816692396": "Error del sistema (<unbreak>5864</unbreak>)",
  "816692395": "Error del sistema (<unbreak>5865</unbreak>)",
  "-1264786449": "Error en los datos del jugador.",
  "301297492": "El cliente no responde.",
  "-458217395": "No se pudo verificar la función.",
  "1107866546": "Esta función está cerrada en este momento.",
  "746042362": "Русский",
  "1608850492": "No se pudo iniciar el juego. Reinicia y vuelve a intentarlo.",
  "507567562": "Error de distribución de servidor. Revisa tu conexión de red, reinicia e inténtalo de nuevo.",
  "1183680304": "Se ha completado un encargo. ¡Entra para verlo!",
  "-1527203779": "Has recuperado todo tu Poder trazacaminos. ¡No te olvides de usarlo!",
  "-1105107601": "¡Encargos completados!",
  "-492664622": "¡Poder trazacaminos al máximo!",
  "-314612542": "{SPACE}k",
  "-717897069": "0{SPACE}k",
  "848186872": "{SPACE}M",
  "-363821157": "ภาษาไทย",
  "-2136827345": "繁體中文",
  "1912906754": "Espacio de almacenamiento insuficiente. Libera algo de espacio e inténtalo de nuevo.",
  "1025718490": "No tienes conexión a una red wifi, ¿seguro que quieres seguir descargando los recursos?",
  "1301123177": "No se pudieron eliminar los recursos descargados. Reinicia el juego y vuelve a intentarlo.",
  "-2092908827": "Se completó la eliminación de recursos descargados, reinicia el juego.",
  "-81114143": "Actualización completa. El juego se reiniciará.",
  "-259848768": "Aplicando parche",
  "2082905966": "Comprobando actualizaciones de datos...{SPACE}",
  "1352780993": "Comprobando nueva versión",
  "-253064026": "Descargando recursos de datos...{SPACE}",
  "1349227356": "Error de recursos, vuelve a comprobar y descargar los recursos.",
  "-1480277831": "No se pudieron verificar los recursos. Borra los recursos y vuelve a descargarlos, o reinstala el paquete e inténtalo de nuevo.",
  "719011705": "Fallo en la descarga de datos, ¿reintentar?",
  "-1976536638": "Error de recursos. Utiliza la función Actualizar en la esquina superior derecha de la pantalla de inicio de sesión para verificar y reparar los recursos.",
  "1959735889": "Instalando recursos...{SPACE}",
  "1128105648": "Cargando valores...{SPACE}",
  "1896342672": "Comprobando recursos locales...{SPACE}",
  "1476062893": "Borrando archivos temporales{SPACE}",
  "2059891064": "Comenzando a aplicar el parche",
  "1228392776": "Comenzando comprobación de recursos locales...{SPACE}",
  "-2093505287": "Comenzando a borrar archivos temporales",
  "701492679": "Comenzando a abrir recursos...{SPACE}",
  "271414171": "Comenzando verificación de recursos...{SPACE}",
  "-1220166647": "Comprobación de datos completada, {LAYOUT_MOBILE#toca}{LAYOUT_CONTROLLER#presiona}{LAYOUT_KEYBOARD#haz clic} para reiniciar el juego",
  "1427390957": "Comprobación de recursos completa, no se encontraron errores.",
  "-1861574693": "Abriendo recursos...{SPACE}",
  "477354111": "Verificando recursos...{SPACE}",
  "-1734649926": "Seleccionar",
  "-1159186496": "Versión de prueba no indicativa del producto final.",
  "-1513126819": "Volver",
  "-1024198625": "Ve a Centro de usuario - Seguridad de la cuenta HoYoverse Pass para ajustar la configuración.",
  "-714248207": "Capturar e informar",
  "43235784": "Cancelar",
  "657177150": "Confirmar",
  "2106114571": "Reiniciar",
  "619467309": "Ir a la comunidad",
  "1439172572": "No se pudieron descargar los recursos. Inténtalo de nuevo más tarde.",
  "299305438": "Forzar la actualización de todos los archivos descargados",
  "1863702846": "¿Quieres volver a comprobar la integridad de los recursos descargados?",
  "-1596856485": "Comprobación de recursos",
  "296444951": "Imposible usar una conexión por wifi o datos. Comprueba los ajustes del sistema",
  "-1026500224": "Mensaje de error",
  "-82214061": "Se reproducirá la música de fondo cuando el juego esté en segundo plano",
  "-966128796": "Error de inicio de sesión, vuelve a intentarlo más tarde. Código de error: #1",
  "310545576": "本公司积极履行《网络游戏行业防沉迷自律公约》",
  "316852424": "Actualizar",
  "2146831397": "Salir",
  "-1936148297": "Idioma",
  "1053410410": "Entrar",
  "137785819": "Cerrar sesión",
  "-695628513": "Anuncios",
  "342122252": "Selecciona el servidor",
  "-494723770": "Descargar recursos completos",
  "1814096353": "{LAYOUT_MOBILE#Toca}{LAYOUT_CONTROLLER#Presiona}{LAYOUT_KEYBOARD#Haz clic} para entrar",
  "-94882978": "본 게임은 <unbreak>12</unbreak>세 이용가 게임물로 만 <unbreak>12</unbreak>세 미만의 어린이나 청소년이 이용하기 부적절합니다",
  "1234897861": "Cargando recursos...{SPACE}",
  "1347209599": "Escanear",
  "-1808034669": "1、本游戏是一款3D角色扮演类回合制游戏，适用于年满<unbreak>12</unbreak>周岁及以上的用户，建议未成年人在家长监护下使用游戏产品。\\n\\n2、本游戏基于架空背景展开剧情，用户可通过对话、交互、完成任务推进剧情，游戏内还可以自由探索场景地图。游戏中有需要使用游戏角色进行的人机对战，玩法基于一定难度的思考判断，鼓励玩家随机应变、制定策略来取得对战胜利。游戏中有少量自定义文字系统，该社交系统遵循相关法律法规进行管理。\\n\\n3、本游戏中有用户实名认证系统，认证为未成年的用户将受到以下游戏限制：\\n未满8周岁的用户不能充值；8周岁以上未满<unbreak>16</unbreak>周岁的未成年用户，单次充值金额不得超过<unbreak>50</unbreak>元人民币，每月充值金额累计不得超过<unbreak>200</unbreak>元人民币；<unbreak>16</unbreak>周岁以上的未成年用户，单次充值金额不得超过<unbreak>100</unbreak>元人民币，每月充值金额累计不得超过<unbreak>400</unbreak>元人民币。\\n游戏仅会在周五、周六、周日和法定节假日的<unbreak>20</unbreak>时至<unbreak>21</unbreak>时，向未成年人提供1小时游戏服务。\\n\\n4、游戏玩法鼓励玩家积极思考，制定和应用策略来取得对战的胜利。同时，在游戏中呈现了精美细腻的画面效果，能够为玩家提供优质的视觉体验。",
  "-1282310801": "1、本游戏是一款3D角色扮演类回合制游戏，适用于年满<unbreak>12</unbreak>周岁及以上的用户，建议未成年人在家长监护下使用游戏产品。\\n\\n2、本游戏基于架空背景展开剧情，用户可通过对话、交互、完成任务推进剧情，游戏内还可以自由探索场景地图。游戏中有需要使用游戏角色进行的人机对战，玩法基于一定难度的思考判断，鼓励玩家随机应变、制定策略来取得对战胜利。游戏中有少量自定义文字系统，该社交系统遵循相关法律法规进行管理。\\n\\n3、<unbreak>PlayStation™Network (\"PSN\")</unbreak>的中国大陆用户需要进行实名认证，认证为未成年人的用户无法在<unbreak>PlayStation™Store</unbreak>消费，包括且不限于游戏购买，订阅购买/升级/延长，以及游戏内商品购买内容和服务。\\n未成年人用户仅限于每周五、周六、周日的<unbreak>20</unbreak>时至<unbreak>21</unbreak>时登录及游玩。\\n\\n4、游戏玩法鼓励玩家积极思考，制定和应用策略来取得对战的胜利。同时，在游戏中呈现了精美细腻的画面效果，能够为玩家提供优质的视觉体验。",
  "1211532780": "适龄提示",
  "-584092019": "Jugar",
  "2004081699": "Sesión anterior",
  "-828304337": "Servidores",
  "1770448309": "Atención al Cliente",
  "1064284207": "Si tienes problemas para iniciar sesión en el juego, ponte en contacto con nosotros a través del correo electrónico del servicio de Atención al Cliente.\\nCorreo electrónico: hsrcs_es@hoyoverse.com",
  "-472476664": "Correo electrónico de Atención al Cliente",
  "1377868803": "Silenciar cuando la ventana esté minimizada",
  "-488673265": "RES",
  "2085583028": "Ver detalles",
  "2106720550": "Servidor cerrado. Se abrirá en #1.",
  "314524367": "Lista negra de <unbreak>PlayStation™Network</unbreak>",
  "782329688": "Solo jugar en modo multijugador con usuarios de <unbreak>PlayStation™Network</unbreak>",
  "-1612423078": "Amigos en <unbreak>PlayStation™Network</unbreak>. Esta lista de amigos es solo un ejemplo demostrativo.",
  "-650647438": "Puedes invitar amigos a través de <unbreak>PlayStation™Network</unbreak>.",
  "863714791": "Aún no tienes amigos en <unbreak>PlayStation™Network</unbreak>.",
  "-1137848582": "De momento no juega a este juego",
  "-2077891673": "Esta función no está disponible debido a la restricción de contenidos.",
  "-2119394949": "Guardado de imagen fallido",
  "-216138017": "Para continuar esta misión debes tener el paquete del juego completo. Por favor, espera a que se complete la descarga.\\n(Progreso actual: <unbreak>#1[f1]%</unbreak>)",
  "1469469656": "La descarga ha finalizado. Tras confirmar, regresa a la pantalla de inicio de sesión para continuar.",
  "581389205": "Para continuar esta misión debes tener el paquete del juego completo. Por favor, espera a que se complete la descarga.",
  "-1825251286": "(Espera a que se termine de descargar el contenido del juego).",
  "1051467476": "Aviso de juego",
  "374299751": "Derechos",
  "250912545": "Puedes desvincular tu cuenta y eliminar la información que contiene en cualquier momento a través de la página web oficial o contactando con Atención al Cliente.\\nTambién puedes hacernos llegar cualquier información dudosa o comentarios maliciosos que encuentres a través de la sección \"Comentarios\" que hay dentro del juego.",
  "-1937952402": "Derechos del jugador",
  "250912557": "Puedes desvincular tu cuenta y eliminar la información que contiene en cualquier momento a través de la página web oficial o contactando con Atención al Cliente.\\nTambién puedes denunciar contenido inapropiado contactando con Atención al Cliente en la dirección hsrcs_psn@hoyoverse.com.",
  "630074059": "Función en mantenimiento",
  "989248170": "Predescargar recursos",
  "-750517657": "Calculando tamaño de los recursos...",
  "-142421313": "Tras completar la predescarga, podrás acceder al juego más rápidamente cuando se publique una nueva versión.\\n¿Predescargar los recursos de la nueva versión?",
  "-1870906904": "¡Predescarga completada!",
  "1894204417": "Descargando recursos...{SPACE}",
  "-344983707": "Si vuelves a la interfaz principal <color=#f29e38ff>se suspenderá la descarga del paquete de recursos</color>. Puedes seguir con la descarga la próxima vez que accedas. ¿Seguro que quieres volver?",
  "1507264103": "Descargando recursos",
  "-1170157658": "Trazacaminos, ya se ha completado el contenido descargado actual. Descarga los recursos completos para continuar la aventura. Mientras descargas y actualizas los recursos del cliente, no podrás acceder al juego.\\nPuedes descargarlos en segundo plano y recibirás una notificación cuando se complete la descarga.",
  "39175154": "Te recomendamos que descargues los recursos completos para jugar.\\nPuedes hacer la descarga en segundo plano. Se enviará una notificación cuando se complete la descarga.",
  "-1261593137": "Completa la descarga de recursos",
  "519445645": "Tamaño de los recursos:{SPACE}",
  "1822513095": "Tu red ha cambiado a una red móvil, ¿seguro que quieres continuar con la descarga consumiendo datos?",
  "-521799574": "Notificación de descarga",
  "1364852514": "Error del sistema (#1)",
  "951352232": "Volver",
  "-2027882201": "Deslizar",
  "-1063251765": "Descarga completa",
  "-539780618": "Descargando recursos...{SPACE}",
  "-1194070923": "Velocidad actual:{SPACE}",
  "1101186259": ", tiempo restante:{SPACE}",
  "158747613": "Los valores del cliente actual o la versión de los datos no coinciden con la versión del servidor. Contacta con el personal relevante.",
  "-2002758923": "Se ha seleccionado el servidor más adecuado para ti.\\n¿Seguro que quieres cambiar al servidor\\n#1?\\n\\nNota: Los datos del juego no se sincronizarán entre servidores.",
  "-2025942164": "Cambiar el modo de visualización surtirá efecto después de reiniciar el juego.",
  "-1721157021": "Modo normal",
  "-1712056345": "Modo compatible",
  "-1604595962": "Ajustes de visualización",
  "778308962": "Rango dinámico",
  "2089768880": "Automático",
  "1301793381": "Auriculares",
  "-1100339724": "Predeterminado",
  "812122310": "Ajustes de brillo",
  "-1773639219": "Cerrar",
  "-605891328": "Activa los avisos del sistema para recibir notificaciones.",
  "-628496434": "Centro de usuario",
  "-1036797452": "Alisado",
  "1571467294": "Calidad del personaje",
  "2121425095": "Calidad del efecto resplandor",
  "-1790528414": "Gestionar permisos de publicidad",
  "-1028540803": "Resolución",
  "1322368159": "Encargos completados",
  "-495583877": "FPS",
  "532924288": "Calidad de los gráficos",
  "-358081377": "Calidad de la luz",
  "-1635836839": "Volumen de la música",
  "-964786894": "Política de privacidad",
  "-2146107594": "Calidad de los reflejos",
  "-324016192": "Calidad de los efectos",
  "-1576424918": "Calidad de los detalles del entorno",
  "417386691": "Calidad de las sombras",
  "397299267": "Volumen de los efectos de sonido",
  "1975808096": "Poder trazacaminos al máximo",
  "-1839757053": "Idioma del texto",
  "23538652": "Volumen principal",
  "-1085323529": "Términos de servicio",
  "-370309163": "Sincronización vertical",
  "1144050928": "Idioma de las voces",
  "1906999544": "Volumen de los diálogos",
  "-1166267866": "Ir",
  "-539037458": "#1×#2",
  "-1379977021": "Detección de brillo máximo de monitor HDR",
  "-1340173514": "Restablecer",
  "-1394624238": "Paso anterior",
  "1927252486": "Puedes ajustar esto en Ajustes - Gráficos tras entrar en el juego.",
  "-801630869": "Ajústalo hasta que el patrón del centro sea ligeramente visible.",
  "-784871167": "Brillante",
  "-462760445": "Tenue",
  "-985988607": "La carga de la configuración actual es demasiado pesada, lo que puede provocar que el dispositivo se caliente o el juego no fluya bien.",
  "1249857882": "<unbreak>120</unbreak>",
  "-478651376": "<unbreak>30</unbreak>",
  "1209683745": "<unbreak>60</unbreak>",
  "-953688934": "No",
  "-1328219103": "Personalizada",
  "-848478178": "FXAA",
  "841606793": "#1×#2 pantalla completa",
  "-1144097826": "Alta",
  "17481744": "Baja",
  "994881107": "Media",
  "1080743946": "Sí",
  "1240890064": "TAA",
  "996001262": "Muy alta",
  "-2028362208": "Muy baja",
  "-59544482": "MetalFX",
  "554533651": "Activar",
  "-1934528832": "Ajustes",
  "-663055993": "Calidad de renderizado",
  "1414319684": "Cuenta",
  "-458466366": "Gráficos",
  "-1723423623": "Idioma",
  "-1543303433": "Mensajes",
  "1026638059": "Sonido",
  "1933636533": "Ajustes de la cuenta",
  "-132770945": "Ajustes de gráficos",
  "-1456349696": "Ajustes de idioma",
  "1110226542": "Ajustes de notificaciones",
  "450754340": "Ajustes de sonido",
  "-968657836": "Balance de audio",
  "-317856315": "健康游戏忠告",
  "2141265850": "抵制不良游戏，拒绝盗版游戏。注意自我保护，谨防受骗上当。适度游戏益脑，沉迷游戏伤身。合理安排时间，享受健康生活。",
  "-1249895293": "Un número muy pequeño de personas puede tener convulsiones al ver ciertas imágenes, como determinados patrones de destellos o luces intermitentes que aparecen en los videojuegos. Al jugar a los videojuegos, estas personas pueden sufrir síntomas epilépticos. Incluso las personas que no tienen antecedentes de epilepsia pueden mostrar síntomas similares en condiciones determinadas. Si tú o algún familiar tuyo tienen antecedentes de epilepsia, consulta con tu médico antes de jugar. Si tienes alguno de los siguientes síntomas al jugar a los videojuegos: dolor en los ojos, anomalías en la visión, migraña, espasmos o trastornos de la conciencia (como el coma), detén el juego inmediatamente y consulta con tu médico antes de volver a jugar.",
  "-740499222": "Importante: Lee esto antes de jugar",
  "-1363477176": "{LAYOUT_MOBILE#审批文号：国新出审[<unbreak>2023</unbreak>]<unbreak>16</unbreak>号 ISBN <unbreak>978</unbreak>-7-<unbreak>498</unbreak>-<unbreak>10006</unbreak>-1 出版单位：上海声像电子出版社\\n著作权人：上海米哈游海渊城科技有限公司}{LAYOUT_CONTROLLER#审批文号：国新出审[<unbreak>2023</unbreak>]<unbreak>16</unbreak>号 ISBN <unbreak>978</unbreak>-7-<unbreak>498</unbreak>-<unbreak>10006</unbreak>-1 出版单位：上海声像电子出版社\\n著作权人：上海米哈游海渊城科技有限公司}{LAYOUT_KEYBOARD#审批文号：国新出审[<unbreak>2023</unbreak>]<unbreak>16</unbreak>号 ISBN <unbreak>978</unbreak>-7-<unbreak>498</unbreak>-<unbreak>10006</unbreak>-1 出版单位：上海声像电子出版社\\n著作权人：上海米哈游海渊城科技有限公司}{LAYOUT_CONTROLLER_PS#著作权人：上海米哈游海渊城科技有限公司}",
  "1714821062": "El acceso a la beta ha caducado.",
  "27517590": "Función cerrada por el momento. Sigue los anuncios del juego para obtener más detalles.",
  "430802117": "No se puede obtener la recompensa debido a una anomalía. Sigue los anuncios del juego para obtener más detalles.",
  "1655744409": "En uso",
  "-13012819": "Borrar",
  "-209117183": "Gestión de recursos de voces",
  "-601256312": "Gestión de recursos de voces",
  "-65896461": "¿Seguro que quieres borrar #1?",
  "-1967373540": "Borrar notificación",
  "1986863792": "Descargar",
  "2079876877": "Cancelar descarga",
  "-1191067045": "Se ha completado la descarga del paquete de extensión de voces, ¿quieres usar #1?",
  "-1532151295": "Descarga de recursos completada",
  "-1040668088": "Descargando recursos...{SPACE}",
  "971030287": "Descarga de recursos",
  "-1617346749": "Aún no se ha completado la descarga del paquete de extensión de voces, ¿quieres descargar #1?",
  "-1943128427": "Tamaño de los recursos:{SPACE}",
  "-1681198979": "Opción de voz no disponible",
  "-368945552": "Tiếng Việt"
}