{
  "-1835491474": "Koneksi jaringan terputus, silakan periksa jaringan ...",
  "893391881": "Waktu permintaan jaringan habis, silakan periksa jaringan ...",
  "-672692060": "Pengunduhan eror, silakan coba lagi nanti ...",
  "1575214836": "Maaf, saat ini kamu tidak memenuhi syarat",
  "-539900375": "OK",
  "-268532022": "Keluar",
  "628734941": "Klien yang kamu pasang bukanlah versi terbaru. Silakan instal ulang atau hubungi Layanan Pelanggan",
  "875924975": "Bahasa Mandarin",
  "633642276": "简体中文",
  "-1281611725": "Petunjuk",
  "776664556": "OK",
  "-1344836126": "Batal",
  "-66948286": "Lanjutkan",
  "753711393": "Tidak",
  "-193842297": "Ya",
  "-1112638896": "Terputus dari server, silakan log in lagi",
  "-374251478": "Bahasa Inggris",
  "1782768777": "English",
  "-755645786": "Español",
  "983886567": "Français",
  "213298305": "Deutsch",
  "-1628012770": "Distribusi global eror. Silakan periksa koneksi jaringan, buka ulang dan coba hubungkan lagi",
  "1027467793": "Gagal mengunduh sumber hotfix. Silakan periksa kembali koneksi jaringan, buka kembali dan coba hubungkan lagi",
  "-2007616050": "Update data selesai. Silakan tutup dan buka kembali untuk memasuki game",
  "1967160651": "Gagal mengunduh data hotfix. Silakan periksa kembali koneksi jaringan, buka kembali dan coba hubungkan lagi",
  "-1532802051": "Gagal memperbarui data update. Silakan periksa koneksi jaringan, buka kembali, dan coba lagi",
  "-488115304": "Game sudah diperbarui, game akan dibuka kembali",
  "12093101": "Bahasa Indonesia",
  "-1391003685": "Bahasa Jepang",
  "317185992": "日本語",
  "-1597323374": "Bahasa Korea",
  "-595256385": "한국어",
  "-1502079221": "Gagal menghapus data, silakan buka game kembali",
  "-1502079222": "Berhasil menghapus data, silakan buka game kembali",
  "-1906570110": "Hubungkan Akun",
  "-1360809191": "Kata sandi akun sudah diubah. Akun ini dipaksa keluar",
  "-1990965415": "Akun Sudah Offline",
  "4301758": "Português",
  "1251875567": "Honkai: Star Rail",
  "-101987035": "Berhasil memperoleh informasi",
  "1464096906": "Gagal memperoleh informasi",
  "-1854797350": "Pengoperasian terlalu sering, silakan coba lagi nanti",
  "1058611706": "Log in ulang secara otomatis",
  "1058611705": "Segera log in kembali",
  "1058611704": "Sedang log in, harap tunggu",
  "1058611703": "Tidak dapat log in ke akun kamu",
  "1058611710": "Tidak dapat log in ke akun kamu",
  "1058611709": "Verifikasi akun eror",
  "1058611708": "Informasi akun eror",
  "1058611707": "Untuk mencegah kecanduan game, dilarang log in",
  "1058611698": "Verifikasi gagal (<unbreak>1008</unbreak>)",
  "1058611697": "Jumlah peserta di server ini terlalu banyak, silakan coba kembali nanti",
  "-507472235": "Trailblazer telah mengonfirmasi nama dan jenis kelamin",
  "-507472236": "Pemilihan jenis kelamin gagal (<unbreak>1011</unbreak>)",
  "-507472237": "Mengambil informasi pemain",
  "-507472238": "Akun ini sedang ditangguhkan dan sementara tidak dapat log in. Silakan hubungi Layanan Pelanggan untuk info lebih lanjut.",
  "-1854797351": "Sistem Sibuk",
  "1058611737": "Hadiah misi sudah diambil",
  "1058611738": "Penerimaan misi gagal",
  "1058611735": "Misi tidak dapat diselesaikan",
  "1058611736": "Perolehan status misi eror",
  "1058611741": "Belum mencapai Level Achievement yang sesuai",
  "1058611742": "Hadiah sudah diambil",
  "1058611640": "Informasi karakter tidak ada",
  "1058611639": "Eror tidak diketahui (<unbreak>1201</unbreak>)",
  "1058611642": "EXP sudah mencapai batas maksimum. Silakan Ascend karakter",
  "1058611641": "Ascend mencapai level tertinggi",
  "1058611644": "Perolehan konfigurasi Trace eror",
  "1058611643": "Trace sudah terbuka",
  "1058611646": "Silakan nyalakan \"Trace\" sebelumnya",
  "1058611645": "Level Karakter terlalu rendah",
  "1058611632": "Karakter perlu Ascend",
  "1058611631": "Karakter tidak dilengkapi dengan Light Cone",
  "-507472301": "Tidak menemukan material EXP",
  "-507472302": "Trace ini terkunci",
  "-507472299": "Level Trace yang diperlukan belum tercapai",
  "-507472300": "Trace sudah mencapai level maksimum",
  "-507472297": "Syarat Level Equilibrium belum tercapai",
  "-507472298": "Level Trailblaze yang diperlukan belum tercapai",
  "-507472295": "Eidolon tidak tersedia",
  "-507472296": "Sudah mencapai level maksimum Eidolon",
  "-507472309": "Perolehan Path karakter saat ini gagal (<unbreak>1218</unbreak>)",
  "-507472310": "Sistem eror (<unbreak>1219</unbreak>)",
  "-2073556242": "Sistem eror (<unbreak>1220</unbreak>)",
  "-2073556243": "Hadiah Ascension sudah diambil",
  "1058611671": "Item tidak ada",
  "1058611672": "Item tidak mencukupi",
  "1058611673": "Tidak dapat mengonsumsi lebih banyak item",
  "1058611674": "Eror tidak diketahui (<unbreak>1303</unbreak>)",
  "1058611675": "Jumlah item di tas tidak cukup",
  "1058611676": "Item tidak ada",
  "1058611677": "Perolehan konfigurasi item gagal",
  "1058611678": "Credit tidak cukup",
  "1058611663": "Jumlah beberapa item dalam tas sudah melewati batas, harap kosongkan isi tas",
  "1058611664": "Perolehan tipe item gagal, tidak dapat menggunakan item",
  "-507472270": "Perolehan data penggunaan item gagal",
  "-507472269": "Gagal mendapatkan hadiah",
  "-507472268": "Jumlah <color=#f29e38ff>#1</color> di Tas sudah melewati batas. Harap dibersihkan",
  "-507472267": "Data item tidak valid",
  "-507472266": "Data item tidak valid",
  "-507472265": "Sudah mencapai jumlah pemulihan maksimum",
  "-507472264": "Formula material tidak dapat diperoleh",
  "-507472263": "Tidak bisa mendapat formula Synthesis Relic",
  "-507472278": "Item ini tidak dapat dijual",
  "-507472277": "Item yang dijual sudah melewati batas",
  "-2073556211": "Gagal mengambil resep",
  "-2073556210": "Material tidak cukup",
  "-2073556209": "Pemilihan material eror",
  "-2073556208": "Gagal mengambil resep",
  "-2073556207": "Gagal mendapatkan informasi paket hadiah",
  "-2073556206": "Silakan pilih Relic untuk Synthesis",
  "-2073556205": "Sistem eror (<unbreak>1326</unbreak>)",
  "-2073556204": "Gagal memperoleh informasi resep (<unbreak>1327</unbreak>)",
  "-2073556219": "Gagal memperoleh informasi Relic (<unbreak>1328</unbreak>)",
  "-2073556218": "Eror pada jumlah Relic untuk Synthesis (<unbreak>1329</unbreak>)",
  "655327144": "Sistem eror (<unbreak>1330</unbreak>)",
  "655327145": "Jumlah akumulasi hari yang efektif sudah mencapai batas",
  "655327146": "Jumlah beberapa item dalam tas sudah melewati batas, kamu tidak bisa mengambilnya",
  "655327147": "Sistem eror (<unbreak>1333</unbreak>)",
  "655327148": "Sistem eror (<unbreak>1334</unbreak>)",
  "655327149": "Item ini tidak dapat dihancurkan",
  "655327151": "Batas maksimum tercapai",
  "655327137": "Item Konsumsi Cepat belum diatur",
  "-1266987157": "Item Konsumsi Cepat sudah diatur",
  "-1266987156": "Bahan Konsumsi jenis ini tidak dapat diatur",
  "-1266987153": "Terlalu banyak item yang ditukarkan. Harap kurangi jumlahnya sebelum mencoba lagi",
  "1461896198": "Light Cone sudah dikenakan",
  "1461896199": "Target Light Cone tidak ditemukan",
  "1461896200": "Level equipment sudah mencapai batas maksimum",
  "1461896201": "Tidak dapat mengonsumsi subjek sebagai material",
  "1461896202": "Light Cone sudah terkunci",
  "1461896203": "Light Cone sudah terbuka",
  "1461896204": "Light Cone sudah terkunci",
  "1461896205": "Tidak dapat mengonsumsi terlalu banyak item",
  "1461896190": "Superimpose Light Cone harus menggunakan Light Cone yang sama",
  "1461896191": "Sudah Ascend sampai level maksimum",
  "-104187743": "Sudah mencapai level maksimum Superimposition",
  "-104187742": "Sudah mencapai level maksimum",
  "-104187741": "Jumlah <color=#f29e38ff>Light Cone</color> di Tas sudah melewati batas. Harap dibersihkan",
  "-104187740": "Relic ini tidak ada",
  "-104187739": "Relic sudah mencapai level maksimum",
  "-104187738": "Tidak bisa melakukan peningkatan dengan Relic ini",
  "-104187737": "Relic sudah dikenakan",
  "-104187736": "Relic sudah dikunci",
  "-104187751": "Relic sudah dikunci",
  "-104187750": "Relic sudah terbuka kuncinya",
  "-1670271684": "Level Relic tidak boleh 0",
  "-1670271683": "Pengulangan informasi Relic",
  "-1670271682": "Level Light Cone tidak cukup",
  "-1670271681": "Eror pada material Superimpose Light Cone",
  "-1670271680": "Sistem eror (<unbreak>1374</unbreak>)",
  "-1670271679": "Sistem eror (<unbreak>1375</unbreak>)",
  "-1670271678": "Jumlah <color=#f29e38ff>Relic</color> di Tas sudah melewati batas. Harap dibersihkan",
  "-1670271691": "Pengoperasian terlalu sering, silakan coba lagi nanti",
  "1058611838": "Nomor tim eror",
  "1058611837": "Posisi tim eror",
  "1058611836": "Tukar posisi anggota tim",
  "1058611835": "Anggota sudah berada dalam tim",
  "1058611834": "Data penempatan tim gagal",
  "1058611833": "Inisialisasi karakter gagal (<unbreak>1405</unbreak>)",
  "1058611832": "Tim tidak ada",
  "1058611831": "Jumlah anggota dalam tim tidak boleh kurang dari satu",
  "1058611830": "Eror tidak diketahui (<unbreak>1408</unbreak>)",
  "1058611829": "Dalam tim minimal harus ada satu karakter yang bisa digunakan",
  "-507472103": "Informasi tim eror (<unbreak>1410</unbreak>)",
  "-507472104": "Anggota tim tidak ditemukan",
  "-507472105": "Karakter trial tidak dapat meninggalkan tim",
  "-507472106": "Informasi latar karakter trial tidak sinkron",
  "-507472107": "Eror tidak diketahui (<unbreak>1414</unbreak>)",
  "-507472108": "Ulangi pergantian tim",
  "-507472109": "Tim tidak memiliki anggota",
  "-507472110": "Format nama tim eror",
  "-507472111": "Tipe tim tidak cocok",
  "-507472112": "Edit tim gagal (<unbreak>1419</unbreak>)",
  "-2073556044": "Tidak dapat mengedit tim saat ini",
  "-2073556045": "Eror #0X<unbreak>001421</unbreak>: Karakter telah dihidupkan",
  "-2073556046": "Tim tidak boleh kosong",
  "-2073556047": "Karakter Support sudah ada di dalam tim",
  "-2073556048": "Karakter ini tidak dapat bergabung ke tim",
  "-2073556049": "Teks mengandung karakter yang invalid",
  "-2073556050": "Karakter terkunci",
  "1058611803": "Pesan tidak ditemukan",
  "1058611804": "Gagal memperoleh pesan",
  "1058611805": "ID pesan ilegal",
  "1058611806": "Tidak ada pesan yang dapat diterima",
  "1058611799": "Tidak ada pesan yang perlu dihapus",
  "1058611800": "Jenis pesan eror (<unbreak>1705</unbreak>)",
  "1058611801": "Parameter pesan eror (<unbreak>1706</unbreak>)",
  "1058611802": "Parameter pesan eror (<unbreak>1707</unbreak>)",
  "1058611795": "Parameter pesan eror (<unbreak>1708</unbreak>)",
  "1058611796": "Parameter pesan eror (<unbreak>1709</unbreak>)",
  "1058611442": "Perhitungan akhir stage eror",
  "1058611441": "Konfigurasi stage tidak ditemukan",
  "1058611440": "Data stage bersangkutan tidak ditemukan",
  "1058611446": "Informasi Calyx tidak tersedia",
  "1058611445": "Gagal memperoleh gelombang pertempuran Calyx",
  "1058611444": "ID item interaktif tidak normal",
  "1058611443": "Gelombang yang tercipta tidak sesuai dengan angka yang dipilih",
  "1058611450": "Jumlah pemakaian sudah habis digunakan",
  "1058611449": "Waktu buka eror (<unbreak>1809</unbreak>)",
  "-507472499": "Fitur belum dibuka",
  "-507472500": "Stage waktu terbatas belum dibuka",
  "-507472501": "Tipe Calyx eror",
  "1058611473": "Eror tidak diketahui (<unbreak>1900</unbreak>)",
  "1058611474": "Eror tidak diketahui (<unbreak>1901</unbreak>)",
  "1058611471": "Eror tidak diketahui (<unbreak>1902</unbreak>)",
  "1058611472": "Eror tidak diketahui (<unbreak>1903</unbreak>)",
  "1060812379": "Interaksi server eror",
  "2080248619": "Informasi stage eror (<unbreak>2000</unbreak>)",
  "2080248618": "Sedang bertempur",
  "2080248617": "Verifikasi stage gagal (<unbreak>2002</unbreak>)",
  "2080248616": "Pertempuran gagal",
  "2080248623": "Tidak dapat memperoleh daftar tim",
  "2080248622": "Tidak dapat memperoleh karakter tim",
  "2080248621": "Sinkronisasi pertempuran gagal, silakan restart game dan coba lagi",
  "2080248620": "Keluar dari pertempuran karena data eror (<unbreak>2007</unbreak>)",
  "2080248611": "Memverifikasi, silakan tunggu ....",
  "2080248610": "Eror tidak diketahui",
  "-648634736": "Verifikasi eror (<unbreak>2010</unbreak>)",
  "2080248650": "Tidak dapat menukar lebih banyak Trailblaze Power",
  "2080248651": "Trailblaze Power tidak cukup",
  "2080248648": "Terlalu banyak Trailblaze Power yang dimiliki. Tidak dapat menukar!",
  "2080248649": "Eror tidak diketahui (<unbreak>2103</unbreak>)",
  "2080248654": "Eror tidak diketahui (<unbreak>2104</unbreak>)",
  "2080248655": "Teks kamu mengandung karakter invalid",
  "2080248652": "Nama mengandung karakter atau simbol sensitif",
  "2080248653": "Hadiah level sudah diambil",
  "2080248642": "Pengambilan hadiah level eror",
  "2080248643": "Jenis bahasa tidak didukung",
  "-648634705": "Tidak dapat mengubah nama saat ini, silakan coba kembali setelah beberapa saat",
  "-648634704": "Format Tanggal/Waktu Eror",
  "-648634707": "Ulang tahun tidak dapat diubah",
  "-648634706": "Teks mengandung karakter yang invalid",
  "-648634701": "Berisi karakter numerik dan tidak boleh melebihi 6 karakter",
  "-648634700": "Sistem sedang sibuk, silakan coba kembali nanti atau hubungi Layanan Pelanggan",
  "2080248553": "Fragmentum belum selesai",
  "2080248552": "Eror tidak diketahui (<unbreak>2201</unbreak>)",
  "2080248555": "Syarat buka area ini belum tercapai",
  "2080248554": "Eror tidak diketahui (<unbreak>2203</unbreak>)",
  "2080248557": "Tidak ada buff yang dipilih",
  "2080248556": "Area ini tidak dapat ditemukan",
  "2080248559": "Stage Fragmentum tidak cocok",
  "2080248558": "Konfigurasi peta tidak ditemukan",
  "2080248545": "Tipe Fragmentum tidak ditemukan, silakan periksa konfigurasi",
  "2080248544": "Fragmentum sudah diselesaikan",
  "-648634802": "Konfigurasi Fragmentum eror (<unbreak>2210</unbreak>)",
  "-648634803": "Perolehan lokasi Fragmentum eror (<unbreak>2211</unbreak>)",
  "-648634800": "Tidak dapat menggunakan Technique",
  "-648634801": "Poin Technique tidak cukup",
  "-648634798": "Belum diaktifkan",
  "-648634799": "Space Anchor sedang cooldown",
  "-648634796": "Terlalu jauh",
  "-648634797": "Tidak dapat menemukan lokasi Fragmentum",
  "-648634810": "Perolehan lokasi area gagal (<unbreak>2218</unbreak>)",
  "-648634811": "Tidak dapat menemukan lokasi Fragmentum (<unbreak>2219</unbreak>)",
  "917449139": "Tidak dapat menemukan lokasi Fragmentum (<unbreak>2220</unbreak>)",
  "917449138": "Jumlah pemakaian tidak cukup (<unbreak>2221</unbreak>)",
  "917449141": "Pengaturan waktu peta sudah selesai",
  "917449140": "Pengaturan waktu peta eror (<unbreak>2223</unbreak>)",
  "917449143": "Teleport tidak dapat digunakan di alur cerita saat ini",
  "2080248584": "Cerita belum dibuka",
  "2080248751": "Tidak dapat memperoleh informasi misi",
  "2080248750": "Misi sudah selesai",
  "2080248749": "Misi Harian belum selesai",
  "2080248748": "Hadiah Misi Harian sudah diambil",
  "2080248747": "Misi Petualangan belum selesai",
  "2080248746": "Misi belum dijalankan",
  "2080248745": "Jenis penyelesaian misi eror",
  "2080248744": "Latar misi tidak cocok",
  "2080248743": "Data eror (<unbreak>2408</unbreak>)",
  "2080248742": "Misi tidak cocok (<unbreak>2409</unbreak>)",
  "2080248782": "Eror tidak diketahui (<unbreak>2500</unbreak>)",
  "2080248685": "Perolehan latar gagal (<unbreak>2600</unbreak>)",
  "2080248684": "Perolehan latar gagal (<unbreak>2601</unbreak>)",
  "2080248687": "Musuh tidak ditemukan",
  "2080248686": "Konfigurasi interaksi tidak ditemukan",
  "2080248681": "Status objek belum didukung",
  "2080248680": "Latar tempat belum dimuat",
  "2080248683": "Verifikasi seluler gagal",
  "2080248682": "Target musuh melewati batas",
  "2080248677": "Penggunaan Kemampuan gagal",
  "2080248676": "Client tidak dapat melihat informasi objek",
  "-648634670": "Berhasil memuat latar",
  "-648634671": "Jenis interaksi tidak benar",
  "-648634668": "Jenis fitur interaksi tidak didukung",
  "-648634669": "Verifikasi cakupan interaksi gagal",
  "-648634674": "Subjenis fitur interaksi tidak didukung",
  "-648634675": "Perolehan informasi ketua tim gagal",
  "-648634672": "Pengaturan Stagnant Shadow eror (<unbreak>2616</unbreak>)",
  "-648634673": "Pengaturan informasi musuh eror (<unbreak>2617</unbreak>)",
  "-648634678": "HP karakter sudah penuh",
  "-648634679": "Konten interaksi tidak cocok (<unbreak>2619</unbreak>)",
  "917449271": "Latar interaksi eror (<unbreak>2620</unbreak>)",
  "917449270": "Perolehan data peta gagal",
  "917449273": "Penyimpanan data terlalu sering",
  "917449272": "Eror tidak diketahui",
  "917449267": "Gagal mendapatkan hasil pertempuran",
  "917449266": "Gagal mendapatkan informasi Stage",
  "917449269": "Data eror (<unbreak>2626</unbreak>)",
  "917449262": "Sistem eror (<unbreak>2629</unbreak>)",
  "2080248716": "Jumlah pembelian sudah mencapai batas maksimum",
  "2080248717": "Syarat pembelian tidak terpenuhi",
  "2080248718": "Toko belum tersedia",
  "2080248719": "Barang belum tersedia",
  "2080248712": "Hadiah sudah diambil",
  "2080248713": "Belum mencapai syarat perolehan",
  "2080248714": "Pembelian sudah mencapai batas maksimum",
  "1320733830": "Tutorial belum dibuka",
  "1320733831": "Tutorial sudah dibuka",
  "1320733832": "Tutorial sudah diselesaikan",
  "1320733825": "Tutorial prasyarat belum dibuka",
  "1320733826": "Level Trailblaze tidak cukup",
  "1320733827": "Perolehan tutorial gagal",
  "2080248354": "Forgotten Hall tidak tersedia",
  "2080248353": "Forgotten Hall belum dibuka",
  "2080248352": "Forgotten Hall sedang berlangsung",
  "2080248359": "Saat ini tidak dapat mengedit tim",
  "2080248358": "Tim tidak ditemukan",
  "2080248357": "Stage saat ini sedang dijalankan",
  "2080248356": "Forgotten Hall belum selesai",
  "2080248363": "Target tantangan belum selesai",
  "2080248362": "Hadiah sudah diambil",
  "-648635000": "Waktu pembukaan sistem eror (<unbreak>2810</unbreak>)",
  "-648635001": "Syarat perolehan hadiah eror",
  "-648635002": "Hadiah sudah diambil",
  "-648635003": "Gagal mendapatkan informasi hadiah",
  "1320733468": "Sudah diganti ke Path yang sama",
  "1320733467": "Gagal memperoleh Path",
  "1320733466": "Pemilihan Path eror (<unbreak>2852</unbreak>)",
  "1320733465": "Saat ini tidak dapat mengganti Path",
  "1320733472": "Silakan pilih wadah",
  "2080248387": "Eror #0X<unbreak>002901</unbreak>: Layanan \"Simulated Universe\" terputus",
  "2080248384": "Eror #0X<unbreak>002902</unbreak>: Data Blessing yang dipilih tidak cocok",
  "2080248385": "Eror #0X<unbreak>002903</unbreak>: Jumlah Cosmic Fragment tidak cukup",
  "2080248391": "Eror #0X<unbreak>002905</unbreak>: Kode gagal dijalankan",
  "2080248388": "Eror #0X<unbreak>002906</unbreak>: Modul ini sudah digunakan",
  "2080248389": "Eror #0X<unbreak>002907</unbreak>: Penyimpanan data berhasil",
  "2080248394": "Eror #0X<unbreak>002908</unbreak>: Jumlah reset sudah mencapai batas maksimum",
  "2080248395": "Eror #0X<unbreak>002909</unbreak>: Tidak dapat mengganti karakter saat ini",
  "-648634969": "Eror #0X<unbreak>002910</unbreak>: Tugas sudah tidak berlaku",
  "-648634968": "Eror #0X<unbreak>002911</unbreak>: Hadiah sudah diambil",
  "-648634971": "Jumlah Rebirth tidak mencukupi",
  "-648634970": "Perolehan informasi peta gagal",
  "-648634965": "Gagal mendapatkan informasi hadiah",
  "-648634964": "Gagal mendapatkan informasi hadiah",
  "-648634967": "Level Kognitif tidak cukup",
  "-648634966": "Hadiah sudah diambil (<unbreak>2917</unbreak>)",
  "-648634961": "Sistem eror (<unbreak>2918</unbreak>)",
  "-648634960": "Sistem eror (<unbreak>2919</unbreak>)",
  "917448972": "Hadiah Indeks Simulated Universe sudah diambil",
  "917448973": "Sistem eror (<unbreak>2921</unbreak>)",
  "917448970": "Item tidak tersedia",
  "917448971": "Item sudah dibeli",
  "917448976": "Item sudah dimiliki",
  "917448977": "Benda Langka Tidak Ada",
  "917448974": "Toko belum tersedia",
  "917448975": "Toko tidak bisa refresh",
  "1320733500": "Event tidak ada",
  "1320733497": "Eror tidak diketahui (<unbreak>2952</unbreak>)",
  "1320733498": "Event sudah selesai",
  "1320733503": "Event sedang berjalan",
  "1320733504": "Ada tantangan event yang sedang dijalankan",
  "1320733501": "Bukan tantangan event",
  "-1668070976": "Waktu server habis",
  "776286703": "Tidak bisa melakukan Warp",
  "776286702": "Gagal memperoleh jumlah Warp",
  "776286701": "Silakan lakukan Warp sekali",
  "776286708": "Informasi Warp eror (<unbreak>3004</unbreak>)",
  "776286707": "Informasi Warp eror (<unbreak>3005</unbreak>)",
  "776286706": "Informasi Warp eror (<unbreak>3006</unbreak>)",
  "776286705": "Batas Warp hari ini telah tercapai",
  "776286696": "Informasi Warp eror",
  "776286695": "Jumlah Warp tidak mencukupi, belum dapat memilih hadiah tambahan",
  "-789797237": "Karakter hadiah sudah diambil",
  "1179571230": "Catatan Trailblaze tidak ada",
  "1179571229": "Hadiah level eksplorasi eror",
  "1179571228": "Hadiah sudah diambil (<unbreak>3053</unbreak>)",
  "1179571235": "Gagal mengambil misi",
  "1179571234": "Misi belum selesai",
  "1179571233": "Hadiah sudah diambil (<unbreak>3056</unbreak>)",
  "776286736": "Gagal memperoleh progres (<unbreak>3101</unbreak>)",
  "776286733": "Sedang berlangsung",
  "776286734": "Gagal berinteraksi dengan objek (<unbreak>3103</unbreak>)",
  "776286739": "Gagal berinteraksi dengan objek (<unbreak>3104</unbreak>)",
  "776286740": "Gagal membuka kembali Cavern of Corrosion (<unbreak>3105</unbreak>)",
  "776286737": "Belum memenuhi syarat masuk",
  "776286738": "Daftar karakter kosong",
  "776286727": "Karakter tidak ada",
  "776286728": "Hadiah sudah diambil",
  "-789797206": "Skor tantangan event tidak cukup",
  "-789797205": "Event belum dibuka",
  "-789797208": "Salinan sudah selesai",
  "-789797207": "Silakan selesaikan tantangan kesulitan sebelumnya",
  "-789797202": "Tidak dapat memulai Support",
  "-789797201": "Karakter tidak sesuai",
  "-789797204": "Sistem eror (<unbreak>3116</unbreak>)",
  "-789797203": "Sistem eror (<unbreak>3117</unbreak>)",
  "-789797214": "Event Raid belum dibuka",
  "-789797213": "Informasi tim eror",
  "1179571263": "Hadiah dialog sudah diambil",
  "1179571260": "Dialog awal sudah selesai (<unbreak>3152</unbreak>)",
  "1179571261": "Gagal memperoleh informasi dialog (<unbreak>3153</unbreak>)",
  "1179571266": "Dialog NPC tidak cocok",
  "1179571267": "Opsi dialog eror (<unbreak>3155</unbreak>)",
  "1179571264": "Syarat pengambilan hadiah tidak sesuai",
  "1179571265": "Verifikasi hadiah gagal",
  "776286637": "Konfigurasi Tugas tidak ada (<unbreak>3201</unbreak>)",
  "776286640": "Gagal mendapatkan hadiah tugas (<unbreak>3202</unbreak>)",
  "776286639": "Sistem eror (<unbreak>3203</unbreak>)",
  "776286642": "Sistem eror (<unbreak>3204</unbreak>)",
  "776286641": "Sistem eror (<unbreak>3205</unbreak>)",
  "776286644": "Sistem eror (<unbreak>3206</unbreak>)",
  "776286643": "Sistem eror (<unbreak>3207</unbreak>)",
  "776286630": "Sistem eror (<unbreak>3208</unbreak>)",
  "776286629": "Sistem eror (<unbreak>3209</unbreak>)",
  "-789797303": "Jumlah tim yang ditugaskan sudah mencapai batas",
  "-789797304": "Sistem eror (<unbreak>3211</unbreak>)",
  "-789797301": "Event belum dibuka",
  "-789797302": "Karakter Support eror",
  "-789797299": "Tugas belum dibuka",
  "776286670": "Hadiah sudah diambil",
  "776286671": "Belum mencapai persyaratan",
  "776286672": "Hadiah sudah diambil",
  "776286673": "Stage belum selesai",
  "776286674": "Hadiah sudah diambil",
  "776286675": "Material eksperimen belum diserahkan",
  "776286676": "Sistem eror (<unbreak>3307</unbreak>)",
  "776286661": "Sistem eror (<unbreak>3308</unbreak>)",
  "776286662": "Sistem eror (<unbreak>3309</unbreak>)",
  "-789797272": "Sistem eror (<unbreak>3310</unbreak>)",
  "-789797271": "Sistem eror (<unbreak>3311</unbreak>)",
  "-789797270": "Sistem eror (<unbreak>3312</unbreak>)",
  "-789797269": "Sistem eror (<unbreak>3313</unbreak>)",
  "-789797268": "Sistem eror (<unbreak>3314</unbreak>)",
  "-789797267": "Kamu sudah berada dalam Trial Karakter",
  "776286868": "Tidak ada perolehan informasi (<unbreak>3501</unbreak>)",
  "776286865": "Tidak ada perolehan informasi (<unbreak>3502</unbreak>)",
  "776286866": "Tidak ada perolehan informasi (<unbreak>3503</unbreak>)",
  "776286863": "Tidak ada perolehan informasi (<unbreak>3504</unbreak>)",
  "776286864": "Tidak ada perolehan informasi (<unbreak>3505</unbreak>)",
  "776286861": "Tidak ada perolehan informasi (<unbreak>3506</unbreak>)",
  "776286862": "Tidak ada perolehan informasi (<unbreak>3507</unbreak>)",
  "776286769": "Pemain ini sudah menjadi temanmu",
  "776286772": "Pemain ini belum menjadi temanmu",
  "776286771": "Permintaan Pertemanan sudah kadaluwarsa",
  "776286766": "Pemain sudah ada dalam Daftar Blokir",
  "776286765": "Pemain tidak ada dalam Daftar Blokir",
  "776286768": "Jumlah teman sudah mencapai batas maksimum",
  "776286767": "Daftar Blokir sudah mencapai batas maksimum",
  "776286762": "Jumlah permintaan hari ini sudah mencapai batas maksimum",
  "776286761": "Permintaan tertunda sudah mencapai batas maksimum",
  "-789797171": "Pengoperasian terlalu sering, silakan coba lagi nanti",
  "-789797172": "Format nama catatan eror",
  "-789797169": "Pemain tidak ditemukan",
  "-789797170": "Tidak dapat menambahkan teman saat ini, silakan coba lagi nanti",
  "-789797175": "Jumlah teman pihak lain sudah mencapai batas maksimum",
  "-789797176": "Permintaan terlalu sering, silakan coba lagi nanti",
  "-789797173": "Karakter Support tidak ditemukan",
  "-789797174": "Karakter support sudah berada dalam tim",
  "-789797179": "Laporkan eror format informasi",
  "-789797180": "Isi teks berisi kata-kata yang salah",
  "-386512644": "Penggunaan Support sudah mencapai batas maksimum",
  "-386512645": "Tidak ada Karakter Support yang bisa dipilih",
  "-386512642": "Karakter support sudah berada dalam tim",
  "-386512643": "Tidak ada Hadiah Support yang bisa diambil",
  "-386512648": "Pengoperasian terlalu sering, silakan coba lagi nanti",
  "-386512649": "Pengoperasian terlalu sering, silakan coba lagi nanti",
  "-386512646": "Teks mengandung karakter yang invalid",
  "-386512647": "Teks mengandung karakter yang invalid",
  "-386512652": "Karakter support sudah ada",
  "-386512653": "Pemain tidak dapat menerima Permintaan Pertemanan",
  "-1952596584": "Pengoperasian terlalu sering",
  "-1952596589": "Periksa Profil Trailblazer sedang cooldown",
  "776286802": "Avatar tidak ditemukan",
  "776286803": "Avatar terkunci",
  "776286804": "Avatar sudah dibuka",
  "776286797": "Karakter yang ditampilkan tidak ditemukan",
  "776286798": "Jumlah karakter yang ditampilkan sudah maksimum",
  "776286799": "Karakter yang sama sudah ditampilkan",
  "776286800": "Posisi karakter yang ditampilkan sudah digunakan",
  "776286793": "Karakter ini belum dibuka",
  "776286794": "Sudah batas maksimum",
  "-789797140": "Teks mengandung kata sensitif",
  "-789797139": "Tampilkan slot yang tersedia di tim",
  "-789797138": "Karakter Support tidak ditemukan",
  "-789797137": "Karakter Support belum terbuka",
  "-789797144": "Teks mengandung karakter yang invalid",
  "776286439": "Pengambilan data eror (<unbreak>3801</unbreak>)",
  "776286438": "Tidak dapat mengambil hadiah sekarang (<unbreak>3802</unbreak>)",
  "776286437": "Hadiah sudah diambil (<unbreak>3803</unbreak>)",
  "776286444": "Aktivasi gagal (<unbreak>3804</unbreak>)",
  "776286443": "Kehormatan Tanpa Nama belum dibuka",
  "776286442": "Pembelian gagal (<unbreak>3806</unbreak>)",
  "776286441": "Kehormatan Tanpa Nama belum dibuka",
  "776286448": "Gagal mengambil hadiah (<unbreak>3808</unbreak>)",
  "776286447": "Gagal mengambil misi (<unbreak>3809</unbreak>)",
  "-789797501": "Hadiah opsional belum dipilih",
  "-789797502": "Tidak ada Hadiah yang bisa diambil",
  "-789797503": "Perolehan informasi hadiah gagal",
  "-789797504": "Tidak bisa membeli lagi",
  "-789797497": "Item ini tidak dapat digunakan untuk saat ini",
  "776286472": "Lagu Terkunci",
  "776286469": "Tidak dapat menemukan lagu yang sesuai (<unbreak>3902</unbreak>)",
  "776286470": "Gagal membuka lagu yang terkunci (<unbreak>3903</unbreak>)",
  "1867381433": "Permintaan berulang",
  "-1367743672": "Kuota pengintaian tidak cukup",
  "-1367743673": "Target pengintaian sudah mencapai batas",
  "-1367743674": "Perolehan informasi target gagal",
  "-1367743667": "Sudah meluncurkan Serangan Gabungan",
  "-1367743668": "Informasi target telah kadaluwarsa",
  "-1367743669": "Jumlah maksimum penyerangan target sudah mencapai batas maksimum",
  "-1367743670": "Pixel Warhead tidak cukup",
  "-1367743679": "Target sudah dikalahkan",
  "-1367743680": "Jumlah penyerang sudah mencapai batas maksimum",
  "198340270": "Syarat Level Equilibrium belum tercapai",
  "198340269": "Gagal mendapatkan informasi hadiah",
  "198340268": "Skor tidak mencapai persyaratan",
  "198340267": "Sedang menyerang",
  "198340274": "Pengoperasian terlalu sering, silakan coba lagi nanti",
  "198340273": "Hadiah sudah diambil",
  "198340272": "Ambil hadiah melebihi batas",
  "198340271": "Event tidak tersedia",
  "198340262": "Tidak berpartisipasi dalam serangan",
  "198340261": "Target belum dikalahkan",
  "-204944257": "Hadiah sudah diambil (<unbreak>4020</unbreak>)",
  "-204944258": "Hadiah sudah diambil (<unbreak>4021</unbreak>)",
  "-1367743639": "Syarat perolehan hadiah eror",
  "-1367743642": "Hadiah sudah diambil",
  "-1367743641": "Aktivitas tidak cukup untuk mendapatkan hadiah",
  "-1771028265": "Gagal memperoleh informasi rekaman (<unbreak>4251</unbreak>)",
  "-1771028262": "Gagal memperoleh informasi rekaman (<unbreak>4252</unbreak>)",
  "-1367743705": "Persyaratan belum terpenuhi",
  "-1367743704": "Hadiah sudah diambil",
  "-1367743703": "Stage belum dibuka",
  "-1771028232": "Sistem eror (<unbreak>4351</unbreak>)",
  "-1771028231": "Sistem eror (<unbreak>4352</unbreak>)",
  "-1771028230": "Sistem eror (<unbreak>4353</unbreak>)",
  "-1367743540": "Sistem eror (<unbreak>4401</unbreak>)",
  "-1367743541": "Sistem eror (<unbreak>4402</unbreak>)",
  "-1367743542": "Sistem eror (<unbreak>4403</unbreak>)",
  "-1367743543": "Sistem eror (<unbreak>4404</unbreak>)",
  "-1367743544": "Sistem eror (<unbreak>4405</unbreak>)",
  "-1367743545": "Sistem eror (<unbreak>4406</unbreak>)",
  "-1367743546": "Sistem eror (<unbreak>4407</unbreak>)",
  "-1367743547": "Teks mengandung karakter yang invalid",
  "-1367743548": "Sistem eror (<unbreak>4409</unbreak>)",
  "198340402": "Permintaan berulang",
  "198340401": "Sistem eror (<unbreak>4411</unbreak>)",
  "198340400": "Karakter eror",
  "198340399": "Sistem eror (<unbreak>4413</unbreak>)",
  "-1771028067": "Sistem eror (<unbreak>4451</unbreak>)",
  "-1771028068": "Sistem eror (<unbreak>4452</unbreak>)",
  "-1367743507": "Sistem eror (<unbreak>4501</unbreak>)",
  "-1367743510": "Sistem eror (<unbreak>4502</unbreak>)",
  "-1367743509": "Sistem eror (<unbreak>4503</unbreak>)",
  "-1367743512": "Isi obrolan kosong",
  "-1367743511": "Panjang teks melebihi batas",
  "-1367743514": "Teks mengandung kata sensitif",
  "-1367743513": "Teks mengandung karakter yang invalid",
  "-1367743516": "Fitur tidak tersedia",
  "-1367743515": "Sistem eror (<unbreak>4509</unbreak>)",
  "198340433": "Teks mengandung karakter yang invalid",
  "198340434": "Stiker eror",
  "198340431": "Stiker eror",
  "198340429": "Stiker sudah dijadikan favorit",
  "198340430": "Batas maksimum tercapai",
  "-1367743606": "Turnamen ini belum dibuka",
  "-1771028133": "Event belum dibuka",
  "-1771028130": "Pengelolaan untuk hari ini belum selesai",
  "-1771028131": "Tahap pengelolaan eror",
  "-1771028136": "Asisten Eror",
  "-1771028137": "Area pameran eror",
  "-1771028134": "Konfigurasi eror",
  "-1771028135": "Asisten sudah ditugaskan",
  "-1771028140": "Asisten belum ditugaskan",
  "-1771028141": "Asisten ini sudah direkrut",
  "2120654637": "Asisten ini belum direkrut",
  "2120654636": "Uang tidak cukup",
  "2120654639": "Area pameran yang dipilih eror",
  "2120654638": "Sistem eror",
  "2120654633": "Waktu eror",
  "2120654632": "Event tidak ditemukan",
  "2120654635": "Event eror",
  "2120654634": "Tidak mencapai target tahap pengelolaan",
  "2120654629": "Tidak ada petunjuk",
  "2120654628": "Area pameran telah selesai upgrade",
  "-608228718": "Asisten ini sudah ditugaskan",
  "-608228719": "Event belum dibuka",
  "-608228716": "Asisten ini sudah ditugaskan ke Area Pameran",
  "-608228717": "Asisten sedang bertugas",
  "-608228722": "Event sudah berakhir",
  "-608228723": "Asisten sedang bertugas",
  "-608228726": "Ada Misi Barang Pameran atau Perekrutan Staf yang belum selesai",
  "-608228727": "Sistem eror (<unbreak>4679</unbreak>)",
  "-1723973965": "Hadiah sudah diambil",
  "-1723973966": "Misi barang pameran atau asisten sudah mencapai batas",
  "-1367743573": "Event belum dibuka",
  "-1367743572": "Refresh terlalu sering, silakan coba lagi nanti",
  "-204944159": "Sistem eror (<unbreak>4721</unbreak>)",
  "-204944158": "Sistem eror (<unbreak>4722</unbreak>)",
  "-204944164": "Sistem eror (<unbreak>4724</unbreak>)",
  "-204944163": "Sistem eror (<unbreak>4725</unbreak>)",
  "-204944162": "Sistem eror (<unbreak>4726</unbreak>)",
  "-204944161": "Toko terkunci",
  "-204944167": "Harus menghubungkan semua toko",
  "1361139781": "Sistem eror (<unbreak>4730</unbreak>)",
  "1361139782": "Sistem eror (<unbreak>4731</unbreak>)",
  "1361139783": "Sistem eror (<unbreak>4732</unbreak>)",
  "1361139784": "Sistem eror (<unbreak>4733</unbreak>)",
  "1361139777": "Sistem eror (<unbreak>4734</unbreak>)",
  "1361139778": "Sistem eror (<unbreak>4735</unbreak>)",
  "1361139779": "Sertifikat Kejayaan tidak cukup",
  "1361139780": "Penataan Barang kosong",
  "1361139773": "Sistem eror (<unbreak>4738</unbreak>)",
  "1361139774": "Sistem eror (<unbreak>4739</unbreak>)",
  "957855254": "Kargo Starskiff terkunci",
  "957855255": "Sistem eror (<unbreak>4741</unbreak>)",
  "957855256": "Barang terkunci",
  "957855250": "Pesanan Khusus tidak sesuai dengan pesanan saat ini",
  "957855251": "Barang Pesanan Khusus melewati batas pesanan",
  "957855252": "Syarat Pesanan Khusus belum semuanya terpenuhi",
  "957855246": "Jumlah barang tidak cukup",
  "957855247": "Sistem eror (<unbreak>4749</unbreak>)",
  "-1771028101": "Hadiah sudah diambil",
  "-1771028100": "Sistem eror (<unbreak>4751</unbreak>)",
  "-1771028099": "Sistem eror (<unbreak>4752</unbreak>)",
  "-1771028098": "Sistem eror (<unbreak>4753</unbreak>)",
  "-1771028105": "Sistem eror (<unbreak>4754</unbreak>)",
  "-1771028103": "Sistem eror (<unbreak>4755</unbreak>)",
  "-1771028102": "Sistem eror (<unbreak>4756</unbreak>)",
  "-1771028108": "Belum ada Perencanaan Logistik",
  "2120654669": "Event belum selesai",
  "2120654670": "Syarat pesanan belum terpenuhi",
  "-1367743936": "Kembalinya Cahaya Bintang belum dibuka",
  "-1367743937": "Check In Selesai",
  "-1367743938": "Poin saat ini tidak cukup",
  "-1367743931": "Saat ini tidak bisa Check In",
  "-1367743932": "Check In Selesai",
  "-1367743933": "Hadiah sudah diambil",
  "-1771028463": "Tim Perang Aetherium tidak ditemukan",
  "-1771028464": "Tim Perang Aetherium tidak dapat digunakan",
  "-1367743903": "Item terkait tidak ditemukan",
  "-1367743906": "Bingkai Percakapan terkunci",
  "-1367743905": "Sistem eror (<unbreak>4903</unbreak>)",
  "-1367743900": "Wallpaper ponsel terkunci",
  "-1771028430": "Sistem eror (<unbreak>4951</unbreak>)",
  "-1771028433": "Konfigurasi eror",
  "2120654337": "Zona yang valid tidak ditemukan",
  "2120654342": "Info zona tidak ditemukan",
  "2120654343": "Zona belum diselesaikan",
  "2120654340": "Zona belum dibuka",
  "2120654341": "Gameplay belum dimulai",
  "2120654346": "Sistem eror (<unbreak>4968</unbreak>)",
  "2120654347": "Sistem eror (<unbreak>4969</unbreak>)",
  "-608229017": "Tim saat ini eror",
  "-1723974264": "Sistem eror (<unbreak>4980</unbreak>)",
  "-1723974263": "Gagal memasuki zona",
  "-1723974266": "Gagal mengocok dadu",
  "-1723974265": "Sistem eror (<unbreak>4983</unbreak>)",
  "-1723974260": "Jumlah pemakaian tidak cukup",
  "-1723974259": "Sistem eror (<unbreak>4985</unbreak>)",
  "-1723974262": "Pengunduh eror",
  "-1723974261": "Karakter tidak dapat digunakan",
  "-861501922": "Parameter numerik tidak ada",
  "1623261643": "Sistem eror (<unbreak>5201</unbreak>)",
  "1623261646": "Event belum dibuka",
  "1623261645": "Melebihi Batas maksimum pengambilan",
  "1623261648": "Poin Ujian tidak cukup",
  "1623261647": "Hadiah sudah diambil",
  "1267031446": "Pemain ini belum menjadi temanmu",
  "1267031439": "Sudah menyukai",
  "1623261445": "Sistem eror (<unbreak>5801</unbreak>)",
  "1623261444": "Sistem eror (<unbreak>5802</unbreak>)",
  "1623261443": "Sistem eror (<unbreak>5803</unbreak>)",
  "1623261450": "Sistem eror (<unbreak>5804</unbreak>)",
  "1623261449": "Item sudah mencapai level maksimum",
  "1623261448": "Sistem eror (<unbreak>5806</unbreak>)",
  "1623261447": "Level item tidak bisa diturunkan lagi",
  "1623261454": "Sistem eror (<unbreak>5808</unbreak>)",
  "1623261453": "Sistem eror (<unbreak>5809</unbreak>)",
  "57177505": "Sistem eror (<unbreak>5810</unbreak>)",
  "57177504": "Event belum dibuka",
  "57177503": "Sistem eror (<unbreak>5812</unbreak>)",
  "57177502": "Sistem eror (<unbreak>5813</unbreak>)",
  "57177509": "Sistem eror (<unbreak>5814</unbreak>)",
  "57177508": "Sistem eror (<unbreak>5815</unbreak>)",
  "57177507": "Sistem eror (<unbreak>5816</unbreak>)",
  "57177506": "Semua Hadiah Reputasi sudah diambil",
  "-1912190964": "Sistem eror (<unbreak>5851</unbreak>)",
  "-1912190965": "Sistem eror (<unbreak>5852</unbreak>)",
  "-1912190966": "Sistem eror (<unbreak>5853</unbreak>)",
  "-1912190959": "Sistem eror (<unbreak>5854</unbreak>)",
  "-1912190960": "Sistem eror (<unbreak>5855</unbreak>)",
  "-1912190961": "Sistem eror (<unbreak>5856</unbreak>)",
  "-1912190962": "Sistem eror (<unbreak>5857</unbreak>)",
  "-1912190955": "Sistem eror (<unbreak>5858</unbreak>)",
  "-1912190956": "Sistem eror (<unbreak>5859</unbreak>)",
  "816692392": "Sistem eror (<unbreak>5860</unbreak>)",
  "816692391": "Sistem eror (<unbreak>5861</unbreak>)",
  "816692390": "Sistem eror (<unbreak>5862</unbreak>)",
  "816692389": "Sistem eror (<unbreak>5863</unbreak>)",
  "816692396": "Sistem eror (<unbreak>5864</unbreak>)",
  "816692395": "Sistem eror (<unbreak>5865</unbreak>)",
  "-1264786449": "Data pemain tidak valid",
  "301297492": "Client tidak merespon",
  "-458217395": "Verifikasi fitur gagal",
  "1107866546": "Fitur ini sementara ditutup",
  "746042362": "Русский",
  "1608850492": "Inisialisasi game gagal. Silakan buka kembali dan coba lagi",
  "507567562": "Distribusi server eror. Silakan periksa koneksi jaringan, buka ulang dan coba hubungkan lagi",
  "1183680304": "Penugasan sudah selesai, silakan diperiksa!",
  "-1527203779": "Trailblaze Power sudah terisi penuh, jangan lupa gunakan!",
  "-1105107601": "Penugasan sudah selesai!",
  "-492664622": "Trailblaze Power sudah terisi penuh!",
  "-314612542": "Rb",
  "-717897069": "Rb",
  "848186872": "Jt",
  "-363821157": "ภาษาไทย",
  "-2136827345": "繁體中文",
  "1912906754": "Ruang penyimpanan tidak mencukupi, harap kosongkan sebagian ruang penyimpanan dan coba kembali",
  "1025718490": "Kamu saat ini tidak menggunakan jaringan Wi-Fi, yakin mau lanjut mengunduh data?",
  "1301123177": "Gagal membersihkan data unduhan lokal, silakan buka game kembali dan bersihkan lagi",
  "-2092908827": "Berhasil membersihkan data unduhan lokal, silakan buka game kembali",
  "-81114143": "Update selesai, game akan dibuka ulang",
  "-259848768": "Mengaplikasikan patch",
  "2082905966": "Memeriksa update data ...{SPACE}",
  "1352780993": "Memeriksa versi baru",
  "-253064026": "Mengunduh sumber data ...{SPACE}",
  "1349227356": "Terjadi kesalahan pada pengunduhan data, silakan verifikasi ulang dan unduh data",
  "-1480277831": "Verifikasi data gagal, harap bersihkan sumber data dan unduh ulang, atau instal ulang paket dan coba lagi",
  "719011705": "Unduh data gagal, coba lagi?",
  "-1976536638": "Sumber data eror. Harap gunakan fitur \"Update\" di pojok kanan atas antarmuka log in untuk melakukan verifikasi dan perbaikan data.",
  "1959735889": "Memasang data ...{SPACE}",
  "1128105648": "Memuat data ...{SPACE}",
  "1896342672": "Verifikasi data lokal{SPACE}",
  "1476062893": "Membersihkan file temporer{SPACE}",
  "2059891064": "Mulai mengaplikasikan patch",
  "1228392776": "Mulai verifikasi data lokal ...{SPACE}",
  "-2093505287": "Mulai membersihkan file temporer",
  "701492679": "Mulai bongkar data",
  "271414171": "Mulai verifikasi data",
  "-1220166647": "Pemeriksaan data selesai, tekan untuk memulai ulang game",
  "1427390957": "Pemeriksaan data selesai, tidak ditemukan kesalahan",
  "-1861574693": "Bongkar data",
  "477354111": "Verifikasi data",
  "-1734649926": "Pilih",
  "-1159186496": "Versi beta, tidak mewakili produk akhir",
  "-1513126819": "Kembali",
  "-1024198625": "Silakan buka \"Pusat Pengguna > Keamanan Akun HoYoverse\" untuk melakukan pengaturan",
  "-714248207": "Tangkap Layar dan Lapor",
  "43235784": "Batal",
  "657177150": "OK",
  "2106114571": "Update Launcher",
  "619467309": "Pergi ke komunitas resmi",
  "1439172572": "Pengunduhan data gagal, silakan coba lagi nanti",
  "299305438": "Perbarui semua file unduhan",
  "1863702846": "Apakah kamu mau melakukan verifikasi ulang pada integritas data unduhan?",
  "-1596856485": "Cek data",
  "296444951": "Tidak bisa menggunakan WLAN atau data seluler, silakan cek pengaturan jaringan",
  "-1026500224": "Pesan Eror",
  "-82214061": "Musik akan tetap diputar saat game berjalan di latar belakang",
  "-966128796": "Log in eror, silakan coba lagi nanti. Kode eror: #1",
  "310545576": "本公司积极履行《网络游戏行业防沉迷自律公约》",
  "316852424": "Update",
  "2146831397": "Keluar",
  "-1936148297": "Bahasa",
  "1053410410": "Log In",
  "137785819": "Log Out",
  "-695628513": "Pengumuman",
  "342122252": "Silakan pilih server",
  "-494723770": "Unduh Data Lengkap",
  "1814096353": "Tekan untuk Masuk",
  "-94882978": "본 게임은 <unbreak>12</unbreak>세 이용가 게임물로 만 <unbreak>12</unbreak>세 미만의 어린이나 청소년이 이용하기 부적절합니다",
  "1234897861": "Memuat data ...{SPACE}",
  "1347209599": "Scan",
  "-1808034669": "1、本游戏是一款3D角色扮演类回合制游戏，适用于年满<unbreak>12</unbreak>周岁及以上的用户，建议未成年人在家长监护下使用游戏产品。\\n\\n2、本游戏基于架空背景展开剧情，用户可通过对话、交互、完成任务推进剧情，游戏内还可以自由探索场景地图。游戏中有需要使用游戏角色进行的人机对战，玩法基于一定难度的思考判断，鼓励玩家随机应变、制定策略来取得对战胜利。游戏中有少量自定义文字系统，该社交系统遵循相关法律法规进行管理。\\n\\n3、本游戏中有用户实名认证系统，认证为未成年的用户将受到以下游戏限制：\\n未满8周岁的用户不能充值；8周岁以上未满<unbreak>16</unbreak>周岁的未成年用户，单次充值金额不得超过<unbreak>50</unbreak>元人民币，每月充值金额累计不得超过<unbreak>200</unbreak>元人民币；<unbreak>16</unbreak>周岁以上的未成年用户，单次充值金额不得超过<unbreak>100</unbreak>元人民币，每月充值金额累计不得超过<unbreak>400</unbreak>元人民币。\\n游戏仅会在周五、周六、周日和法定节假日的<unbreak>20</unbreak>时至<unbreak>21</unbreak>时，向未成年人提供1小时游戏服务。\\n\\n4、游戏玩法鼓励玩家积极思考，制定和应用策略来取得对战的胜利。同时，在游戏中呈现了精美细腻的画面效果，能够为玩家提供优质的视觉体验。",
  "-1282310801": "1、本游戏是一款3D角色扮演类回合制游戏，适用于年满<unbreak>12</unbreak>周岁及以上的用户，建议未成年人在家长监护下使用游戏产品。\\n\\n2、本游戏基于架空背景展开剧情，用户可通过对话、交互、完成任务推进剧情，游戏内还可以自由探索场景地图。游戏中有需要使用游戏角色进行的人机对战，玩法基于一定难度的思考判断，鼓励玩家随机应变、制定策略来取得对战胜利。游戏中有少量自定义文字系统，该社交系统遵循相关法律法规进行管理。\\n\\n3、<unbreak>PlayStation™Network (\"PSN\")</unbreak>的中国大陆用户需要进行实名认证，认证为未成年人的用户无法在<unbreak>PlayStation™Store</unbreak>消费，包括且不限于游戏购买，订阅购买/升级/延长，以及游戏内商品购买内容和服务。\\n未成年人用户仅限于每周五、周六、周日的<unbreak>20</unbreak>时至<unbreak>21</unbreak>时登录及游玩。\\n\\n4、游戏玩法鼓励玩家积极思考，制定和应用策略来取得对战的胜利。同时，在游戏中呈现了精美细腻的画面效果，能够为玩家提供优质的视觉体验。",
  "1211532780": "适龄提示",
  "-584092019": "Mulai Game",
  "2004081699": "Log In Terakhir",
  "-828304337": "Daftar Server",
  "1770448309": "Layanan Pelanggan",
  "1064284207": "Jika kamu mengalami masalah tidak bisa log in ke dalam game atau sejenisnya, silakan hubungi layanan pelanggan melalui email untuk mendapatkan bantuan lebih lanjut.\\nAlamat email: hsrcs_id@hoyoverse.com",
  "-472476664": "Email Layanan Pelanggan",
  "1377868803": "Bisukan saat jendela tidak aktif",
  "-488673265": "RES",
  "2085583028": "Lihat Detail",
  "2106720550": "Server ditutup. Akan dibuka kembali dalam #1",
  "314524367": "Daftar Blokir dari <unbreak>PlayStation™Network</unbreak>",
  "782329688": "Hanya Bermain dengan pengguna dari <unbreak>PlayStation™Network</unbreak>",
  "-1612423078": "Teman-teman dari <unbreak>PlayStation™Network</unbreak>. Daftar Teman ini hanya untuk ditampilkan saja, kamu tidak dapat berinteraksi dengannya",
  "-650647438": "Tambah teman melalui <unbreak>PlayStation™Network</unbreak>",
  "863714791": "Belum ada teman dari <unbreak>PlayStation™Network</unbreak> yang ditambah",
  "-1137848582": "Belum bergabung ke game",
  "-2077891673": "Fitur ini tidak tersedia karena adanya pembatasan konten",
  "-2119394949": "Gagal menyimpan foto",
  "-216138017": "Misi ini hanya dapat diakses dengan mengunakan paket game yang lengkap. Harap tunggu sampai game selesai diunduh\\n(Progres saat ini <unbreak>#1[f1]%</unbreak>)",
  "1469469656": "Pengunduhan selesai. Silakan konfirmasi dan kembali ke menu log in untuk melanjutkan",
  "581389205": "Misi ini hanya dapat diakses dengan mengunakan paket game yang lengkap. Harap tunggu sampai game selesai diunduh",
  "-1825251286": "(Silakan tunggu sampai game selesai diunduh)",
  "1051467476": "Petunjuk",
  "374299751": "Hak",
  "250912545": "Kamu dapat membatalkan penghubungan akun dan menghapus informasi akun kamu kapan saja melalui situs web resmi atau Layanan Pelanggan.\\nSaat kamu melihat informasi atau komentar buruk, silakan melaporkannya melalui \"Masukan dan Pengaduan\" di dalam game.",
  "-1937952402": "Hak Pemain",
  "250912557": "Kamu dapat membatalkan penghubungan akun dan menghapus informasi akun kamu kapan saja melalui situs web resmi atau Layanan Pelanggan.\\nSaat kamu melihat informasi atau komentar buruk, silakan melaporkannya melalui email Layanan Pelanggan: hsrcs_psn@hoyoverse.com",
  "630074059": "Fitur sedang dalam maintenance",
  "989248170": "Pra-Unduh Sumber Data",
  "-750517657": "Sedang mengalkulasi ukuran data ....",
  "-142421313": "Setelah selesai Pra-Unduh, kamu dapat memasuki game dengan lebih cepat ketika versi terbaru dirilis.\\nApa kamu yakin ingin memulai Pra-Unduh sekarang?",
  "-1870906904": "Pra-unduh selesai",
  "1894204417": "Mengunduh Data ...",
  "-344983707": "Kembali ke menu utama akan <color=#f29e38ff>menghentikan pengunduhan data untuk sementara</color>, pengunduhan dapat dilanjutkan ketika masuk di lain waktu, yakin ingin kembali?",
  "1507264103": "Mengunduh data ...",
  "-1170157658": "Dear Trailblazer, pengunduhan data saat ini sudah selesai. Silakan mengunduh data versi yang lengkap untuk terus melanjutkan petualangan. Selama proses pengunduhan dan pembaruan client data, game tidak akan bisa diakses.\\nMendukung pengunduhan dari latar belakang dan notifikasi akan dikirimkan setelah pengunduhan selesai.",
  "39175154": "Dear Trailblazer, kami merekomendasikan untuk mengunduh data versi yang lengkap untuk memainkan game.\\nMendukung pengunduhan dari latar belakang dan notifikasi akan dikirimkan setelah pengunduhan selesai.",
  "-1261593137": "Pengunduhan Data Selesai",
  "519445645": "Ukuran Data:{SPACE}",
  "1822513095": "Jaringan internet kamu sudah berganti ke jaringan mobile. Lanjut mengunduh dengan menggunakan kuota?",
  "-521799574": "Notifikasi Pengunduhan",
  "1364852514": "Sistem eror (#1)",
  "951352232": "Kembali",
  "-2027882201": "Scroll untuk membaca",
  "-1063251765": "Selesai Mengunduh",
  "-539780618": "Mengunduh Data ...",
  "-1194070923": "Kecepatan Unduh Saat Ini:",
  "1101186259": ", Sisa Waktu:{SPACE}",
  "158747613": "Data client atau data versi saat ini tidak sesuai dengan versi server. Harap hubungi staf yang bersangkutan",
  "-2002758923": "Kami telah memilihkan server terbaik untukmu.\\nApakah kamu yakin mau beralih ke server\\n\"#1\"?\\n\\nPerhatian: Data karakter setiap server tidak terhubung satu sama lain.",
  "-2025942164": "Peralihan mode tampilan akan berlaku pada game selanjutnya.",
  "-1721157021": "Mode Normal",
  "-1712056345": "Mode Standar",
  "-1604595962": "Pengaturan Tampilan",
  "778308962": "Rentang Dinamis",
  "2089768880": "Auto",
  "1301793381": "Headphone",
  "-1100339724": "Default",
  "812122310": "Pengaturan Tingkat Kecerahan",
  "-1773639219": "Tutup",
  "-605891328": "Aktifkan notifikasi sistem untuk mendapatkan pesan notifikasi",
  "-628496434": "Pusat Pengguna",
  "-1036797452": "Anti-Aliasing",
  "1571467294": "Kualitas Karakter",
  "2121425095": "Efek Bloom",
  "-1790528414": "Pengaturan Izin Pemasaran",
  "-1028540803": "Resolusi",
  "1322368159": "Penugasan sudah selesai!",
  "-495583877": "FPS",
  "532924288": "Kualitas Grafik",
  "-358081377": "Kualitas Cahaya",
  "-1635836839": "Volume Musik",
  "-964786894": "Kebijakan Privasi",
  "-2146107594": "Kualitas Refleksi",
  "-324016192": "Kualitas SFX",
  "-1576424918": "Detail Latar Tempat",
  "417386691": "Kualitas Bayangan",
  "397299267": "Volume Efek Suara",
  "1975808096": "Trailblaze Power sudah terisi penuh!",
  "-1839757053": "Bahasa Teks",
  "23538652": "Volume Utama",
  "-1085323529": "Syarat Layanan",
  "-370309163": "V-Sync",
  "1144050928": "Bahasa Suara",
  "1906999544": "Volume Suara",
  "-1166267866": "Pergi",
  "-539037458": "#1×#2",
  "-1379977021": "Cek Kecerahan Maksimum Monitor HDR",
  "-1340173514": "Reset",
  "-1394624238": "Langkah Sebelumnya",
  "1927252486": "Dapat diatur di \"Pengaturan > Grafik\" setelah masuk game",
  "-801630869": "Atur sampai pola di tengah sedikit terlihat",
  "-784871167": "Cerah",
  "-462760445": "Redup",
  "-985988607": "Pemuatan untuk pengaturan saat ini terlalu berat, mungkin dapat menyebabkan perangkat panas dan ketidaklancaran game",
  "1249857882": "<unbreak>120</unbreak>",
  "-478651376": "<unbreak>30</unbreak>",
  "1209683745": "<unbreak>60</unbreak>",
  "-953688934": "Tutup",
  "-1328219103": "Kustomisasi",
  "-848478178": "FXAA",
  "841606793": "Layar penuh #1×#2",
  "-1144097826": "Tinggi",
  "17481744": "Rendah",
  "994881107": "Sedang",
  "1080743946": "Buka",
  "1240890064": "TAA",
  "996001262": "Sangat Tinggi",
  "-2028362208": "Sangat rendah",
  "-59544482": "MetalFX",
  "554533651": "Buka",
  "-1934528832": "Pengaturan",
  "-663055993": "Akurasi Rendering",
  "1414319684": "Akun",
  "-458466366": "Grafik",
  "-1723423623": "Bahasa",
  "-1543303433": "Notifikasi",
  "1026638059": "Suara",
  "1933636533": "Pengaturan Akun",
  "-132770945": "Pengaturan Grafik",
  "-1456349696": "Pengaturan Bahasa",
  "1110226542": "Pesan Notifikasi",
  "450754340": "Pengaturan Suara",
  "-968657836": "Keseimbangan Suara",
  "-317856315": "健康游戏忠告",
  "2141265850": "抵制不良游戏，拒绝盗版游戏。注意自我保护，谨防受骗上当。适度游戏益脑，沉迷游戏伤身。合理安排时间，享受健康生活。",
  "-1249895293": "Sebagian kecil orang dapat mengalami kejang-kejang saat melihat beberapa jenis gambar visual tertentu, termasuk cahaya atau grafik di dalam video game. Saat bermain video game, orang-orang ini dapat mengalami gejala epilepsi. Orang yang sebelumnya tidak pernah mengalami gejala epilepsi juga memiliki kemungkinan mengalami gejala serupa saat bermain video game. Jika kamu atau anggota keluargamu memiliki riwayat epilepsi, mohon konsultasikan dengan ahli kesehatan sebelum bermain game. Jika kamu mengalami gejala-gejala berikut saat bermain game, seperti nyeri mata, gangguan penglihatan, migrain, kejang-kejang atau gangguan kesadaran (seperti koma), mohon segera berhenti bermain dan konsultasikan dengan ahli kesehatan sebelum melanjutkan permainan.",
  "-740499222": "Peringatan: Baca Sebelum Bermain",
  "-1363477176": "{LAYOUT_MOBILE#审批文号：国新出审[<unbreak>2023</unbreak>]<unbreak>16</unbreak>号 ISBN <unbreak>978</unbreak>-7-<unbreak>498</unbreak>-<unbreak>10006</unbreak>-1 出版单位：上海声像电子出版社\\n著作权人：上海米哈游海渊城科技有限公司}{LAYOUT_CONTROLLER#审批文号：国新出审[<unbreak>2023</unbreak>]<unbreak>16</unbreak>号 ISBN <unbreak>978</unbreak>-7-<unbreak>498</unbreak>-<unbreak>10006</unbreak>-1 出版单位：上海声像电子出版社\\n著作权人：上海米哈游海渊城科技有限公司}{LAYOUT_KEYBOARD#审批文号：国新出审[<unbreak>2023</unbreak>]<unbreak>16</unbreak>号 ISBN <unbreak>978</unbreak>-7-<unbreak>498</unbreak>-<unbreak>10006</unbreak>-1 出版单位：上海声像电子出版社\\n著作权人：上海米哈游海渊城科技有限公司}{LAYOUT_CONTROLLER_PS#著作权人：上海米哈游海渊城科技有限公司}",
  "1714821062": "Akses Beta Sudah Kedaluwarsa",
  "27517590": "Fitur ini sementara ditutup, harap pantau pengumuman di dalam game untuk detailnya",
  "430802117": "Hadiah tidak dapat diperoleh karena eror, harap pantau pengumuman di dalam game untuk detailnya",
  "1655744409": "Dipilih",
  "-13012819": "Hapus",
  "-209117183": "Pengaturan Data Suara",
  "-601256312": "Pengaturan Data Suara",
  "-65896461": "Yakin mau menghapus #1?",
  "-1967373540": "Notifikasi Hapus",
  "1986863792": "Unduh",
  "2079876877": "Batal Unduh",
  "-1191067045": "Pengunduhan paket ekspansi suara sudah selesai. Mau gunakan #1?",
  "-1532151295": "Pengunduhan data selesai",
  "-1040668088": "Mengunduh data ...",
  "971030287": "Pengunduhan Data",
  "-1617346749": "Paket ekspansi suara belum selesai diunduh, mau mengunduh #1?",
  "-1943128427": "Ukuran Data:{SPACE}",
  "-1681198979": "Tidak ada pilihan suara yang tersedia",
  "-368945552": "Tiếng Việt"
}