{
  "OnInitSequece": [],
  "OnStartSequece": [
    {
      "TaskList": [
        {
          "$type": "RPG.GameCore.LevelPerformanceInitialize",
          "PerformanceType": "D",
          "CreateCharacterList": [],
          "CaptureNPCList": [],
          "EntityVisiableList": [],
          "HideMunicipalCrowd": false,
          "PropVisiableList": [],
          "StreamingSourcesInBlackMask": [],
          "StreamingSourcesAfterBlackMask": [],
          "MarkStreamingItems": []
        },
        {
          "$type": "RPG.GameCore.PlayFullScreenTransfer",
          "Action": [
            {
              "$type": "RPG.GameCore.ScrTrfActPerformanceGroup",
              "AdvCreateGroupEntity": {
                "TaskEnabled": false
              },
              "AdvDestroyGroupEntity": {
                "InstanceIDList": [],
                "TaskEnabled": false
              },
              "CaptureNpc": [
                {
                  "GroupID": {
                    "IsDynamic": false,
                    "FixedValue": {
                      "Value": 514
                    }
                  },
                  "GroupNpcID": {
                    "IsDynamic": false,
                    "FixedValue": {
                      "Value": 400001
                    }
                  },
                  "CharacterUniqueName": {
                    "Value": "Act434011904_G514N400001"
                  }
                },
                {
                  "GroupID": {
                    "IsDynamic": false,
                    "FixedValue": {
                      "Value": 514
                    }
                  },
                  "GroupNpcID": {
                    "IsDynamic": false,
                    "FixedValue": {
                      "Value": 400002
                    }
                  },
                  "CharacterUniqueName": {
                    "Value": "Act434011904_G514N400002"
                  }
                },
                {
                  "GroupID": {
                    "IsDynamic": false,
                    "FixedValue": {
                      "Value": 514
                    }
                  },
                  "GroupNpcID": {
                    "IsDynamic": false,
                    "FixedValue": {
                      "Value": 400003
                    }
                  },
                  "CharacterUniqueName": {
                    "Value": "Act434011904_G514N400003"
                  }
                }
              ],
              "SwitchCharacterAnchor": {
                "IsLocalPlayer": true,
                "CharacterUniqueName": "LocalPlayer",
                "AreaName": {
                  "Value": "LevelArea_P10301_F10301001_G514"
                },
                "AnchorName": {
                  "Value": "Anchor1"
                }
              },
              "ActiveVirtualCamera": {
                "TaskEnabled": false
              },
              "ActiveTemplateVirtualCamera": {
                "TaskEnabled": false
              },
              "AdvNpcFaceToPlayer": {
                "SteerImmediately": true,
                "FinishImmadiate": true,
                "TaskEnabled": false
              }
            },
            {
              "$type": "RPG.GameCore.ScrTrfActTaskList",
              "TaskList": [
                {
                  "$type": "RPG.GameCore.AdvEntityFaceTo",
                  "SourceType": {
                    "$type": "RPG.GameCore.TargetFetchAdvNpcEx",
                    "FetchType": "SingleNpcByNpcID",
                    "SingleNpcID": {
                      "GroupID": {
                        "IsDynamic": false,
                        "FixedValue": {
                          "Value": 514
                        }
                      },
                      "GroupNpcID": {
                        "IsDynamic": false,
                        "FixedValue": {
                          "Value": 400001
                        }
                      }
                    }
                  },
                  "TargetType": {
                    "$type": "RPG.GameCore.TargetFetchAdvLocalPlayer"
                  }
                },
                {
                  "$type": "RPG.GameCore.AdvEntityFaceTo",
                  "SourceType": {
                    "$type": "RPG.GameCore.TargetFetchAdvNpcEx",
                    "FetchType": "SingleNpcByNpcID",
                    "SingleNpcID": {
                      "GroupID": {
                        "IsDynamic": false,
                        "FixedValue": {
                          "Value": 514
                        }
                      },
                      "GroupNpcID": {
                        "IsDynamic": false,
                        "FixedValue": {
                          "Value": 400002
                        }
                      }
                    }
                  },
                  "TargetType": {
                    "$type": "RPG.GameCore.TargetFetchAdvLocalPlayer"
                  },
                  "EnableSteer": true,
                  "ForceToStandBy": true
                },
                {
                  "$type": "RPG.GameCore.AdvEntityFaceTo",
                  "SourceType": {
                    "$type": "RPG.GameCore.TargetFetchAdvNpcEx",
                    "FetchType": "SingleNpcByNpcID",
                    "SingleNpcID": {
                      "GroupID": {
                        "IsDynamic": false,
                        "FixedValue": {
                          "Value": 514
                        }
                      },
                      "GroupNpcID": {
                        "IsDynamic": false,
                        "FixedValue": {
                          "Value": 400003
                        }
                      }
                    }
                  },
                  "TargetType": {
                    "$type": "RPG.GameCore.TargetFetchAdvLocalPlayer"
                  },
                  "EnableSteer": true,
                  "ForceToStandBy": true
                },
                {
                  "$type": "RPG.GameCore.AdvEntityFaceTo",
                  "SourceType": {
                    "$type": "RPG.GameCore.TargetFetchAdvLocalPlayer"
                  },
                  "TargetType": {
                    "$type": "RPG.GameCore.TargetFetchAdvNpcEx",
                    "FetchType": "SingleNpcByNpcID",
                    "SingleNpcID": {
                      "GroupID": {
                        "IsDynamic": false,
                        "FixedValue": {
                          "Value": 514
                        }
                      },
                      "GroupNpcID": {
                        "IsDynamic": false,
                        "FixedValue": {
                          "Value": 400003
                        }
                      }
                    }
                  },
                  "ForceToStandBy": true
                }
              ]
            }
          ]
        },
        {
          "$type": "RPG.GameCore.PlayAndWaitSimpleTalk",
          "SimpleTalkList": [
            {
              "TextSpeed": 0,
              "TalkSentenceID": 434027301,
              "ProtectTime": 0
            },
            {
              "TextSpeed": 0,
              "TalkSentenceID": 434027302,
              "ProtectTime": 0
            },
            {
              "TextSpeed": 0,
              "TalkSentenceID": 434027303,
              "ProtectTime": 0
            }
          ]
        },
        {
          "$type": "RPG.GameCore.PlayOptionTalk",
          "OptionList": [
            {
              "TalkSentenceID": 434027304,
              "OptionIconType": "ChatContinueIcon",
              "TriggerCustomString": "TalkSentence_434027306"
            },
            {
              "TalkSentenceID": 434027305,
              "OptionIconType": "ChatContinueIcon",
              "TriggerCustomString": "TalkSentence_434027306"
            }
          ]
        }
      ]
    },
    {
      "TaskList": [
        {
          "$type": "RPG.GameCore.WaitCustomString",
          "CustomString": {
            "Value": "TalkSentence_434027306"
          }
        },
        {
          "$type": "RPG.GameCore.CharacterTriggerFreeStyle",
          "CharacterUniqueName": "Act434011904_G514N400003",
          "StoryAvatarID": "NPC_Male",
          "StoryMotionID": 100010209
        },
        {
          "$type": "RPG.GameCore.PlayAndWaitSimpleTalk",
          "SimpleTalkList": [
            {
              "TextSpeed": 0,
              "TalkSentenceID": 434027306,
              "ProtectTime": 0
            },
            {
              "TextSpeed": 0,
              "TalkSentenceID": 434027307,
              "ProtectTime": 0
            }
          ]
        },
        {
          "$type": "RPG.GameCore.PlayFullScreenTransfer",
          "TextInfo": {
            "TextList": [
              {
                "TalkSentenceID": 434027308
              }
            ]
          },
          "Action": [
            {
              "$type": "RPG.GameCore.ScrTrfActPerformanceGroup",
              "AdvCreateGroupEntity": {
                "InstanceIDList": [
                  400004,
                  400005
                ]
              },
              "AdvDestroyGroupEntity": {
                "TaskEnabled": false
              },
              "CaptureNpc": [],
              "SwitchCharacterAnchor": {
                "TaskEnabled": false
              },
              "ActiveVirtualCamera": {
                "TaskEnabled": false
              },
              "ActiveTemplateVirtualCamera": {
                "TaskEnabled": false
              },
              "AdvNpcFaceToPlayer": {
                "SteerImmediately": true,
                "FinishImmadiate": true,
                "TaskEnabled": false
              }
            },
            {
              "$type": "RPG.GameCore.ScrTrfActTaskList",
              "TaskList": [
                {
                  "$type": "RPG.GameCore.CharacterTriggerFreeStyle",
                  "CharacterUniqueName": "Act434011904_G514N400003",
                  "StoryAvatarID": "NPC_Male",
                  "StoryMotionID": 100010000
                }
              ]
            }
          ]
        },
        {
          "$type": "RPG.GameCore.CharacterTriggerFreeStyle",
          "CharacterUniqueName": "LocalPlayer",
          "StoryAvatarID": "NPC_Player",
          "StoryMotionID": 209
        },
        {
          "$type": "RPG.GameCore.PlayAndWaitSimpleTalk",
          "SimpleTalkList": [
            {
              "TextSpeed": 0,
              "TalkSentenceID": 434027309,
              "ProtectTime": 0
            },
            {
              "TextSpeed": 0,
              "TalkSentenceID": 434027310,
              "ProtectTime": 0
            }
          ]
        },
        {
          "$type": "RPG.GameCore.CharacterTriggerFreeStyle",
          "CharacterUniqueName": "Act434011904_G514N400003",
          "StoryAvatarID": "NPC_Male",
          "StoryMotionID": 100010332
        },
        {
          "$type": "RPG.GameCore.PlayAndWaitSimpleTalk",
          "SimpleTalkList": [
            {
              "TextSpeed": 0,
              "TalkSentenceID": 434027311,
              "ProtectTime": 0
            }
          ]
        },
        {
          "$type": "RPG.GameCore.PlayOptionTalk",
          "OptionList": [
            {
              "TalkSentenceID": 434027312,
              "OptionIconType": "ChatContinueIcon",
              "TriggerCustomString": "TalkSentence_434027314"
            },
            {
              "TalkSentenceID": 434027313,
              "OptionIconType": "ChatContinueIcon",
              "TriggerCustomString": "TalkSentence_434027314"
            }
          ]
        }
      ]
    },
    {
      "TaskList": [
        {
          "$type": "RPG.GameCore.WaitCustomString",
          "CustomString": {
            "Value": "TalkSentence_434027314"
          }
        },
        {
          "$type": "RPG.GameCore.PlayAndWaitSimpleTalk",
          "SimpleTalkList": [
            {
              "TextSpeed": 0,
              "TalkSentenceID": 434027314,
              "ProtectTime": 0
            },
            {
              "TextSpeed": 0,
              "TalkSentenceID": 434027315,
              "ProtectTime": 0
            },
            {
              "TextSpeed": 0,
              "TalkSentenceID": 434027316,
              "ProtectTime": 0
            },
            {
              "TextSpeed": 0,
              "TalkSentenceID": 434027317,
              "ProtectTime": 0
            }
          ]
        },
        {
          "$type": "RPG.GameCore.CharacterTriggerFreeStyle",
          "CharacterUniqueName": "Act434011904_G514N400002",
          "StoryAvatarID": "NPC_Lady",
          "StoryMotionID": 100020236
        },
        {
          "$type": "RPG.GameCore.PlayAndWaitSimpleTalk",
          "SimpleTalkList": [
            {
              "TextSpeed": 0,
              "TalkSentenceID": 434027318,
              "ProtectTime": 0
            },
            {
              "TextSpeed": 0,
              "TalkSentenceID": 434027319,
              "ProtectTime": 0
            },
            {
              "TextSpeed": 0,
              "TalkSentenceID": 434027320,
              "ProtectTime": 0
            },
            {
              "TextSpeed": 0,
              "TalkSentenceID": 434027321,
              "ProtectTime": 0
            }
          ]
        },
        {
          "$type": "RPG.GameCore.PlayFullScreenTransfer",
          "Action": [
            {
              "$type": "RPG.GameCore.ScrTrfActPerformanceGroup",
              "AdvCreateGroupEntity": {
                "InstanceIDList": [],
                "TaskEnabled": false
              },
              "AdvDestroyGroupEntity": {
                "InstanceIDList": [
                  400001,
                  400002,
                  400003,
                  400004,
                  400005
                ]
              },
              "CaptureNpc": [],
              "SwitchCharacterAnchor": {
                "TaskEnabled": false
              },
              "ActiveVirtualCamera": {
                "TaskEnabled": false
              },
              "ActiveTemplateVirtualCamera": {
                "TaskEnabled": false
              },
              "AdvNpcFaceToPlayer": {
                "SteerImmediately": true,
                "FinishImmadiate": true,
                "TaskEnabled": false
              }
            }
          ]
        },
        {
          "$type": "RPG.GameCore.EndPerformance"
        }
      ]
    },
    {
      "TaskList": [
        {
          "$type": "RPG.GameCore.WaitPerformanceEnd"
        },
        {
          "$type": "RPG.GameCore.FinishLevelGraph"
        }
      ]
    }
  ]
}