{
  "OnInitSequece": [],
  "OnStartSequece": [
    {
      "TaskList": [
        {
          "$type": "RPG.GameCore.LevelPerformanceInitialize",
          "PerformanceType": "D",
          "CreateCharacterList": [],
          "CaptureNPCList": [],
          "EntityVisiableList": [],
          "HideMunicipalCrowd": false,
          "PropVisiableList": [],
          "StreamingSourcesInBlackMask": [],
          "StreamingSourcesAfterBlackMask": [],
          "MarkStreamingItems": []
        },
        {
          "$type": "RPG.GameCore.CaptureNPCToCharacter",
          "GroupID": {
            "IsDynamic": false,
            "FixedValue": {
              "Value": 512
            }
          },
          "GroupNpcID": {
            "IsDynamic": false,
            "FixedValue": {
              "Value": 400001
            }
          },
          "CharacterUniqueName": {
            "Value": "Act434011902_G512N400001"
          }
        },
        {
          "$type": "RPG.GameCore.CaptureNPCToCharacter",
          "GroupID": {
            "IsDynamic": false,
            "FixedValue": {
              "Value": 512
            }
          },
          "GroupNpcID": {
            "IsDynamic": false,
            "FixedValue": {
              "Value": 400002
            }
          },
          "CharacterUniqueName": {
            "Value": "Act434011902_G512N400002"
          }
        },
        {
          "$type": "RPG.GameCore.CaptureNPCToCharacter",
          "GroupID": {
            "IsDynamic": false,
            "FixedValue": {
              "Value": 512
            }
          },
          "GroupNpcID": {
            "IsDynamic": false,
            "FixedValue": {
              "Value": 400003
            }
          },
          "CharacterUniqueName": {
            "Value": "Act434011902_G512N400003"
          }
        },
        {
          "$type": "RPG.GameCore.PlayFullScreenTransfer",
          "Action": [
            {
              "$type": "RPG.GameCore.ScrTrfActPerformanceGroup",
              "AdvCreateGroupEntity": {
                "InstanceIDList": [],
                "TaskEnabled": false
              },
              "AdvDestroyGroupEntity": {
                "InstanceIDList": [],
                "TaskEnabled": false
              },
              "CaptureNpc": [],
              "SwitchCharacterAnchor": {
                "IsLocalPlayer": true,
                "CharacterUniqueName": "LocalPlayer",
                "AreaName": {
                  "Value": "LevelArea_P10301_F10301001_G512"
                },
                "AnchorName": {
                  "Value": "Anchor1"
                }
              },
              "ActiveVirtualCamera": {
                "AreaName": "LevelArea_P10301_F10301001_G512",
                "AnchorName": "Anchor2"
              },
              "ActiveTemplateVirtualCamera": {
                "TaskEnabled": false
              },
              "AdvNpcFaceToPlayer": {
                "SteerImmediately": true,
                "FinishImmadiate": true,
                "TaskEnabled": false
              }
            }
          ]
        },
        {
          "$type": "RPG.GameCore.PlayAndWaitSimpleTalk",
          "SimpleTalkList": [
            {
              "TextSpeed": 0,
              "TalkSentenceID": 434027101,
              "ProtectTime": 0
            },
            {
              "TextSpeed": 0,
              "TalkSentenceID": 434027102,
              "ProtectTime": 0
            },
            {
              "TextSpeed": 0,
              "TalkSentenceID": 434027103,
              "ProtectTime": 0
            },
            {
              "TextSpeed": 0,
              "TalkSentenceID": 434027104,
              "ProtectTime": 0
            },
            {
              "TextSpeed": 0,
              "TalkSentenceID": 434027105,
              "ProtectTime": 0
            }
          ]
        },
        {
          "$type": "RPG.GameCore.PlayOptionTalk",
          "OptionList": [
            {
              "TalkSentenceID": 434027106,
              "OptionIconType": "ChatContinueIcon",
              "TriggerCustomString": "TalkSentence_434027108"
            },
            {
              "TalkSentenceID": 434027107,
              "OptionIconType": "ChatContinueIcon",
              "TriggerCustomString": "TalkSentence_434027108"
            }
          ]
        }
      ]
    },
    {
      "TaskList": [
        {
          "$type": "RPG.GameCore.WaitCustomString",
          "CustomString": {
            "Value": "TalkSentence_434027108"
          }
        },
        {
          "$type": "RPG.GameCore.PlayAndWaitSimpleTalk",
          "SimpleTalkList": [
            {
              "TextSpeed": 0,
              "TalkSentenceID": 434027108,
              "ProtectTime": 0
            }
          ]
        },
        {
          "$type": "RPG.GameCore.PlayFullScreenTransfer",
          "TextInfo": {
            "TextList": [
              {
                "TalkSentenceID": 434027109
              }
            ]
          },
          "Action": [
            {
              "$type": "RPG.GameCore.ScrTrfActPerformanceGroup",
              "AdvCreateGroupEntity": {
                "InstanceIDList": [
                  400004,
                  400005
                ]
              },
              "AdvDestroyGroupEntity": {
                "InstanceIDList": [],
                "TaskEnabled": false
              },
              "CaptureNpc": [],
              "SwitchCharacterAnchor": {
                "TaskEnabled": false
              },
              "ActiveVirtualCamera": {
                "AreaName": "LevelArea_P10301_F10301001_G512",
                "AnchorName": "Anchor3"
              },
              "ActiveTemplateVirtualCamera": {
                "TaskEnabled": false
              },
              "AdvNpcFaceToPlayer": {
                "SteerImmediately": true,
                "FinishImmadiate": true,
                "TaskEnabled": false
              }
            },
            {
              "$type": "RPG.GameCore.ScrTrfActTaskList",
              "TaskList": [
                {
                  "$type": "RPG.GameCore.CharacterTriggerFreeStyle",
                  "CharacterUniqueName": "Act434011902_G512N400001",
                  "StoryAvatarID": "NPC_Child",
                  "StoryMotionID": 100040000
                },
                {
                  "$type": "RPG.GameCore.CharacterTriggerFreeStyle",
                  "CharacterUniqueName": "Act434011902_G512N400003",
                  "StoryAvatarID": "NPC_Male",
                  "StoryMotionID": 100010000
                }
              ]
            }
          ]
        },
        {
          "$type": "RPG.GameCore.PlayAndWaitSimpleTalk",
          "SimpleTalkList": [
            {
              "TextSpeed": 0,
              "TalkSentenceID": 434027110,
              "ProtectTime": 0
            }
          ]
        },
        {
          "$type": "RPG.GameCore.AdvEntityFaceTo",
          "SourceType": {
            "$type": "RPG.GameCore.TargetFetchAdvLocalPlayer"
          },
          "TargetType": {
            "$type": "RPG.GameCore.TargetFetchAdvNpcEx",
            "FetchType": "SingleNpcByNpcID",
            "SingleNpcID": {
              "GroupID": {
                "IsDynamic": false,
                "FixedValue": {
                  "Value": 512
                }
              },
              "GroupNpcID": {
                "IsDynamic": false,
                "FixedValue": {
                  "Value": 400005
                }
              }
            }
          },
          "EnableSteer": true
        },
        {
          "$type": "RPG.GameCore.AdvEntityFaceTo",
          "SourceType": {
            "$type": "RPG.GameCore.TargetFetchAdvNpcEx",
            "FetchType": "SingleNpcByNpcID",
            "SingleNpcID": {
              "GroupID": {
                "IsDynamic": false,
                "FixedValue": {
                  "Value": 512
                }
              },
              "GroupNpcID": {
                "IsDynamic": false,
                "FixedValue": {
                  "Value": 400001
                }
              }
            }
          },
          "TargetType": {
            "$type": "RPG.GameCore.TargetFetchAdvNpcEx",
            "FetchType": "SingleNpcByNpcID",
            "SingleNpcID": {
              "GroupID": {
                "IsDynamic": false,
                "FixedValue": {
                  "Value": 512
                }
              },
              "GroupNpcID": {
                "IsDynamic": false,
                "FixedValue": {
                  "Value": 400004
                }
              }
            }
          }
        },
        {
          "$type": "RPG.GameCore.AdvEntityFaceTo",
          "SourceType": {
            "$type": "RPG.GameCore.TargetFetchAdvNpcEx",
            "FetchType": "SingleNpcByNpcID",
            "SingleNpcID": {
              "GroupID": {
                "IsDynamic": false,
                "FixedValue": {
                  "Value": 512
                }
              },
              "GroupNpcID": {
                "IsDynamic": false,
                "FixedValue": {
                  "Value": 400002
                }
              }
            }
          },
          "TargetType": {
            "$type": "RPG.GameCore.TargetFetchAdvNpcEx",
            "FetchType": "SingleNpcByNpcID",
            "SingleNpcID": {
              "GroupID": {
                "IsDynamic": false,
                "FixedValue": {
                  "Value": 512
                }
              },
              "GroupNpcID": {
                "IsDynamic": false,
                "FixedValue": {
                  "Value": 400005
                }
              }
            }
          }
        },
        {
          "$type": "RPG.GameCore.AdvEntityFaceTo",
          "SourceType": {
            "$type": "RPG.GameCore.TargetFetchAdvNpcEx",
            "FetchType": "SingleNpcByNpcID",
            "SingleNpcID": {
              "GroupID": {
                "IsDynamic": false,
                "FixedValue": {
                  "Value": 512
                }
              },
              "GroupNpcID": {
                "IsDynamic": false,
                "FixedValue": {
                  "Value": 400003
                }
              }
            }
          },
          "TargetType": {
            "$type": "RPG.GameCore.TargetFetchAdvNpcEx",
            "FetchType": "SingleNpcByNpcID",
            "SingleNpcID": {
              "GroupID": {
                "IsDynamic": false,
                "FixedValue": {
                  "Value": 512
                }
              },
              "GroupNpcID": {
                "IsDynamic": false,
                "FixedValue": {
                  "Value": 400005
                }
              }
            }
          },
          "EnableSteer": true
        },
        {
          "$type": "RPG.GameCore.CharacterTriggerFreeStyle",
          "CharacterUniqueName": "Act434011902_G512N400003",
          "StoryAvatarID": "NPC_Male",
          "StoryMotionID": 100010332
        },
        {
          "$type": "RPG.GameCore.PlayAndWaitSimpleTalk",
          "SimpleTalkList": [
            {
              "TextSpeed": 0,
              "TalkSentenceID": 434027111,
              "ProtectTime": 0
            }
          ]
        },
        {
          "$type": "RPG.GameCore.PlayOptionTalk",
          "OptionList": [
            {
              "TalkSentenceID": 434027112,
              "OptionIconType": "ChatContinueIcon",
              "TriggerCustomString": "TalkSentence_434027114"
            },
            {
              "TalkSentenceID": 434027113,
              "OptionIconType": "ChatContinueIcon",
              "TriggerCustomString": "TalkSentence_434027114"
            }
          ]
        }
      ]
    },
    {
      "TaskList": [
        {
          "$type": "RPG.GameCore.WaitCustomString",
          "CustomString": {
            "Value": "TalkSentence_434027114"
          }
        },
        {
          "$type": "RPG.GameCore.PlayFullScreenTransfer",
          "Action": [
            {
              "$type": "RPG.GameCore.ScrTrfActPerformanceGroup",
              "AdvCreateGroupEntity": {
                "TaskEnabled": false
              },
              "AdvDestroyGroupEntity": {
                "TaskEnabled": false
              },
              "CaptureNpc": [],
              "SwitchCharacterAnchor": {
                "TaskEnabled": false
              },
              "ActiveVirtualCamera": {
                "AreaName": "LevelArea_P10301_F10301001_G512",
                "AnchorName": "Anchor4"
              },
              "ActiveTemplateVirtualCamera": {
                "TaskEnabled": false
              },
              "AdvNpcFaceToPlayer": {
                "SteerImmediately": true,
                "FinishImmadiate": true,
                "TaskEnabled": false
              }
            }
          ]
        },
        {
          "$type": "RPG.GameCore.PlayAndWaitSimpleTalk",
          "SimpleTalkList": [
            {
              "TextSpeed": 0,
              "TalkSentenceID": 434027114,
              "ProtectTime": 0
            }
          ]
        },
        {
          "$type": "RPG.GameCore.PlayFullScreenTransfer",
          "TextInfo": {
            "TextList": [
              {
                "TalkSentenceID": 434027115
              }
            ]
          },
          "Action": [
            {
              "$type": "RPG.GameCore.ScrTrfActPerformanceGroup",
              "AdvCreateGroupEntity": {
                "InstanceIDList": [],
                "TaskEnabled": false
              },
              "AdvDestroyGroupEntity": {
                "InstanceIDList": [
                  400003,
                  400004,
                  400005
                ]
              },
              "CaptureNpc": [],
              "SwitchCharacterAnchor": {
                "TaskEnabled": false
              },
              "ActiveVirtualCamera": {
                "AreaName": "LevelArea_P10301_F10301001_G512",
                "AnchorName": "Anchor5"
              },
              "ActiveTemplateVirtualCamera": {
                "TaskEnabled": false
              },
              "AdvNpcFaceToPlayer": {
                "SteerImmediately": true,
                "FinishImmadiate": true,
                "TaskEnabled": false
              }
            },
            {
              "$type": "RPG.GameCore.ScrTrfActTaskList",
              "TaskList": [
                {
                  "$type": "RPG.GameCore.AdvEntityFaceTo",
                  "SourceType": {
                    "$type": "RPG.GameCore.TargetFetchAdvLocalPlayer"
                  },
                  "TargetType": {
                    "$type": "RPG.GameCore.TargetFetchAdvNpcEx",
                    "FetchType": "SingleNpcByNpcID",
                    "SingleNpcID": {
                      "GroupID": {
                        "IsDynamic": false,
                        "FixedValue": {
                          "Value": 512
                        }
                      },
                      "GroupNpcID": {
                        "IsDynamic": false,
                        "FixedValue": {
                          "Value": 400002
                        }
                      }
                    }
                  },
                  "EnableSteer": true,
                  "SteerImmediately": true,
                  "ForceToStandBy": true
                },
                {
                  "$type": "RPG.GameCore.AdvEntityFaceTo",
                  "SourceType": {
                    "$type": "RPG.GameCore.TargetFetchAdvNpcEx",
                    "FetchType": "SingleNpcByNpcID",
                    "SingleNpcID": {
                      "GroupID": {
                        "IsDynamic": false,
                        "FixedValue": {
                          "Value": 512
                        }
                      },
                      "GroupNpcID": {
                        "IsDynamic": false,
                        "FixedValue": {
                          "Value": 400002
                        }
                      }
                    }
                  },
                  "TargetType": {
                    "$type": "RPG.GameCore.TargetFetchAdvNpcEx",
                    "FetchType": "SingleNpcByNpcID",
                    "SingleNpcID": {
                      "GroupID": {
                        "IsDynamic": false,
                        "FixedValue": {
                          "Value": 512
                        }
                      },
                      "GroupNpcID": {
                        "IsDynamic": false,
                        "FixedValue": {
                          "Value": 400001
                        }
                      }
                    }
                  },
                  "EnableSteer": true,
                  "SteerImmediately": true,
                  "ForceToStandBy": true
                },
                {
                  "$type": "RPG.GameCore.AdvEntityFaceTo",
                  "SourceType": {
                    "$type": "RPG.GameCore.TargetFetchAdvNpcEx",
                    "FetchType": "SingleNpcByNpcID",
                    "SingleNpcID": {
                      "GroupID": {
                        "IsDynamic": false,
                        "FixedValue": {
                          "Value": 512
                        }
                      },
                      "GroupNpcID": {
                        "IsDynamic": false,
                        "FixedValue": {
                          "Value": 400001
                        }
                      }
                    }
                  },
                  "TargetType": {
                    "$type": "RPG.GameCore.TargetFetchAdvNpcEx",
                    "FetchType": "SingleNpcByNpcID",
                    "SingleNpcID": {
                      "GroupID": {
                        "IsDynamic": false,
                        "FixedValue": {
                          "Value": 512
                        }
                      },
                      "GroupNpcID": {
                        "IsDynamic": false,
                        "FixedValue": {
                          "Value": 400002
                        }
                      }
                    }
                  },
                  "EnableSteer": true,
                  "SteerImmediately": true,
                  "ForceToStandBy": true
                }
              ]
            }
          ]
        },
        {
          "$type": "RPG.GameCore.PlayAndWaitSimpleTalk",
          "SimpleTalkList": [
            {
              "TextSpeed": 0,
              "TalkSentenceID": 434027116,
              "ProtectTime": 0
            },
            {
              "TextSpeed": 0,
              "TalkSentenceID": 434027117,
              "ProtectTime": 0
            },
            {
              "TextSpeed": 0,
              "TalkSentenceID": 434027118,
              "ProtectTime": 0
            },
            {
              "TextSpeed": 0,
              "TalkSentenceID": 434027119,
              "ProtectTime": 0
            }
          ]
        },
        {
          "$type": "RPG.GameCore.CharacterTriggerFreeStyle",
          "CharacterUniqueName": "Act434011902_G512N400001",
          "StoryAvatarID": "NPC_Child",
          "StoryMotionID": 100040221
        },
        {
          "$type": "RPG.GameCore.PlayAndWaitSimpleTalk",
          "SimpleTalkList": [
            {
              "TextSpeed": 0,
              "TalkSentenceID": 434027120,
              "ProtectTime": 0
            }
          ]
        },
        {
          "$type": "RPG.GameCore.AdvEntityFaceTo",
          "SourceType": {
            "$type": "RPG.GameCore.TargetFetchAdvLocalPlayer"
          },
          "TargetType": {
            "$type": "RPG.GameCore.TargetFetchAdvNpcEx",
            "FetchType": "SingleNpcByNpcID",
            "SingleNpcID": {
              "GroupID": {
                "IsDynamic": false,
                "FixedValue": {
                  "Value": 512
                }
              },
              "GroupNpcID": {
                "IsDynamic": false,
                "FixedValue": {
                  "Value": 400001
                }
              }
            }
          },
          "EnableSteer": true,
          "ForceToStandBy": true
        },
        {
          "$type": "RPG.GameCore.PlayAndWaitSimpleTalk",
          "SimpleTalkList": [
            {
              "TextSpeed": 0,
              "TalkSentenceID": 434027121,
              "ProtectTime": 0
            },
            {
              "TextSpeed": 0,
              "TalkSentenceID": 434027122,
              "ProtectTime": 0
            },
            {
              "TextSpeed": 0,
              "TalkSentenceID": 434027123,
              "ProtectTime": 0
            },
            {
              "TextSpeed": 0,
              "TalkSentenceID": 434027124,
              "ProtectTime": 0
            },
            {
              "TextSpeed": 0,
              "TalkSentenceID": 434027125,
              "ProtectTime": 0
            },
            {
              "TextSpeed": 0,
              "TalkSentenceID": 434027126,
              "ProtectTime": 0
            }
          ]
        },
        {
          "$type": "RPG.GameCore.CharacterTriggerFreeStyle",
          "CharacterUniqueName": "LocalPlayer",
          "StoryAvatarID": "NPC_Player",
          "StoryMotionID": 221
        },
        {
          "$type": "RPG.GameCore.PlayAndWaitSimpleTalk",
          "SimpleTalkList": [
            {
              "TextSpeed": 0,
              "TalkSentenceID": 434027127,
              "ProtectTime": 0
            }
          ]
        },
        {
          "$type": "RPG.GameCore.TriggerCustomString",
          "CustomString": {
            "Value": "OptionTalk_434027129"
          }
        }
      ]
    },
    {
      "IsLoop": true,
      "TaskList": [
        {
          "$type": "RPG.GameCore.WaitCustomString",
          "CustomString": {
            "Value": "TalkSentence_434027130"
          }
        },
        {
          "$type": "RPG.GameCore.PlayAndWaitSimpleTalk",
          "SimpleTalkList": [
            {
              "TextSpeed": 0,
              "TalkSentenceID": 434027130,
              "ProtectTime": 0
            },
            {
              "TextSpeed": 0,
              "TalkSentenceID": 434027131,
              "ProtectTime": 0
            }
          ]
        },
        {
          "$type": "RPG.GameCore.PlayFullScreenTransfer",
          "TextInfo": {
            "TextList": [
              {
                "TalkSentenceID": 434027132
              }
            ]
          },
          "Action": [
            {
              "$type": "RPG.GameCore.ScrTrfActPerformanceGroup",
              "AdvCreateGroupEntity": {
                "InstanceIDList": [
                  400004,
                  400005
                ]
              },
              "AdvDestroyGroupEntity": {
                "InstanceIDList": [],
                "TaskEnabled": false
              },
              "CaptureNpc": [],
              "SwitchCharacterAnchor": {
                "TaskEnabled": false
              },
              "ActiveVirtualCamera": {
                "AreaName": "LevelArea_P10301_F10301001_G512",
                "AnchorName": "Anchor4"
              },
              "ActiveTemplateVirtualCamera": {
                "TaskEnabled": false
              },
              "AdvNpcFaceToPlayer": {
                "SteerImmediately": true,
                "FinishImmadiate": true,
                "TaskEnabled": false
              }
            }
          ]
        },
        {
          "$type": "RPG.GameCore.PlayAndWaitSimpleTalk",
          "SimpleTalkList": [
            {
              "TextSpeed": 0,
              "TalkSentenceID": 434027133,
              "ProtectTime": 0
            },
            {
              "TextSpeed": 0,
              "TalkSentenceID": 434027134,
              "ProtectTime": 0
            },
            {
              "TextSpeed": 0,
              "TalkSentenceID": 434027135,
              "ProtectTime": 0
            }
          ]
        },
        {
          "$type": "RPG.GameCore.AddFinishMissionData_ConsumeItem",
          "SubmissionID": 434011906,
          "SimpleTalk": {},
          "OnSubmitConfirm": [
            {
              "$type": "RPG.GameCore.SetMissionCustomValue",
              "SubmissionID": 434011902,
              "MissionCustomValue": {
                "Index": 1,
                "ValidValueParamList": [
                  1,
                  2
                ]
              },
              "CustomValue": 1
            },
            {
              "$type": "RPG.GameCore.PlayAndWaitSimpleTalk",
              "SimpleTalkList": [
                {
                  "TextSpeed": 0,
                  "TalkSentenceID": 434027136,
                  "ProtectTime": 0
                }
              ]
            },
            {
              "$type": "RPG.GameCore.TriggerCustomString",
              "CustomString": {
                "Value": "ALL_TALK_END"
              }
            }
          ],
          "OnSubmitCancel": [
            {
              "$type": "RPG.GameCore.PlayFullScreenTransfer",
              "Action": [
                {
                  "$type": "RPG.GameCore.ScrTrfActPerformanceGroup",
                  "AdvCreateGroupEntity": {
                    "InstanceIDList": [],
                    "TaskEnabled": false
                  },
                  "AdvDestroyGroupEntity": {
                    "InstanceIDList": [
                      400004,
                      400005
                    ]
                  },
                  "CaptureNpc": [],
                  "SwitchCharacterAnchor": {
                    "TaskEnabled": false
                  },
                  "ActiveVirtualCamera": {
                    "AreaName": "LevelArea_P10301_F10301001_G512",
                    "AnchorName": "Anchor5"
                  },
                  "ActiveTemplateVirtualCamera": {
                    "TaskEnabled": false
                  },
                  "AdvNpcFaceToPlayer": {
                    "SteerImmediately": true,
                    "FinishImmadiate": true,
                    "TaskEnabled": false
                  }
                },
                {
                  "$type": "RPG.GameCore.ScrTrfActTaskList",
                  "TaskList": [
                    {
                      "$type": "RPG.GameCore.TriggerCustomString",
                      "CustomString": {
                        "Value": "OptionTalk_434027129"
                      }
                    }
                  ]
                }
              ]
            }
          ]
        }
      ]
    },
    {
      "TaskList": [
        {
          "$type": "RPG.GameCore.WaitCustomString",
          "CustomString": {
            "Value": "TalkSentence_434027138"
          }
        },
        {
          "$type": "RPG.GameCore.SetMissionCustomValue",
          "SubmissionID": 434011902,
          "MissionCustomValue": {
            "Index": 1,
            "ValidValueParamList": [
              1,
              2
            ]
          },
          "CustomValue": 2
        },
        {
          "$type": "RPG.GameCore.PlayAndWaitSimpleTalk",
          "SimpleTalkList": [
            {
              "TextSpeed": 0,
              "TalkSentenceID": 434027138,
              "ProtectTime": 0
            },
            {
              "TextSpeed": 0,
              "TalkSentenceID": 434027139,
              "ProtectTime": 0
            }
          ]
        },
        {
          "$type": "RPG.GameCore.PlayFullScreenTransfer",
          "TextInfo": {
            "TextList": [
              {
                "TalkSentenceID": 434027140
              }
            ]
          },
          "Action": [
            {
              "$type": "RPG.GameCore.ScrTrfActPerformanceGroup",
              "AdvCreateGroupEntity": {
                "InstanceIDList": [
                  400004,
                  400005
                ]
              },
              "AdvDestroyGroupEntity": {
                "InstanceIDList": [],
                "TaskEnabled": false
              },
              "CaptureNpc": [],
              "SwitchCharacterAnchor": {
                "TaskEnabled": false
              },
              "ActiveVirtualCamera": {
                "AreaName": "LevelArea_P10301_F10301001_G512",
                "AnchorName": "Anchor4"
              },
              "ActiveTemplateVirtualCamera": {
                "TaskEnabled": false
              },
              "AdvNpcFaceToPlayer": {
                "SteerImmediately": true,
                "FinishImmadiate": true,
                "TaskEnabled": false
              }
            }
          ]
        },
        {
          "$type": "RPG.GameCore.PlayAndWaitSimpleTalk",
          "SimpleTalkList": [
            {
              "TextSpeed": 0,
              "TalkSentenceID": 434027141,
              "ProtectTime": 0
            },
            {
              "TextSpeed": 0,
              "TalkSentenceID": 434027142,
              "ProtectTime": 0
            },
            {
              "TextSpeed": 0,
              "TalkSentenceID": 434027143,
              "ProtectTime": 0
            },
            {
              "TextSpeed": 0,
              "TalkSentenceID": 434027145,
              "ProtectTime": 0
            },
            {
              "TalkSentenceID": 434027144
            }
          ]
        },
        {
          "$type": "RPG.GameCore.TriggerCustomString",
          "CustomString": {
            "Value": "ALL_TALK_END"
          }
        }
      ]
    },
    {
      "TaskList": [
        {
          "$type": "RPG.GameCore.WaitCustomString",
          "CustomString": {
            "Value": "ALL_TALK_END"
          }
        },
        {
          "$type": "RPG.GameCore.PlayFullScreenTransfer",
          "Action": [
            {
              "$type": "RPG.GameCore.ScrTrfActPerformanceGroup",
              "AdvCreateGroupEntity": {
                "TaskEnabled": false
              },
              "AdvDestroyGroupEntity": {
                "InstanceIDList": [
                  400001,
                  400002,
                  400004,
                  400005
                ]
              },
              "CaptureNpc": [],
              "SwitchCharacterAnchor": {
                "TaskEnabled": false
              },
              "ActiveVirtualCamera": {
                "TaskEnabled": false
              },
              "ActiveTemplateVirtualCamera": {
                "TaskEnabled": false
              },
              "AdvNpcFaceToPlayer": {
                "SteerImmediately": true,
                "FinishImmadiate": true,
                "TaskEnabled": false
              }
            }
          ]
        },
        {
          "$type": "RPG.GameCore.EndPerformance"
        }
      ]
    },
    {
      "TaskList": [
        {
          "$type": "RPG.GameCore.WaitPerformanceEnd"
        },
        {
          "$type": "RPG.GameCore.FinishLevelGraph"
        }
      ]
    },
    {
      "IsLoop": true,
      "TaskList": [
        {
          "$type": "RPG.GameCore.WaitCustomString",
          "CustomString": {
            "Value": "OptionTalk_434027129"
          }
        },
        {
          "$type": "RPG.GameCore.PlayAndWaitSimpleTalk",
          "SimpleTalkList": [
            {
              "TextSpeed": 0,
              "TalkSentenceID": 434027128,
              "ProtectTime": 0
            }
          ]
        },
        {
          "$type": "RPG.GameCore.PlayOptionTalk",
          "OptionList": [
            {
              "TalkSentenceID": 434027129,
              "OptionIconType": "ChatContinueIcon",
              "TriggerCustomString": "TalkSentence_434027130"
            },
            {
              "TalkSentenceID": 434027137,
              "OptionIconType": "ChatContinueIcon",
              "TriggerCustomString": "TalkSentence_434027138"
            }
          ]
        }
      ]
    }
  ]
}