{
  "OnInitSequece": [],
  "OnStartSequece": [
    {
      "TaskList": [
        {
          "$type": "RPG.GameCore.LevelPerformanceInitialize",
          "PerformanceType": "D",
          "CreateCharacterList": [],
          "CaptureNPCList": [],
          "EntityVisiableList": [],
          "HideMunicipalCrowd": false,
          "HideMunicipalPedestrian": false,
          "PropVisiableList": [],
          "StreamingSourcesInBlackMask": [],
          "StreamingSourcesAfterBlackMask": [],
          "MarkStreamingItems": []
        },
        {
          "$type": "RPG.GameCore.PlayFullScreenTransfer",
          "Action": [
            {
              "$type": "RPG.GameCore.ScrTrfActPerformanceGroup",
              "AdvCreateGroupEntity": {
                "TaskEnabled": false
              },
              "AdvDestroyGroupEntity": {
                "InstanceIDList": [],
                "TaskEnabled": false
              },
              "CaptureNpc": [],
              "SwitchCharacterAnchor": {
                "IsLocalPlayer": true,
                "CharacterUniqueName": "LocalPlayer",
                "AreaName": {
                  "Value": "LevelArea_P10301_F10301001_G513"
                },
                "AnchorName": {
                  "Value": "Anchor1"
                }
              },
              "ActiveVirtualCamera": {
                "TaskEnabled": false
              },
              "ActiveTemplateVirtualCamera": {
                "TaskEnabled": false
              },
              "AdvNpcFaceToPlayer": {
                "SteerImmediately": true,
                "FinishImmadiate": true,
                "TaskEnabled": false
              }
            }
          ]
        },
        {
          "$type": "RPG.GameCore.PlayAndWaitSimpleTalk",
          "SimpleTalkList": [
            {
              "TextSpeed": 0,
              "TalkSentenceID": 434027201,
              "ProtectTime": 0
            }
          ]
        },
        {
          "$type": "RPG.GameCore.PlayOptionTalk",
          "OptionList": [
            {
              "TalkSentenceID": 434027202,
              "OptionIconType": "ChatContinueIcon",
              "TriggerCustomString": "TalkSentence_434027203"
            }
          ]
        }
      ]
    },
    {
      "TaskList": [
        {
          "$type": "RPG.GameCore.WaitCustomString",
          "CustomString": {
            "Value": "TalkSentence_434027203"
          }
        },
        {
          "$type": "RPG.GameCore.CharacterTriggerFreeStyle",
          "CharacterUniqueName": "LocalPlayer",
          "StoryAvatarID": "NPC_Player",
          "StoryMotionID": 201
        },
        {
          "$type": "RPG.GameCore.PlayAndWaitSimpleTalk",
          "SimpleTalkList": [
            {
              "TextSpeed": 0,
              "TalkSentenceID": 434027203,
              "ProtectTime": 0
            },
            {
              "TextSpeed": 0,
              "TalkSentenceID": 434027204,
              "ProtectTime": 0
            }
          ]
        },
        {
          "$type": "RPG.GameCore.PlayFullScreenTransfer",
          "Action": [
            {
              "$type": "RPG.GameCore.ScrTrfActPerformanceGroup",
              "AdvCreateGroupEntity": {
                "TaskEnabled": false
              },
              "AdvDestroyGroupEntity": {
                "InstanceIDList": [
                  400001
                ]
              },
              "CaptureNpc": [],
              "SwitchCharacterAnchor": {
                "IsLocalPlayer": true,
                "CharacterUniqueName": "LocalPlayer",
                "AreaName": {
                  "Value": "LevelArea_P10301_F10301001_G513"
                },
                "AnchorName": {
                  "Value": "Anchor1"
                },
                "TaskEnabled": false
              },
              "ActiveVirtualCamera": {
                "TaskEnabled": false
              },
              "ActiveTemplateVirtualCamera": {
                "TaskEnabled": false
              },
              "AdvNpcFaceToPlayer": {
                "SteerImmediately": true,
                "FinishImmadiate": true,
                "TaskEnabled": false
              }
            }
          ]
        },
        {
          "$type": "RPG.GameCore.EndPerformance"
        }
      ]
    },
    {
      "TaskList": [
        {
          "$type": "RPG.GameCore.WaitPerformanceEnd"
        },
        {
          "$type": "RPG.GameCore.FinishLevelGraph"
        }
      ]
    }
  ]
}