{
  "OnInitSequece": [],
  "OnStartSequece": [
    {
      "IsLoop": true,
      "TaskList": [
        {
          "$type": "RPG.GameCore.WaitCustomString",
          "CustomString": {
            "Value": "Talk_103260213"
          },
          "GoNextImmediately": true
        },
        {
          "$type": "RPG.GameCore.FinishPerformanceMission",
          "Key": "Mission_103260213",
          "KeepScreenTransferUntilGroupRefresh": true
        }
      ]
    }
  ],
  "Type": "Mission"
}