{
  "ModifierMap": {
    "ADV_StageAbility_Maze_Mar_7th": {
      "Count": 1,
      "Stacking": "Merge"
    },
    "ADV_StageAbility_Maze_DanHeng": {
      "Count": 1,
      "Stacking": "Merge"
    },
    "ADV_StageAbility_Maze_Himeko": {
      "BehaviorFlagList": [
        "Debuff"
      ],
      "OnCreate": [
        {
          "$type": "RPG.GameCore.TriggerEffect",
          "TargetType": {
            "$type": "RPG.GameCore.TargetAlias",
            "Alias": "ModifierOwnerEntity"
          },
          "EffectPath": "Effects/Eff_Prefab/Eff_Common/Eff_Buff_Common_Light.prefab"
        }
      ],
      "Count": 1,
      "Stacking": "Merge"
    },
    "ADV_StageAbility_Maze_Welt": {
      "BehaviorFlagList": [
        "Debuff"
      ],
      "OnStack": [
        {
          "$type": "RPG.GameCore.AdventureStackProperty",
          "TargetType": {
            "$type": "RPG.GameCore.TargetAlias",
            "Alias": "ModifierOwnerEntity"
          },
          "Property": "MoveSpeedAttenuationRatio",
          "PropertyValue": {
            "IsDynamic": true,
            "PostfixExpr": {
              "OpCodes": "AQAK",
              "FixedValues": [],
              "DynamicHashes": [
                -1862642832
              ]
            }
          }
        }
      ],
      "Count": 1,
      "Stacking": "Merge",
      "DynamicValues": {
        "Values": {
          "-1862642832": {}
        }
      }
    },
    "ADV_StageAbility_Maze_Kafka": {
      "OnCreate": [
        {
          "$type": "RPG.GameCore.TriggerEffect",
          "TargetType": {
            "$type": "RPG.GameCore.TargetAlias",
            "Alias": "ModifierOwnerEntity"
          },
          "EffectPath": "Effects/Eff_Prefab/Eff_Common/Eff_Buff_Common_Lightning_Add.prefab",
          "AttachPoint": "SelectRoot"
        }
      ],
      "Count": 1,
      "Stacking": "Merge"
    },
    "ADV_StageAbility_Maze_Silwolf": {
      "Count": 1,
      "Stacking": "Merge"
    },
    "ADV_StageAbility_Maze_IgnoreWeakness_MazeSkillMark": {
      "OnUnstage": [
        {
          "$type": "RPG.GameCore.RemoveSelfModifier"
        }
      ],
      "Count": 1,
      "Stacking": "Merge"
    },
    "ADV_StageAbility_Maze_Arlan": {
      "Count": 1,
      "Stacking": "Merge"
    },
    "ADV_StageAbility_Maze_Asta": {
      "Count": 1,
      "Stacking": "Merge"
    },
    "ADV_StageAbility_Maze_Herta": {
      "Count": 1,
      "Stacking": "Merge"
    },
    "ADV_StageAbility_Maze_TingYun": {
      "Count": 1,
      "Stacking": "Merge"
    },
    "ADV_StageAbility_Maze_Bronya": {
      "OnCreate": [],
      "Count": 1,
      "Stacking": "Merge"
    },
    "ADV_StageAbility_Maze_Seele": {
      "Count": 1,
      "Stacking": "Refresh"
    },
    "ADV_Modifier_Maze_Seele": {
      "LifeTime": 20,
      "OnCreate": [
        {
          "$type": "RPG.GameCore.TriggerSound",
          "SoundName": {
            "Value": "Ev_sfx_avatar_seele_skill_maze_open"
          },
          "TargetType": {
            "$type": "RPG.GameCore.TargetAlias",
            "Alias": "Caster"
          }
        },
        {
          "$type": "RPG.GameCore.ModifierAttachEffect",
          "TargetType": {
            "$type": "RPG.GameCore.TargetAlias",
            "Alias": "Caster"
          },
          "EffectPath": "Effects/Eff_Prefab/Eff_Avatar/Eff_Seele_00/Eff_Avatar_Seele_00_MazeSkill_Body.prefab",
          "MinMutexTime": -1,
          "MutexType": "Entity"
        },
        {
          "$type": "RPG.GameCore.ModifierAttachEffect",
          "TargetType": {
            "$type": "RPG.GameCore.TargetAlias",
            "Alias": "Caster"
          },
          "EffectPath": "Effects/Eff_Prefab/Eff_Avatar/Eff_Seele_00/Eff_Avatar_Seele_00_MazeSkill_Face.prefab",
          "MinMutexTime": -1,
          "MutexType": "Entity"
        },
        {
          "$type": "RPG.GameCore.ModifierAttachEffect",
          "TargetType": {
            "$type": "RPG.GameCore.TargetAlias",
            "Alias": "Caster"
          },
          "EffectPath": "Effects/Eff_Prefab/Eff_Avatar/Eff_Seele_00/Eff_Avatar_Seele_00_MazeSkill_Hair.prefab",
          "MinMutexTime": -1,
          "MutexType": "Entity"
        }
      ],
      "OnDestroy": [
        {
          "$type": "RPG.GameCore.TriggerEffect",
          "TargetType": {
            "$type": "RPG.GameCore.TargetAlias",
            "Alias": "Caster"
          },
          "EffectPath": "Effects/Eff_Prefab/Eff_Avatar/Eff_Seele_00/Eff_Avatar_Seele_00_MazeSkill_Start01.prefab"
        },
        {
          "$type": "RPG.GameCore.TriggerSound",
          "SoundName": {
            "Value": "Ev_sfx_eff_avatar_seele_00_skill_passive"
          }
        },
        {
          "$type": "RPG.GameCore.TriggerSound",
          "SoundName": {
            "Value": "Ev_sfx_avatar_seele_skill_maze_close"
          },
          "TargetType": {
            "$type": "RPG.GameCore.TargetAlias",
            "Alias": "Caster"
          }
        }
      ],
      "OnUnstage": [
        {
          "$type": "RPG.GameCore.RemoveSelfModifier"
        }
      ],
      "Count": 1,
      "Stacking": "Refresh"
    },
    "ADV_Modifier_MazeEffect_Seele": {
      "LifeTime": 20,
      "BehaviorFlagList": [
        "Stealth"
      ],
      "OnCreate": [
        {
          "$type": "RPG.GameCore.SetAdvLockDistance",
          "IsPushValue": true,
          "LockDistance": 10
        },
        {
          "$type": "RPG.GameCore.AdvFilterNearbyMonsters",
          "TaskList": [
            {
              "$type": "RPG.GameCore.AdvForceHideBillboard",
              "TargetType": {
                "$type": "RPG.GameCore.TargetAlias",
                "Alias": "TaskActionTarget"
              },
              "Duration": 1.5
            },
            {
              "$type": "RPG.GameCore.AddMazeBuff",
              "TargetType": {
                "$type": "RPG.GameCore.TargetAlias",
                "Alias": "TaskActionTarget"
              },
              "ID": 1000118
            },
            {
              "$type": "RPG.GameCore.AdvForceHideBillboard",
              "TargetType": {
                "$type": "RPG.GameCore.TargetAlias",
                "Alias": "TaskActionTarget"
              },
              "Duration": 1.5
            }
          ]
        }
      ],
      "OnDestroy": [
        {
          "$type": "RPG.GameCore.SetAdvLockDistance"
        }
      ],
      "OnUnstage": [
        {
          "$type": "RPG.GameCore.RemoveSelfModifier"
        }
      ],
      "Count": 1,
      "Stacking": "Refresh"
    },
    "ADV_Modifier_MazeEffect_Stealth": {
      "LifeTime": 1.5,
      "OnCreate": [
        {
          "$type": "RPG.GameCore.TriggerEffect",
          "TargetType": {
            "$type": "RPG.GameCore.TargetAlias",
            "Alias": "ModifierOwnerEntity"
          },
          "EffectPath": "Effects/Eff_Prefab/Eff_Common/Eff_Common_MazeSkill_Stealth.prefab"
        },
        {
          "$type": "RPG.GameCore.AdvOnTargetLost",
          "TargetType": {
            "$type": "RPG.GameCore.TargetAlias",
            "Alias": "ModifierOwnerEntity"
          }
        }
      ],
      "Count": 1,
      "Stacking": "Refresh"
    },
    "ADV_StageAbility_Maze_Serval": {
      "OnCreate": [
        {
          "$type": "RPG.GameCore.TriggerEffect",
          "TargetType": {
            "$type": "RPG.GameCore.TargetAlias",
            "Alias": "ModifierOwnerEntity"
          },
          "EffectPath": "Effects/Eff_Prefab/Eff_Common/Eff_Buff_Common_Lightning_Add.prefab"
        }
      ],
      "Count": 1,
      "Stacking": "Merge"
    },
    "ADV_StageAbility_Maze_Geppard": {
      "OnCreate": [],
      "Count": 1,
      "Stacking": "Merge"
    },
    "ADV_StageAbility_Maze_Natasha": {
      "LifeTime": 20,
      "Count": 1,
      "Stacking": "Merge"
    },
    "ADV_StageAbility_Maze_Pela": {
      "Count": 1,
      "Stacking": "Merge"
    },
    "ADV_StageAbility_Maze_Klara": {
      "Count": 1,
      "Stacking": "Merge"
    },
    "ADV_StageAbility_Maze_Sampo": {
      "LifeTime": 20,
      "BehaviorFlagList": [
        "Blind"
      ],
      "OnCreate": [
        {
          "$type": "RPG.GameCore.ModifierAttachEffect",
          "TargetType": {
            "$type": "RPG.GameCore.TargetAlias",
            "Alias": "ModifierOwnerEntity"
          },
          "EffectPath": "Effects/Eff_Prefab/Eff_Avatar/Eff_Sampo_00/Eff_Avatar_Sampo_00_MazeSkill_HitLoop.prefab",
          "MinMutexTime": -1,
          "MutexType": "Entity"
        }
      ],
      "Count": 1,
      "Stacking": "Merge"
    },
    "ADV_StageAbility_Maze_Hook": {
      "OnCreate": [
        {
          "$type": "RPG.GameCore.TriggerEffect",
          "TargetType": {
            "$type": "RPG.GameCore.TargetAlias",
            "Alias": "ModifierOwnerEntity"
          },
          "EffectPath": "Effects/Eff_Prefab/Eff_Common/Eff_Buff_Common_Light.prefab"
        }
      ],
      "Count": 1,
      "Stacking": "Merge"
    },
    "ADV_StageAbility_Maze_Lynx": {
      "Count": 1,
      "Stacking": "Merge"
    },
    "ADV_StageAbility_Maze_Luka": {
      "Count": 1,
      "Stacking": "Merge"
    },
    "ADV_StageAbility_Maze_Topaz": {
      "OnAfterBattle": [
        {
          "$type": "RPG.GameCore.PredicateTaskList",
          "Predicate": {
            "$type": "RPG.GameCore.ByIsLastBattleWin",
            "TaskEnabled": true
          },
          "SuccessTaskList": [
            {
              "$type": "RPG.GameCore.TriggerMazeSkillDrop",
              "TaskEnabled": true
            }
          ]
        }
      ],
      "Count": 1,
      "Stacking": "Merge"
    },
    "ADV_Modifier_Maze_Topaz_SummonUnit": {
      "OnCreate": [
        {
          "$type": "RPG.GameCore.PredicateTaskList",
          "Predicate": {
            "$type": "RPG.GameCore.ByIsTeamLeader",
            "TargetType": {
              "$type": "RPG.GameCore.TargetAlias",
              "Alias": "ModifierOwnerEntity"
            }
          },
          "SuccessTaskList": [
            {
              "$type": "RPG.GameCore.CreateSummonUnit",
              "Summoner": {
                "$type": "RPG.GameCore.TargetAlias",
                "Alias": "ModifierOwnerEntity"
              },
              "SummonUnitID": 11121,
              "PosTarget": {
                "$type": "RPG.GameCore.TargetAlias",
                "Alias": "ModifierOwnerEntity"
              },
              "OffsetX": {
                "IsDynamic": false,
                "FixedValue": {
                  "Value": 1
                }
              },
              "PosAdaption": {
                "Option": "CharacterDefault",
                "AvoidanceRadius": 0.3
              }
            },
            {
              "$type": "RPG.GameCore.EnableAdvEntityDitherWithPlayer",
              "SourceType": {
                "$type": "RPG.GameCore.TargetFetchSummonUnit",
                "Summoner": {
                  "$type": "RPG.GameCore.TargetAlias",
                  "Alias": "ModifierOwnerEntity"
                },
                "SummonUnitID": 11121
              }
            }
          ]
        }
      ],
      "OnDestroy": [
        {
          "$type": "RPG.GameCore.DestroySummonUnit",
          "SummonUnit": {
            "$type": "RPG.GameCore.TargetFetchSummonUnit",
            "Summoner": {
              "$type": "RPG.GameCore.TargetAlias",
              "Alias": "ModifierOwnerEntity"
            },
            "SummonUnitID": 11121
          }
        }
      ],
      "OnAfterBattle": [
        {
          "$type": "RPG.GameCore.PredicateTaskList",
          "Predicate": {
            "$type": "RPG.GameCore.ByAnd",
            "PredicateList": [
              {
                "$type": "RPG.GameCore.ByIsTeamLeader",
                "TargetType": {
                  "$type": "RPG.GameCore.TargetAlias",
                  "Alias": "ModifierOwnerEntity"
                }
              },
              {
                "$type": "RPG.GameCore.ByCheckLastBattleSkillDrop"
              }
            ]
          },
          "SuccessTaskList": [
            {
              "$type": "RPG.GameCore.TriggerEffect",
              "TargetType": {
                "$type": "RPG.GameCore.TargetFetchSummonUnit",
                "Summoner": {
                  "$type": "RPG.GameCore.TargetAlias",
                  "Alias": "ModifierOwnerEntity"
                },
                "SummonUnitID": 11121
              },
              "EffectPath": "Effects/Eff_Prefab/Eff_Avatar/Eff_Topaz_00/Eff_Avatar_Topaz_00_Skill01_WinCoin.prefab",
              "AttachPoint": "Spine"
            }
          ]
        }
      ],
      "OnStage": [
        {
          "$type": "RPG.GameCore.CreateSummonUnit",
          "Summoner": {
            "$type": "RPG.GameCore.TargetAlias",
            "Alias": "ModifierOwnerEntity"
          },
          "SummonUnitID": 11121,
          "PosTarget": {
            "$type": "RPG.GameCore.TargetAlias",
            "Alias": "ModifierOwnerEntity"
          },
          "OffsetX": {
            "IsDynamic": false,
            "FixedValue": {
              "Value": 1
            }
          }
        },
        {
          "$type": "RPG.GameCore.EnableAdvEntityDitherWithPlayer",
          "SourceType": {
            "$type": "RPG.GameCore.TargetFetchSummonUnit",
            "Summoner": {
              "$type": "RPG.GameCore.TargetAlias",
              "Alias": "ModifierOwnerEntity"
            },
            "SummonUnitID": 11121
          }
        }
      ],
      "OnUnstage": [
        {
          "$type": "RPG.GameCore.DestroySummonUnit",
          "SummonUnit": {
            "$type": "RPG.GameCore.TargetFetchSummonUnit",
            "Summoner": {
              "$type": "RPG.GameCore.TargetAlias",
              "Alias": "ModifierOwnerEntity"
            },
            "SummonUnitID": 11121
          }
        }
      ],
      "Count": 1,
      "Stacking": "Refresh"
    },
    "ADV_StageAbility_Maze_Qingque": {
      "Count": 1,
      "Stacking": "Merge"
    },
    "ADV_StageAbility_Maze_Luocha": {
      "Count": 1,
      "Stacking": "Merge"
    },
    "ADV_StageAbility_Maze_JingYuan": {
      "Count": 1,
      "Stacking": "Merge"
    },
    "ADV_StageAbility_Maze_Ren": {
      "Count": 1,
      "Stacking": "Merge"
    },
    "ADV_StageAbility_Maze_Sushang": {
      "Count": 1,
      "Stacking": "Merge"
    },
    "ADV_StageAbility_Maze_Yukong": {
      "Count": 1,
      "Stacking": "Merge"
    },
    "ADV_Modifier_Maze_Yukong": {
      "OnCreate": [
        {
          "$type": "RPG.GameCore.ModifierAttachEffect",
          "TargetType": {
            "$type": "RPG.GameCore.TargetAlias",
            "Alias": "Caster"
          },
          "EffectPath": "Effects/Eff_Prefab/Eff_Avatar/Eff_Yukong_00/Eff_Avatar_Yukong_00_MazeSkill_AfterImageFastRun.prefab"
        },
        {
          "$type": "RPG.GameCore.ModifierAttachEffect",
          "TargetType": {
            "$type": "RPG.GameCore.TargetAlias",
            "Alias": "Caster"
          },
          "EffectPath": "Effects/Eff_Prefab/Eff_Avatar/Eff_Yukong_00/Eff_Avatar_Yukong_00_MazeSkill_AfterImageRun.prefab"
        },
        {
          "$type": "RPG.GameCore.ModifierAttachEffect",
          "TargetType": {
            "$type": "RPG.GameCore.TargetAlias",
            "Alias": "Caster"
          },
          "EffectPath": "Effects/Eff_Prefab/Eff_Avatar/Eff_Yukong_00/Eff_Avatar_Yukong_00_MazeSkill_Loop.prefab"
        },
        {
          "$type": "RPG.GameCore.ModifyAdventureCharacterRunSpeedRatio",
          "UniqueKey": "ADV_Modifier_Maze_Yukong",
          "TransitionDuration": 0.3,
          "SpeedRatioMultiplier": {
            "IsDynamic": true,
            "PostfixExpr": {
              "OpCodes": "AAABAAIK",
              "FixedValues": [
                {
                  "Value": 1
                }
              ],
              "DynamicHashes": [
                709923127
              ]
            }
          }
        },
        {
          "$type": "RPG.GameCore.PredicateTaskList",
          "Predicate": {
            "$type": "RPG.GameCore.ByAnimatorParam",
            "ParamType": "Int",
            "ParamName": "MotionFlag",
            "ParamCompareType": "Equal",
            "IntegerValue": 3
          },
          "SuccessTaskList": [
            {
              "$type": "RPG.GameCore.TriggerEffect",
              "TargetType": {
                "$type": "RPG.GameCore.TargetAlias",
                "Alias": "Caster"
              },
              "EffectPath": "Effects/Eff_Prefab/Eff_Avatar/Eff_Yukong_00/Eff_Avatar_Yukong_00_MazeSkill_FootL.prefab"
            },
            {
              "$type": "RPG.GameCore.TriggerEffect",
              "TargetType": {
                "$type": "RPG.GameCore.TargetAlias",
                "Alias": "Caster"
              },
              "EffectPath": "Effects/Eff_Prefab/Eff_Avatar/Eff_Yukong_00/Eff_Avatar_Yukong_00_MazeSkill_FootR.prefab"
            },
            {
              "$type": "RPG.GameCore.TriggerEffect",
              "TargetType": {
                "$type": "RPG.GameCore.TargetAlias",
                "Alias": "Caster"
              },
              "EffectPath": "Effects/Eff_Prefab/Eff_Avatar/Eff_Yukong_00/Eff_Avatar_Yukong_00_MazeSkill_ShoulderL.prefab"
            },
            {
              "$type": "RPG.GameCore.TriggerEffect",
              "TargetType": {
                "$type": "RPG.GameCore.TargetAlias",
                "Alias": "Caster"
              },
              "EffectPath": "Effects/Eff_Prefab/Eff_Avatar/Eff_Yukong_00/Eff_Avatar_Yukong_00_MazeSkill_ShoulderR.prefab"
            },
            {
              "$type": "RPG.GameCore.TriggerEffect",
              "TargetType": {
                "$type": "RPG.GameCore.TargetAlias",
                "Alias": "Caster"
              },
              "EffectPath": "Effects/Eff_Prefab/Eff_Avatar/Eff_Yukong_00/Eff_Avatar_Yukong_00_MazeSkill_Root.prefab"
            }
          ]
        }
      ],
      "OnDestroy": [
        {
          "$type": "RPG.GameCore.TriggerEffect",
          "TargetType": {
            "$type": "RPG.GameCore.TargetAlias",
            "Alias": "Caster"
          },
          "EffectPath": "Effects/Eff_Prefab/Eff_Avatar/Eff_Yukong_00/Eff_Avatar_Yukong_00_MazeSkill_End.prefab"
        },
        {
          "$type": "RPG.GameCore.ModifyAdventureCharacterRunSpeedRatio",
          "UniqueKey": "ADV_Modifier_Maze_Yukong",
          "ModifyEnabled": false,
          "TransitionDuration": 0.3,
          "SpeedRatioMultiplier": {
            "IsDynamic": false,
            "FixedValue": {
              "Value": 1
            }
          }
        },
        {
          "$type": "RPG.GameCore.RemoveEffect",
          "TargetType": {
            "$type": "RPG.GameCore.TargetAlias",
            "Alias": "Caster"
          },
          "EffectPath": "Effects/Eff_Prefab/Eff_Avatar/Eff_Yukong_00/Eff_Avatar_Yukong_00_MazeSkill_FootL.prefab"
        },
        {
          "$type": "RPG.GameCore.RemoveEffect",
          "TargetType": {
            "$type": "RPG.GameCore.TargetAlias",
            "Alias": "Caster"
          },
          "EffectPath": "Effects/Eff_Prefab/Eff_Avatar/Eff_Yukong_00/Eff_Avatar_Yukong_00_MazeSkill_FootR.prefab"
        },
        {
          "$type": "RPG.GameCore.RemoveEffect",
          "TargetType": {
            "$type": "RPG.GameCore.TargetAlias",
            "Alias": "Caster"
          },
          "EffectPath": "Effects/Eff_Prefab/Eff_Avatar/Eff_Yukong_00/Eff_Avatar_Yukong_00_MazeSkill_ShoulderL.prefab"
        },
        {
          "$type": "RPG.GameCore.RemoveEffect",
          "TargetType": {
            "$type": "RPG.GameCore.TargetAlias",
            "Alias": "Caster"
          },
          "EffectPath": "Effects/Eff_Prefab/Eff_Avatar/Eff_Yukong_00/Eff_Avatar_Yukong_00_MazeSkill_ShoulderR.prefab"
        },
        {
          "$type": "RPG.GameCore.RemoveEffect",
          "TargetType": {
            "$type": "RPG.GameCore.TargetAlias",
            "Alias": "Caster"
          },
          "EffectPath": "Effects/Eff_Prefab/Eff_Avatar/Eff_Yukong_00/Eff_Avatar_Yukong_00_MazeSkill_Root.prefab"
        }
      ],
      "OnUnstage": [
        {
          "$type": "RPG.GameCore.RemoveSelfModifier"
        }
      ],
      "Count": 1,
      "Stacking": "Refresh",
      "DynamicValues": {
        "Values": {
          "709923127": {}
        }
      }
    },
    "ADV_StageAbility_Maze_FuXuan_HolyShield": {
      "BehaviorFlagList": [
        "HolyShield"
      ],
      "OnCreate": [
        {
          "$type": "RPG.GameCore.ModifierOverrideOnHitEffect",
          "EffectPath": "Effects/Eff_Prefab/Eff_Avatar/Eff_FuXuan_00/Eff_Avatar_FuXuan_00_MazeSkill01_03.prefab",
          "ModifierOverrideOnHitEffectPriority": "ModifyOthers",
          "OverrideOffset": true
        }
      ],
      "OnDestroy": [
        {
          "$type": "RPG.GameCore.TriggerSound",
          "SoundName": {
            "Value": "Ev_sfx_avatar_skill_maze_close_fuxuan"
          },
          "EmitterType": "LocalPlayer"
        }
      ],
      "OnStack": [
        {
          "$type": "RPG.GameCore.ModifierDetachEffect",
          "TargetType": {
            "$type": "RPG.GameCore.TargetAlias",
            "Alias": "AdvLocalPlayer"
          },
          "EffectPath": "Effects/Eff_Prefab/Eff_Avatar/Eff_FuXuan_00/Eff_Avatar_FuXuan_00_MazeSkill01_02.prefab"
        },
        {
          "$type": "RPG.GameCore.ModifierAttachEffect",
          "TargetType": {
            "$type": "RPG.GameCore.TargetAlias",
            "Alias": "AdvLocalPlayer"
          },
          "EffectPath": "Effects/Eff_Prefab/Eff_Avatar/Eff_FuXuan_00/Eff_Avatar_FuXuan_00_MazeSkill01_02.prefab",
          "ColliderHeightRatio": 0.8
        }
      ],
      "OnTeamLeaderChange": [
        {
          "$type": "RPG.GameCore.ModifierReattachEffect",
          "EffectPath": "Effects/Eff_Prefab/Eff_Avatar/Eff_FuXuan_00/Eff_Avatar_FuXuan_00_MazeSkill01_02.prefab",
          "TargetType": {
            "$type": "RPG.GameCore.TargetAlias",
            "Alias": "ParamEntity"
          },
          "ColliderHeightRatio": 0.8
        }
      ],
      "Count": 1,
      "Stacking": "Replace"
    },
    "ADV_StageAbility_Maze_FuXuan": {
      "Count": 1,
      "Stacking": "Merge"
    },
    "ADV_StageAbility_Maze_Yanqing": {
      "Count": 1,
      "Stacking": "Merge"
    },
    "ADV_StageAbility_Maze_Guinaifen": {
      "Count": 1,
      "Stacking": "Merge"
    },
    "ADV_StageAbility_Maze_Bailu": {
      "Count": 1,
      "Stacking": "Merge"
    },
    "ADV_StageAbility_Maze_Jingliu": {
      "OnCreate": [],
      "OnDestroy": [],
      "OnStack": [],
      "Count": 1,
      "Stacking": "Merge"
    },
    "ADV_StageAbility_Maze_Jingliu2": {
      "OnCreate": [
        {
          "$type": "RPG.GameCore.CreateSummonUnit",
          "SummonUnitID": 12121,
          "AttachTarget": {
            "$type": "RPG.GameCore.TargetAlias",
            "Alias": "AdvLocalPlayer"
          },
          "PosTarget": {
            "$type": "RPG.GameCore.TargetAlias",
            "Alias": "Caster"
          },
          "Distance": {
            "IsDynamic": false,
            "FixedValue": {
              "Value": 6
            }
          }
        },
        {
          "$type": "RPG.GameCore.PredicateTaskList",
          "Predicate": {
            "$type": "RPG.GameCore.ByIsTeamLeader",
            "TargetType": {
              "$type": "RPG.GameCore.TargetAlias",
              "Alias": "ModifierOwnerEntity"
            }
          },
          "SuccessTaskList": [
            {
              "$type": "RPG.GameCore.SetAttachmentScale",
              "TargetType": {
                "$type": "RPG.GameCore.TargetAlias",
                "Alias": "Caster"
              },
              "AttachPoints": [
                {
                  "Name": "EyeMask"
                }
              ],
              "Scale": {
                "X": 0,
                "Y": 0,
                "Z": 0
              }
            },
            {
              "$type": "RPG.GameCore.PredicateTaskList",
              "Predicate": {
                "$type": "RPG.GameCore.ByIsContainAdventureModifier",
                "TargetType": {
                  "$type": "RPG.GameCore.TargetAlias",
                  "Alias": "ModifierOwnerEntity"
                },
                "ModifierName": "ADV_Modifier_Maze_JingliuMask2",
                "Inverse": true
              },
              "SuccessTaskList": [
                {
                  "$type": "RPG.GameCore.TriggerEffect",
                  "TargetType": {
                    "$type": "RPG.GameCore.TargetAlias",
                    "Alias": "Caster"
                  },
                  "EffectPath": "Effects/Eff_Prefab/Eff_Avatar/Eff_Jingliu_00/Eff_Avatar_Jingliu_00_MazeSkill01_EyeMask_End.prefab"
                }
              ]
            },
            {
              "$type": "RPG.GameCore.AddAdventureModifier",
              "TargetType": {
                "$type": "RPG.GameCore.TargetAlias",
                "Alias": "Caster"
              },
              "ModifierName": "ADV_Modifier_Maze_JingliuMask2",
              "LifeTime": {
                "IsDynamic": false,
                "FixedValue": {
                  "Value": 19.9
                }
              }
            },
            {
              "$type": "RPG.GameCore.AdvPlayerEnableIdleShow",
              "IdleShowIndex": 2
            }
          ]
        }
      ],
      "OnDestroy": [
        {
          "$type": "RPG.GameCore.RemoveAdventureModifier",
          "TargetType": {
            "$type": "RPG.GameCore.TargetAlias",
            "Alias": "ModifierOwnerEntity"
          },
          "ModifierName": "ADV_Modifier_Maze_JingliuMask2"
        },
        {
          "$type": "RPG.GameCore.PredicateTaskList",
          "Predicate": {
            "$type": "RPG.GameCore.ByIsContainAdventureModifier",
            "TargetType": {
              "$type": "RPG.GameCore.TargetAlias",
              "Alias": "Caster"
            },
            "ModifierName": "ADV_Modifier_Maze_JingliuMask",
            "Inverse": true
          },
          "SuccessTaskList": [
            {
              "$type": "RPG.GameCore.PredicateTaskList",
              "Predicate": {
                "$type": "RPG.GameCore.ByAnd",
                "PredicateList": [
                  {
                    "$type": "RPG.GameCore.ByIsContainAdventureModifier",
                    "TargetType": {
                      "$type": "RPG.GameCore.TargetAlias",
                      "Alias": "ModifierOwnerEntity"
                    },
                    "ModifierName": "ADV_Modifier_Maze_JingliuMask2",
                    "Inverse": true
                  },
                  {
                    "$type": "RPG.GameCore.ByIsTeamLeader",
                    "TargetType": {
                      "$type": "RPG.GameCore.TargetAlias",
                      "Alias": "ModifierOwnerEntity"
                    }
                  }
                ]
              },
              "SuccessTaskList": [
                {
                  "$type": "RPG.GameCore.TriggerEffect",
                  "TargetType": {
                    "$type": "RPG.GameCore.TargetAlias",
                    "Alias": "ModifierOwnerEntity"
                  },
                  "EffectPath": "Effects/Eff_Prefab/Eff_Avatar/Eff_Jingliu_00/Eff_Avatar_Jingliu_00_MazeSkill01_EyeMask_Start.prefab"
                }
              ]
            },
            {
              "$type": "RPG.GameCore.SetAttachmentScale",
              "TargetType": {
                "$type": "RPG.GameCore.TargetAlias",
                "Alias": "Caster"
              },
              "AttachPoints": [
                {
                  "Name": "EyeMask"
                }
              ],
              "IsReset": true
            }
          ],
          "FailedTaskList": [
            {
              "$type": "RPG.GameCore.RemoveAdventureModifier",
              "TargetType": {
                "$type": "RPG.GameCore.TargetAlias",
                "Alias": "Caster"
              },
              "ModifierName": "ADV_Modifier_Maze_JingliuMask"
            }
          ]
        },
        {
          "$type": "RPG.GameCore.RemoveMazeBuff",
          "TargetType": {
            "$type": "RPG.GameCore.TargetAlias",
            "Alias": "AllEnemy"
          },
          "ID": 121201
        },
        {
          "$type": "RPG.GameCore.RefreshMazeBuffTime",
          "TargetType": {
            "$type": "RPG.GameCore.TargetAlias",
            "Alias": "AllEnemy"
          },
          "ID": 121203,
          "LifeTime": {
            "IsDynamic": false,
            "FixedValue": {
              "Value": 1.5
            }
          }
        },
        {
          "$type": "RPG.GameCore.TriggerAdditiveAnimState",
          "AnimStateName": "MoonSpeed"
        },
        {
          "$type": "RPG.GameCore.AdvPlayerEnableIdleShow",
          "Enable": true,
          "IdleShowIndex": 2
        },
        {
          "$type": "RPG.GameCore.DestroySummonUnit",
          "SummonUnit": {
            "$type": "RPG.GameCore.TargetFetchSummonUnit",
            "Summoner": {
              "$type": "RPG.GameCore.TargetAlias",
              "Alias": "ModifierOwnerEntity"
            },
            "SummonUnitID": 12121
          }
        }
      ],
      "ModifierTaskList": [
        {
          "$type": "RPG.GameCore.AdvModifierListenPhotograph",
          "StartPhotoGraphCallback": [
            {
              "$type": "RPG.GameCore.PredicateTaskList",
              "Predicate": {
                "$type": "RPG.GameCore.ByIsTeamLeader",
                "TargetType": {
                  "$type": "RPG.GameCore.TargetAlias",
                  "Alias": "ModifierOwnerEntity"
                }
              },
              "SuccessTaskList": [
                {
                  "$type": "RPG.GameCore.SetAttachmentScale",
                  "TargetType": {
                    "$type": "RPG.GameCore.TargetAlias",
                    "Alias": "Caster"
                  },
                  "AttachPoints": [
                    {
                      "Name": "EyeMask",
                      "TriggerEffectPath": "Effects/Eff_Prefab/Eff_Avatar/Eff_Jingliu_00/Eff_Avatar_Jingliu_00_MazeSkill01_EyeMask_Start.prefab"
                    }
                  ],
                  "IsReset": true
                },
                {
                  "$type": "RPG.GameCore.AddAdventureModifier",
                  "TargetType": {
                    "$type": "RPG.GameCore.TargetAlias",
                    "Alias": "Caster"
                  },
                  "ModifierName": "ADV_Modifier_Maze_JingliuMask"
                }
              ]
            }
          ],
          "ExitPhotoGraphCallback": [
            {
              "$type": "RPG.GameCore.PredicateTaskList",
              "Predicate": {
                "$type": "RPG.GameCore.ByIsTeamLeader",
                "TargetType": {
                  "$type": "RPG.GameCore.TargetAlias",
                  "Alias": "ModifierOwnerEntity"
                }
              },
              "SuccessTaskList": [
                {
                  "$type": "RPG.GameCore.SetAttachmentScale",
                  "TargetType": {
                    "$type": "RPG.GameCore.TargetAlias",
                    "Alias": "Caster"
                  },
                  "AttachPoints": [
                    {
                      "Name": "EyeMask",
                      "TriggerEffectPath": "Effects/Eff_Prefab/Eff_Avatar/Eff_Jingliu_00/Eff_Avatar_Jingliu_00_MazeSkill01_EyeMask_End.prefab"
                    }
                  ],
                  "Scale": {
                    "X": 0,
                    "Y": 0,
                    "Z": 0
                  }
                }
              ]
            },
            {
              "$type": "RPG.GameCore.RemoveAdventureModifier",
              "TargetType": {
                "$type": "RPG.GameCore.TargetAlias",
                "Alias": "Caster"
              },
              "ModifierName": "ADV_Modifier_Maze_JingliuMask"
            }
          ]
        }
      ],
      "Count": 1,
      "Stacking": "Merge"
    },
    "ADV_Modifier_Maze_JingliuMask": {
      "Stacking": "Refresh"
    },
    "ADV_Modifier_Maze_JingliuMask2": {
      "Stacking": "Refresh"
    },
    "ADV_StageAbility_Maze_Jingliu3": {
      "BehaviorFlagList": [
        "Freeze"
      ],
      "OnCreate": [],
      "OnDestroy": [],
      "OnStage": [],
      "OnUnstage": [],
      "Count": 1,
      "Stacking": "Refresh"
    },
    "ADV_StageAbility_Maze_DanHengIL": {
      "Count": 1,
      "Stacking": "Merge"
    },
    "ADV_Modifier_Maze_DanHengIL": {
      "LifeTime": 20,
      "OnCreate": [
        {
          "$type": "RPG.GameCore.ModifierAttachEffect",
          "TargetType": {
            "$type": "RPG.GameCore.TargetAlias",
            "Alias": "Caster"
          },
          "EffectPath": "Effects/Eff_Prefab/Eff_Avatar/Eff_DanHengIL_00/Eff_Avatar_DanHengIL_00_MazeSkill01_Body_01.prefab",
          "MinMutexTime": -1,
          "MutexType": "Entity"
        },
        {
          "$type": "RPG.GameCore.ModifierAttachEffect",
          "TargetType": {
            "$type": "RPG.GameCore.TargetAlias",
            "Alias": "Caster"
          },
          "EffectPath": "Effects/Eff_Prefab/Eff_Avatar/Eff_DanHengIL_00/Eff_Avatar_DanHengIL_00_MazeSkill01_Body_02.prefab",
          "MinMutexTime": -1,
          "MutexType": "Entity"
        },
        {
          "$type": "RPG.GameCore.ModifierAttachEffect",
          "TargetType": {
            "$type": "RPG.GameCore.TargetAlias",
            "Alias": "Caster"
          },
          "EffectPath": "Effects/Eff_Prefab/Eff_Avatar/Eff_DanHengIL_00/Eff_Avatar_DanHengIL_00_MazeSkill01_Body_03.prefab",
          "MinMutexTime": -1,
          "MutexType": "Entity"
        }
      ],
      "OnDestroy": [
        {
          "$type": "RPG.GameCore.TriggerEffect",
          "TargetType": {
            "$type": "RPG.GameCore.TargetAlias",
            "Alias": "Caster"
          },
          "EffectPath": "Effects/Eff_Prefab/Eff_Avatar/Eff_DanHengIL_00/Eff_Avatar_DanHengIL_00_MazeSkill01_Body_01_disappear.prefab"
        }
      ],
      "OnUnstage": [
        {
          "$type": "RPG.GameCore.RemoveSelfModifier"
        }
      ],
      "Count": 1,
      "Stacking": "Refresh"
    },
    "ADV_Modifier_Maze_DanHengIL_HolyShield": {
      "BehaviorFlagList": [
        "HolyShield"
      ],
      "Count": 1,
      "Stacking": "Merge"
    },
    "M_ADV_Maze_DanHengIL_StopSprintFlag": {
      "OnCreate": [
        {
          "$type": "RPG.GameCore.DebugLog",
          "Message": "M_ADV_Maze_DanHengIL_StopSprintFlag"
        }
      ],
      "Count": 1,
      "Stacking": "Refresh"
    },
    "ADV_StageAbility_Maze_Xueyi": {
      "Count": 1,
      "Stacking": "Merge"
    },
    "ADV_StageAbility_Maze_Hanya": {
      "Count": 1,
      "Stacking": "Merge"
    },
    "ADV_StageAbility_Maze_Gallagher": {
      "Count": 1,
      "Stacking": "Merge"
    },
    "ADV_StageAbility_Maze_Argenti": {
      "BehaviorFlagList": [
        "Stun"
      ],
      "OnCreate": [
        {
          "$type": "RPG.GameCore.ModifierAttachEffect",
          "TargetType": {
            "$type": "RPG.GameCore.TargetAlias",
            "Alias": "ModifierOwnerEntity"
          },
          "EffectPath": "Effects/Eff_Prefab/Eff_Avatar/Eff_Argenti_00/Eff_Avatar_Argenti_00_MazeSkill_Icon.prefab",
          "AttachPoint": "HeadPoint",
          "MinMutexTime": -1,
          "MutexType": "Entity"
        }
      ],
      "Count": 1,
      "Stacking": "Merge"
    },
    "ADV_StageAbility_Maze_WolfBro": {
      "LifeTime": 4,
      "BehaviorFlagList": [
        "Stun"
      ],
      "OnCreate": [
        {
          "$type": "RPG.GameCore.ModifierAttachEffect",
          "TargetType": {
            "$type": "RPG.GameCore.TargetAlias",
            "Alias": "ModifierOwnerEntity"
          },
          "EffectPath": "Effects/Eff_Prefab/Eff_Avatar/Eff_Argenti_00/Eff_Avatar_Argenti_00_MazeSkill_Icon.prefab",
          "AttachPoint": "HeadPoint",
          "MinMutexTime": -1,
          "MutexType": "Entity"
        },
        {
          "$type": "RPG.GameCore.AdvModifierOverrideFeatureFlagParam"
        }
      ],
      "OnDestroy": [],
      "Count": 1,
      "Stacking": "Merge"
    },
    "ADV_StageAbility_Maze_RuanMei": {
      "Count": 1,
      "Stacking": "Merge"
    },
    "ADV_StageAbility_Maze_RuanMei_RogueIgnoreWeakness": {
      "BehaviorFlagList": [
        "EnterBattleAdvantage"
      ],
      "Count": 1,
      "Stacking": "Merge"
    },
    "ADV_StageAbility_Maze_RuanMei_RogueExtraEffect": {
      "OnBeforeBattle": [
        {
          "$type": "RPG.GameCore.SetDynamicValueByRogueBuffNum",
          "TaskEnabled": true
        }
      ],
      "Count": 1,
      "Stacking": "Merge",
      "DynamicValues": {
        "Values": {
          "-648181786": {}
        }
      }
    },
    "ADV_StageAbility_Maze_Aventurine_R": {
      "Count": 1,
      "Stacking": "Merge"
    },
    "ADV_StageAbility_Maze_Aventurine_SR": {
      "Count": 1,
      "Stacking": "Merge"
    },
    "ADV_StageAbility_Maze_Aventurine_SSR": {
      "Count": 1,
      "Stacking": "Merge"
    },
    "ADV_StageAbility_Maze_Aventurine_R_2": {
      "Count": 1,
      "Stacking": "Merge"
    },
    "ADV_StageAbility_Maze_Aventurine_SR_2": {
      "Count": 1,
      "Stacking": "Merge"
    },
    "ADV_StageAbility_Maze_Aventurine_SSR_2": {
      "Count": 1,
      "Stacking": "Merge"
    },
    "ADV_StageAbility_Maze_Dr_Ratio": {
      "BehaviorFlagList": [
        "Taunt"
      ],
      "OnCreate": [
        {
          "$type": "RPG.GameCore.TriggerEffect",
          "TargetType": {
            "$type": "RPG.GameCore.TargetAlias",
            "Alias": "ModifierOwnerEntity"
          },
          "EffectPath": "Effects/Eff_Prefab/Eff_Common/Eff_Buff_Common_Taunt_Add.prefab"
        },
        {
          "$type": "RPG.GameCore.ModifierAttachEffect",
          "TargetType": {
            "$type": "RPG.GameCore.TargetAlias",
            "Alias": "ModifierOwnerEntity"
          },
          "EffectPath": "Effects/Eff_Prefab/Eff_Common/Eff_Buff_Common_Taunt_Loop.prefab",
          "MinMutexTime": -1,
          "MutexType": "Entity"
        },
        {
          "$type": "RPG.GameCore.AddDynamicEntityParam",
          "DynamicKey": "_Dr_Ratio_Taunt_Count",
          "ReadTargetType": {
            "$type": "RPG.GameCore.TargetFetchSummonUnit",
            "Summoner": {
              "$type": "RPG.GameCore.TargetAlias",
              "Alias": "Caster"
            },
            "SummonUnitID": 13051
          },
          "ParamTargetType": {
            "$type": "RPG.GameCore.TargetAlias",
            "Alias": "ModifierOwnerEntity"
          }
        },
        {
          "$type": "RPG.GameCore.PredicateTaskList",
          "Predicate": {
            "$type": "RPG.GameCore.ByCompareTargetCount",
            "TargetType": {
              "$type": "RPG.GameCore.TargetSequence",
              "Sequence": [
                {
                  "$type": "RPG.GameCore.TargetFetchSummonUnit",
                  "Summoner": {
                    "$type": "RPG.GameCore.TargetAlias",
                    "Alias": "Caster"
                  },
                  "SummonUnitID": 13051
                },
                {
                  "$type": "RPG.GameCore.TargetMapDynamicEntityParam",
                  "DynamicKey": "_Dr_Ratio_Taunt_Count"
                }
              ]
            },
            "Number": {
              "IsDynamic": false,
              "FixedValue": {
                "Value": 6
              }
            },
            "CompareType": "GreaterEqual"
          },
          "SuccessTaskList": [
            {
              "$type": "RPG.GameCore.SetAdvAchievement",
              "QuestID": 4072906
            }
          ]
        }
      ],
      "OnDestroy": [
        {
          "$type": "RPG.GameCore.RemoveDynamicEntityParam",
          "DynamicKey": "_Dr_Ratio_Taunt_Count",
          "ReadTargetType": {
            "$type": "RPG.GameCore.TargetFetchSummonUnit",
            "Summoner": {
              "$type": "RPG.GameCore.TargetAlias",
              "Alias": "Caster"
            },
            "SummonUnitID": 13051
          },
          "ParamTargetType": {
            "$type": "RPG.GameCore.TargetAlias",
            "Alias": "ModifierOwnerEntity"
          }
        }
      ],
      "Count": 1,
      "Stacking": "Merge"
    },
    "ADV_StageAbility_Maze_Sparkle": {
      "LifeTime": 20,
      "BehaviorFlagList": [
        "Stealth"
      ],
      "OnCreate": [
        {
          "$type": "RPG.GameCore.AdvFilterNearbyMonsters",
          "TaskList": [
            {
              "$type": "RPG.GameCore.AdvForceHideBillboard",
              "TargetType": {
                "$type": "RPG.GameCore.TargetAlias",
                "Alias": "TaskActionTarget"
              },
              "Duration": 1.5
            },
            {
              "$type": "RPG.GameCore.AddMazeBuff",
              "TargetType": {
                "$type": "RPG.GameCore.TargetAlias",
                "Alias": "TaskActionTarget"
              },
              "ID": 1000118
            },
            {
              "$type": "RPG.GameCore.AdvForceHideBillboard",
              "TargetType": {
                "$type": "RPG.GameCore.TargetAlias",
                "Alias": "TaskActionTarget"
              },
              "Duration": 1.5
            }
          ]
        }
      ],
      "OnDestroy": [],
      "OnStack": [
        {
          "$type": "RPG.GameCore.ModifierAttachEffect",
          "TargetType": {
            "$type": "RPG.GameCore.TargetAlias",
            "Alias": "AdvLocalPlayer"
          },
          "EffectPath": "Effects/Eff_Prefab/Eff_Avatar/Eff_Sparkle_00/Eff_Avatar_Sparkle_00_MazeSkill01_Mask.prefab"
        }
      ],
      "OnTeamLeaderChange": [
        {
          "$type": "RPG.GameCore.ModifierReattachEffect",
          "EffectPath": "Effects/Eff_Prefab/Eff_Avatar/Eff_Sparkle_00/Eff_Avatar_Sparkle_00_MazeSkill01_Mask.prefab",
          "TargetType": {
            "$type": "RPG.GameCore.TargetAlias",
            "Alias": "ParamEntity"
          }
        }
      ],
      "Count": 1,
      "Stacking": "Refresh"
    },
    "ADV_StageAbility_Maze_Sparkle_Hide": {
      "OnCreate": [],
      "Count": 1,
      "Stacking": "Merge"
    },
    "ADV_StageAbility_Maze_BlackSwan": {
      "OnCreate": [],
      "Count": 1,
      "Stacking": "Merge"
    },
    "ADV_StageAbility_Maze_Acheron_Attack": {
      "OnCreate": [],
      "Count": 1,
      "Stacking": "Merge"
    },
    "ADV_StageAbility_Maze_Acheron_OnKill": {
      "OnDestroy": [
        {
          "$type": "RPG.GameCore.GlobalMainIntensityEffect",
          "IsRevert": true,
          "FadeDuration": 0.4
        }
      ],
      "OnStack": [
        {
          "$type": "RPG.GameCore.GlobalMainIntensityEffect",
          "TargetIntensity": 0.25
        }
      ],
      "Stacking": "Merge"
    },
    "ADV_StageAbility_Maze_Acheron_Realm": {
      "BehaviorFlagList": [
        "HolyShield"
      ],
      "OnCreate": [],
      "OnDestroy": [
        {
          "$type": "RPG.GameCore.RemoveEffect",
          "TargetType": {
            "$type": "RPG.GameCore.TargetAlias",
            "Alias": "Caster"
          },
          "EffectPath": "Effects/Eff_Prefab/Eff_Avatar/Eff_Acheron_00/Eff_Avatar_Acheron_00_MazeSkill01_Carmera01.prefab"
        }
      ],
      "OnUnstage": [
        {
          "$type": "RPG.GameCore.RemoveSelfModifier"
        }
      ],
      "Count": 1,
      "Stacking": "Merge"
    },
    "ADV_StageAbility_Maze_Acheron_killFlag": {
      "BehaviorFlagList": [
        "NoAlert"
      ],
      "OnCreate": [
        {
          "$type": "RPG.GameCore.ModifierAttachEffect",
          "TargetType": {
            "$type": "RPG.GameCore.TargetAlias",
            "Alias": "ModifierOwnerEntity"
          },
          "EffectPath": "Effects/Eff_Prefab/Eff_Avatar/Eff_Acheron_00/Eff_Avatar_Acheron_00_MazeSkill_Icon.prefab",
          "AttachPoint": "HeadPoint",
          "PositionOffset": {
            "X": 0,
            "Y": 0.1,
            "Z": 0
          },
          "MinMutexTime": -1,
          "MutexType": "Entity"
        }
      ],
      "OnDestroy": [
        {
          "$type": "RPG.GameCore.RemoveEffect",
          "TargetType": {
            "$type": "RPG.GameCore.TargetAlias",
            "Alias": "Caster"
          },
          "EffectPath": "Effects/Eff_Prefab/Eff_Avatar/Eff_Acheron_00/Eff_Avatar_Acheron_00_MazeSkill_Icon.prefab"
        }
      ],
      "Count": 1,
      "Stacking": "Merge"
    },
    "ADV_StageAbility_Maze_Acheron_TiggerkillFlag": {
      "OnCreate": [
        {
          "$type": "RPG.GameCore.PredicateTaskList",
          "Predicate": {
            "$type": "RPG.GameCore.ByIsTeamLeader",
            "TargetType": {
              "$type": "RPG.GameCore.TargetAlias",
              "Alias": "ModifierOwnerEntity"
            }
          },
          "SuccessTaskList": [
            {
              "$type": "RPG.GameCore.CreateSummonUnit",
              "SummonUnitID": 13081,
              "AttachTarget": {
                "$type": "RPG.GameCore.TargetAlias",
                "Alias": "Caster"
              },
              "PosTarget": {
                "$type": "RPG.GameCore.TargetAlias",
                "Alias": "Caster"
              }
            }
          ]
        }
      ],
      "OnDestroy": [
        {
          "$type": "RPG.GameCore.DestroySummonUnit",
          "SummonUnit": {
            "$type": "RPG.GameCore.TargetFetchSummonUnit",
            "Summoner": {
              "$type": "RPG.GameCore.TargetAlias",
              "Alias": "Caster"
            },
            "SummonUnitID": 13081
          }
        }
      ],
      "OnStage": [
        {
          "$type": "RPG.GameCore.CreateSummonUnit",
          "SummonUnitID": 13081,
          "AttachTarget": {
            "$type": "RPG.GameCore.TargetAlias",
            "Alias": "Caster"
          },
          "PosTarget": {
            "$type": "RPG.GameCore.TargetAlias",
            "Alias": "Caster"
          }
        }
      ],
      "OnUnstage": [
        {
          "$type": "RPG.GameCore.DestroySummonUnit",
          "SummonUnit": {
            "$type": "RPG.GameCore.TargetFetchSummonUnit",
            "Summoner": {
              "$type": "RPG.GameCore.TargetAlias",
              "Alias": "AdvLocalPlayer"
            },
            "SummonUnitID": 13081
          }
        }
      ],
      "Stacking": "Refresh"
    },
    "ADV_StageAbility_Maze_Robin_Self": {
      "OnCreate": [
        {
          "$type": "RPG.GameCore.CreateSummonUnit",
          "SummonUnitID": 13091,
          "AttachTarget": {
            "$type": "RPG.GameCore.TargetAlias",
            "Alias": "AdvLocalPlayer"
          },
          "PosTarget": {
            "$type": "RPG.GameCore.TargetAlias",
            "Alias": "Caster"
          }
        }
      ],
      "OnDestroy": [
        {
          "$type": "RPG.GameCore.RefreshMazeBuffTime",
          "TargetType": {
            "$type": "RPG.GameCore.TargetAlias",
            "Alias": "AllEnemy"
          },
          "ID": 130901,
          "LifeTime": {
            "IsDynamic": false,
            "FixedValue": {
              "Value": 1.5
            }
          }
        },
        {
          "$type": "RPG.GameCore.DestroySummonUnit",
          "SummonUnit": {
            "$type": "RPG.GameCore.TargetFetchSummonUnit",
            "Summoner": {
              "$type": "RPG.GameCore.TargetAlias",
              "Alias": "ModifierOwnerEntity"
            },
            "SummonUnitID": 13091
          }
        }
      ],
      "Count": 1,
      "Stacking": "Merge"
    },
    "ADV_StageAbility_Maze_Robin_Enemy_ForShow": {
      "BehaviorFlagList": [
        "Enchanted"
      ],
      "OnCreate": [],
      "OnDestroy": [],
      "OnStage": [],
      "OnUnstage": [],
      "Count": 1,
      "Stacking": "Refresh"
    },
    "ADV_StageAbility_Maze_Robin_Enemy": {
      "OnCreate": [
        {
          "$type": "RPG.GameCore.ModifierAttachEffect",
          "TargetType": {
            "$type": "RPG.GameCore.TargetAlias",
            "Alias": "ModifierOwnerEntity"
          },
          "EffectPath": "Effects/Eff_Prefab/Eff_Avatar/Eff_Robin_00/Eff_Avatar_Robin_00_MazeSkill01_Start02.prefab",
          "AttachPoint": "HeadPoint"
        },
        {
          "$type": "RPG.GameCore.AddDynamicEntityParam",
          "DynamicKey": "_Robin_Taunt_Count",
          "ReadTargetType": {
            "$type": "RPG.GameCore.TargetFetchSummonUnit",
            "Summoner": {
              "$type": "RPG.GameCore.TargetAlias",
              "Alias": "Caster"
            },
            "SummonUnitID": 13091
          },
          "ParamTargetType": {
            "$type": "RPG.GameCore.TargetAlias",
            "Alias": "ModifierOwnerEntity"
          }
        },
        {
          "$type": "RPG.GameCore.PredicateTaskList",
          "Predicate": {
            "$type": "RPG.GameCore.ByCompareTargetCount",
            "TargetType": {
              "$type": "RPG.GameCore.TargetSequence",
              "Sequence": [
                {
                  "$type": "RPG.GameCore.TargetFetchSummonUnit",
                  "Summoner": {
                    "$type": "RPG.GameCore.TargetAlias",
                    "Alias": "Caster"
                  },
                  "SummonUnitID": 13091
                },
                {
                  "$type": "RPG.GameCore.TargetMapDynamicEntityParam",
                  "DynamicKey": "_Robin_Taunt_Count"
                }
              ]
            },
            "Number": {
              "IsDynamic": false,
              "FixedValue": {
                "Value": 6
              }
            },
            "CompareType": "GreaterEqual"
          },
          "SuccessTaskList": [
            {
              "$type": "RPG.GameCore.SetAdvAchievement",
              "QuestID": 4073208
            }
          ]
        }
      ],
      "OnDestroy": [
        {
          "$type": "RPG.GameCore.RemoveDynamicEntityParam",
          "DynamicKey": "_Robin_Taunt_Count",
          "ReadTargetType": {
            "$type": "RPG.GameCore.TargetFetchSummonUnit",
            "Summoner": {
              "$type": "RPG.GameCore.TargetAlias",
              "Alias": "Caster"
            },
            "SummonUnitID": 13091
          },
          "ParamTargetType": {
            "$type": "RPG.GameCore.TargetAlias",
            "Alias": "ModifierOwnerEntity"
          }
        }
      ],
      "Count": 1,
      "Stacking": "Refresh"
    },
    "ADV_StageAbility_Maze_Misha": {
      "BehaviorFlagList": [
        "TimeLock"
      ],
      "OnCreate": [
        {
          "$type": "RPG.GameCore.ModifierAttachEffect",
          "TargetType": {
            "$type": "RPG.GameCore.TargetAlias",
            "Alias": "ModifierOwnerEntity"
          },
          "EffectPath": "Effects/Eff_Prefab/Eff_Common/Eff_Common_MAZ_Immobilize.prefab",
          "MinMutexTime": -1,
          "MutexType": "Entity"
        }
      ],
      "Count": 1,
      "Stacking": "Merge"
    },
    "ADV_StageAbility_Maze_Misha_AttackBoost": {
      "OnCreate": [],
      "Count": 1,
      "Stacking": "Merge"
    },
    "ADV_Maze_Misha_TriggerDisappearEffect": {
      "TickInterval": 14,
      "OnInterval": [
        {
          "$type": "RPG.GameCore.TriggerEffect",
          "TargetType": {
            "$type": "RPG.GameCore.TargetFetchSummonUnit",
            "Summoner": {
              "$type": "RPG.GameCore.TargetAlias",
              "Alias": "ModifierOwnerEntity"
            },
            "SummonUnitID": 13121
          },
          "EffectPath": "Effects/Eff_Prefab/Eff_Avatar/Eff_Misha_00/Eff_Avatar_Misha_00_MazeSkill01_Start03.prefab",
          "PositionOffset": {
            "X": 0,
            "Y": 1.3,
            "Z": 0
          }
        }
      ],
      "Stacking": "Merge"
    },
    "ADV_StageAbility_Maze_Boothill": {
      "Count": 1,
      "Stacking": "Merge"
    },
    "ADV_StageAbility_Maze_Boothill_EnhanceStack": {
      "OnDestroy": [
        {
          "$type": "RPG.GameCore.RemoveEffect",
          "TargetType": {
            "$type": "RPG.GameCore.TargetAlias",
            "Alias": "Caster"
          },
          "EffectPath": "Effects/Eff_Prefab/Eff_Avatar/Eff_Boothill_00/Eff_Avatar_Boothill_00_Passive_Badge_01.prefab",
          "IsNeedFadeOut": false
        }
      ],
      "OnStack": [
        {
          "$type": "RPG.GameCore.RemoveEffect",
          "TargetType": {
            "$type": "RPG.GameCore.TargetAlias",
            "Alias": "Caster"
          },
          "EffectPath": "Effects/Eff_Prefab/Eff_Avatar/Eff_Boothill_00/Eff_Avatar_Boothill_00_Passive_Badge_01.prefab",
          "IsNeedFadeOut": false
        },
        {
          "$type": "RPG.GameCore.PredicateTaskList",
          "Predicate": {
            "$type": "RPG.GameCore.ByCompareDynamicValue",
            "DynamicKey": "#ADF_1",
            "CompareType": "GreaterEqual",
            "CompareValue": {
              "IsDynamic": false,
              "FixedValue": {
                "Value": 1
              }
            }
          },
          "SuccessTaskList": [
            {
              "$type": "RPG.GameCore.TriggerEffect",
              "TargetType": {
                "$type": "RPG.GameCore.TargetAlias",
                "Alias": "Caster"
              },
              "EffectPath": "Effects/Eff_Prefab/Eff_Avatar/Eff_Boothill_00/Eff_Avatar_Boothill_00_Passive_Badge_01.prefab",
              "AttachPoint": "ButtonR_A"
            }
          ]
        },
        {
          "$type": "RPG.GameCore.PredicateTaskList",
          "Predicate": {
            "$type": "RPG.GameCore.ByCompareDynamicValue",
            "DynamicKey": "#ADF_1",
            "CompareType": "GreaterEqual",
            "CompareValue": {
              "IsDynamic": false,
              "FixedValue": {
                "Value": 2
              }
            }
          },
          "SuccessTaskList": [
            {
              "$type": "RPG.GameCore.TriggerEffect",
              "TargetType": {
                "$type": "RPG.GameCore.TargetAlias",
                "Alias": "Caster"
              },
              "EffectPath": "Effects/Eff_Prefab/Eff_Avatar/Eff_Boothill_00/Eff_Avatar_Boothill_00_Passive_Badge_01.prefab",
              "AttachPoint": "ButtonR_B"
            }
          ]
        },
        {
          "$type": "RPG.GameCore.PredicateTaskList",
          "Predicate": {
            "$type": "RPG.GameCore.ByCompareDynamicValue",
            "DynamicKey": "#ADF_1",
            "CompareType": "GreaterEqual",
            "CompareValue": {
              "IsDynamic": false,
              "FixedValue": {
                "Value": 3
              }
            }
          },
          "SuccessTaskList": [
            {
              "$type": "RPG.GameCore.TriggerEffect",
              "TargetType": {
                "$type": "RPG.GameCore.TargetAlias",
                "Alias": "Caster"
              },
              "EffectPath": "Effects/Eff_Prefab/Eff_Avatar/Eff_Boothill_00/Eff_Avatar_Boothill_00_Passive_Badge_01.prefab",
              "AttachPoint": "ButtonR_C"
            }
          ]
        }
      ],
      "Count": 2,
      "Stacking": "Replace",
      "DynamicValues": {
        "Values": {
          "462955996": {}
        }
      }
    },
    "ADV_StageAbility_Maze_Boothill_AfterBattle": {
      "OnAfterBattle": [
        {
          "$type": "RPG.GameCore.PredicateTaskList",
          "Predicate": {
            "$type": "RPG.GameCore.ByIsLastBattleWin",
            "TaskEnabled": true
          },
          "SuccessTaskList": [
            {
              "$type": "RPG.GameCore.SetDynamicValueByStatisticCustomValue",
              "TaskEnabled": true
            },
            {
              "$type": "RPG.GameCore.PredicateTaskList",
              "Predicate": {
                "$type": "RPG.GameCore.AdvByCompareDynamicValue",
                "DynamicKey": "CurCount",
                "CompareType": "Greater",
                "CompareValue": {
                  "IsDynamic": false,
                  "FixedValue": {
                    "Value": 0
                  }
                }
              },
              "SuccessTaskList": [
                {
                  "$type": "RPG.GameCore.AddMazeBuff",
                  "TargetType": {
                    "$type": "RPG.GameCore.TargetAlias",
                    "Alias": "ModifierOwnerEntity"
                  },
                  "ID": 131502,
                  "Count": {
                    "IsDynamic": false,
                    "FixedValue": {
                      "Value": 2
                    }
                  },
                  "Level": {
                    "IsDynamic": true,
                    "PostfixExpr": {
                      "OpCodes": "AQAK",
                      "FixedValues": [],
                      "DynamicHashes": [
                        -1045739345
                      ]
                    }
                  },
                  "DynamicValues": {
                    "#ADF_1": {
                      "IsDynamic": true,
                      "PostfixExpr": {
                        "OpCodes": "AQAK",
                        "FixedValues": [],
                        "DynamicHashes": [
                          -1045739345
                        ]
                      }
                    }
                  }
                }
              ]
            }
          ]
        }
      ],
      "Stacking": "Merge",
      "DynamicValues": {
        "Values": {
          "-1045739345": {}
        }
      }
    },
    "ADV_StageAbility_Maze_W_Boothill": {
      "Count": 1,
      "Stacking": "Merge"
    },
    "ADV_StageAbility_Maze_PlayerBoy_10": {
      "Count": 1,
      "Stacking": "Merge"
    },
    "ADV_StageAbility_Maze_PlayerBoy_20": {
      "Count": 1,
      "Stacking": "Merge"
    },
    "ADV_StageAbility_Maze_W_DoubleSPAoe": {
      "LifeTime": 20,
      "BehaviorFlagList": [
        "Blind"
      ],
      "OnCreate": [
        {
          "$type": "RPG.GameCore.ModifierAttachEffect",
          "TargetType": {
            "$type": "RPG.GameCore.TargetAlias",
            "Alias": "ModifierOwnerEntity"
          },
          "EffectPath": "Effects/Eff_Prefab/Eff_Avatar/Eff_Sampo_00/Eff_Avatar_Sampo_00_MazeSkill_HitLoop.prefab",
          "MinMutexTime": -1,
          "MutexType": "Entity"
        }
      ],
      "Count": 1,
      "Stacking": "Merge"
    },
    "ADV_Modifier_Maze_Huohuo_Fear": {
      "BehaviorFlagList": [
        "Fear"
      ],
      "OnCreate": [
        {
          "$type": "RPG.GameCore.ModifierAttachEffect",
          "TargetType": {
            "$type": "RPG.GameCore.TargetAlias",
            "Alias": "ModifierOwnerEntity"
          },
          "EffectPath": "Effects/Eff_Prefab/Eff_Common/Eff_Buff_Common_Fear.prefab",
          "AttachPoint": "HeadPoint",
          "MinMutexTime": -1,
          "MutexType": "Entity"
        }
      ],
      "Count": 1,
      "Stacking": "Refresh"
    },
    "ADV_StageAbility_Maze_W_BPAdd": {
      "OnCreate": [],
      "Count": 1,
      "Stacking": "Merge"
    },
    "ADV_StageAbility_Maze_W_ScrewllumS": {
      "OnCreate": [],
      "Count": 1,
      "Stacking": "Merge"
    },
    "ADV_StageAbility_Maze_W_Shajin": {
      "OnCreate": [],
      "Count": 1,
      "Stacking": "Merge"
    },
    "ADV_StageAbility_Maze_W_Yayi": {
      "Count": 1,
      "Stacking": "Merge"
    },
    "ADV_StageAbility_Maze_W_Ratio": {
      "BehaviorFlagList": [
        "Taunt"
      ],
      "OnCreate": [
        {
          "$type": "RPG.GameCore.TriggerEffect",
          "TargetType": {
            "$type": "RPG.GameCore.TargetAlias",
            "Alias": "ModifierOwnerEntity"
          },
          "EffectPath": "Effects/Eff_Prefab/Eff_Common/Eff_Buff_Common_Taunt_Add.prefab"
        },
        {
          "$type": "RPG.GameCore.ModifierAttachEffect",
          "TargetType": {
            "$type": "RPG.GameCore.TargetAlias",
            "Alias": "ModifierOwnerEntity"
          },
          "EffectPath": "Effects/Eff_Prefab/Eff_Common/Eff_Buff_Common_Taunt_Loop.prefab",
          "MinMutexTime": -1,
          "MutexType": "Entity"
        },
        {
          "$type": "RPG.GameCore.AddDynamicEntityParam",
          "DynamicKey": "_Dr_Ratio_Taunt_Count",
          "ReadTargetType": {
            "$type": "RPG.GameCore.TargetFetchSummonUnit",
            "Summoner": {
              "$type": "RPG.GameCore.TargetAlias",
              "Alias": "Caster"
            },
            "SummonUnitID": 13051
          },
          "ParamTargetType": {
            "$type": "RPG.GameCore.TargetAlias",
            "Alias": "ModifierOwnerEntity"
          }
        },
        {
          "$type": "RPG.GameCore.PredicateTaskList",
          "Predicate": {
            "$type": "RPG.GameCore.ByCompareTargetCount",
            "TargetType": {
              "$type": "RPG.GameCore.TargetSequence",
              "Sequence": [
                {
                  "$type": "RPG.GameCore.TargetFetchSummonUnit",
                  "Summoner": {
                    "$type": "RPG.GameCore.TargetAlias",
                    "Alias": "Caster"
                  },
                  "SummonUnitID": 13051
                },
                {
                  "$type": "RPG.GameCore.TargetMapDynamicEntityParam",
                  "DynamicKey": "_Dr_Ratio_Taunt_Count"
                }
              ]
            },
            "Number": {
              "IsDynamic": false,
              "FixedValue": {
                "Value": 6
              }
            },
            "CompareType": "GreaterEqual"
          },
          "SuccessTaskList": [
            {
              "$type": "RPG.GameCore.SetAdvAchievement",
              "QuestID": 4072906
            }
          ]
        }
      ],
      "OnDestroy": [
        {
          "$type": "RPG.GameCore.RemoveDynamicEntityParam",
          "DynamicKey": "_Dr_Ratio_Taunt_Count",
          "ReadTargetType": {
            "$type": "RPG.GameCore.TargetFetchSummonUnit",
            "Summoner": {
              "$type": "RPG.GameCore.TargetAlias",
              "Alias": "Caster"
            },
            "SummonUnitID": 13051
          },
          "ParamTargetType": {
            "$type": "RPG.GameCore.TargetAlias",
            "Alias": "ModifierOwnerEntity"
          }
        }
      ],
      "Count": 1,
      "Stacking": "Merge"
    },
    "ADV_StageAbility_Maze_W_HuangQuan_01": {
      "OnCreate": [
        {
          "$type": "RPG.GameCore.RPGColorGradingCurveEffect",
          "CustomLUT": "QA/yomi_Ultra_LUT.exr",
          "TransitionDuration": 0.5,
          "CurveName": "ColorGradingCurveHQ"
        },
        {
          "$type": "RPG.GameCore.TriggerEffect",
          "TargetType": {
            "$type": "RPG.GameCore.TargetAlias",
            "Alias": "ModifierOwnerEntity"
          },
          "EffectPath": "Effects/Eff_Prefab/Eff_Avatar/Eff_Acheron_00/Eff_Avatar_Acheron_00_MazeSkill01_Body_01.prefab"
        },
        {
          "$type": "RPG.GameCore.TriggerEffect",
          "TargetType": {
            "$type": "RPG.GameCore.TargetAlias",
            "Alias": "ModifierOwnerEntity"
          },
          "EffectPath": "Effects/Eff_Prefab/Eff_Avatar/Eff_Acheron_00/Eff_Avatar_Acheron_00_MazeSkill01_Body_02.prefab"
        },
        {
          "$type": "RPG.GameCore.SetAdvLockDistance",
          "IsPushValue": true,
          "LockDistance": 10
        },
        {
          "$type": "RPG.GameCore.SetAttachmentVisibility",
          "TargetType": {
            "$type": "RPG.GameCore.TargetAlias",
            "Alias": "Caster"
          },
          "AttachPoints": [
            {
              "Name": "Eff_Hair_02"
            }
          ],
          "Visibility": true
        },
        {
          "$type": "RPG.GameCore.SetAttachmentVisibility",
          "TargetType": {
            "$type": "RPG.GameCore.TargetAlias",
            "Alias": "Caster"
          },
          "AttachPoints": [
            {
              "Name": "Eff_Hair_01"
            }
          ]
        }
      ],
      "OnDestroy": [
        {
          "$type": "RPG.GameCore.SetAdvLockDistance"
        },
        {
          "$type": "RPG.GameCore.RemoveEffect",
          "TargetType": {
            "$type": "RPG.GameCore.TargetAlias",
            "Alias": "ModifierOwnerEntity"
          },
          "EffectPath": "Effects/Eff_Prefab/Eff_Avatar/Eff_Acheron_00/Eff_Avatar_Acheron_00_MazeSkill01_Body_01.prefab"
        },
        {
          "$type": "RPG.GameCore.RemoveEffect",
          "TargetType": {
            "$type": "RPG.GameCore.TargetAlias",
            "Alias": "ModifierOwnerEntity"
          },
          "EffectPath": "Effects/Eff_Prefab/Eff_Avatar/Eff_Acheron_00/Eff_Avatar_Acheron_00_MazeSkill01_Body_02.prefab"
        },
        {
          "$type": "RPG.GameCore.RPGColorGradingCurveEffect",
          "Active": false,
          "CustomLUT": "QA/yomi_Ultra_LUT.exr",
          "TransitionDuration": 0.5,
          "CurveName": "ColorGradingCurveHQ"
        },
        {
          "$type": "RPG.GameCore.SetAttachmentVisibility",
          "TargetType": {
            "$type": "RPG.GameCore.TargetAlias",
            "Alias": "Caster"
          },
          "AttachPoints": [
            {
              "Name": "Eff_Hair_01"
            }
          ],
          "Visibility": true
        },
        {
          "$type": "RPG.GameCore.SetAttachmentVisibility",
          "TargetType": {
            "$type": "RPG.GameCore.TargetAlias",
            "Alias": "Caster"
          },
          "AttachPoints": [
            {
              "Name": "Eff_Hair_02"
            }
          ]
        }
      ],
      "OnStage": [
        {
          "$type": "RPG.GameCore.CreateSummonUnit",
          "SummonUnitID": 90041,
          "AttachTarget": {
            "$type": "RPG.GameCore.TargetAlias",
            "Alias": "Caster"
          },
          "PosTarget": {
            "$type": "RPG.GameCore.TargetAlias",
            "Alias": "Caster"
          }
        }
      ],
      "OnUnstage": [
        {
          "$type": "RPG.GameCore.RemoveSelfModifier"
        },
        {
          "$type": "RPG.GameCore.DestroySummonUnit",
          "SummonUnit": {
            "$type": "RPG.GameCore.TargetFetchSummonUnit",
            "Summoner": {
              "$type": "RPG.GameCore.TargetAlias",
              "Alias": "AdvLocalPlayer"
            },
            "SummonUnitID": 90041
          }
        }
      ],
      "Count": 1,
      "Stacking": "Refresh"
    },
    "ADV_StageAbility_Maze_W_HuangQuan_02": {
      "LifeTime": 20,
      "OnCreate": [
        {
          "$type": "RPG.GameCore.ModifierAttachEffect",
          "TargetType": {
            "$type": "RPG.GameCore.TargetAlias",
            "Alias": "ModifierOwnerEntity"
          },
          "EffectPath": "Effects/Eff_Prefab/Eff_Common/Eff_Buff_Common_Fear.prefab",
          "AttachPoint": "TopArrow",
          "PositionOffset": {
            "X": 0,
            "Y": -0.2,
            "Z": 0
          },
          "MinMutexTime": -1,
          "MutexType": "Entity"
        }
      ],
      "Count": 1,
      "Stacking": "Merge"
    },
    "ADV_StageAbility_Maze_W_HuangQuan_03": {
      "OnCreate": [
        {
          "$type": "RPG.GameCore.PredicateTaskList",
          "Predicate": {
            "$type": "RPG.GameCore.ByIsTeamLeader",
            "TargetType": {
              "$type": "RPG.GameCore.TargetAlias",
              "Alias": "ModifierOwnerEntity"
            }
          },
          "SuccessTaskList": [
            {
              "$type": "RPG.GameCore.CreateSummonUnit",
              "SummonUnitID": 90041,
              "AttachTarget": {
                "$type": "RPG.GameCore.TargetAlias",
                "Alias": "Caster"
              },
              "PosTarget": {
                "$type": "RPG.GameCore.TargetAlias",
                "Alias": "Caster"
              }
            }
          ]
        }
      ],
      "OnStage": [
        {
          "$type": "RPG.GameCore.CreateSummonUnit",
          "SummonUnitID": 90041,
          "AttachTarget": {
            "$type": "RPG.GameCore.TargetAlias",
            "Alias": "Caster"
          },
          "PosTarget": {
            "$type": "RPG.GameCore.TargetAlias",
            "Alias": "Caster"
          }
        }
      ],
      "OnUnstage": [
        {
          "$type": "RPG.GameCore.DestroySummonUnit",
          "SummonUnit": {
            "$type": "RPG.GameCore.TargetFetchSummonUnit",
            "Summoner": {
              "$type": "RPG.GameCore.TargetAlias",
              "Alias": "AdvLocalPlayer"
            },
            "SummonUnitID": 90041
          }
        }
      ],
      "Count": 1,
      "Stacking": "Refresh"
    },
    "ADV_Modifier_ZhangZhang_FindTrotter": {
      "OnCreate": [
        {
          "$type": "RPG.GameCore.ShowWayPoint",
          "TargetType": {
            "$type": "RPG.GameCore.TargetAlias",
            "Alias": "ModifierOwnerEntity"
          },
          "IconPath": "SpriteOutput/MapPics/Billboard/IconBillboardMazeTrotter.png",
          "PrefabPath": "UI/Maze/Widget/MazeTopazTrotterWarningMark.prefab"
        },
        {
          "$type": "RPG.GameCore.AdvEnableOwnerIdleShow",
          "TargetType": {
            "$type": "RPG.GameCore.TargetAlias",
            "Alias": "ModifierOwnerEntity"
          }
        }
      ],
      "OnDestroy": [
        {
          "$type": "RPG.GameCore.HideWaypoint",
          "TargetType": {
            "$type": "RPG.GameCore.TargetAlias",
            "Alias": "ModifierOwnerEntity"
          }
        },
        {
          "$type": "RPG.GameCore.AdvEnableOwnerIdleShow",
          "TargetType": {
            "$type": "RPG.GameCore.TargetAlias",
            "Alias": "ModifierOwnerEntity"
          },
          "Enable": true
        }
      ],
      "Count": 1,
      "Stacking": "Refresh"
    },
    "ADV_Modifier_ZhangZhang_FindTrotter_VFX": {
      "Count": 1,
      "Stacking": "Refresh"
    },
    "ADV_Modifier_ZhangZhang_FindTreasure": {
      "OnCreate": [
        {
          "$type": "RPG.GameCore.ShowWayPoint",
          "TargetType": {
            "$type": "RPG.GameCore.TargetAlias",
            "Alias": "ModifierOwnerEntity"
          },
          "IconPath": "SpriteOutput/MapPics/Billboard/IconBillboardMazeBox.png",
          "PrefabPath": "UI/Maze/Widget/MazeTopazTreasureWarningMark.prefab"
        },
        {
          "$type": "RPG.GameCore.TriggerSound",
          "SoundName": {
            "Value": "Ev_vo_zhangzhang_detect_chest"
          }
        },
        {
          "$type": "RPG.GameCore.AdvEnableOwnerIdleShow",
          "TargetType": {
            "$type": "RPG.GameCore.TargetAlias",
            "Alias": "ModifierOwnerEntity"
          }
        }
      ],
      "OnDestroy": [
        {
          "$type": "RPG.GameCore.HideWaypoint",
          "TargetType": {
            "$type": "RPG.GameCore.TargetAlias",
            "Alias": "ModifierOwnerEntity"
          }
        },
        {
          "$type": "RPG.GameCore.AdvEnableOwnerIdleShow",
          "TargetType": {
            "$type": "RPG.GameCore.TargetAlias",
            "Alias": "ModifierOwnerEntity"
          },
          "Enable": true
        }
      ],
      "Count": 1,
      "Stacking": "Refresh"
    },
    "ADV_Modifier_ZhangZhang_FindTreasure_VFX": {
      "OnCreate": [
        {
          "$type": "RPG.GameCore.TriggerEffect",
          "TargetType": {
            "$type": "RPG.GameCore.TargetAlias",
            "Alias": "ModifierOwnerEntity"
          },
          "EffectPath": "Effects/Eff_Prefab/Eff_Avatar/Eff_Topaz_00/Eff_Avatar_Topaz_00_Zhangzhang_Happy.prefab"
        }
      ],
      "OnDestroy": [
        {
          "$type": "RPG.GameCore.RemoveEffect",
          "TargetType": {
            "$type": "RPG.GameCore.TargetAlias",
            "Alias": "Caster"
          },
          "EffectPath": "Effects/Eff_Prefab/Eff_Avatar/Eff_Topaz_00/Eff_Avatar_Topaz_00_Zhangzhang_Happy.prefab"
        }
      ],
      "Count": 1,
      "Stacking": "Refresh"
    }
  }
}