{
  "OnInitSequece": [],
  "OnStartSequece": [
    {
      "TaskList": [
        {
          "$type": "RPG.GameCore.PropSetupTrigger",
          "TargetType": {
            "$type": "RPG.GameCore.TargetFetchAdvPropEx",
            "FetchType": "SinglePropByPropID",
            "SinglePropID": {
              "GroupID": {
                "IsDynamic": false,
                "FixedValue": {
                  "Value": 6
                }
              },
              "ID": {
                "IsDynamic": false,
                "FixedValue": {
                  "Value": 300012
                }
              }
            }
          },
          "TargetGroupID": {
            "IsDynamic": false,
            "FixedValue": {
              "Value": 0
            }
          },
          "TargetID": {
            "IsDynamic": false,
            "FixedValue": {
              "Value": 0
            }
          },
          "TargetTypes": [
            "LocalPlayer"
          ],
          "DisableAfterTriggered": true,
          "OnTriggerEnter": [
            {
              "$type": "RPG.GameCore.PropReqInteract",
              "TargetType": {
                "$type": "RPG.GameCore.TargetFetchAdvPropEx",
                "FetchType": "SinglePropByPropID",
                "SinglePropID": {
                  "GroupID": {
                    "IsDynamic": false,
                    "FixedValue": {
                      "Value": 6
                    }
                  },
                  "ID": {
                    "IsDynamic": false,
                    "FixedValue": {
                      "Value": 300011
                    }
                  }
                }
              },
              "InteractID": {
                "IsDynamic": false,
                "FixedValue": {
                  "Value": 1100
                }
              }
            }
          ]
        }
      ]
    },
    {
      "TaskList": [
        {
          "$type": "RPG.GameCore.PropStateChangeListenerConfig",
          "FromState": "Open",
          "OnChange": [
            {
              "$type": "RPG.GameCore.PropReqInteract",
              "TargetType": {
                "$type": "RPG.GameCore.TargetFetchAdvPropEx",
                "FetchType": "SinglePropByPropID",
                "SinglePropID": {
                  "GroupID": {
                    "IsDynamic": false,
                    "FixedValue": {
                      "Value": 6
                    }
                  },
                  "ID": {
                    "IsDynamic": false,
                    "FixedValue": {
                      "Value": 300012
                    }
                  }
                }
              },
              "InteractID": {
                "IsDynamic": false,
                "FixedValue": {
                  "Value": 1010
                }
              }
            },
            {
              "$type": "RPG.GameCore.PropTriggerAnimState",
              "AnimStateName": "Close",
              "TargetType": {
                "$type": "RPG.GameCore.TargetFetchAdvPropEx",
                "FetchType": "SinglePropByPropID",
                "SinglePropID": {
                  "GroupID": {
                    "IsDynamic": false,
                    "FixedValue": {
                      "Value": 6
                    }
                  },
                  "ID": {
                    "IsDynamic": false,
                    "FixedValue": {
                      "Value": 300011
                    }
                  }
                }
              }
            },
            {
              "$type": "RPG.GameCore.TriggerCustomString",
              "CustomString": {
                "Value": "EXDoorIsClose"
              }
            }
          ],
          "TargetType": {
            "$type": "RPG.GameCore.TargetFetchAdvPropEx",
            "FetchType": "SinglePropByPropID",
            "SinglePropID": {
              "GroupID": {
                "IsDynamic": false,
                "FixedValue": {
                  "Value": 6
                }
              },
              "ID": {
                "IsDynamic": false,
                "FixedValue": {
                  "Value": 300011
                }
              }
            }
          }
        }
      ]
    },
    {
      "TaskList": [
        {
          "$type": "RPG.GameCore.PredicateTaskList",
          "Predicate": {
            "$type": "RPG.GameCore.ByAnd",
            "PredicateList": [
              {
                "$type": "RPG.GameCore.ByComparePropState",
                "TargetType": {
                  "$type": "RPG.GameCore.TargetFetchAdvPropEx",
                  "FetchType": "SinglePropByPropID",
                  "SinglePropID": {
                    "GroupID": {
                      "IsDynamic": false,
                      "FixedValue": {
                        "Value": 6
                      }
                    },
                    "ID": {
                      "IsDynamic": false,
                      "FixedValue": {
                        "Value": 300011
                      }
                    }
                  }
                }
              },
              {
                "$type": "RPG.GameCore.ByComparePropState",
                "TargetType": {
                  "$type": "RPG.GameCore.TargetFetchAdvPropEx",
                  "FetchType": "SinglePropByPropID",
                  "SinglePropID": {
                    "GroupID": {
                      "IsDynamic": false,
                      "FixedValue": {
                        "Value": 6
                      }
                    },
                    "ID": {
                      "IsDynamic": false,
                      "FixedValue": {
                        "Value": 300012
                      }
                    }
                  }
                }
              }
            ]
          },
          "SuccessTaskList": [
            {
              "$type": "RPG.GameCore.PropReqInteract",
              "TargetType": {
                "$type": "RPG.GameCore.TargetFetchAdvPropEx",
                "FetchType": "SinglePropByPropID",
                "SinglePropID": {
                  "GroupID": {
                    "IsDynamic": false,
                    "FixedValue": {
                      "Value": 6
                    }
                  },
                  "ID": {
                    "IsDynamic": false,
                    "FixedValue": {
                      "Value": 300012
                    }
                  }
                }
              },
              "InteractID": {
                "IsDynamic": false,
                "FixedValue": {
                  "Value": 1010
                }
              }
            },
            {
              "$type": "RPG.GameCore.PropTriggerAnimState",
              "AnimStateName": "Close",
              "TargetType": {
                "$type": "RPG.GameCore.TargetFetchAdvPropEx",
                "FetchType": "SinglePropByPropID",
                "SinglePropID": {
                  "GroupID": {
                    "IsDynamic": false,
                    "FixedValue": {
                      "Value": 6
                    }
                  },
                  "ID": {
                    "IsDynamic": false,
                    "FixedValue": {
                      "Value": 300011
                    }
                  }
                }
              }
            },
            {
              "$type": "RPG.GameCore.TriggerCustomString",
              "CustomString": {
                "Value": "EXDoorIsClose"
              }
            }
          ]
        }
      ]
    },
    {
      "TaskList": [
        {
          "$type": "RPG.GameCore.WaitCustomString",
          "CustomString": {
            "Value": "EXDoorIsClose"
          }
        },
        {
          "$type": "RPG.GameCore.TriggerPerformance",
          "ValueSource": {},
          "PerformanceType": "E",
          "PerformanceID": 407131102
        },
        {
          "$type": "RPG.GameCore.ShowEnvBuffDialog",
          "RaidID": 4013101,
          "IsAutoGetParam": true
        },
        {
          "$type": "RPG.GameCore.TriggerCustomString",
          "CustomString": {
            "Value": "Mission_407131101"
          }
        }
      ]
    }
  ],
  "ValueSource": {
    "Values": [
      {
        "$type": "RPG.GameCore.SharedString",
        "Key": "Camera"
      },
      {
        "$type": "RPG.GameCore.SharedString",
        "Key": "Camera2"
      }
    ]
  }
}