{
  "OnInitSequece": [],
  "OnStartSequece": [
    {
      "TaskList": [
        {
          "$type": "RPG.GameCore.PlayerSelectMotionMode",
          "MotionMode": "ForbidFastRun"
        },
        {
          "$type": "RPG.GameCore.AdventureCameraLookAtTemplate",
          "LookAtTarget": {
            "$type": "RPG.GameCore.TargetFetchAdvNpcEx",
            "FetchType": "SingleNpcByNpcID",
            "SingleNpcID": {
              "GroupID": {
                "IsDynamic": false,
                "FixedValue": {
                  "Value": 3
                }
              },
              "GroupNpcID": {
                "IsDynamic": false,
                "FixedValue": {
                  "Value": 400001
                }
              }
            }
          },
          "TemplateName": "BackUpType"
        },
        {
          "$type": "RPG.GameCore.WaitSecond",
          "WaitTime": {
            "IsDynamic": false,
            "FixedValue": {
              "Value": 1
            }
          }
        },
        {
          "$type": "RPG.GameCore.AdventureCameraLookAtTemplate",
          "Reset": true,
          "TemplateName": "BackUpType"
        },
        {
          "$type": "RPG.GameCore.EnableFreelookCameraDragMode",
          "Enable": true,
          "Mode": "Orbit"
        }
      ]
    },
    {
      "TaskList": [
        {
          "$type": "RPG.GameCore.CollectDataConditions",
          "TaskIDList": [
            103310203,
            103310204,
            103310205,
            103310206,
            103310207,
            103310208
          ],
          "MainMissionIDList": [],
          "PerformanceIDList": [],
          "PerformanceIDDsList": [],
          "CustomValueMainMissionIDList": []
        },
        {
          "$type": "RPG.GameCore.AdvSetupCustomTaskTrigger",
          "TargetType": {
            "$type": "RPG.GameCore.GroupFetchLocalTarget",
            "TargetType": "Prop",
            "Targets": [
              300001
            ]
          },
          "TriggerName": "MissionTrigger_1",
          "OnEnter": [
            {
              "$type": "RPG.GameCore.TriggerGroupEvent",
              "EventName": {
                "Value": "ShadowProp_Enter_1"
              }
            }
          ],
          "OnEnterFilter": {
            "$type": "RPG.GameCore.ByCompareSubMissionState",
            "SubMissionID": 103310203,
            "SubMissionState": "Started"
          }
        },
        {
          "$type": "RPG.GameCore.AdvSetupCustomTaskTrigger",
          "TargetType": {
            "$type": "RPG.GameCore.GroupFetchLocalTarget",
            "TargetType": "Prop",
            "Targets": [
              300003
            ]
          },
          "TriggerName": "MissionTrigger_1",
          "OnEnter": [
            {
              "$type": "RPG.GameCore.TriggerGroupEvent",
              "EventName": {
                "Value": "ShadowProp_Enter_3"
              }
            }
          ],
          "OnEnterFilter": {
            "$type": "RPG.GameCore.ByCompareSubMissionState",
            "SubMissionID": 103310204,
            "SubMissionState": "Started"
          }
        },
        {
          "$type": "RPG.GameCore.AdvSetupCustomTaskTrigger",
          "TargetType": {
            "$type": "RPG.GameCore.GroupFetchLocalTarget",
            "TargetType": "Prop",
            "Targets": [
              300005
            ]
          },
          "TriggerName": "MissionTrigger_1",
          "OnEnter": [
            {
              "$type": "RPG.GameCore.TriggerGroupEvent",
              "EventName": {
                "Value": "ShadowProp_Enter_5"
              }
            }
          ],
          "OnEnterFilter": {
            "$type": "RPG.GameCore.ByCompareSubMissionState",
            "SubMissionID": 103310205,
            "SubMissionState": "Started"
          }
        },
        {
          "$type": "RPG.GameCore.AdvSetupCustomTaskTrigger",
          "TargetType": {
            "$type": "RPG.GameCore.GroupFetchLocalTarget",
            "TargetType": "Prop",
            "Targets": [
              300007
            ]
          },
          "TriggerName": "MissionTrigger_1",
          "OnEnter": [
            {
              "$type": "RPG.GameCore.TriggerGroupEvent",
              "EventName": {
                "Value": "ShadowProp_Enter_7"
              }
            }
          ],
          "OnEnterFilter": {
            "$type": "RPG.GameCore.ByCompareSubMissionState",
            "SubMissionID": 103310206,
            "SubMissionState": "Started"
          }
        },
        {
          "$type": "RPG.GameCore.AdvSetupCustomTaskTrigger",
          "TargetType": {
            "$type": "RPG.GameCore.GroupFetchLocalTarget",
            "TargetType": "Prop",
            "Targets": [
              300009
            ]
          },
          "TriggerName": "MissionTrigger_1",
          "OnEnter": [
            {
              "$type": "RPG.GameCore.TriggerGroupEvent",
              "EventName": {
                "Value": "ShadowProp_Enter_9"
              }
            }
          ],
          "OnEnterFilter": {
            "$type": "RPG.GameCore.ByCompareSubMissionState",
            "SubMissionID": 103310207,
            "SubMissionState": "Started"
          }
        },
        {
          "$type": "RPG.GameCore.AdvSetupCustomTaskTrigger",
          "TargetType": {
            "$type": "RPG.GameCore.GroupFetchLocalTarget",
            "TargetType": "Prop",
            "Targets": [
              300011
            ]
          },
          "TriggerName": "MissionTrigger_1",
          "OnEnter": [
            {
              "$type": "RPG.GameCore.TriggerGroupEvent",
              "EventName": {
                "Value": "ShadowProp_Enter_11"
              }
            }
          ],
          "OnEnterFilter": {
            "$type": "RPG.GameCore.ByCompareSubMissionState",
            "SubMissionID": 103310208,
            "SubMissionState": "Started"
          }
        }
      ]
    },
    {
      "IsLoop": true,
      "TaskList": [
        {
          "$type": "RPG.GameCore.WaitGroupEvent",
          "EventName": {
            "Value": "ShadowProp_Enter_1"
          },
          "OnEvent": [
            {
              "$type": "RPG.GameCore.PlayMissionTalk",
              "SimpleTalkList": [
                {
                  "TalkSentenceID": 103329903,
                  "ProtectTime": 2
                }
              ]
            },
            {
              "$type": "RPG.GameCore.TriggerCustomString",
              "CustomString": {
                "Value": "Talk_103310203"
              }
            },
            {
              "$type": "RPG.GameCore.WaitSecond",
              "WaitTime": {
                "IsDynamic": false,
                "FixedValue": {
                  "Value": 2.5
                }
              }
            },
            {
              "$type": "RPG.GameCore.TriggerGroupEvent",
              "EventName": {
                "Value": "ShadowProp_Enter_2"
              }
            }
          ]
        }
      ]
    },
    {
      "IsLoop": true,
      "TaskList": [
        {
          "$type": "RPG.GameCore.WaitGroupEvent",
          "EventName": {
            "Value": "ShadowProp_Enter_3"
          },
          "OnEvent": [
            {
              "$type": "RPG.GameCore.PlayMissionTalk",
              "SimpleTalkList": [
                {
                  "TalkSentenceID": 103329904,
                  "ProtectTime": 2
                }
              ]
            },
            {
              "$type": "RPG.GameCore.TriggerCustomString",
              "CustomString": {
                "Value": "Talk_103310204"
              }
            },
            {
              "$type": "RPG.GameCore.WaitSecond",
              "WaitTime": {
                "IsDynamic": false,
                "FixedValue": {
                  "Value": 2.5
                }
              }
            },
            {
              "$type": "RPG.GameCore.TriggerGroupEvent",
              "EventName": {
                "Value": "ShadowProp_Enter_4"
              }
            }
          ]
        }
      ]
    },
    {
      "IsLoop": true,
      "TaskList": [
        {
          "$type": "RPG.GameCore.WaitGroupEvent",
          "EventName": {
            "Value": "ShadowProp_Enter_5"
          },
          "OnEvent": [
            {
              "$type": "RPG.GameCore.PlayMissionTalk",
              "SimpleTalkList": [
                {
                  "TalkSentenceID": 103329905,
                  "ProtectTime": 2
                }
              ]
            },
            {
              "$type": "RPG.GameCore.TriggerCustomString",
              "CustomString": {
                "Value": "Talk_103310205"
              }
            },
            {
              "$type": "RPG.GameCore.WaitSecond",
              "WaitTime": {
                "IsDynamic": false,
                "FixedValue": {
                  "Value": 2.5
                }
              }
            },
            {
              "$type": "RPG.GameCore.TriggerGroupEvent",
              "EventName": {
                "Value": "ShadowProp_Enter_6"
              }
            }
          ]
        }
      ]
    },
    {
      "IsLoop": true,
      "TaskList": [
        {
          "$type": "RPG.GameCore.WaitGroupEvent",
          "EventName": {
            "Value": "ShadowProp_Enter_7"
          },
          "OnEvent": [
            {
              "$type": "RPG.GameCore.PlayMissionTalk",
              "SimpleTalkList": [
                {
                  "TalkSentenceID": 103329906,
                  "ProtectTime": 2
                }
              ]
            },
            {
              "$type": "RPG.GameCore.TriggerCustomString",
              "CustomString": {
                "Value": "Talk_103310206"
              }
            },
            {
              "$type": "RPG.GameCore.WaitSecond",
              "WaitTime": {
                "IsDynamic": false,
                "FixedValue": {
                  "Value": 2.5
                }
              }
            },
            {
              "$type": "RPG.GameCore.TriggerGroupEvent",
              "EventName": {
                "Value": "ShadowProp_Enter_8"
              }
            }
          ]
        }
      ]
    },
    {
      "IsLoop": true,
      "TaskList": [
        {
          "$type": "RPG.GameCore.WaitGroupEvent",
          "EventName": {
            "Value": "ShadowProp_Enter_9"
          },
          "OnEvent": [
            {
              "$type": "RPG.GameCore.PlayMissionTalk",
              "SimpleTalkList": [
                {
                  "TalkSentenceID": 103329907,
                  "ProtectTime": 2
                }
              ]
            },
            {
              "$type": "RPG.GameCore.TriggerCustomString",
              "CustomString": {
                "Value": "Talk_103310207"
              }
            },
            {
              "$type": "RPG.GameCore.WaitSecond",
              "WaitTime": {
                "IsDynamic": false,
                "FixedValue": {
                  "Value": 2.5
                }
              }
            },
            {
              "$type": "RPG.GameCore.TriggerGroupEvent",
              "EventName": {
                "Value": "ShadowProp_Enter_10"
              }
            }
          ]
        }
      ]
    },
    {
      "IsLoop": true,
      "TaskList": [
        {
          "$type": "RPG.GameCore.WaitGroupEvent",
          "EventName": {
            "Value": "ShadowProp_Enter_11"
          },
          "OnEvent": [
            {
              "$type": "RPG.GameCore.PlayMissionTalk",
              "SimpleTalkList": [
                {
                  "TalkSentenceID": 103329908,
                  "ProtectTime": 2
                }
              ]
            },
            {
              "$type": "RPG.GameCore.TriggerCustomString",
              "CustomString": {
                "Value": "Talk_103310208"
              }
            },
            {
              "$type": "RPG.GameCore.WaitSecond",
              "WaitTime": {
                "IsDynamic": false,
                "FixedValue": {
                  "Value": 2.5
                }
              }
            },
            {
              "$type": "RPG.GameCore.TriggerGroupEvent",
              "EventName": {
                "Value": "ShadowProp_Enter_12"
              }
            }
          ]
        }
      ]
    },
    {
      "TaskList": [
        {
          "$type": "RPG.GameCore.WaitGroupEvent",
          "EventName": {
            "Value": "ShadowProp_Enter_12"
          },
          "OnEvent": [
            {
              "$type": "RPG.GameCore.EnableFreelookCameraDragMode",
              "Mode": "Orbit"
            }
          ]
        }
      ]
    }
  ],
  "Type": "Group"
}