{
  "OnInitSequece": [],
  "OnStartSequece": [
    {
      "TaskList": [
        {
          "$type": "RPG.GameCore.CaptureNPCToCharacter",
          "GroupID": {
            "IsDynamic": false,
            "FixedValue": {
              "Value": 112
            }
          },
          "GroupNpcID": {
            "IsDynamic": false,
            "FixedValue": {
              "Value": 400001
            }
          },
          "CharacterUniqueName": {
            "Value": "Puman"
          }
        }
      ]
    },
    {
      "TaskList": [
        {
          "$type": "RPG.GameCore.LevelPerformanceInitialize",
          "PerformanceType": "D"
        },
        {
          "$type": "RPG.GameCore.PerformanceTransition",
          "CreateNpcList": [],
          "CaptureNpcList": [],
          "DestroyNpcList": [],
          "CreateProp": {
            "GroupID": {
              "IsDynamic": false,
              "FixedValue": {
                "Value": 0
              }
            },
            "GroupPropID": {
              "IsDynamic": false,
              "FixedValue": {
                "Value": 0
              }
            },
            "TaskEnabled": false
          },
          "DestroyProp": {
            "TargetType": {
              "$type": "RPG.GameCore.TargetFetchAdvPropEx"
            },
            "ID": {
              "IsDynamic": false,
              "FixedValue": {
                "Value": 0
              }
            },
            "GroupID": {
              "IsDynamic": false,
              "FixedValue": {
                "Value": 0
              }
            },
            "TaskEnabled": false
          },
          "ActiveVirtualCamera": {
            "AreaName": "LevelArea_P20121_F20121001_G112",
            "AnchorName": "Anchor4"
          },
          "ActiveTemplateVirtualCamera": {
            "TaskEnabled": false
          },
          "SwitchCharacterAnchor": {
            "IsLocalPlayer": true,
            "CharacterUniqueName": "LocalPlayer",
            "AreaName": {
              "Value": "LevelArea_P20121_F20121001_G112"
            },
            "AnchorName": {
              "Value": "Anchor2"
            }
          },
          "AdvNpcFaceToPlayer": {
            "TaskEnabled": false
          }
        },
        {
          "$type": "RPG.GameCore.TriggerSound",
          "SoundName": {
            "Value": "Ev_sfx_common_puman_loop_stop"
          },
          "EmitterType": "NPC",
          "GroupID": 112,
          "ID": 400001
        },
        {
          "$type": "RPG.GameCore.PlayAndWaitSimpleTalk",
          "SimpleTalkList": [
            {
              "TalkSentenceID": 801860202
            },
            {
              "TalkSentenceID": 801860203
            }
          ]
        },
        {
          "$type": "RPG.GameCore.PlayOptionTalk",
          "OptionList": [
            {
              "TalkSentenceID": 801860204,
              "OptionIconType": "ChatContinueIcon",
              "TriggerCustomString": "TalkSentence_801860206"
            },
            {
              "TalkSentenceID": 801860205,
              "OptionIconType": "ChatContinueIcon",
              "TriggerCustomString": "TalkSentence_801860206"
            }
          ]
        }
      ]
    },
    {
      "TaskList": [
        {
          "$type": "RPG.GameCore.WaitCustomString",
          "CustomString": {
            "Value": "TalkSentence_801860206"
          }
        },
        {
          "$type": "RPG.GameCore.PlayAndWaitSimpleTalk",
          "SimpleTalkList": [
            {
              "TalkSentenceID": 801860206
            }
          ]
        },
        {
          "$type": "RPG.GameCore.TriggerCustomString",
          "CustomString": {
            "Value": "BombStart_800018401"
          }
        }
      ]
    },
    {
      "TaskList": [
        {
          "$type": "RPG.GameCore.WaitCustomString",
          "CustomString": {
            "Value": "BombStart_800018401"
          }
        },
        {
          "$type": "RPG.GameCore.TriggerEffectList",
          "TargetType": {
            "$type": "RPG.GameCore.TargetFetchAdvPropEx",
            "FetchType": "SinglePropByPropID",
            "SinglePropID": {
              "GroupID": {
                "IsDynamic": false,
                "FixedValue": {
                  "Value": 112
                }
              },
              "ID": {
                "IsDynamic": false,
                "FixedValue": {
                  "Value": 300009
                }
              }
            }
          },
          "EffectList": [
            {
              "EffectPath": "Effects/Eff_Prefab/Eff_Monster/Eff_XP_Minion04_00/Eff_Monster_XP_Minion04_00_Common_Maze_SpecialAppear.prefab",
              "AttachPoint": "Root"
            }
          ]
        },
        {
          "$type": "RPG.GameCore.CharacterTriggerFreeStyle",
          "CharacterUniqueName": "LocalPlayer",
          "StoryAvatarID": "NPC_Player",
          "StoryMotionID": 242
        }
      ]
    },
    {
      "TaskList": [
        {
          "$type": "RPG.GameCore.WaitCustomString",
          "CustomString": {
            "Value": "BombStart_800018401"
          }
        },
        {
          "$type": "RPG.GameCore.WaitSecond",
          "WaitTime": {
            "IsDynamic": false,
            "FixedValue": {
              "Value": 0.15
            }
          }
        },
        {
          "$type": "RPG.GameCore.DestroyProp",
          "TargetType": {
            "$type": "RPG.GameCore.TargetFetchAdvPropEx"
          },
          "ID": {
            "IsDynamic": false,
            "FixedValue": {
              "Value": 300001
            }
          },
          "GroupID": {
            "IsDynamic": false,
            "FixedValue": {
              "Value": 112
            }
          },
          "DestroyList": []
        },
        {
          "$type": "RPG.GameCore.AdvEntityFaceTo",
          "SourceType": {
            "$type": "RPG.GameCore.TargetFetchAdvNpcEx",
            "FetchType": "SingleNpcByNpcID",
            "SingleNpcID": {
              "GroupID": {
                "IsDynamic": false,
                "FixedValue": {
                  "Value": 112
                }
              },
              "GroupNpcID": {
                "IsDynamic": false,
                "FixedValue": {
                  "Value": 400001
                }
              }
            }
          },
          "TargetType": {
            "$type": "RPG.GameCore.TargetFetchAdvLocalPlayer"
          },
          "EnableSteer": true,
          "FinishImmediately": false,
          "ForceToStandBy": true
        },
        {
          "$type": "RPG.GameCore.CharacterTriggerFreeStyle",
          "CharacterUniqueName": "Puman",
          "StoryAvatarID": "NPC_Monster_XP_Minion04_00",
          "StoryMotionID": 200370240
        },
        {
          "$type": "RPG.GameCore.PlayAndWaitSimpleTalk",
          "SimpleTalkList": [
            {
              "TalkSentenceID": 801860207
            }
          ]
        },
        {
          "$type": "RPG.GameCore.EndPerformance"
        }
      ]
    },
    {
      "TaskList": [
        {
          "$type": "RPG.GameCore.WaitPerformanceEnd"
        },
        {
          "$type": "RPG.GameCore.FinishLevelGraph"
        }
      ]
    }
  ]
}