{
  "ClipGroupZones": [
    {
      "ClipNames": [
        "Avatar_Lad_Adv_Ani_StandBy",
        "Avatar_Lad_Adv_Ani_Walk",
        "Avatar_Lad_Adv_Ani_WalkStop_L",
        "Avatar_Lad_Adv_Ani_WalkStop_R",
        "Avatar_Lad_Adv_Ani_Run_BS_L",
        "Avatar_Lad_Adv_Ani_Run_BS_R",
        "Avatar_Lad_Adv_Ani_Run",
        "Avatar_Lad_Adv_Ani_RunStop_L",
        "Avatar_Lad_Adv_Ani_RunStop_R",
        "Avatar_Lad_Adv_Ani_Turn_45_L",
        "Avatar_Lad_Adv_Ani_Turn_45_R",
        "Avatar_Lad_Adv_Ani_Turn_90_L",
        "Avatar_Lad_Adv_Ani_Turn_90_R",
        "Avatar_Lad_Adv_Ani_Turn_180_L",
        "Avatar_Lad_Adv_Ani_Turn_180_R",
        "Avatar_Lad_Adv_Ani_Talk01",
        "Avatar_Lad_Adv_Ani_Talk02",
        "Avatar_Lad_Adv_Ani_Talk03",
        "Avatar_Lad_Adv_Ani_Chat01BS",
        "Avatar_Lad_Adv_Ani_Chat01Loop",
        "Avatar_Lad_Adv_Ani_Chat01AS",
        "Avatar_Lad_Adv_Ani_Chat02BS",
        "Avatar_Lad_Adv_Ani_Chat02Loop",
        "Avatar_Lad_Adv_Ani_Chat02AS",
        "Avatar_Lad_Adv_Ani_Akimbo01BS",
        "Avatar_Lad_Adv_Ani_Akimbo01Loop",
        "Avatar_Lad_Adv_Ani_Akimbo01AS",
        "Avatar_Lad_Adv_Ani_Akimbo01HandBS",
        "Avatar_Lad_Adv_Ani_Akimbo01HandLoop",
        "Avatar_Lad_Adv_Ani_Akimbo01HandAS",
        "Avatar_Lad_Adv_Ani_Akimbo02BS",
        "Avatar_Lad_Adv_Ani_Akimbo02Loop",
        "Avatar_Lad_Adv_Ani_Akimbo02AS",
        "Avatar_Lad_Adv_Ani_Akimbo02HandBS",
        "Avatar_Lad_Adv_Ani_Akimbo02HandLoop",
        "Avatar_Lad_Adv_Ani_Akimbo02HandAS",
        "Avatar_Lad_Adv_Ani_PutHand01BS",
        "Avatar_Lad_Adv_Ani_PutHand01Loop",
        "Avatar_Lad_Adv_Ani_PutHand01AS",
        "Avatar_Lad_Adv_Ani_HoldArm01BS",
        "Avatar_Lad_Adv_Ani_HoldArm01Loop",
        "Avatar_Lad_Adv_Ani_HoldArm01AS",
        "Avatar_Lad_Adv_Ani_HoldArm01HandBS",
        "Avatar_Lad_Adv_Ani_HoldArm01HandLoop",
        "Avatar_Lad_Adv_Ani_HoldArm01HandAS",
        "Avatar_Lad_Adv_Ani_Shrug01BS",
        "Avatar_Lad_Adv_Ani_Shrug01Loop",
        "Avatar_Lad_Adv_Ani_Shrug01AS",
        "Avatar_Lad_Adv_Ani_Alert01BS",
        "Avatar_Lad_Adv_Ani_Alert01Loop",
        "Avatar_Lad_Adv_Ani_Alert01AS",
        "Avatar_Lad_Adv_Ani_StrikeChest01BS",
        "Avatar_Lad_Adv_Ani_StrikeChest01Loop",
        "Avatar_Lad_Adv_Ani_StrikeChest01AS",
        "Avatar_Lad_Adv_Ani_Bye01",
        "Avatar_Lad_Adv_Ani_Worry01BS",
        "Avatar_Lad_Adv_Ani_Worry01Loop",
        "Avatar_Lad_Adv_Ani_Worry01AS",
        "Avatar_Lad_Adv_Ani_Forerake01BS",
        "Avatar_Lad_Adv_Ani_Forerake01Loop",
        "Avatar_Lad_Adv_Ani_Forerake01AS",
        "Avatar_Lad_Adv_Ani_UseProp02",
        "Avatar_Lad_Adv_Ani_Rub01",
        "Avatar_Lad_Adv_Ani_HandClap01",
        "Avatar_Lad_Adv_Ani_BackHands01BS",
        "Avatar_Lad_Adv_Ani_BackHands01Loop",
        "Avatar_Lad_Adv_Ani_BackHands01AS",
        "Avatar_Lad_Adv_Ani_BackHands01HandBS",
        "Avatar_Lad_Adv_Ani_BackHands01HandLoop",
        "Avatar_Lad_Adv_Ani_BackHands01HandAS"
      ],
      "ZoneList": [
        {
          "ZoneType": "EnableLookAt"
        }
      ]
    }
  ],
  "ClipZones": []
}