{
  "BakeInfoLayouts": [
    {
      "UniqueName": "HuanlongStartCamera",
      "TypeId": "TypeId_TaskListTemplateConfig",
      "Offset": 2
    },
    {
      "UniqueName": "HuanlongStartCamera_Main",
      "TypeId": "TypeId_TaskListTemplateConfig",
      "Offset": 511
    },
    {
      "UniqueName": "SamStartCamera_Main",
      "TypeId": "TypeId_TaskListTemplateConfig",
      "Offset": 637
    },
    {
      "UniqueName": "DeathStartCamera",
      "TypeId": "TypeId_TaskListTemplateConfig",
      "Offset": 758
    },
    {
      "UniqueName": "XuanluStartCamera",
      "TypeId": "TypeId_TaskListTemplateConfig",
      "Offset": 1120
    },
    {
      "UniqueName": "AventurineStartCamera",
      "TypeId": "TypeId_TaskListTemplateConfig",
      "Offset": 1483
    },
    {
      "UniqueName": "FuyanStartCamera",
      "TypeId": "TypeId_TaskListTemplateConfig",
      "Offset": 1850
    },
    {
      "UniqueName": "SundayStartCamera",
      "TypeId": "TypeId_TaskListTemplateConfig",
      "Offset": 2013
    }
  ]
}