{
  "OnInitSequece": [],
  "OnStartSequece": [
    {
      "TaskList": [
        {
          "$type": "RPG.GameCore.LevelPerformanceInitialize",
          "CreateCharacterList": [],
          "EntityVisiableList": []
        },
        {
          "$type": "RPG.GameCore.PlayAndWaitSimpleTalk",
          "SimpleTalkList": [
            {
              "TalkSentenceID": 801320211,
              "ProtectTime": 0.3
            }
          ]
        },
        {
          "$type": "RPG.GameCore.PlayOptionTalk",
          "OptionList": [
            {
              "TalkSentenceID": 801320212,
              "OptionIconType": "ChatIcon",
              "TriggerCustomString": "Story_801320212"
            },
            {
              "TalkSentenceID": 801320213,
              "OptionIconType": "ChatIcon",
              "TriggerCustomString": "Story_801320213"
            }
          ]
        }
      ]
    },
    {
      "TaskList": [
        {
          "$type": "RPG.GameCore.WaitCustomString",
          "CustomString": {
            "Value": "Story_801320212"
          }
        },
        {
          "$type": "RPG.GameCore.PlayScreenTransfer",
          "Mode": "SwitchOut",
          "CustomTime": 0.25
        },
        {
          "$type": "RPG.GameCore.WaitSecond",
          "WaitTime": {
            "IsDynamic": false,
            "FixedValue": {
              "Value": 0.25
            }
          }
        },
        {
          "$type": "RPG.GameCore.ActiveVirtualCamera",
          "AreaName": "Mission_2011002_temp",
          "AnchorName": "Camera_201100205",
          "WaitBlendFinish": true,
          "BlendConfig": {
            "ExportToJson": true,
            "BlendType": "Cut",
            "BlendTime": 0.1
          }
        },
        {
          "$type": "RPG.GameCore.PlayScreenTransfer",
          "CustomTime": 0.25
        },
        {
          "$type": "RPG.GameCore.TriggerCustomString",
          "CustomString": {
            "Value": "BlackScreenEnd"
          }
        }
      ]
    },
    {
      "TaskList": [
        {
          "$type": "RPG.GameCore.WaitCustomString",
          "CustomString": {
            "Value": "BlackScreenEnd"
          }
        },
        {
          "$type": "RPG.GameCore.PlayAndWaitSimpleTalk",
          "SimpleTalkList": [
            {
              "TalkSentenceID": 801320214,
              "ProtectTime": 0.3
            },
            {
              "TalkSentenceID": 801320215,
              "ProtectTime": 0.3
            },
            {
              "TalkSentenceID": 801320216,
              "ProtectTime": 0.3
            },
            {
              "TalkSentenceID": 801320217,
              "ProtectTime": 0.3
            },
            {
              "TalkSentenceID": 801320218,
              "ProtectTime": 0.3
            }
          ]
        },
        {
          "$type": "RPG.GameCore.PlayOptionTalk",
          "OptionList": [
            {
              "TalkSentenceID": 801320219,
              "OptionIconType": "ChatIcon",
              "TriggerCustomString": "Story_801320219"
            },
            {
              "TalkSentenceID": 801320220,
              "OptionIconType": "ChatIcon",
              "TriggerCustomString": "Story_801320220"
            }
          ]
        }
      ]
    },
    {
      "TaskList": [
        {
          "$type": "RPG.GameCore.WaitCustomString",
          "CustomString": {
            "Value": "Story_801320219"
          }
        },
        {
          "$type": "RPG.GameCore.PlayAndWaitSimpleTalk",
          "SimpleTalkList": [
            {
              "TalkSentenceID": 801320221,
              "ProtectTime": 0.3
            },
            {
              "TalkSentenceID": 801320222,
              "ProtectTime": 0.3
            },
            {
              "TalkSentenceID": 801320223,
              "ProtectTime": 0.3
            },
            {
              "TalkSentenceID": 801320224,
              "ProtectTime": 0.3
            },
            {
              "TalkSentenceID": 801320225,
              "ProtectTime": 0.3
            }
          ]
        },
        {
          "$type": "RPG.GameCore.TriggerCustomString",
          "CustomString": {
            "Value": "Story_801320220"
          }
        }
      ]
    },
    {
      "TaskList": [
        {
          "$type": "RPG.GameCore.WaitCustomString",
          "CustomString": {
            "Value": "Story_801320220"
          }
        },
        {
          "$type": "RPG.GameCore.PlayScreenTransfer",
          "Mode": "SwitchOut",
          "CustomTime": 0.5
        },
        {
          "$type": "RPG.GameCore.WaitSecond",
          "WaitTime": {
            "IsDynamic": false,
            "FixedValue": {
              "Value": 1
            }
          }
        },
        {
          "$type": "RPG.GameCore.ActiveVirtualCamera",
          "AreaName": "Mission_2011002_temp",
          "AnchorName": "Camera_201100205",
          "IsActive": false,
          "WaitBlendFinish": true,
          "BlendConfig": {
            "ExportToJson": true,
            "BlendType": "Cut",
            "BlendTime": 0.1
          }
        },
        {
          "$type": "RPG.GameCore.PlayScreenTransfer",
          "CustomTime": 0.3
        },
        {
          "$type": "RPG.GameCore.EndPerformance"
        }
      ]
    },
    {
      "TaskList": [
        {
          "$type": "RPG.GameCore.WaitCustomString",
          "CustomString": {
            "Value": "Story_801320213"
          }
        },
        {
          "$type": "RPG.GameCore.EndPerformance"
        }
      ]
    },
    {
      "TaskList": [
        {
          "$type": "RPG.GameCore.WaitPerformanceEnd"
        },
        {
          "$type": "RPG.GameCore.FinishLevelGraph"
        }
      ]
    }
  ]
}