{
  "AnimatorStateEvents": [
    {
      "AnimatorStateName": "Revive02",
      "NormalizedTime": 2.068965E-07,
      "EventList": [
        {
          "$type": "RPG.GameCore.TriggerSoundInAnim",
          "SoundName": "Ev_sfx_boss_rogue_revive02_cocolia"
        }
      ]
    },
    {
      "AnimatorStateName": "Skill02",
      "NormalizedTime": 0.01023759,
      "EventList": [
        {
          "$type": "RPG.GameCore.TriggerSoundInAnim",
          "SoundName": "Ev_sfx_boss_skill_02_cocolia"
        }
      ]
    },
    {
      "AnimatorStateName": "Skill02",
      "NormalizedTime": 0.12,
      "EventList": [
        {
          "$type": "RPG.GameCore.TriggerSoundInAnim",
          "SoundName": "Ev_vo_monster_skill02_w1_cocoliap1_00"
        }
      ]
    },
    {
      "AnimatorStateName": "Skill05",
      "NormalizedTime": 0.02715193,
      "EventList": [
        {
          "$type": "RPG.GameCore.TriggerSoundInAnim",
          "SoundName": "Ev_sfx_boss_skill_05_cocolia"
        }
      ]
    },
    {
      "AnimatorStateName": "Skill05",
      "NormalizedTime": 0.001666667,
      "EventList": [
        {
          "$type": "RPG.GameCore.TriggerSoundInAnim",
          "SoundName": "Ev_vo_monster_skill05_w1_cocoliap1_00"
        }
      ]
    },
    {
      "AnimatorStateName": "Skill06",
      "NormalizedTime": 0.06445527,
      "EventList": [
        {
          "$type": "RPG.GameCore.TriggerSoundInAnim",
          "SoundName": "Ev_sfx_boss_skill_06_cocolia"
        }
      ]
    },
    {
      "AnimatorStateName": "Skill06",
      "NormalizedTime": 0.21,
      "EventList": [
        {
          "$type": "RPG.GameCore.TriggerSoundInAnim",
          "SoundName": "Ev_vo_monster_skill06_w1_cocoliap1_00"
        }
      ]
    },
    {
      "AnimatorStateName": "Hit",
      "NormalizedTime": 0.001666667,
      "EventList": [
        {
          "$type": "RPG.GameCore.TriggerSoundInAnim",
          "SoundName": "Ev_vo_monster_hit_light_w1_cocoliap1_00"
        }
      ]
    },
    {
      "AnimatorStateName": "Hit2",
      "NormalizedTime": 0.001666667,
      "EventList": [
        {
          "$type": "RPG.GameCore.TriggerSoundInAnim",
          "SoundName": "Ev_vo_monster_hit_light_w1_cocoliap1_00"
        }
      ]
    },
    {
      "AnimatorStateName": "Revive",
      "NormalizedTime": 2.068965E-08,
      "EventList": [
        {
          "$type": "RPG.GameCore.TriggerSoundInAnim",
          "SoundName": "Ev_sfx_boss_rogue_revive_cocolia"
        }
      ]
    },
    {
      "AnimatorStateName": "Stun_Occur",
      "NormalizedTime": 0.003333333,
      "EventList": [
        {
          "$type": "RPG.GameCore.TriggerSoundInAnim",
          "SoundName": "Ev_sfx_boss_stagger_cocolia"
        }
      ]
    },
    {
      "AnimatorStateName": "Confine",
      "NormalizedTime": 0.008333333,
      "EventList": [
        {
          "$type": "RPG.GameCore.TriggerSoundInAnim",
          "SoundName": "Ev_sfx_boss_stagger_cocolia"
        }
      ]
    },
    {
      "AnimatorStateName": "Stun_Recover",
      "NormalizedTime": 0.005,
      "EventList": [
        {
          "$type": "RPG.GameCore.TriggerSoundInAnim",
          "SoundName": "Ev_sfx_boss_stagger_recover_cocolia"
        }
      ]
    },
    {
      "AnimatorStateName": "Stagger_Recover",
      "NormalizedTime": 0.005,
      "EventList": [
        {
          "$type": "RPG.GameCore.TriggerSoundInAnim",
          "SoundName": "Ev_sfx_boss_stagger_recover_cocolia"
        }
      ]
    },
    {
      "AnimatorStateName": "Hit_Fly_Recover",
      "NormalizedTime": 0.01333333,
      "EventList": [
        {
          "$type": "RPG.GameCore.TriggerSoundInAnim",
          "SoundName": "Ev_sfx_boss_stagger_recover_cocolia"
        }
      ]
    },
    {
      "AnimatorStateName": "Skill03",
      "NormalizedTime": 0.003333333,
      "EventList": [
        {
          "$type": "RPG.GameCore.TriggerSoundInAnim",
          "SoundName": "Ev_sfx_boss_skill_03_cocolia"
        }
      ]
    },
    {
      "AnimatorStateName": "Skill03",
      "NormalizedTime": 0.005,
      "EventList": [
        {
          "$type": "RPG.GameCore.TriggerSoundInAnim",
          "SoundName": "Ev_vo_monster_skill03_w1_cocoliap1_00"
        }
      ]
    },
    {
      "AnimatorStateName": "Skill04",
      "NormalizedTime": 0.01,
      "EventList": [
        {
          "$type": "RPG.GameCore.TriggerSoundInAnim",
          "SoundName": "Ev_sfx_boss_skill_04_cocolia"
        }
      ]
    },
    {
      "AnimatorStateName": "Skill04",
      "NormalizedTime": 0.015,
      "EventList": [
        {
          "$type": "RPG.GameCore.TriggerSoundInAnim",
          "SoundName": "Ev_vo_monster_skill04_w1_cocoliap1_00"
        }
      ]
    },
    {
      "AnimatorStateName": "Skill07",
      "NormalizedTime": 0.005,
      "EventList": [
        {
          "$type": "RPG.GameCore.TriggerSoundInAnim",
          "SoundName": "Ev_sfx_boss_rogue_skill_07_cocolia"
        }
      ]
    },
    {
      "AnimatorStateName": "Skill07",
      "NormalizedTime": 0.003333333,
      "EventList": [
        {
          "$type": "RPG.GameCore.TriggerSoundInAnim",
          "SoundName": "Ev_vo_monster_skill07_w1_cocoliap1_00"
        }
      ]
    },
    {
      "AnimatorStateName": "ChangePhase_Start",
      "NormalizedTime": 0.006666666,
      "EventList": [
        {
          "$type": "RPG.GameCore.TriggerSoundInAnim",
          "SoundName": "Ev_sfx_boss_stagger_cocolia"
        }
      ]
    },
    {
      "AnimatorStateName": "ChangePhase02_Start",
      "NormalizedTime": 0.008333334,
      "EventList": [
        {
          "$type": "RPG.GameCore.TriggerSoundInAnim",
          "SoundName": "Ev_sfx_boss_stagger_cocolia"
        }
      ]
    },
    {
      "AnimatorStateName": "ChangePhase_End",
      "NormalizedTime": 0.51,
      "EventList": [
        {
          "$type": "RPG.GameCore.TriggerSoundInAnim",
          "SoundName": "Ev_vo_monster_changephase01_w1_cocoliap1_00"
        }
      ]
    },
    {
      "AnimatorStateName": "ChangePhase_End",
      "NormalizedTime": 0.003333333,
      "EventList": [
        {
          "$type": "RPG.GameCore.TriggerSoundInAnim",
          "SoundName": "Ev_sfx_boss_stagger_recover_cocolia"
        }
      ]
    },
    {
      "AnimatorStateName": "ChangePhase02_End",
      "NormalizedTime": 0.1916667,
      "EventList": [
        {
          "$type": "RPG.GameCore.TriggerSoundInAnim",
          "SoundName": "Ev_vo_monster_changephase02_w1_cocoliap1_00"
        }
      ]
    },
    {
      "AnimatorStateName": "ChangePhase02_End",
      "NormalizedTime": 0.003333333,
      "EventList": [
        {
          "$type": "RPG.GameCore.TriggerSoundInAnim",
          "SoundName": "Ev_sfx_boss_stagger_recover_cocolia"
        }
      ]
    },
    {
      "AnimatorStateName": "Stagger",
      "NormalizedTime": 0.005,
      "EventList": [
        {
          "$type": "RPG.GameCore.TriggerSoundInAnim",
          "SoundName": "Ev_sfx_boss_stagger_cocolia"
        }
      ]
    },
    {
      "AnimatorStateName": "Stagger",
      "NormalizedTime": 0.001666667,
      "EventList": [
        {
          "$type": "RPG.GameCore.TriggerSoundInAnim",
          "SoundName": "Ev_vo_monster_hit_heavy_w1_cocoliap1_00"
        }
      ]
    },
    {
      "AnimatorStateName": "Hit_H",
      "NormalizedTime": 0.001666667,
      "EventList": [
        {
          "$type": "RPG.GameCore.TriggerSoundInAnim",
          "SoundName": "Ev_vo_monster_hit_heavy_w1_cocoliap1_00"
        }
      ]
    },
    {
      "AnimatorStateName": "Hit_H_Break",
      "NormalizedTime": 0.001666667,
      "EventList": [
        {
          "$type": "RPG.GameCore.TriggerSoundInAnim",
          "SoundName": "Ev_vo_monster_hit_light_w1_cocoliap1_00"
        }
      ]
    },
    {
      "AnimatorStateName": "Die_Special",
      "NormalizedTime": 0.001666667,
      "EventList": [
        {
          "$type": "RPG.GameCore.TriggerSoundInAnim",
          "SoundName": "Ev_vo_monster_die_w1_cocoliap1_00"
        }
      ]
    },
    {
      "AnimatorStateName": "Die_Special",
      "NormalizedTime": 0.001666667,
      "EventList": [
        {
          "$type": "RPG.GameCore.TriggerSoundInAnim",
          "SoundName": "Ev_sfx_boss_die_special_cocolia"
        }
      ]
    },
    {
      "AnimatorStateName": "Die_Fly",
      "NormalizedTime": 0.003333333,
      "EventList": [
        {
          "$type": "RPG.GameCore.TriggerSoundInAnim",
          "SoundName": "Ev_sfx_boss_die_cocolia"
        }
      ]
    },
    {
      "AnimatorStateName": "Die",
      "NormalizedTime": 0.003333333,
      "EventList": [
        {
          "$type": "RPG.GameCore.TriggerSoundInAnim",
          "SoundName": "Ev_sfx_boss_die_cocolia"
        }
      ]
    },
    {
      "AnimatorStateName": "Die",
      "NormalizedTime": 0.001666667,
      "EventList": [
        {
          "$type": "RPG.GameCore.TriggerSoundInAnim",
          "SoundName": "Ev_vo_monster_die_w1_cocoliap1_00"
        }
      ]
    },
    {
      "AnimatorStateName": "Die_Hit",
      "NormalizedTime": 0.003333333,
      "EventList": [
        {
          "$type": "RPG.GameCore.TriggerSoundInAnim",
          "SoundName": "Ev_sfx_boss_die_cocolia"
        }
      ]
    },
    {
      "AnimatorStateName": "Die_Hit",
      "NormalizedTime": 0.001666667,
      "EventList": [
        {
          "$type": "RPG.GameCore.TriggerSoundInAnim",
          "SoundName": "Ev_vo_monster_die_w1_cocoliap1_00"
        }
      ]
    },
    {
      "AnimatorStateName": "Die_Limbo",
      "NormalizedTime": 0.001666667,
      "EventList": [
        {
          "$type": "RPG.GameCore.TriggerSoundInAnim",
          "SoundName": "Ev_sfx_boss_die_cocolia"
        }
      ]
    },
    {
      "AnimatorStateName": "Die_Limbo",
      "NormalizedTime": 0.001666667,
      "EventList": [
        {
          "$type": "RPG.GameCore.TriggerSoundInAnim",
          "SoundName": "Ev_vo_monster_die_w1_cocoliap1_00"
        }
      ]
    },
    {
      "AnimatorStateName": "Die_Charge",
      "NormalizedTime": 0.001666667,
      "EventList": [
        {
          "$type": "RPG.GameCore.TriggerSoundInAnim",
          "SoundName": "Ev_vo_monster_die_w1_cocoliap1_00"
        }
      ]
    },
    {
      "AnimatorStateName": "Die_Charge",
      "NormalizedTime": 0.003333334,
      "EventList": [
        {
          "$type": "RPG.GameCore.TriggerSoundInAnim",
          "SoundName": "Ev_sfx_boss_stagger_cocolia"
        }
      ]
    },
    {
      "AnimatorStateName": "Fly_Hit",
      "NormalizedTime": 0.001666667,
      "EventList": [
        {
          "$type": "RPG.GameCore.TriggerSoundInAnim",
          "SoundName": "Ev_sfx_boss_stagger_cocolia"
        }
      ]
    }
  ]
}