{
  "BakeInfoLayouts": [
    {
      "UniqueName": "MAvatar_RogueBattleevent127_AimTarget",
      "Offset": 7722
    },
    {
      "UniqueName": "MAvatar_RogueBattleevent127_AimTarget_Main",
      "Offset": 7853
    },
    {
      "UniqueName": "MAvatar_RogueBattleevent127_AimTarget_Main2",
      "Offset": 8026
    },
    {
      "UniqueName": "MAvatar_RogueBattleevent127_AimTarget_Sub",
      "Offset": 8326
    },
    {
      "UniqueName": "Avatar_RogueBattleevent127_Skill03_EnterReady",
      "TypeId": "TypeId_TurnBasedAbilityConfig",
      "Offset": 2
    },
    {
      "UniqueName": "Avatar_RogueBattleevent127_Skill03_Phase01",
      "TypeId": "TypeId_TurnBasedAbilityConfig",
      "Offset": 591
    },
    {
      "UniqueName": "Avatar_RogueBattleevent127_Skill03_Phase02",
      "TypeId": "TypeId_TurnBasedAbilityConfig",
      "Offset": 753
    },
    {
      "UniqueName": "Avatar_RogueBattleevent127_Skill03_Camera",
      "TypeId": "TypeId_TurnBasedAbilityConfig",
      "Offset": 5334
    },
    {
      "UniqueName": "Avatar_RogueBattleevent127_PassiveSkill01",
      "TypeId": "TypeId_TurnBasedAbilityConfig",
      "Offset": 5725
    }
  ]
}