{
  "AbilityList": [
    {
      "Modifiers": {
        "MStrongChallenge_Scoring_Ability_0001": {
          "_CallbackList": [
            {
              "Event": "OnCreate",
              "CallbackConfig": [
                {
                  "$type": "RPG.GameCore.Retarget",
                  "TargetType": {
                    "$type": "RPG.GameCore.TargetAlias",
                    "Alias": "AllDarkTeam"
                  },
                  "TaskList": [
                    {
                      "$type": "RPG.GameCore.PredicateTaskList",
                      "Predicate": {
                        "$type": "RPG.GameCore.ByCompareMonsterRank",
                        "TargetType": {
                          "$type": "RPG.GameCore.TargetAlias",
                          "Alias": "ParamEntity"
                        },
                        "CompareType": "GreaterEqual",
                        "CompareValue": 4
                      },
                      "SuccessTaskList": [
                        {
                          "$type": "RPG.GameCore.AddModifier",
                          "TargetType": {
                            "$type": "RPG.GameCore.TargetAlias",
                            "Alias": "ParamEntity"
                          },
                          "ModifierName": "MStrongChallenge_Scoring_Ability_0001_Enemy"
                        }
                      ]
                    }
                  ]
                }
              ]
            },
            {
              "Event": "OnListenCharacterCreate",
              "CallbackConfig": [
                {
                  "$type": "RPG.GameCore.PredicateTaskList",
                  "Predicate": {
                    "$type": "RPG.GameCore.ByAnd",
                    "PredicateList": [
                      {
                        "$type": "RPG.GameCore.ByTargetTeam",
                        "TargetType": {
                          "$type": "RPG.GameCore.TargetAlias",
                          "Alias": "ParamEntity"
                        },
                        "Team": "TeamDark"
                      },
                      {
                        "$type": "RPG.GameCore.ByCompareMonsterRank",
                        "TargetType": {
                          "$type": "RPG.GameCore.TargetAlias",
                          "Alias": "ParamEntity"
                        },
                        "CompareType": "GreaterEqual",
                        "CompareValue": 4
                      },
                      {
                        "$type": "RPG.GameCore.ByIsContainModifier",
                        "TargetType": {
                          "$type": "RPG.GameCore.TargetAlias",
                          "Alias": "ModifierOwnerEntity"
                        },
                        "ModifierName": "MCommon_Servant",
                        "IncludeRecordBeforeDeathrattle": true,
                        "Inverse": true
                      }
                    ]
                  },
                  "SuccessTaskList": [
                    {
                      "$type": "RPG.GameCore.AddModifier",
                      "TargetType": {
                        "$type": "RPG.GameCore.TargetAlias",
                        "Alias": "ParamEntity"
                      },
                      "ModifierName": "MStrongChallenge_Scoring_Ability_0001_Enemy"
                    }
                  ]
                }
              ]
            },
            {
              "Event": "OnLeaveBattle",
              "CallbackConfig": [
                {
                  "$type": "RPG.GameCore.Retarget",
                  "TargetType": {
                    "$type": "RPG.GameCore.TargetAlias",
                    "Alias": "AllDarkTeamWithAllDarkTeamUnselectable"
                  },
                  "IncludeLimbo": true,
                  "TaskList": [
                    {
                      "$type": "RPG.GameCore.RemoveModifier",
                      "TargetType": {
                        "$type": "RPG.GameCore.TargetAlias",
                        "Alias": "ParamEntity"
                      },
                      "ModifierName": "MStrongChallenge_Scoring_Ability_0001_Enemy"
                    }
                  ]
                }
              ]
            }
          ]
        },
        "MStrongChallenge_Scoring_Ability_0001_Enemy": {
          "_CallbackList": [
            {
              "Event": "OnCreate",
              "CallbackConfig": [
                {
                  "$type": "RPG.GameCore.PredicateTaskList",
                  "Predicate": {
                    "$type": "RPG.GameCore.ByAny",
                    "PredicateList": [
                      {
                        "$type": "RPG.GameCore.ByAnd",
                        "PredicateList": [
                          {
                            "$type": "RPG.GameCore.ByCompareStageID",
                            "CompareType": "GreaterEqual",
                            "StageID": {
                              "IsDynamic": false,
                              "FixedValue": {
                                "Value": 4200510
                              }
                            }
                          },
                          {
                            "$type": "RPG.GameCore.ByCompareStageID",
                            "CompareType": "LessEqual",
                            "StageID": {
                              "IsDynamic": false,
                              "FixedValue": {
                                "Value": 4200519
                              }
                            }
                          }
                        ]
                      },
                      {
                        "$type": "RPG.GameCore.ByAnd",
                        "PredicateList": [
                          {
                            "$type": "RPG.GameCore.ByCompareStageID",
                            "CompareType": "Equal",
                            "StageID": {
                              "IsDynamic": false,
                              "FixedValue": {
                                "Value": 420052
                              }
                            }
                          }
                        ]
                      }
                    ]
                  },
                  "SuccessTaskList": [
                    {
                      "$type": "RPG.GameCore.SetDynamicValueByTotalHPFromMonsterID",
                      "DynamicKey": "SummonMonsterTotalHP",
                      "MonsterID": {
                        "IsDynamic": false,
                        "FixedValue": {
                          "Value": 1005013
                        }
                      }
                    }
                  ]
                }
              ]
            },
            {
              "Event": "OnDestroy",
              "CallbackConfig": [
                {
                  "$type": "RPG.GameCore.PredicateTaskList",
                  "Predicate": {
                    "$type": "RPG.GameCore.ByCompareDynamicValue",
                    "TargetType": {
                      "$type": "RPG.GameCore.TargetAlias",
                      "Alias": "ModifierOwnerEntity"
                    },
                    "DynamicKey": "HasServantModifier",
                    "ContextScope": "ContextModifier",
                    "CompareType": "Equal",
                    "CompareValue": {
                      "IsDynamic": false,
                      "FixedValue": {
                        "Value": 0
                      }
                    }
                  },
                  "SuccessTaskList": [
                    {
                      "$type": "RPG.GameCore.SetDynamicValueByBossTotalHP",
                      "DynamicKey": "AllBossMaxHP",
                      "CalcAllWaveBoss": true,
                      "MinRank": "LittleBoss"
                    },
                    {
                      "$type": "RPG.GameCore.SetDynamicValueByBossTotalHP",
                      "DynamicKey": "CurrentBossMaxHP",
                      "BossTargetType": {
                        "$type": "RPG.GameCore.TargetAlias",
                        "Alias": "ModifierOwnerEntity"
                      }
                    },
                    {
                      "$type": "RPG.GameCore.SetDynamicValueByBossLeftHP",
                      "DynamicKey": "CurrentBossLeftHP",
                      "BossTargetType": {
                        "$type": "RPG.GameCore.TargetAlias",
                        "Alias": "ModifierOwnerEntity"
                      }
                    },
                    {
                      "$type": "RPG.GameCore.SetBattleScoringItem",
                      "ScoringID": 90004,
                      "ModifyValue": {
                        "IsDynamic": true,
                        "PostfixExpr": {
                          "OpCodes": "AQABAQMBAgEDAgUAAAQK",
                          "FixedValues": [
                            {
                              "Value": 10000
                            }
                          ],
                          "DynamicHashes": [
                            1858103272,
                            1522026451,
                            1070896814,
                            -801862651
                          ]
                        }
                      }
                    },
                    {
                      "$type": "RPG.GameCore.DebugLog",
                      "Message": "==============MStrongChallenge_Scoring_Ability_0001_Enemy Listen======================"
                    }
                  ]
                }
              ]
            },
            {
              "Event": "OnModifierAdd",
              "CallbackConfig": [
                {
                  "$type": "RPG.GameCore.PredicateTaskList",
                  "Predicate": {
                    "$type": "RPG.GameCore.ByCheckModifierCallBackName",
                    "ModifierName": "MCommon_Servant"
                  },
                  "SuccessTaskList": [
                    {
                      "$type": "RPG.GameCore.SetDynamicValue",
                      "DynamicKey": "HasServantModifier",
                      "ContextScope": "ContextModifier",
                      "Value": {
                        "IsDynamic": false,
                        "FixedValue": {
                          "Value": 1
                        }
                      }
                    },
                    {
                      "$type": "RPG.GameCore.RemoveSelfModifier"
                    }
                  ]
                }
              ]
            }
          ],
          "DynamicValues": {
            "Values": {
              "1913218570": {},
              "1070896814": {},
              "1858103272": {},
              "1522026451": {},
              "-9482389": {},
              "-801862651": {}
            }
          }
        }
      },
      "Name": "StrongChallenge_Scoring_Ability_0001",
      "TargetInfo": {
        "TargetType": "Caster"
      },
      "OnAdd": [
        {
          "$type": "RPG.GameCore.AddModifier",
          "TargetType": {
            "$type": "RPG.GameCore.TargetAlias",
            "Alias": "Caster"
          },
          "ModifierName": "MStrongChallenge_Scoring_Ability_0001"
        }
      ]
    },
    {
      "Modifiers": {
        "MStrongChallenge_Scoring_Ability_0002": {
          "_CallbackList": [
            {
              "Event": "OnCreate",
              "CallbackConfig": [
                {
                  "$type": "RPG.GameCore.SetBattleScoringItem",
                  "ScoringID": 90005,
                  "ModifyFunction": "Set",
                  "ModifyValue": {
                    "IsDynamic": true,
                    "PostfixExpr": {
                      "OpCodes": "AQABAQUAAAQK",
                      "FixedValues": [
                        {
                          "Value": 10000
                        }
                      ],
                      "DynamicHashes": [
                        -1172163503,
                        118995597
                      ]
                    }
                  },
                  "DisplayValue": {
                    "IsDynamic": true,
                    "PostfixExpr": {
                      "OpCodes": "AQAK",
                      "FixedValues": [],
                      "DynamicHashes": [
                        -1172163503
                      ]
                    }
                  }
                }
              ]
            },
            {
              "Event": "OnLeaveBattle",
              "CallbackConfig": [
                {
                  "$type": "RPG.GameCore.PredicateTaskList",
                  "Predicate": {
                    "$type": "RPG.GameCore.ByAnd",
                    "PredicateList": [
                      {
                        "$type": "RPG.GameCore.ByLocalWin",
                        "Inverse": true
                      }
                    ]
                  },
                  "SuccessTaskList": [
                    {
                      "$type": "RPG.GameCore.SetBattleScoringItem",
                      "ScoringID": 90005,
                      "ModifyFunction": "Set",
                      "ModifyValue": {
                        "IsDynamic": false,
                        "FixedValue": {
                          "Value": 0
                        }
                      },
                      "DisplayValue": {
                        "IsDynamic": false,
                        "FixedValue": {
                          "Value": 0
                        }
                      }
                    }
                  ]
                }
              ]
            },
            {
              "Event": "OnListenGlobalActionDelayChanged",
              "CallbackConfig": [
                {
                  "$type": "RPG.GameCore.SetDynamicValueByVariateType",
                  "DynamicKey": "GlobalActionDelay",
                  "VariateType": "ParamValue2"
                },
                {
                  "$type": "RPG.GameCore.SetDynamicValue",
                  "DynamicKey": "RemainDelaySlice",
                  "Value": {
                    "IsDynamic": true,
                    "PostfixExpr": {
                      "OpCodes": "AQAAAAEBAQIBAwABBAMJAQkCCg==",
                      "FixedValues": [
                        {
                          "Value": 0
                        },
                        {
                          "Value": 10
                        }
                      ],
                      "DynamicHashes": [
                        696029444,
                        1776456860,
                        118995597,
                        -800957302
                      ]
                    }
                  }
                },
                {
                  "$type": "RPG.GameCore.SetBattleScoringItem",
                  "ScoringID": 90005,
                  "ModifyFunction": "Set",
                  "ModifyValue": {
                    "IsDynamic": true,
                    "PostfixExpr": {
                      "OpCodes": "AQABAQUAAAQK",
                      "FixedValues": [
                        {
                          "Value": 10000
                        }
                      ],
                      "DynamicHashes": [
                        -1172163503,
                        118995597
                      ]
                    }
                  },
                  "DisplayValue": {
                    "IsDynamic": true,
                    "PostfixExpr": {
                      "OpCodes": "AQAK",
                      "FixedValues": [],
                      "DynamicHashes": [
                        -1172163503
                      ]
                    }
                  }
                },
                {
                  "$type": "RPG.GameCore.PredicateTaskList",
                  "Predicate": {
                    "$type": "RPG.GameCore.ByCompareDynamicValue",
                    "DynamicKey": "RemainDelaySlice",
                    "CompareType": "LessEqual",
                    "CompareValue": {
                      "IsDynamic": false,
                      "FixedValue": {
                        "Value": 0
                      }
                    }
                  },
                  "SuccessTaskList": [
                    {
                      "$type": "RPG.GameCore.RemoveSelfModifier"
                    },
                    {
                      "$type": "RPG.GameCore.TriggerCustomString",
                      "CustomString": {
                        "Value": "Level_SpecialWin"
                      }
                    }
                  ]
                }
              ]
            }
          ],
          "DynamicValues": {
            "Values": {
              "-800957302": {},
              "118995597": {},
              "-1172163503": {},
              "-200421506": {}
            }
          }
        }
      },
      "Name": "StrongChallenge_Scoring_Ability_0002",
      "TargetInfo": {
        "TargetType": "Caster"
      },
      "OnAdd": [
        {
          "$type": "RPG.GameCore.AddModifier",
          "TargetType": {
            "$type": "RPG.GameCore.TargetAlias",
            "Alias": "Caster"
          },
          "ModifierName": "MStrongChallenge_Scoring_Ability_0002"
        }
      ]
    }
  ],
  "GlobalModifiers": {}
}