{
  "BakeInfoLayouts": [
    {
      "UniqueName": "Modifier_Fever_SPAdd_Modify",
      "Offset": 59605
    },
    {
      "UniqueName": "Modifier_StageAbility_3107001_Score_RankUp",
      "Offset": 59783
    },
    {
      "UniqueName": "Modifier_StageAbility_3107001_Score_RankUp_Sub",
      "Offset": 59954
    },
    {
      "UniqueName": "Modifier_StageAbility_3107001_Score_RankUpS",
      "Offset": 60000
    },
    {
      "UniqueName": "Modifier_StageAbility_3107001_Score_RankUpS_Sub",
      "Offset": 60174
    },
    {
      "UniqueName": "Modifier_StageAbility_3107001_SSRankEffect_Sub",
      "Offset": 60223
    },
    {
      "UniqueName": "Modifier_StageAbility_3107001_SSRankEffect_Sub2",
      "Offset": 60626
    },
    {
      "UniqueName": "Modifier_StageAbility_3107002_ARankEffect",
      "Offset": 60715
    },
    {
      "UniqueName": "Modifier_StageAbility_3107002_ARankEffect_Sub",
      "Offset": 61998
    },
    {
      "UniqueName": "Modifier_StageAbility_3107002_ARankEffect_Sub_1",
      "Offset": 62546
    },
    {
      "UniqueName": "Modifier_StageAbility_3107003_ARankEffect",
      "Offset": 62589
    },
    {
      "UniqueName": "Modifier_StageAbility_3107003_ARankEffect_Sub",
      "Offset": 63060
    },
    {
      "UniqueName": "Modifier_StageAbility_3107004_SRankEffect_2",
      "Offset": 63703
    },
    {
      "UniqueName": "Modifier_StageAbility_3107005_SRankEffect",
      "Offset": 63801
    },
    {
      "UniqueName": "Modifier_StageAbility_3107005_SRankEffect_2",
      "Offset": 63901
    },
    {
      "UniqueName": "Modifier_StageAbility_3107101_SSRankEffect_Sub",
      "Offset": 63994
    },
    {
      "UniqueName": "Modifier_StageAbility_3107101_SSRankEffect_Sub_1",
      "Offset": 64842
    },
    {
      "UniqueName": "Modifier_StageAbility_3107101_SSRankEffect_Sub2",
      "Offset": 65741
    },
    {
      "UniqueName": "Modifier_StageAbility_3107102_ARankEffect",
      "Offset": 65830
    },
    {
      "UniqueName": "Modifier_StageAbility_3107102_ARankEffect_PreShow",
      "Offset": 69111
    },
    {
      "UniqueName": "Modifier_StageAbility_3107103_ARankEffect",
      "Offset": 69189
    },
    {
      "UniqueName": "Modifier_StageAbility_3107103_ARankEffect_sub",
      "Offset": 71319
    },
    {
      "UniqueName": "Modifier_StageAbility_3107103_ARankEffect_PreShow",
      "Offset": 71378
    },
    {
      "UniqueName": "Modifier_StageAbility_3107104_SRankEffect",
      "Offset": 71456
    },
    {
      "UniqueName": "Modifier_StageAbility_3107104_SRankEffect_sub",
      "Offset": 75358
    },
    {
      "UniqueName": "Modifier_StageAbility_3107105_SRankEffect",
      "Offset": 75409
    },
    {
      "UniqueName": "Modifier_StageAbility_3107105_SRankEffect_sub",
      "Offset": 76569
    },
    {
      "UniqueName": "Modifer_StageAbility_TotalAttack_3107201_First",
      "Offset": 77640
    },
    {
      "UniqueName": "Modifer_StageAbility_TotalAttack_3107201_Last",
      "Offset": 77775
    },
    {
      "UniqueName": "Modifer_StageAbility_TotalAttack_3107201_Sub",
      "Offset": 77909
    },
    {
      "UniqueName": "Modifier_StageAbility_3107201_Revive_Sub",
      "Offset": 77951
    },
    {
      "UniqueName": "Modifier_StageAbility_3107201_SSRankEffect_Sub1",
      "Offset": 78058
    },
    {
      "UniqueName": "Modifier_StageAbility_3107201_SSRankEffect_Sub_1",
      "Offset": 78354
    },
    {
      "UniqueName": "Modifier_StageAbility_3107202_ARankEffect",
      "Offset": 78547
    },
    {
      "UniqueName": "Modifier_StageAbility_3107202_ARankEffect_Sub",
      "Offset": 79551
    },
    {
      "UniqueName": "Modifier_StageAbility_3107202_ARankEffect_Sub_1",
      "Offset": 79646
    },
    {
      "UniqueName": "Modifier_StageAbility_3107203_ARankEffect",
      "Offset": 79735
    },
    {
      "UniqueName": "Modifier_StageAbility_3107203_ARankEffect_Sub",
      "Offset": 80817
    },
    {
      "UniqueName": "Modifier_StageAbility_3107203_ARankEffect_Sub_1",
      "Offset": 81516
    },
    {
      "UniqueName": "Modifier_StageAbility_3107203_ARankEffect_Sub_2",
      "Offset": 81678
    },
    {
      "UniqueName": "Modifier_StageAbility_3107204_SRankEffect",
      "Offset": 81748
    },
    {
      "UniqueName": "Modifier_StageAbility_3107204_SRankEffect_Sub",
      "Offset": 82101
    },
    {
      "UniqueName": "Modifier_StageAbility_3107204_SRankEffect_2",
      "Offset": 82245
    },
    {
      "UniqueName": "Modifier_StageAbility_3107205_SRankEffect",
      "Offset": 82343
    },
    {
      "UniqueName": "Modifier_StageAbility_3107205_SRankEffect_Sub_1",
      "Offset": 82392
    },
    {
      "UniqueName": "Modifier_StageAbility_3107205_SRankEffect_Sub_2",
      "Offset": 82635
    },
    {
      "UniqueName": "Modifier_StageAbility_3107205_SRankEffect_2",
      "Offset": 82744
    },
    {
      "UniqueName": "TotalAttack_Progess_3107001",
      "TypeId": "TypeId_TaskListTemplateConfig",
      "Offset": 82791
    },
    {
      "UniqueName": "StageAbility_3107001",
      "TypeId": "TypeId_TurnBasedAbilityConfig",
      "Offset": 2
    },
    {
      "UniqueName": "StageAbility_3107001_Score",
      "TypeId": "TypeId_TurnBasedAbilityConfig",
      "Offset": 4455
    },
    {
      "UniqueName": "StageAbility_3107001_Score_RankUp",
      "TypeId": "TypeId_TurnBasedAbilityConfig",
      "Offset": 5416
    },
    {
      "UniqueName": "StageAbility_3107001_Score_RankUpS",
      "TypeId": "TypeId_TurnBasedAbilityConfig",
      "Offset": 6552
    },
    {
      "UniqueName": "StageAbility_3107001_Summon",
      "TypeId": "TypeId_TurnBasedAbilityConfig",
      "Offset": 7674
    },
    {
      "UniqueName": "StageAbility_3107001_Summon_1",
      "TypeId": "TypeId_TurnBasedAbilityConfig",
      "Offset": 8165
    },
    {
      "UniqueName": "StageAbility_3107001_Summon_2",
      "TypeId": "TypeId_TurnBasedAbilityConfig",
      "Offset": 8658
    },
    {
      "UniqueName": "StageAbility_3107001_SSRankEffect",
      "TypeId": "TypeId_TurnBasedAbilityConfig",
      "Offset": 9007
    },
    {
      "UniqueName": "StageAbility_3107001_SSRankEffect_Sub",
      "TypeId": "TypeId_TurnBasedAbilityConfig",
      "Offset": 12248
    },
    {
      "UniqueName": "StageAbility_TotalAttack_3107001",
      "TypeId": "TypeId_TurnBasedAbilityConfig",
      "Offset": 12472
    },
    {
      "UniqueName": "StageAbility_3107002",
      "TypeId": "TypeId_TurnBasedAbilityConfig",
      "Offset": 13238
    },
    {
      "UniqueName": "StageAbility_3107002_Sub",
      "TypeId": "TypeId_TurnBasedAbilityConfig",
      "Offset": 14233
    },
    {
      "UniqueName": "StageAbility_3107002_Sub_Camera",
      "TypeId": "TypeId_TurnBasedAbilityConfig",
      "Offset": 15265
    },
    {
      "UniqueName": "StageAbility_3107003",
      "TypeId": "TypeId_TurnBasedAbilityConfig",
      "Offset": 15423
    },
    {
      "UniqueName": "StageAbility_3107003_Sub",
      "TypeId": "TypeId_TurnBasedAbilityConfig",
      "Offset": 15857
    },
    {
      "UniqueName": "StageAbility_3107003_Sub_Camera",
      "TypeId": "TypeId_TurnBasedAbilityConfig",
      "Offset": 16397
    },
    {
      "UniqueName": "StageAbility_3107004",
      "TypeId": "TypeId_TurnBasedAbilityConfig",
      "Offset": 16571
    },
    {
      "UniqueName": "StageAbility_3107005",
      "TypeId": "TypeId_TurnBasedAbilityConfig",
      "Offset": 16880
    },
    {
      "UniqueName": "StageAbility_3107101",
      "TypeId": "TypeId_TurnBasedAbilityConfig",
      "Offset": 17320
    },
    {
      "UniqueName": "StageAbility_3107101_Score",
      "TypeId": "TypeId_TurnBasedAbilityConfig",
      "Offset": 23870
    },
    {
      "UniqueName": "StageAbility_3107101_Summon",
      "TypeId": "TypeId_TurnBasedAbilityConfig",
      "Offset": 24831
    },
    {
      "UniqueName": "StageAbility_3107101_Summon_1",
      "TypeId": "TypeId_TurnBasedAbilityConfig",
      "Offset": 25578
    },
    {
      "UniqueName": "StageAbility_3107101_Summon_2",
      "TypeId": "TypeId_TurnBasedAbilityConfig",
      "Offset": 26327
    },
    {
      "UniqueName": "StageAbility_3107101_SSRankEffect",
      "TypeId": "TypeId_TurnBasedAbilityConfig",
      "Offset": 27076
    },
    {
      "UniqueName": "StageAbility_TotalAttack_3107101",
      "TypeId": "TypeId_TurnBasedAbilityConfig",
      "Offset": 30059
    },
    {
      "UniqueName": "StageAbility_3107102",
      "TypeId": "TypeId_TurnBasedAbilityConfig",
      "Offset": 30890
    },
    {
      "UniqueName": "StageAbility_3107103",
      "TypeId": "TypeId_TurnBasedAbilityConfig",
      "Offset": 31350
    },
    {
      "UniqueName": "StageAbility_3107104",
      "TypeId": "TypeId_TurnBasedAbilityConfig",
      "Offset": 32063
    },
    {
      "UniqueName": "StageAbility_3107105",
      "TypeId": "TypeId_TurnBasedAbilityConfig",
      "Offset": 32906
    },
    {
      "UniqueName": "StageAbility_3107201",
      "TypeId": "TypeId_TurnBasedAbilityConfig",
      "Offset": 33458
    },
    {
      "UniqueName": "StageAbility_3107201_Transform",
      "TypeId": "TypeId_TurnBasedAbilityConfig",
      "Offset": 42983
    },
    {
      "UniqueName": "StageAbility_3107201_Score",
      "TypeId": "TypeId_TurnBasedAbilityConfig",
      "Offset": 44407
    },
    {
      "UniqueName": "StageAbility_3107201_Summon",
      "TypeId": "TypeId_TurnBasedAbilityConfig",
      "Offset": 45620
    },
    {
      "UniqueName": "StageAbility_3107201_Summon_1",
      "TypeId": "TypeId_TurnBasedAbilityConfig",
      "Offset": 46564
    },
    {
      "UniqueName": "StageAbility_3107201_Summon_2",
      "TypeId": "TypeId_TurnBasedAbilityConfig",
      "Offset": 47510
    },
    {
      "UniqueName": "StageAbility_3107201_SSRankEffect",
      "TypeId": "TypeId_TurnBasedAbilityConfig",
      "Offset": 48325
    },
    {
      "UniqueName": "StageAbility_TotalAttack_3107201",
      "TypeId": "TypeId_TurnBasedAbilityConfig",
      "Offset": 52443
    },
    {
      "UniqueName": "StageAbility_3107202",
      "TypeId": "TypeId_TurnBasedAbilityConfig",
      "Offset": 54027
    },
    {
      "UniqueName": "StageAbility_3107202_Sub",
      "TypeId": "TypeId_TurnBasedAbilityConfig",
      "Offset": 54961
    },
    {
      "UniqueName": "StageAbility_3107202_Sub_1",
      "TypeId": "TypeId_TurnBasedAbilityConfig",
      "Offset": 56118
    },
    {
      "UniqueName": "StageAbility_3107203",
      "TypeId": "TypeId_TurnBasedAbilityConfig",
      "Offset": 56371
    },
    {
      "UniqueName": "StageAbility_3107203_Sub",
      "TypeId": "TypeId_TurnBasedAbilityConfig",
      "Offset": 57401
    },
    {
      "UniqueName": "StageAbility_3107203_Sub_1",
      "TypeId": "TypeId_TurnBasedAbilityConfig",
      "Offset": 58546
    },
    {
      "UniqueName": "StageAbility_3107204",
      "TypeId": "TypeId_TurnBasedAbilityConfig",
      "Offset": 58916
    },
    {
      "UniqueName": "StageAbility_3107205",
      "TypeId": "TypeId_TurnBasedAbilityConfig",
      "Offset": 59295
    }
  ]
}