{
  "OnInitSequece": [],
  "OnStartSequece": [
    {
      "TaskList": [
        {
          "$type": "RPG.GameCore.AdvDistrictSetupTrigger",
          "GroupID": {
            "IsDynamic": false,
            "FixedValue": {
              "Value": 47
            }
          },
          "DistrictID": {
            "IsDynamic": false,
            "FixedValue": {
              "Value": 1
            }
          },
          "DisableAfterTrigger": true,
          "OnEnter": [
            {
              "$type": "RPG.GameCore.TriggerGroupEvent",
              "EventName": {
                "Value": "Perf"
              }
            }
          ]
        }
      ]
    },
    {
      "TaskList": [
        {
          "$type": "RPG.GameCore.WaitGroupEvent",
          "EventName": {
            "Value": "Perf"
          },
          "OnEvent": [
            {
              "$type": "RPG.GameCore.PlayMissionTalk",
              "SimpleTalkList": [
                {
                  "TalkSentenceID": 103270502
                },
                {
                  "TalkSentenceID": 103270503
                }
              ]
            },
            {
              "$type": "RPG.GameCore.TriggerCustomString",
              "CustomString": {
                "Value": "Talk_103270201"
              }
            }
          ]
        }
      ]
    }
  ],
  "Type": "Group"
}