{
  "BakeInfoLayouts": [
    {
      "UniqueName": "TreasureDungeonAbility_Passive_CostAllBP_Modifier",
      "Offset": 17601
    },
    {
      "UniqueName": "TreasureDungeonAbility_Passive_BoostNormalAttack_Modifier",
      "Offset": 17759
    },
    {
      "UniqueName": "TreasureDungeonAbility_Passive_BoostUltra_Modifier",
      "Offset": 17858
    },
    {
      "UniqueName": "TreasureDungeonAbility_Passive_KillMonsterBuff_Modifier",
      "Offset": 18014
    },
    {
      "UniqueName": "TreasureDungeonAbility_Passive_KillMonsterBuff_OnMonster_Modifier",
      "Offset": 18190
    },
    {
      "UniqueName": "TreasureDungeonAbility_Passive_HitWeakBuff_Modifier",
      "Offset": 18275
    },
    {
      "UniqueName": "TreasureDungeonAbility_Passive_HitWeakBuff_OnAvatar_Modifier",
      "Offset": 18522
    },
    {
      "UniqueName": "TreasureDungeonAbility_MonsterAttack_Fort",
      "TypeId": "TypeId_TurnBasedAbilityConfig",
      "Offset": 2
    },
    {
      "UniqueName": "TreasureDungeonAbility_MonsterAttack_Growth",
      "TypeId": "TypeId_TurnBasedAbilityConfig",
      "Offset": 338
    },
    {
      "UniqueName": "TreasureDungeonAbility_MonsterAttack_Aura",
      "TypeId": "TypeId_TurnBasedAbilityConfig",
      "Offset": 684
    },
    {
      "UniqueName": "TreasureDungeonAbility_AvatarCommonAttackGrowth",
      "TypeId": "TypeId_TurnBasedAbilityConfig",
      "Offset": 1020
    },
    {
      "UniqueName": "TreasureDungeonAbility_AvatarCommonAttackGrowth02",
      "TypeId": "TypeId_TurnBasedAbilityConfig",
      "Offset": 1407
    },
    {
      "UniqueName": "TreasureDungeonAbility_AvatarCommonAttackGrowth03",
      "TypeId": "TypeId_TurnBasedAbilityConfig",
      "Offset": 1842
    },
    {
      "UniqueName": "TreasureDungeonAbility_AvatarCommonAttackGrowth04",
      "TypeId": "TypeId_TurnBasedAbilityConfig",
      "Offset": 2456
    },
    {
      "UniqueName": "TreasureDungeonAbility_AvatarCommonAttackGrowth05",
      "TypeId": "TypeId_TurnBasedAbilityConfig",
      "Offset": 3070
    },
    {
      "UniqueName": "TreasureDungeonAbility_AvatarCommonDefenceGrowth",
      "TypeId": "TypeId_TurnBasedAbilityConfig",
      "Offset": 3684
    },
    {
      "UniqueName": "TreasureDungeonAbility_LoadExecuteItem",
      "TypeId": "TypeId_TurnBasedAbilityConfig",
      "Offset": 4076
    },
    {
      "UniqueName": "TreasureDungeonAbility_LoadSingleBuffItem",
      "TypeId": "TypeId_TurnBasedAbilityConfig",
      "Offset": 4436
    },
    {
      "UniqueName": "TreasureDungeonAbility_LoadWeakDamageEnhanceItem",
      "TypeId": "TypeId_TurnBasedAbilityConfig",
      "Offset": 4835
    },
    {
      "UniqueName": "TreasureDungeonAbility_LoadWeakBombItem",
      "TypeId": "TypeId_TurnBasedAbilityConfig",
      "Offset": 4993
    },
    {
      "UniqueName": "TreasureDungeonAbility_LoadRecoverSPItem",
      "TypeId": "TypeId_TurnBasedAbilityConfig",
      "Offset": 5080
    },
    {
      "UniqueName": "TreasureDungeonAbility_LoadSingleDamageItem",
      "TypeId": "TypeId_TurnBasedAbilityConfig",
      "Offset": 5476
    },
    {
      "UniqueName": "TreasureDungeonAbility_BPSkillBoostItem",
      "TypeId": "TypeId_TurnBasedAbilityConfig",
      "Offset": 5567
    },
    {
      "UniqueName": "TreasureDungeonAbility_AddWeakPointItem",
      "TypeId": "TypeId_TurnBasedAbilityConfig",
      "Offset": 5929
    },
    {
      "UniqueName": "TreasureDungeonAbility_NormalSkillBoostItem",
      "TypeId": "TypeId_TurnBasedAbilityConfig",
      "Offset": 6323
    },
    {
      "UniqueName": "TreasureDungeonAbility_DamageTakenAddItem",
      "TypeId": "TypeId_TurnBasedAbilityConfig",
      "Offset": 6414
    },
    {
      "UniqueName": "TreasureDungeonAbility_ExecuteItem_Skill",
      "TypeId": "TypeId_TurnBasedAbilityConfig",
      "Offset": 6503
    },
    {
      "UniqueName": "TreasureDungeonAbility_SingleBuffItem_Skill",
      "TypeId": "TypeId_TurnBasedAbilityConfig",
      "Offset": 7182
    },
    {
      "UniqueName": "TreasureDungeonAbility_WeakDamageEnhanceItem_Skill",
      "TypeId": "TypeId_TurnBasedAbilityConfig",
      "Offset": 8265
    },
    {
      "UniqueName": "TreasureDungeonAbility_WeakBombItem_Ready",
      "TypeId": "TypeId_TurnBasedAbilityConfig",
      "Offset": 9208
    },
    {
      "UniqueName": "TreasureDungeonAbility_WeakBombItem_Skill",
      "TypeId": "TypeId_TurnBasedAbilityConfig",
      "Offset": 9592
    },
    {
      "UniqueName": "TreasureDungeonAbility_RecoverSPItem_Skill",
      "TypeId": "TypeId_TurnBasedAbilityConfig",
      "Offset": 10222
    },
    {
      "UniqueName": "TreasureDungeonAbility_SingleDamageItem_Skill",
      "TypeId": "TypeId_TurnBasedAbilityConfig",
      "Offset": 11275
    },
    {
      "UniqueName": "TreasureDungeonAbility_BPSkillBoostItem_Skill",
      "TypeId": "TypeId_TurnBasedAbilityConfig",
      "Offset": 11709
    },
    {
      "UniqueName": "TreasureDungeonAbility_AddWeakPointItem_Skill",
      "TypeId": "TypeId_TurnBasedAbilityConfig",
      "Offset": 13019
    },
    {
      "UniqueName": "TreasureDungeonAbility_Passive_CostAllBP",
      "TypeId": "TypeId_TurnBasedAbilityConfig",
      "Offset": 13740
    },
    {
      "UniqueName": "TreasureDungeonAbility_Passive_BoostNormalAttack",
      "TypeId": "TypeId_TurnBasedAbilityConfig",
      "Offset": 14020
    },
    {
      "UniqueName": "TreasureDungeonAbility_Passive_BoostUltra",
      "TypeId": "TypeId_TurnBasedAbilityConfig",
      "Offset": 14363
    },
    {
      "UniqueName": "TreasureDungeonAbility_Passive_KillMonsterBuff",
      "TypeId": "TypeId_TurnBasedAbilityConfig",
      "Offset": 14676
    },
    {
      "UniqueName": "TreasureDungeonAbility_Passive_HitWeakBuff",
      "TypeId": "TypeId_TurnBasedAbilityConfig",
      "Offset": 14980
    },
    {
      "UniqueName": "UseItem_Camear_SelectLightTeamEntity",
      "TypeId": "TypeId_TurnBasedAbilityConfig",
      "Offset": 15329
    },
    {
      "UniqueName": "UseItem_Camear_SelectDarkTeamEntity",
      "TypeId": "TypeId_TurnBasedAbilityConfig",
      "Offset": 15878
    },
    {
      "UniqueName": "UseItem_Camear_SelectAllLightTeam",
      "TypeId": "TypeId_TurnBasedAbilityConfig",
      "Offset": 16426
    },
    {
      "UniqueName": "UseItem_Camear_SelectAllDarkTeam",
      "TypeId": "TypeId_TurnBasedAbilityConfig",
      "Offset": 16993
    }
  ]
}