{
  "BakeInfoLayouts": [
    {
      "UniqueName": "RogueBuffModifier_Halo",
      "Offset": 45891
    },
    {
      "UniqueName": "RogueBuffModifier_Halo_Handler",
      "Offset": 46930
    },
    {
      "UniqueName": "Level_RogueBuffModifier_Halo_LayerCounter",
      "Offset": 47154
    },
    {
      "UniqueName": "Level_RogueBuffModifier_Halo_HealFlag_612430",
      "Offset": 47211
    },
    {
      "UniqueName": "Level_RogueBuffModifier_Halo_HealFlag_612431",
      "Offset": 47258
    },
    {
      "UniqueName": "RogueBuffModifier_Rage_612530",
      "Offset": 47290
    },
    {
      "UniqueName": "RogueBuffModifier_Rage_612531",
      "Offset": 47434
    },
    {
      "UniqueName": "RogueBuffModifier_Rage_612531_Teammate",
      "Offset": 47587
    },
    {
      "UniqueName": "RogueBuffModifier_Rage_612531_Listen",
      "Offset": 48097
    },
    {
      "UniqueName": "RogueBuffModifier_Rage",
      "Offset": 49314
    },
    {
      "UniqueName": "StageAbility_61254201_Modifier_Damage_Reduce",
      "Offset": 50784
    },
    {
      "UniqueName": "StageAbility_61254301_Modifier_ATK_Increase",
      "Offset": 51010
    },
    {
      "UniqueName": "StageAbility_61254302_Modifier_ATK_Increase",
      "Offset": 51295
    },
    {
      "UniqueName": "StageAbility_61254401_Modifier_Damage_Increase",
      "Offset": 51638
    },
    {
      "UniqueName": "StageAbility_61255601_Modifier_DEF_Increase",
      "Offset": 51856
    },
    {
      "UniqueName": "StageAbility_61255701_Modifier_STR_Increase",
      "Offset": 52141
    },
    {
      "UniqueName": "StageAbility_61244001_Modifier_CriticalChanceConvert",
      "Offset": 52436
    },
    {
      "UniqueName": "StageAbility_61244002_Modifier_CriticalChanceConvert",
      "Offset": 52938
    },
    {
      "UniqueName": "StageAbility_61244301_Modifier_Continues_ATK_Buff",
      "Offset": 53693
    },
    {
      "UniqueName": "StageAbility_61243202_Modifier_NextStanceDamageUp",
      "Offset": 53936
    },
    {
      "UniqueName": "StageAbility_61244402_Modifier_NextUltraDamageUp",
      "Offset": 54050
    },
    {
      "UniqueName": "StageAbility_61245701_Modifier_AttackUp",
      "Offset": 54149
    },
    {
      "UniqueName": "StageAbility_61243001",
      "TypeId": "TypeId_TurnBasedAbilityConfig",
      "Offset": 2
    },
    {
      "UniqueName": "StageAbility_61243002",
      "TypeId": "TypeId_TurnBasedAbilityConfig",
      "Offset": 1755
    },
    {
      "UniqueName": "StageAbility_61243101",
      "TypeId": "TypeId_TurnBasedAbilityConfig",
      "Offset": 3569
    },
    {
      "UniqueName": "StageAbility_61243201",
      "TypeId": "TypeId_TurnBasedAbilityConfig",
      "Offset": 5593
    },
    {
      "UniqueName": "StageAbility_61244001",
      "TypeId": "TypeId_TurnBasedAbilityConfig",
      "Offset": 6560
    },
    {
      "UniqueName": "StageAbility_61244002",
      "TypeId": "TypeId_TurnBasedAbilityConfig",
      "Offset": 7301
    },
    {
      "UniqueName": "StageAbility_61244101",
      "TypeId": "TypeId_TurnBasedAbilityConfig",
      "Offset": 8114
    },
    {
      "UniqueName": "StageAbility_61244102",
      "TypeId": "TypeId_TurnBasedAbilityConfig",
      "Offset": 9197
    },
    {
      "UniqueName": "StageAbility_61244201",
      "TypeId": "TypeId_TurnBasedAbilityConfig",
      "Offset": 10540
    },
    {
      "UniqueName": "StageAbility_61244202",
      "TypeId": "TypeId_TurnBasedAbilityConfig",
      "Offset": 11527
    },
    {
      "UniqueName": "StageAbility_61244301",
      "TypeId": "TypeId_TurnBasedAbilityConfig",
      "Offset": 13087
    },
    {
      "UniqueName": "StageAbility_61244302",
      "TypeId": "TypeId_TurnBasedAbilityConfig",
      "Offset": 13722
    },
    {
      "UniqueName": "StageAbility_61244401",
      "TypeId": "TypeId_TurnBasedAbilityConfig",
      "Offset": 14490
    },
    {
      "UniqueName": "StageAbility_61244402",
      "TypeId": "TypeId_TurnBasedAbilityConfig",
      "Offset": 14878
    },
    {
      "UniqueName": "StageAbility_61244501",
      "TypeId": "TypeId_TurnBasedAbilityConfig",
      "Offset": 15359
    },
    {
      "UniqueName": "StageAbility_61244502",
      "TypeId": "TypeId_TurnBasedAbilityConfig",
      "Offset": 16159
    },
    {
      "UniqueName": "StageAbility_61244601",
      "TypeId": "TypeId_TurnBasedAbilityConfig",
      "Offset": 16988
    },
    {
      "UniqueName": "StageAbility_61244602",
      "TypeId": "TypeId_TurnBasedAbilityConfig",
      "Offset": 17402
    },
    {
      "UniqueName": "StageAbility_61245001",
      "TypeId": "TypeId_TurnBasedAbilityConfig",
      "Offset": 17937
    },
    {
      "UniqueName": "StageAbility_61245101",
      "TypeId": "TypeId_TurnBasedAbilityConfig",
      "Offset": 18350
    },
    {
      "UniqueName": "StageAbility_61245201",
      "TypeId": "TypeId_TurnBasedAbilityConfig",
      "Offset": 18686
    },
    {
      "UniqueName": "StageAbility_61245301",
      "TypeId": "TypeId_TurnBasedAbilityConfig",
      "Offset": 19022
    },
    {
      "UniqueName": "StageAbility_61245401",
      "TypeId": "TypeId_TurnBasedAbilityConfig",
      "Offset": 19389
    },
    {
      "UniqueName": "StageAbility_61245501",
      "TypeId": "TypeId_TurnBasedAbilityConfig",
      "Offset": 19760
    },
    {
      "UniqueName": "StageAbility_61245601",
      "TypeId": "TypeId_TurnBasedAbilityConfig",
      "Offset": 20136
    },
    {
      "UniqueName": "StageAbility_61245701",
      "TypeId": "TypeId_TurnBasedAbilityConfig",
      "Offset": 20471
    },
    {
      "UniqueName": "StageAbility_61253001",
      "TypeId": "TypeId_TurnBasedAbilityConfig",
      "Offset": 21072
    },
    {
      "UniqueName": "StageAbility_61253002",
      "TypeId": "TypeId_TurnBasedAbilityConfig",
      "Offset": 23278
    },
    {
      "UniqueName": "StageAbility_61253101",
      "TypeId": "TypeId_TurnBasedAbilityConfig",
      "Offset": 25696
    },
    {
      "UniqueName": "StageAbility_61253102",
      "TypeId": "TypeId_TurnBasedAbilityConfig",
      "Offset": 27857
    },
    {
      "UniqueName": "StageAbility_61253201",
      "TypeId": "TypeId_TurnBasedAbilityConfig",
      "Offset": 30443
    },
    {
      "UniqueName": "StageAbility_61253202",
      "TypeId": "TypeId_TurnBasedAbilityConfig",
      "Offset": 30976
    },
    {
      "UniqueName": "StageAbility_61254001",
      "TypeId": "TypeId_TurnBasedAbilityConfig",
      "Offset": 31550
    },
    {
      "UniqueName": "StageAbility_61254002",
      "TypeId": "TypeId_TurnBasedAbilityConfig",
      "Offset": 32190
    },
    {
      "UniqueName": "StageAbility_61254101",
      "TypeId": "TypeId_TurnBasedAbilityConfig",
      "Offset": 33102
    },
    {
      "UniqueName": "StageAbility_61254102",
      "TypeId": "TypeId_TurnBasedAbilityConfig",
      "Offset": 33871
    },
    {
      "UniqueName": "StageAbility_61254201",
      "TypeId": "TypeId_TurnBasedAbilityConfig",
      "Offset": 34776
    },
    {
      "UniqueName": "StageAbility_61254202",
      "TypeId": "TypeId_TurnBasedAbilityConfig",
      "Offset": 35163
    },
    {
      "UniqueName": "StageAbility_61254301",
      "TypeId": "TypeId_TurnBasedAbilityConfig",
      "Offset": 35775
    },
    {
      "UniqueName": "StageAbility_61254302",
      "TypeId": "TypeId_TurnBasedAbilityConfig",
      "Offset": 36252
    },
    {
      "UniqueName": "StageAbility_61254401",
      "TypeId": "TypeId_TurnBasedAbilityConfig",
      "Offset": 36765
    },
    {
      "UniqueName": "StageAbility_61254501",
      "TypeId": "TypeId_TurnBasedAbilityConfig",
      "Offset": 38080
    },
    {
      "UniqueName": "StageAbility_61254502",
      "TypeId": "TypeId_TurnBasedAbilityConfig",
      "Offset": 38779
    },
    {
      "UniqueName": "StageAbility_61254601",
      "TypeId": "TypeId_TurnBasedAbilityConfig",
      "Offset": 39734
    },
    {
      "UniqueName": "StageAbility_61254602",
      "TypeId": "TypeId_TurnBasedAbilityConfig",
      "Offset": 40285
    },
    {
      "UniqueName": "StageAbility_61255001",
      "TypeId": "TypeId_TurnBasedAbilityConfig",
      "Offset": 40854
    },
    {
      "UniqueName": "StageAbility_61255101",
      "TypeId": "TypeId_TurnBasedAbilityConfig",
      "Offset": 41267
    },
    {
      "UniqueName": "StageAbility_61255101_Camera",
      "TypeId": "TypeId_TurnBasedAbilityConfig",
      "Offset": 41958
    },
    {
      "UniqueName": "StageAbility_61255201",
      "TypeId": "TypeId_TurnBasedAbilityConfig",
      "Offset": 42508
    },
    {
      "UniqueName": "StageAbility_61255301",
      "TypeId": "TypeId_TurnBasedAbilityConfig",
      "Offset": 42844
    },
    {
      "UniqueName": "StageAbility_61255401",
      "TypeId": "TypeId_TurnBasedAbilityConfig",
      "Offset": 43240
    },
    {
      "UniqueName": "StageAbility_61255501",
      "TypeId": "TypeId_TurnBasedAbilityConfig",
      "Offset": 43793
    },
    {
      "UniqueName": "StageAbility_61255601",
      "TypeId": "TypeId_TurnBasedAbilityConfig",
      "Offset": 44886
    },
    {
      "UniqueName": "StageAbility_61255701",
      "TypeId": "TypeId_TurnBasedAbilityConfig",
      "Offset": 45376
    }
  ]
}