{
  "WalkSpeedRatio": 1.15,
  "RunSpeedRatio": 0.8,
  "FreeStyleCharacterID": "NPC_Monster_XP_Elite01_01",
  "FreeStyleCharacterConfigPath": "Config/ConfigCharacter/FreeStyle/NPC_Monster_XP_Elite01_01_FreeStyle_Config.json",
  "AnimEventConfigList": [
    "Config/ConfigAnimEvents/NPCMonster/Audio/NPCMonster_XP_Elite01_00_Audio_AnimEvent.json",
    "Config/ConfigAnimEvents/NPCMonster/Effect/NPCMonster_XP_Elite01_00_Effect_AnimEvent.json"
  ],
  "AnimZoneConfigPath": "Config/ConfigAnimZone/NPCMonster/NPCMonster_XP_Elite01_00_AnimZone.json",
  "DisableAnimEventLayers": [
    "Riboon Layer"
  ]
}