{
  "BakeInfoLayouts": [
    {
      "UniqueName": "Monster_Common_SpeedRatioDown",
      "Offset": 33
    },
    {
      "UniqueName": "Boss_Cocolia_MuteHitFly_Modifier",
      "Offset": 130
    },
    {
      "UniqueName": "Boss_Cocolia_IceValueShow",
      "Offset": 166
    },
    {
      "UniqueName": "Cocolia_P1_Skill03_Modifier",
      "Offset": 681
    },
    {
      "UniqueName": "Boss_Cocolia_P1_Endurance",
      "Offset": 708
    },
    {
      "UniqueName": "MMonster_W1_Bronya_00_Skill02",
      "Offset": 748
    },
    {
      "UniqueName": "Monster_Common_DisableAction",
      "Offset": 834
    },
    {
      "UniqueName": "Gepard_BattleScore1",
      "Offset": 859
    },
    {
      "UniqueName": "Gepard_BattleScore2",
      "Offset": 1147
    },
    {
      "UniqueName": "Gepard_BattleScore3",
      "Offset": 1262
    },
    {
      "UniqueName": "Boss_Cocolia_BattleScore1",
      "Offset": 1332
    },
    {
      "UniqueName": "Boss_Cocolia_BattleScore2",
      "Offset": 1598
    },
    {
      "UniqueName": "Boss_Cocolia_BattleScore3",
      "Offset": 1719
    },
    {
      "UniqueName": "Boss_Cocolia_BattleScore4",
      "Offset": 1789
    },
    {
      "UniqueName": "Boss_Cocolia_BattleScore5",
      "Offset": 1859
    },
    {
      "UniqueName": "Monster_W1_SvarogPart_00_BattleScore1",
      "Offset": 2089
    },
    {
      "UniqueName": "Monster_W1_GS_Svarog_BattleScore1",
      "Offset": 2200
    },
    {
      "UniqueName": "Monster_AML_Elite01_00_AchievementControl",
      "Offset": 2548
    },
    {
      "UniqueName": "MMonster_W1_Soldier03_00_BattleScore1",
      "Offset": 2686
    },
    {
      "UniqueName": "Monster_Mecha04_BattleScore1",
      "Offset": 2983
    },
    {
      "UniqueName": "Bronya_BattleScore1",
      "Offset": 3096
    },
    {
      "UniqueName": "Bronya_BattleScore2",
      "Offset": 3288
    },
    {
      "UniqueName": "AML_Boss_00_BattleScore1",
      "Offset": 3408
    },
    {
      "UniqueName": "W1_CocoliaP2_00_BattleScore1",
      "Offset": 3557
    },
    {
      "UniqueName": "XP_Elite02_01_BattleScore1",
      "Offset": 3781
    },
    {
      "UniqueName": "W2_Mecha03_00_BattleScore1",
      "Offset": 3918
    },
    {
      "UniqueName": "W2_Huanlong_00_BattleScore1",
      "Offset": 4030
    },
    {
      "UniqueName": "W2_Huanlong_00_BattleScore2",
      "Offset": 4299
    },
    {
      "UniqueName": "W1_Mecha03_02_BattleScore1",
      "Offset": 4622
    },
    {
      "UniqueName": "W2_YanQing_00_BattleScore1",
      "Offset": 4693
    },
    {
      "UniqueName": "W2_YanQing_00_BattleScore2",
      "Offset": 4764
    },
    {
      "UniqueName": "W2_YanQing_00_BattleScore3",
      "Offset": 4835
    },
    {
      "UniqueName": "W2_YanQing_00_BattleScore4",
      "Offset": 4906
    },
    {
      "UniqueName": "W2_YanQing_00_BattleScore5",
      "Offset": 4980
    },
    {
      "UniqueName": "W2_YanQing_00_BattleScore6",
      "Offset": 5054
    },
    {
      "UniqueName": "SW_Boss_00_BattleScore1",
      "Offset": 5125
    },
    {
      "UniqueName": "SW_Boss_00_BattleScore2",
      "Offset": 5265
    },
    {
      "UniqueName": "SW_Boss_00_BattleScore3",
      "Offset": 5381
    },
    {
      "UniqueName": "SW_Boss_00_BattleScore3_LimboFlag",
      "Offset": 5642
    },
    {
      "UniqueName": "W2_Argenti_00_BattleScore1",
      "Offset": 5670
    },
    {
      "UniqueName": "W2_ArgentiTotem_00_BattleScore1",
      "Offset": 5895
    },
    {
      "UniqueName": "W2_ArgentiTotem_01_BattleScore1",
      "Offset": 5928
    },
    {
      "UniqueName": "W2_ArgentiTotem_02_BattleScore1",
      "Offset": 5961
    },
    {
      "UniqueName": "W2_Argenti_00_BattleScore2",
      "Offset": 5989
    },
    {
      "UniqueName": "W2_SW_Boss_01_BattleScore1",
      "Offset": 6247
    },
    {
      "UniqueName": "W2_Beast02_01_BattleScore1",
      "Offset": 6334
    },
    {
      "UniqueName": "W2_Death_00_BattleScore1",
      "Offset": 6415
    },
    {
      "UniqueName": "W3_Dinosaur_00_BattleScore1",
      "Offset": 6691
    },
    {
      "UniqueName": "W3_Dinosaur_01_BattleScore1",
      "Offset": 6893
    },
    {
      "UniqueName": "W3_Dinosaur_01_BattleScore2",
      "Offset": 7158
    },
    {
      "UniqueName": "W3_TV_00_BattleScore1",
      "Offset": 7349
    },
    {
      "UniqueName": "W3_Junk_00_BattleScore1",
      "Offset": 8016
    },
    {
      "UniqueName": "W3_Sam_00_BattleScore1",
      "Offset": 8078
    },
    {
      "UniqueName": "W3_Aventurine_00_BattleScore1",
      "Offset": 8375
    },
    {
      "UniqueName": "W3_Aventurine_00_BattleScore2",
      "Offset": 8870
    },
    {
      "UniqueName": "W1_Mecha01_02_BattleScore1",
      "Offset": 9142
    },
    {
      "UniqueName": "W3_Figure_00_BattleScore1",
      "Offset": 9182
    },
    {
      "UniqueName": "W3_Figure_00_BattleScore1_Mark",
      "Offset": 9570
    },
    {
      "UniqueName": "W3_Figure_02_BattleScore1",
      "Offset": 9597
    },
    {
      "UniqueName": "W3_FigureBoss_00_BattleScore1",
      "Offset": 10122
    },
    {
      "UniqueName": "W3_FigureBoss_00_BattleScore2",
      "Offset": 10858
    },
    {
      "UniqueName": "W3_Figure_01_BattleScore1",
      "Offset": 11040
    },
    {
      "UniqueName": "W3_Sunday_00_BattleScore1",
      "Offset": 11080
    },
    {
      "UniqueName": "W3_Sunday_00_BattleScore2",
      "Offset": 11240
    },
    {
      "UniqueName": "W3_Sunday_00_BattleScore2_Listener",
      "Offset": 11367
    },
    {
      "UniqueName": "W1_Mecha02_ThunderDOT",
      "Offset": 11542
    },
    {
      "UniqueName": "Sign_W1_Mecha02",
      "Offset": 12288
    },
    {
      "UniqueName": "W1_Mecha02_AttackBuff",
      "Offset": 12394
    },
    {
      "UniqueName": "W1_Mecha02_AttackBuff_Effect",
      "Offset": 12729
    },
    {
      "UniqueName": "Monster_Mecha_02_LockHPModifier_RemoveController",
      "Offset": 12920
    },
    {
      "UniqueName": "W1_Mecha02_P2_SpeedUp",
      "Offset": 13206
    },
    {
      "UniqueName": "Monster_Mecha_02_LockHPModifier",
      "Offset": 13274
    },
    {
      "UniqueName": "Monster_Mecha_02_StanceLocked",
      "Offset": 13384
    },
    {
      "UniqueName": "Cocolia_P1_Energy",
      "Offset": 13563
    },
    {
      "UniqueName": "Cocolia_P1_Energy_2",
      "Offset": 14011
    },
    {
      "UniqueName": "Cocolia_P1_Energy_3",
      "Offset": 14461
    },
    {
      "UniqueName": "Cocolia_P2_Energy_4",
      "Offset": 14910
    },
    {
      "UniqueName": "Cocolia_P2_Energy_5",
      "Offset": 14938
    },
    {
      "UniqueName": "Cocolia_P2_Energy_6",
      "Offset": 14966
    },
    {
      "UniqueName": "BOSS_COCOLIA_BOSS_MDF",
      "Offset": 14996
    },
    {
      "UniqueName": "Boss_Cocolia_P1_Skill05_Buff",
      "Offset": 15035
    },
    {
      "UniqueName": "Boss_Cocolia_P2_IceValueShow",
      "Offset": 15135
    },
    {
      "UniqueName": "XP_Fire_Elite_Burning_Modifier",
      "Offset": 15885
    },
    {
      "UniqueName": "XP_Fire_Elite_Burning_Modifier_2",
      "Offset": 16290
    },
    {
      "UniqueName": "XP_Elite_Fire_Skill07_AttackUp_Modifier",
      "Offset": 17392
    },
    {
      "UniqueName": "XP_Ice_Elite_Powerful_Modifier",
      "Offset": 17542
    },
    {
      "UniqueName": "MMonster_Mecha_BlockDamage",
      "Offset": 18817
    },
    {
      "UniqueName": "Monster_Gepard_Attack_Sign",
      "Offset": 19424
    },
    {
      "UniqueName": "Svarog_Control_Modifier",
      "Offset": 19646
    },
    {
      "UniqueName": "Svarog_Electric_Modifier",
      "Offset": 20367
    },
    {
      "UniqueName": "M_Svarog_CTRL",
      "Offset": 20513
    },
    {
      "UniqueName": "Svarog_Skill06_Insert_Modifier",
      "Offset": 20917
    },
    {
      "UniqueName": "Svarog_Part_ListenHP_Modifier",
      "Offset": 20997
    },
    {
      "UniqueName": "Svarog_Kaboom_Modifier",
      "Offset": 21256
    },
    {
      "UniqueName": "Svarog_Part0_DamageReduceModifier",
      "Offset": 21404
    },
    {
      "UniqueName": "Svarog_Skill06_Buff",
      "Offset": 21575
    },
    {
      "UniqueName": "Svarog_ListenPlayerDie_Modifier",
      "Offset": 21729
    },
    {
      "UniqueName": "Svarog_Part_OnTurnEndChangePhaseModifier",
      "Offset": 22478
    },
    {
      "UniqueName": "Svarog_Part_ListenBreak_Modifier",
      "Offset": 22649
    },
    {
      "UniqueName": "Monster_W1_Mecha_Fire_Passive",
      "Offset": 22979
    },
    {
      "UniqueName": "Monster_W1_Mecha_Fire_Burning",
      "Offset": 23206
    },
    {
      "UniqueName": "Monster_W1_Mecha_Fire_Burning_CD",
      "Offset": 24703
    },
    {
      "UniqueName": "Svarog_Skill07_AllDamageUp_Modifier",
      "Offset": 24751
    },
    {
      "UniqueName": "Svarog_Control_OnPart_Modifier",
      "Offset": 24811
    },
    {
      "UniqueName": "Monster_W1_Mecha03_01_Armor",
      "Offset": 25550
    },
    {
      "UniqueName": "Monster_W1_Mecha03_01_Shield",
      "Offset": 25642
    },
    {
      "UniqueName": "Monster_W1_Mecha03_01_Attack",
      "Offset": 25712
    },
    {
      "UniqueName": "Monster_W1_Mecha03_01_Frozen",
      "Offset": 25756
    },
    {
      "UniqueName": "Monster_W1_Mecha03_01_Overheat",
      "Offset": 26087
    },
    {
      "UniqueName": "Monster_W1_Mecha03_01_Buff",
      "Offset": 26181
    },
    {
      "UniqueName": "Monster_W1_Mecha03_01_Charge",
      "Offset": 26274
    },
    {
      "UniqueName": "Monster_W1_Mecha03_01_Effect_Fail",
      "Offset": 26379
    },
    {
      "UniqueName": "Monster_W1_Mecha03_01_Effect",
      "Offset": 26443
    },
    {
      "UniqueName": "Monster_W1_Mecha03_01_Rage",
      "Offset": 26619
    },
    {
      "UniqueName": "Monster_W1_Mecha03_01_Sign",
      "Offset": 26830
    },
    {
      "UniqueName": "Monster_W1_Soldier01_03_Buff",
      "Offset": 27059
    },
    {
      "UniqueName": "Monster_Blood_Link_Group1",
      "Offset": 27319
    },
    {
      "UniqueName": "Monster_Blood_Link_Revive",
      "Offset": 27557
    },
    {
      "UniqueName": "Monster_Blood_Link_Stun",
      "Offset": 27728
    },
    {
      "UniqueName": "Boss_Cocolia_Endurance",
      "Offset": 27762
    },
    {
      "UniqueName": "NoWeakAndResistance",
      "Offset": 27796
    },
    {
      "UniqueName": "MMonster_XP_Elite01_00_Burn",
      "Offset": 27832
    },
    {
      "UniqueName": "MMonster_Common_MuteHitFly",
      "Offset": 28391
    },
    {
      "UniqueName": "MMonster_Common_HideMonsterHUD",
      "Offset": 28427
    },
    {
      "UniqueName": "MMonster_AML_Elite01_00_Aim",
      "Offset": 28516
    },
    {
      "UniqueName": "Monster_AML_Elite01_00_Endurance",
      "Offset": 28748
    },
    {
      "UniqueName": "MMonster_AML_Elite01_00_ShootEff_Body",
      "Offset": 28800
    },
    {
      "UniqueName": "MMonster_AML_Elite01_01_ShootEff_Body",
      "Offset": 29536
    },
    {
      "UniqueName": "MMonster_AML_Elite01_00_ShootEff_Arrow",
      "Offset": 30273
    },
    {
      "UniqueName": "MMonster_AML_Elite01_01_ShootEff_Arrow",
      "Offset": 30887
    },
    {
      "UniqueName": "MMonster_AML_Minion03_00_Target",
      "Offset": 31494
    },
    {
      "UniqueName": "MMonster_AML_Minion04_00_Mark",
      "Offset": 31783
    },
    {
      "UniqueName": "MMonster_XP_Minion02_00_Armor",
      "Offset": 32156
    },
    {
      "UniqueName": "AML_Minion02_01_Rage",
      "Offset": 32489
    },
    {
      "UniqueName": "AML_Minion02_01_RageStandby",
      "Offset": 33109
    },
    {
      "UniqueName": "MMonster_AML_Elite01_01_DOTAim",
      "Offset": 33538
    },
    {
      "UniqueName": "MMonster_AML_Elite01_01_AttackAdd",
      "Offset": 33879
    },
    {
      "UniqueName": "Monster_Common_Enhance",
      "Offset": 34257
    },
    {
      "UniqueName": "Monster_Common_Strange",
      "Offset": 34281
    },
    {
      "UniqueName": "Monster_RogueElite",
      "Offset": 34301
    },
    {
      "UniqueName": "Monster_RogueElite_DamageUp",
      "Offset": 34485
    },
    {
      "UniqueName": "Monster_RogueBoss",
      "Offset": 34720
    },
    {
      "UniqueName": "Monster_RogueBoss_DamageUp",
      "Offset": 34902
    },
    {
      "UniqueName": "MCommon_SuperArmorController",
      "Offset": 35148
    },
    {
      "UniqueName": "MCommon_SuperArmor",
      "Offset": 36265
    },
    {
      "UniqueName": "MCommon_SuperArmorBreak",
      "Offset": 39078
    }
  ]
}