{
  "BakeInfoLayouts": [
    {
      "UniqueName": "MAvatar_March7th_00_BPSkill_Shield_Mark",
      "Offset": 42
    },
    {
      "UniqueName": "MAvatar_March7th_00_BPSkill_Shield_Counter",
      "Offset": 270
    },
    {
      "UniqueName": "MAvatar_March7th_00_BPSkill_Shield",
      "Offset": 466
    },
    {
      "UniqueName": "MAvatar_Hook_00_BPSkillAlter_Enable",
      "Offset": 1061
    },
    {
      "UniqueName": "MAvatar_DanHeng_00_Passive_BeginTargetEnhance",
      "Offset": 1216
    },
    {
      "UniqueName": "MAvatar_DanHeng_00_Passive_BeginTargetEnhanceCD",
      "Offset": 1278
    },
    {
      "UniqueName": "MAvatar_DanHeng_00_Passive_SelfBeingTargetEnhance",
      "Offset": 1712
    },
    {
      "UniqueName": "MAvatar_Himeko_00_FireTakenRatio",
      "Offset": 2705
    },
    {
      "UniqueName": "Avatar_Welt_DebuffModifier",
      "Offset": 2791
    },
    {
      "UniqueName": "MAvatar_Klara_00_MazeSkill_AggroUP",
      "Offset": 2959
    },
    {
      "UniqueName": "MAvatar_Arlan_00_Passive_DamageUp",
      "Offset": 3051
    },
    {
      "UniqueName": "MAvatar_Asta_FireAddedRatio",
      "Offset": 3136
    },
    {
      "UniqueName": "MAvatar_Bronya_00_Ultra_PowerUp",
      "Offset": 3225
    },
    {
      "UniqueName": "MAvatar_Bronya_00_BPSkill_DamageUp",
      "Offset": 3373
    },
    {
      "UniqueName": "MAvatar_Bronya_00_BPSkill_SpeedUp",
      "Offset": 3464
    },
    {
      "UniqueName": "Bronya_Tree03_DamageUp",
      "Offset": 3547
    },
    {
      "UniqueName": "Bronya_Tree02_DefenceUp",
      "Offset": 3632
    },
    {
      "UniqueName": "MAvatar_Seele_00_Passive_DamageUp",
      "Offset": 3727
    },
    {
      "UniqueName": "MAvatar_Seele_00_BPSkill_SpeedUp",
      "Offset": 4893
    },
    {
      "UniqueName": "MAvatar_Seele_00_BPSkill_SpeedUpRank02",
      "Offset": 4992
    },
    {
      "UniqueName": "MAvatar_Natasha_00_Passive_FatigueRatio",
      "Offset": 5154
    },
    {
      "UniqueName": "MAvatar_Natasha_00_BPSkill_DefenceRatioUp",
      "Offset": 5256
    },
    {
      "UniqueName": "MAvatar_Pela_00_BPSkill_Fatigue",
      "Offset": 5346
    },
    {
      "UniqueName": "MAvatar_Pela_00_MazeSkill_DefenceRatioDown",
      "Offset": 5478
    },
    {
      "UniqueName": "MAvatar_Pela_StatusProbability",
      "Offset": 5574
    },
    {
      "UniqueName": "MAvatar_PlayerWarrior_00_Ultra_Transform",
      "Offset": 5673
    },
    {
      "UniqueName": "MAvatar_Klara_00_BPSkill_Revenge",
      "Offset": 6547
    },
    {
      "UniqueName": "MAvatar_Klara_00_Passive_DamageReduce",
      "Offset": 6740
    },
    {
      "UniqueName": "MAvatar_Klara_00_Passive_ShowAmmo",
      "Offset": 6831
    },
    {
      "UniqueName": "MAvatar_Sampo_00_Ultra_DOTTakenUp",
      "Offset": 6877
    },
    {
      "UniqueName": "MAvatar_PlayerGirl_00_Ultra_Transform",
      "Offset": 6980
    },
    {
      "UniqueName": "M_LowHP_AggroDown",
      "Offset": 7847
    },
    {
      "UniqueName": "M_Ultra_ExtraSP",
      "Offset": 8181
    },
    {
      "UniqueName": "M_SkillTree_HealRatioUp",
      "Offset": 8259
    },
    {
      "UniqueName": "M_SkillTree_AggroUp",
      "Offset": 8337
    },
    {
      "UniqueName": "M_SkillTree_AggroDown",
      "Offset": 8418
    },
    {
      "UniqueName": "MAvatar_Silwolf_00_Normal_Bug1",
      "Offset": 8512
    },
    {
      "UniqueName": "MAvatar_Silwolf_00_Normal_Bug2",
      "Offset": 8607
    },
    {
      "UniqueName": "MAvatar_Silwolf_00_Normal_Bug3",
      "Offset": 8702
    },
    {
      "UniqueName": "MAvatar_JingYuan_00_BattleEvent_ATKCount",
      "Offset": 8807
    },
    {
      "UniqueName": "MAvatar_JingYuan_00_BattleEvent_UltraATKCount",
      "Offset": 8877
    },
    {
      "UniqueName": "MAvatar_JingYuan_00_BattleEvent",
      "Offset": 8921
    },
    {
      "UniqueName": "MAvatar_JingYuan_00_BattleEvent_SpeedUp",
      "Offset": 9097
    },
    {
      "UniqueName": "MAvatar_JingYuan_00_Rank02_DamageAddedRatio",
      "Offset": 9307
    },
    {
      "UniqueName": "MAvatar_JingYuan_00_Rank06_AllDamageTypeTakenRatio",
      "Offset": 9405
    },
    {
      "UniqueName": "MAvatar_JingYuan_00_CriticalDamageUp",
      "Offset": 9618
    },
    {
      "UniqueName": "MAvatar_BPfireS_00_DamageUp",
      "Offset": 9703
    },
    {
      "UniqueName": "MAvatar_Silwolf_00_BPSkill_AllDamageTypeResistanceDown",
      "Offset": 9815
    },
    {
      "UniqueName": "MAvatar_Silwolf_00_Rank02_StatusResistanceDown",
      "Offset": 9925
    },
    {
      "UniqueName": "MAvatar_Silwolf_00_Ultra_DefenceRatioDown",
      "Offset": 10029
    },
    {
      "UniqueName": "MAvatar_Asta_00_Passive_SPRatioUp",
      "Offset": 10128
    },
    {
      "UniqueName": "MAvatar_JingYuan_00_Tree03_CriticalChanceUp",
      "Offset": 10230
    },
    {
      "UniqueName": "MAvatar_Serval_00_Tree03_AttackRatioUp",
      "Offset": 10326
    },
    {
      "UniqueName": "WMAvatar_Geji_00_BattleEvent",
      "Offset": 10412
    },
    {
      "UniqueName": "Modifier_BattleEventAbility_Challenge_Month_18_Sub4",
      "Offset": 10598
    },
    {
      "UniqueName": "Modifier_BattleEventAbility_Challenge_Month_21_sub",
      "Offset": 10668
    },
    {
      "UniqueName": "Modifier_BattleEventAbility_Challenge_Month_21_SingleAttackLimit",
      "Offset": 11447
    },
    {
      "UniqueName": "BattleEventAbility_Challenge_Month_BETag",
      "Offset": 11509
    }
  ]
}