{
  "BakeInfoLayouts": [
    {
      "UniqueName": "MLevel_WB_3002001",
      "Offset": 21
    },
    {
      "UniqueName": "MLevel_WB_3002002",
      "Offset": 265
    },
    {
      "UniqueName": "MLevel_WB_3002003",
      "Offset": 534
    },
    {
      "UniqueName": "MLevel_WB_3002021",
      "Offset": 752
    },
    {
      "UniqueName": "MLevel_WB_3002022",
      "Offset": 849
    },
    {
      "UniqueName": "MLevel_WB_3002023",
      "Offset": 945
    },
    {
      "UniqueName": "MLevel_WB_3002023_Sub",
      "Offset": 1368
    },
    {
      "UniqueName": "MLevel_WB_3002024",
      "Offset": 1498
    },
    {
      "UniqueName": "MLevel_WB_3002025",
      "Offset": 1692
    },
    {
      "UniqueName": "MLevel_WB_3002025_Sub",
      "Offset": 2074
    },
    {
      "UniqueName": "MLevel_WB_3002026",
      "Offset": 2152
    },
    {
      "UniqueName": "MLevel_WB_3002027",
      "Offset": 2250
    },
    {
      "UniqueName": "MLevel_WB_3002028",
      "Offset": 2438
    },
    {
      "UniqueName": "MLevel_WB_3002028_Sub",
      "Offset": 2820
    },
    {
      "UniqueName": "MLevel_WB_3002029",
      "Offset": 2898
    },
    {
      "UniqueName": "MLevel_WB_3002101",
      "Offset": 2995
    },
    {
      "UniqueName": "MLevel_WB_3002102",
      "Offset": 3151
    },
    {
      "UniqueName": "MLevel_WB_3002103",
      "Offset": 3288
    },
    {
      "UniqueName": "MLevel_WB_3002121",
      "Offset": 3411
    },
    {
      "UniqueName": "MLevel_WB_3002122",
      "Offset": 3486
    },
    {
      "UniqueName": "MLevel_WB_3002123",
      "Offset": 3640
    },
    {
      "UniqueName": "MLevel_WB_3002124",
      "Offset": 3762
    },
    {
      "UniqueName": "MLevel_WB_3002125",
      "Offset": 3850
    },
    {
      "UniqueName": "MLevel_WB_3002126",
      "Offset": 3935
    },
    {
      "UniqueName": "MLevel_WB_3002126_Sub",
      "Offset": 4125
    },
    {
      "UniqueName": "MLevel_WB_3002127",
      "Offset": 4204
    },
    {
      "UniqueName": "MLevel_WB_3002128",
      "Offset": 4291
    },
    {
      "UniqueName": "MLevel_WB_3002129",
      "Offset": 4366
    },
    {
      "UniqueName": "MLevel_WB_3002201",
      "Offset": 4556
    },
    {
      "UniqueName": "MLevel_WB_3002201_Sub",
      "Offset": 4861
    },
    {
      "UniqueName": "MLevel_WB_3002202",
      "Offset": 4911
    },
    {
      "UniqueName": "MLevel_WB_3002203",
      "Offset": 5016
    },
    {
      "UniqueName": "MLevel_WB_3002221",
      "Offset": 5146
    },
    {
      "UniqueName": "MLevel_WB_3002222",
      "Offset": 5276
    },
    {
      "UniqueName": "MLevel_WB_3002223",
      "Offset": 5374
    },
    {
      "UniqueName": "MLevel_WB_3002224",
      "Offset": 5459
    },
    {
      "UniqueName": "MLevel_WB_3002225",
      "Offset": 5546
    },
    {
      "UniqueName": "MLevel_WB_3002226",
      "Offset": 5643
    },
    {
      "UniqueName": "MLevel_WB_3002226_Sub",
      "Offset": 5860
    },
    {
      "UniqueName": "MLevel_WB_3002227",
      "Offset": 5940
    },
    {
      "UniqueName": "MLevel_WB_3002228",
      "Offset": 6028
    },
    {
      "UniqueName": "MLevel_WB_3002229",
      "Offset": 6125
    },
    {
      "UniqueName": "MLevel_WB_3002401",
      "Offset": 6358
    },
    {
      "UniqueName": "MLevel_WB_3002401_Sub",
      "Offset": 6648
    },
    {
      "UniqueName": "MLevel_WB_3002402",
      "Offset": 6737
    },
    {
      "UniqueName": "MLevel_WB_3002403",
      "Offset": 6947
    },
    {
      "UniqueName": "MLevel_WB_3002403_Sub",
      "Offset": 7449
    },
    {
      "UniqueName": "MLevel_WB_3002421",
      "Offset": 7571
    },
    {
      "UniqueName": "MLevel_WB_3002422",
      "Offset": 7742
    },
    {
      "UniqueName": "MLevel_WB_3002423",
      "Offset": 7937
    },
    {
      "UniqueName": "MLevel_WB_3002424",
      "Offset": 8132
    },
    {
      "UniqueName": "MLevel_WB_3002425",
      "Offset": 8327
    },
    {
      "UniqueName": "MLevel_WB_3002426",
      "Offset": 8470
    },
    {
      "UniqueName": "MLevel_WB_3002427",
      "Offset": 8703
    },
    {
      "UniqueName": "MLevel_WB_3002428",
      "Offset": 8847
    },
    {
      "UniqueName": "MLevel_WB_3002429",
      "Offset": 9023
    },
    {
      "UniqueName": "MLevel_WB_3002501",
      "Offset": 9219
    },
    {
      "UniqueName": "MLevel_WB_3002501_Sub",
      "Offset": 9386
    },
    {
      "UniqueName": "MLevel_WB_3002502",
      "Offset": 9468
    },
    {
      "UniqueName": "MLevel_WB_3002502_Sub",
      "Offset": 9689
    },
    {
      "UniqueName": "MLevel_WB_3002503",
      "Offset": 9820
    },
    {
      "UniqueName": "MLevel_WB_3002503_Sub",
      "Offset": 10164
    },
    {
      "UniqueName": "MLevel_WB_3002521",
      "Offset": 10286
    },
    {
      "UniqueName": "MLevel_WB_3002523",
      "Offset": 10383
    },
    {
      "UniqueName": "MLevel_WB_3002523_Sub",
      "Offset": 10558
    },
    {
      "UniqueName": "MLevel_WB_3002525",
      "Offset": 10659
    },
    {
      "UniqueName": "MLevel_WB_3002526",
      "Offset": 10778
    },
    {
      "UniqueName": "MLevel_WB_3002527",
      "Offset": 10888
    },
    {
      "UniqueName": "MLevel_WB_3002527_Sub",
      "Offset": 11126
    },
    {
      "UniqueName": "MLevel_WB_3002528",
      "Offset": 11384
    },
    {
      "UniqueName": "MLevel_WB_3002528_Sub",
      "Offset": 11535
    },
    {
      "UniqueName": "MLevel_WB_3002529",
      "Offset": 11747
    },
    {
      "UniqueName": "MLevel_WB_3002529_Sub",
      "Offset": 12170
    }
  ]
}