{
  "BakeInfoLayouts": [
    {
      "UniqueName": "MMonster_Gepard_IceCounter",
      "Offset": 29
    },
    {
      "UniqueName": "Boss_Cocolia_P2_GlobalShield",
      "Offset": 242
    },
    {
      "UniqueName": "Boss_Cocolia_P2_Mirror_Buff",
      "Offset": 334
    },
    {
      "UniqueName": "Boss_Cocolia_P2_Shield_Dark",
      "Offset": 422
    },
    {
      "UniqueName": "MMonster_WRSoldier_01_UnFeverResistance",
      "Offset": 532
    },
    {
      "UniqueName": "MMonster_W1_Soldier_TeamBuff_00_TeamSupport",
      "Offset": 633
    },
    {
      "UniqueName": "MMonster_W2_Abomi_TeamBuff_00_DeathRattle",
      "Offset": 1133
    },
    {
      "UniqueName": "MMonster_W2_Abomi_TeamBuff_00_BuffUp",
      "Offset": 1367
    },
    {
      "UniqueName": "MMonster_W1_Mecha_TeamBuff_00_PowerDeliver",
      "Offset": 1853
    },
    {
      "UniqueName": "MMonster_W1_Mecha_TeamBuff_00_SpeedUp",
      "Offset": 2670
    },
    {
      "UniqueName": "MMonster_W1_Mecha_TeamBuff_00_AttackUp",
      "Offset": 2919
    },
    {
      "UniqueName": "MMonster_XP_Element_TeamBuff_00_ElementSurge",
      "Offset": 3175
    },
    {
      "UniqueName": "MMonster_XP_Element_TeamBuff_00_Frost",
      "Offset": 3422
    }
  ]
}