{
  "BakeInfoLayouts": [
    {
      "UniqueName": "MAssistant_Trigger_EnemyDelayChange",
      "Offset": 38
    },
    {
      "UniqueName": "MAssistant_Trigger_EnemyStatusChangeToBurn",
      "Offset": 219
    },
    {
      "UniqueName": "MAssistant_Trigger_AllEnemyBeingHitByFire",
      "Offset": 407
    },
    {
      "UniqueName": "MAssistant_Trigger_AvatarHPLoss",
      "Offset": 595
    },
    {
      "UniqueName": "MAssistant_Trigger_AvatarHPLoss_Add",
      "Offset": 693
    },
    {
      "UniqueName": "MAssistant_Trigger_OnAfterMazeSkill",
      "Offset": 842
    }
  ]
}