{
  "OnInitSequece": [],
  "OnStartSequece": [
    {
      "TaskList": [
        {
          "$type": "RPG.GameCore.LevelPerformanceInitialize",
          "PerformanceType": "D",
          "CreateCharacterList": [],
          "EntityVisiableList": [],
          "PropVisiableList": [],
          "MarkStreamingItems": []
        },
        {
          "$type": "RPG.GameCore.PerformanceTransition",
          "CreateNpcList": [
            {
              "GroupID": {
                "IsDynamic": false,
                "FixedValue": {
                  "Value": 77
                }
              },
              "GroupNpcID": {
                "IsDynamic": false,
                "FixedValue": {
                  "Value": 400002
                }
              },
              "NPCUniqueName": {
                "Value": "wayang01"
              },
              "CreateList": []
            },
            {
              "GroupID": {
                "IsDynamic": false,
                "FixedValue": {
                  "Value": 77
                }
              },
              "GroupNpcID": {
                "IsDynamic": false,
                "FixedValue": {
                  "Value": 400003
                }
              },
              "NPCUniqueName": {
                "Value": "qingni01"
              },
              "CreateList": []
            }
          ],
          "CaptureNpcList": [],
          "DestroyNpcList": [],
          "CreateProp": {
            "GroupID": {
              "IsDynamic": false,
              "FixedValue": {
                "Value": 0
              }
            },
            "GroupPropID": {
              "IsDynamic": false,
              "FixedValue": {
                "Value": 0
              }
            },
            "TaskEnabled": false
          },
          "DestroyProp": {
            "TargetType": {
              "$type": "RPG.GameCore.TargetFetchAdvPropEx"
            },
            "ID": {
              "IsDynamic": false,
              "FixedValue": {
                "Value": 0
              }
            },
            "GroupID": {
              "IsDynamic": false,
              "FixedValue": {
                "Value": 0
              }
            },
            "DestroyList": [],
            "TaskEnabled": false
          },
          "ActiveVirtualCamera": {
            "TaskEnabled": false
          },
          "ActiveTemplateVirtualCamera": {
            "TaskEnabled": false
          },
          "SwitchCharacterAnchor": {
            "IsLocalPlayer": true,
            "CharacterUniqueName": "LocalPlayer",
            "AreaName": {
              "Value": "LevelArea_P10201_F10201001_G77"
            },
            "AnchorName": {
              "Value": "Anchor2"
            }
          },
          "AdvNpcFaceToPlayer": {
            "TaskEnabled": false
          }
        },
        {
          "$type": "RPG.GameCore.ActiveVirtualCamera",
          "AreaName": "LevelArea_P10201_F10201001_G77",
          "AnchorName": "Anchor7"
        },
        {
          "$type": "RPG.GameCore.CharacterTriggerFreeStyle",
          "CharacterUniqueName": "wayang01",
          "StoryAvatarID": "NPC_Avatar_Male_Welt_00",
          "StoryMotionID": 310040200
        },
        {
          "$type": "RPG.GameCore.PlayAndWaitSimpleTalk",
          "SimpleTalkList": [
            {
              "TalkSentenceID": 202081702,
              "ProtectTime": 0.3
            }
          ]
        },
        {
          "$type": "RPG.GameCore.CharacterTriggerFreeStyle",
          "CharacterUniqueName": "qingni01",
          "StoryAvatarID": "NPC_Lady",
          "StoryMotionID": 100020230
        },
        {
          "$type": "RPG.GameCore.PlayAndWaitSimpleTalk",
          "SimpleTalkList": [
            {
              "TalkSentenceID": 202081703
            },
            {
              "TalkSentenceID": 202081704
            },
            {
              "TalkSentenceID": 202081705
            },
            {
              "TalkSentenceID": 202081706
            },
            {
              "TalkSentenceID": 202081707
            }
          ]
        },
        {
          "$type": "RPG.GameCore.CharacterTriggerFreeStyle",
          "CharacterUniqueName": "qingni01",
          "StoryAvatarID": "NPC_Lady",
          "StoryMotionID": 100020232
        },
        {
          "$type": "RPG.GameCore.PlayOptionTalk",
          "OptionList": [
            {
              "TalkSentenceID": 202081708,
              "OptionIconType": "ChatContinueIcon",
              "TriggerCustomString": "Talk_202081708"
            },
            {
              "TalkSentenceID": 202081710,
              "OptionIconType": "ChatContinueIcon",
              "TriggerCustomString": "Talk_202081710"
            },
            {
              "TalkSentenceID": 202081712,
              "OptionIconType": "ChatContinueIcon",
              "TriggerCustomString": "Talk_202081712"
            }
          ]
        }
      ]
    },
    {
      "TaskList": [
        {
          "$type": "RPG.GameCore.WaitCustomString",
          "CustomString": {
            "Value": "Talk_202081708"
          }
        },
        {
          "$type": "RPG.GameCore.CharacterTriggerFreeStyle",
          "CharacterUniqueName": "LocalPlayer",
          "StoryAvatarID": "NPC_Player",
          "NormalizedTimeWait": 0.3,
          "StoryMotionID": 200
        },
        {
          "$type": "RPG.GameCore.CharacterTriggerFreeStyle",
          "CharacterUniqueName": "qingni01",
          "StoryAvatarID": "NPC_Lady",
          "StoryMotionID": 100020236
        },
        {
          "$type": "RPG.GameCore.PlayAndWaitSimpleTalk",
          "SimpleTalkList": [
            {
              "TalkSentenceID": 202081709
            }
          ]
        },
        {
          "$type": "RPG.GameCore.TriggerCustomString",
          "CustomString": {
            "Value": "Talk_202081713"
          }
        }
      ]
    },
    {
      "TaskList": [
        {
          "$type": "RPG.GameCore.WaitCustomString",
          "CustomString": {
            "Value": "Talk_202081710"
          }
        },
        {
          "$type": "RPG.GameCore.CharacterTriggerFreeStyle",
          "CharacterUniqueName": "LocalPlayer",
          "StoryAvatarID": "NPC_Player",
          "NormalizedTimeWait": 0.3,
          "StoryMotionID": 200
        },
        {
          "$type": "RPG.GameCore.CharacterTriggerFreeStyle",
          "CharacterUniqueName": "qingni01",
          "StoryAvatarID": "NPC_Lady",
          "StoryMotionID": 100020209
        },
        {
          "$type": "RPG.GameCore.PlayAndWaitSimpleTalk",
          "SimpleTalkList": [
            {
              "TalkSentenceID": 202081711
            }
          ]
        },
        {
          "$type": "RPG.GameCore.CharacterTriggerFreeStyle",
          "CharacterUniqueName": "qingni01",
          "StoryAvatarID": "NPC_Lady",
          "StoryMotionID": 100020211
        },
        {
          "$type": "RPG.GameCore.TriggerCustomString",
          "CustomString": {
            "Value": "Talk_202081713"
          }
        }
      ]
    },
    {
      "TaskList": [
        {
          "$type": "RPG.GameCore.WaitCustomString",
          "CustomString": {
            "Value": "Talk_202081712"
          }
        },
        {
          "$type": "RPG.GameCore.CharacterTriggerFreeStyle",
          "CharacterUniqueName": "LocalPlayer",
          "StoryAvatarID": "NPC_Player",
          "NormalizedTimeWait": 0.3,
          "StoryMotionID": 200
        },
        {
          "$type": "RPG.GameCore.CharacterTriggerFreeStyle",
          "CharacterUniqueName": "qingni01",
          "StoryAvatarID": "NPC_Lady",
          "StoryMotionID": 100020209
        },
        {
          "$type": "RPG.GameCore.PlayAndWaitSimpleTalk",
          "SimpleTalkList": [
            {
              "TalkSentenceID": 202081713
            }
          ]
        },
        {
          "$type": "RPG.GameCore.CharacterTriggerFreeStyle",
          "CharacterUniqueName": "qingni01",
          "StoryAvatarID": "NPC_Lady",
          "StoryMotionID": 100020211
        },
        {
          "$type": "RPG.GameCore.TriggerCustomString",
          "CustomString": {
            "Value": "Talk_202081713"
          }
        }
      ]
    },
    {
      "TaskList": [
        {
          "$type": "RPG.GameCore.WaitCustomString",
          "CustomString": {
            "Value": "Talk_202081713"
          }
        },
        {
          "$type": "RPG.GameCore.CharacterTriggerFreeStyle",
          "CharacterUniqueName": "qingni01",
          "StoryAvatarID": "NPC_Lady",
          "StoryMotionID": 100020200
        },
        {
          "$type": "RPG.GameCore.PlayAndWaitSimpleTalk",
          "SimpleTalkList": [
            {
              "TalkSentenceID": 202081714
            },
            {
              "TalkSentenceID": 202081715
            },
            {
              "TalkSentenceID": 202081716
            }
          ]
        },
        {
          "$type": "RPG.GameCore.PlayAndWaitSimpleTalk",
          "SimpleTalkList": [
            {
              "TalkSentenceID": 202081717
            },
            {
              "TalkSentenceID": 202081718
            },
            {
              "TalkSentenceID": 202081719
            },
            {
              "TalkSentenceID": 202081720
            },
            {
              "TalkSentenceID": 202081721
            },
            {
              "TalkSentenceID": 202081722
            },
            {
              "TalkSentenceID": 202081723
            }
          ]
        },
        {
          "$type": "RPG.GameCore.TriggerCustomString",
          "CustomString": {
            "Value": "Talk_202081724"
          }
        }
      ]
    },
    {
      "TaskList": [
        {
          "$type": "RPG.GameCore.WaitCustomString",
          "CustomString": {
            "Value": "Talk_202081724"
          }
        },
        {
          "$type": "RPG.GameCore.TriggerSound",
          "SoundName": {
            "Value": "Ev_sfx_xianzhou_phone_buzz"
          },
          "EmitterType": "LocalPlayer"
        },
        {
          "$type": "RPG.GameCore.PerformanceTransition",
          "SwitchInTime": 1,
          "SwitchKeepTime": 1,
          "SwitchOutTime": 1,
          "TextEnabled": true,
          "TalkSentenceID": 202081724,
          "CreateNpcList": [
            {
              "GroupID": {
                "IsDynamic": false,
                "FixedValue": {
                  "Value": 77
                }
              },
              "GroupNpcID": {
                "IsDynamic": false,
                "FixedValue": {
                  "Value": 400004
                }
              },
              "CreateList": []
            },
            {
              "GroupID": {
                "IsDynamic": false,
                "FixedValue": {
                  "Value": 77
                }
              },
              "GroupNpcID": {
                "IsDynamic": false,
                "FixedValue": {
                  "Value": 400005
                }
              },
              "NPCUniqueName": {
                "Value": "qingni02"
              },
              "CreateList": []
            }
          ],
          "CaptureNpcList": [],
          "DestroyNpcList": [
            {
              "GroupID": 77,
              "GroupNpcID": 400002,
              "DestroyList": []
            },
            {
              "GroupID": 77,
              "GroupNpcID": 400003,
              "DestroyList": []
            }
          ],
          "CreateProp": {
            "GroupID": {
              "IsDynamic": false,
              "FixedValue": {
                "Value": 0
              }
            },
            "GroupPropID": {
              "IsDynamic": false,
              "FixedValue": {
                "Value": 0
              }
            },
            "TaskEnabled": false
          },
          "DestroyProp": {
            "TargetType": {
              "$type": "RPG.GameCore.TargetFetchAdvPropEx"
            },
            "ID": {
              "IsDynamic": false,
              "FixedValue": {
                "Value": 0
              }
            },
            "GroupID": {
              "IsDynamic": false,
              "FixedValue": {
                "Value": 0
              }
            },
            "DestroyList": [],
            "TaskEnabled": false
          },
          "ActiveVirtualCamera": {
            "TaskEnabled": false
          },
          "ActiveTemplateVirtualCamera": {
            "TaskEnabled": false
          },
          "SwitchCharacterAnchor": {
            "IsLocalPlayer": true,
            "CharacterUniqueName": "LocalPlayer",
            "AreaName": {
              "Value": "LevelArea_P10201_F10201001_G77"
            },
            "AnchorName": {
              "Value": "Anchor4"
            }
          },
          "AdvNpcFaceToPlayer": {
            "TaskEnabled": false
          }
        },
        {
          "$type": "RPG.GameCore.ActiveVirtualCamera",
          "AreaName": "LevelArea_P10201_F10201001_G77",
          "AnchorName": "Anchor7",
          "IsActive": false
        },
        {
          "$type": "RPG.GameCore.ActiveVirtualCamera",
          "AreaName": "LevelArea_P10201_F10201001_G77",
          "AnchorName": "Anchor6"
        },
        {
          "$type": "RPG.GameCore.PlayAndWaitSimpleTalk",
          "SimpleTalkList": [
            {
              "TalkSentenceID": 202081725
            },
            {
              "TalkSentenceID": 202081726
            },
            {
              "TalkSentenceID": 202081727
            },
            {
              "TalkSentenceID": 202081728
            }
          ]
        },
        {
          "$type": "RPG.GameCore.PlayOptionTalk",
          "OptionList": [
            {
              "TalkSentenceID": 202081729,
              "OptionIconType": "ChatContinueIcon",
              "TriggerCustomString": "Talk_202081729"
            },
            {
              "TalkSentenceID": 202081732,
              "OptionIconType": "ChatContinueIcon",
              "TriggerCustomString": "Talk_202081732"
            }
          ]
        }
      ]
    },
    {
      "TaskList": [
        {
          "$type": "RPG.GameCore.WaitCustomString",
          "CustomString": {
            "Value": "Talk_202081729"
          }
        },
        {
          "$type": "RPG.GameCore.CharacterTriggerFreeStyle",
          "CharacterUniqueName": "qingni02",
          "StoryAvatarID": "NPC_Lady",
          "StoryMotionID": 100020230
        },
        {
          "$type": "RPG.GameCore.PlayAndWaitSimpleTalk",
          "SimpleTalkList": [
            {
              "TalkSentenceID": 202081730
            },
            {
              "TalkSentenceID": 202081731
            }
          ]
        },
        {
          "$type": "RPG.GameCore.TriggerCustomString",
          "CustomString": {
            "Value": "ALL_END"
          }
        }
      ]
    },
    {
      "TaskList": [
        {
          "$type": "RPG.GameCore.WaitCustomString",
          "CustomString": {
            "Value": "Talk_202081732"
          }
        },
        {
          "$type": "RPG.GameCore.CharacterTriggerFreeStyle",
          "CharacterUniqueName": "qingni02",
          "StoryAvatarID": "NPC_Lady",
          "StoryMotionID": 100020236
        },
        {
          "$type": "RPG.GameCore.PlayAndWaitSimpleTalk",
          "SimpleTalkList": [
            {
              "TalkSentenceID": 202081733
            },
            {
              "TalkSentenceID": 202081734
            }
          ]
        },
        {
          "$type": "RPG.GameCore.TriggerCustomString",
          "CustomString": {
            "Value": "ALL_END"
          }
        }
      ]
    },
    {
      "TaskList": [
        {
          "$type": "RPG.GameCore.WaitCustomString",
          "CustomString": {
            "Value": "ALL_END"
          }
        },
        {
          "$type": "RPG.GameCore.ActiveVirtualCamera",
          "AreaName": "LevelArea_P10201_F10201001_G77",
          "AnchorName": "Anchor6",
          "IsActive": false
        },
        {
          "$type": "RPG.GameCore.PerformanceTransition",
          "SwitchInTime": 1,
          "SwitchKeepTime": 1,
          "SwitchOutTime": 1,
          "CreateNpcList": [],
          "CaptureNpcList": [],
          "DestroyNpcList": [
            {
              "GroupID": 77,
              "GroupNpcID": 400004,
              "DestroyList": []
            },
            {
              "GroupID": 77,
              "GroupNpcID": 400005,
              "DestroyList": []
            }
          ],
          "CreateProp": {
            "GroupID": {
              "IsDynamic": false,
              "FixedValue": {
                "Value": 0
              }
            },
            "GroupPropID": {
              "IsDynamic": false,
              "FixedValue": {
                "Value": 0
              }
            },
            "TaskEnabled": false
          },
          "DestroyProp": {
            "TargetType": {
              "$type": "RPG.GameCore.TargetFetchAdvPropEx"
            },
            "ID": {
              "IsDynamic": false,
              "FixedValue": {
                "Value": 0
              }
            },
            "GroupID": {
              "IsDynamic": false,
              "FixedValue": {
                "Value": 0
              }
            },
            "DestroyList": [],
            "TaskEnabled": false
          },
          "ActiveVirtualCamera": {
            "TaskEnabled": false
          },
          "ActiveTemplateVirtualCamera": {
            "TaskEnabled": false
          },
          "SwitchCharacterAnchor": {
            "CharacterUniqueName": "LocalPlayer",
            "AreaName": {
              "Value": "LevelArea_P10201_F10201001_G77"
            },
            "AnchorName": {
              "Value": "Anchor4"
            },
            "TaskEnabled": false
          },
          "AdvNpcFaceToPlayer": {
            "TaskEnabled": false
          }
        },
        {
          "$type": "RPG.GameCore.EndPerformance"
        }
      ]
    },
    {
      "TaskList": [
        {
          "$type": "RPG.GameCore.WaitPerformanceEnd"
        },
        {
          "$type": "RPG.GameCore.FinishLevelGraph"
        }
      ]
    }
  ]
}