{
  "OnInitSequece": [],
  "OnStartSequece": [
    {
      "TaskList": [
        {
          "$type": "RPG.GameCore.LevelPerformanceInitialize",
          "PerformanceType": "E",
          "CreateCharacterList": [],
          "EntityVisiableList": [],
          "HideMunicipalCrowd": false,
          "HideMunicipalPedestrian": false,
          "PropVisiableList": [],
          "MarkStreamingItems": []
        },
        {
          "$type": "RPG.GameCore.AdvEnablePropDialogMode",
          "EnablePropCamera": false,
          "LockPlayerControl": false,
          "TargetType": {
            "$type": "RPG.GameCore.TargetFetchAdvPropEx",
            "FetchType": "SinglePropByPropID",
            "SinglePropID": {
              "GroupID": {
                "IsDynamic": false,
                "FixedValue": {
                  "Value": 11
                }
              },
              "ID": {
                "IsDynamic": false,
                "FixedValue": {
                  "Value": 300001
                }
              }
            }
          }
        },
        {
          "$type": "RPG.GameCore.PlayAndWaitSimpleTalk",
          "SimpleTalkList": [
            {
              "TalkSentenceID": 411080101,
              "ProtectTime": 0.3
            },
            {
              "TalkSentenceID": 411080102,
              "ProtectTime": 0.3
            },
            {
              "TalkSentenceID": 411080103,
              "ProtectTime": 0.3
            },
            {
              "TalkSentenceID": 411080104,
              "ProtectTime": 0.3
            }
          ]
        },
        {
          "$type": "RPG.GameCore.PlayOptionTalk",
          "OptionList": [
            {
              "TalkSentenceID": 411080107,
              "OptionIconType": "ChatContinueIcon",
              "TriggerCustomString": "TalkSentence_411080108"
            },
            {
              "TalkSentenceID": 411080105,
              "OptionIconType": "ChatOutIcon",
              "TriggerCustomString": "TalkSentence_411080106"
            }
          ]
        }
      ]
    },
    {
      "TaskList": [
        {
          "$type": "RPG.GameCore.WaitCustomString",
          "CustomString": {
            "Value": "TalkSentence_411080106"
          }
        },
        {
          "$type": "RPG.GameCore.PlayAndWaitSimpleTalk",
          "SimpleTalkList": [
            {
              "TalkSentenceID": 411080106,
              "ProtectTime": 0.3
            }
          ]
        },
        {
          "$type": "RPG.GameCore.EndPerformance"
        }
      ]
    },
    {
      "TaskList": [
        {
          "$type": "RPG.GameCore.WaitCustomString",
          "CustomString": {
            "Value": "TalkSentence_411080108"
          }
        },
        {
          "$type": "RPG.GameCore.PlayAndWaitSimpleTalk",
          "SimpleTalkList": [
            {
              "TalkSentenceID": 411080108,
              "ProtectTime": 0.3
            }
          ]
        },
        {
          "$type": "RPG.GameCore.TriggerCustomString",
          "CustomString": {
            "Value": "TalkSentence_411080109"
          }
        }
      ]
    },
    {
      "TaskList": [
        {
          "$type": "RPG.GameCore.WaitCustomString",
          "CustomString": {
            "Value": "TalkSentence_411080109"
          }
        },
        {
          "$type": "RPG.GameCore.PlayAndWaitSimpleTalk",
          "BlackMask": true,
          "SimpleTalkList": [
            {
              "TalkSentenceID": 411080109,
              "ProtectTime": 0.3
            }
          ]
        },
        {
          "$type": "RPG.GameCore.TriggerSound",
          "SoundName": {
            "Value": "Ev_sfx_belobog_hwardrobe_close"
          },
          "EmitterType": "Prop",
          "GroupID": 11,
          "ID": 300001
        },
        {
          "$type": "RPG.GameCore.PlayAndWaitSimpleTalk",
          "BlackMask": true,
          "SimpleTalkList": [
            {
              "TalkSentenceID": 411080110,
              "ProtectTime": 0.3
            }
          ]
        },
        {
          "$type": "RPG.GameCore.PlayAndWaitSimpleTalk",
          "BlackMask": true,
          "SimpleTalkList": [
            {
              "TalkSentenceID": 411080111,
              "ProtectTime": 0.3
            },
            {
              "TalkSentenceID": 411080112,
              "ProtectTime": 0.3
            },
            {
              "TalkSentenceID": 411080113,
              "ProtectTime": 0.3
            }
          ]
        },
        {
          "$type": "RPG.GameCore.PlayOptionTalk",
          "OptionList": [
            {
              "TalkSentenceID": 411080144,
              "OptionIconType": "ChatContinueIcon",
              "TriggerCustomString": "TalkSentence__4040108_5"
            },
            {
              "TalkSentenceID": 411080145,
              "OptionIconType": "ChatContinueIcon",
              "TriggerCustomString": "TalkSentence__4040108_6"
            }
          ]
        }
      ]
    },
    {
      "TaskList": [
        {
          "$type": "RPG.GameCore.WaitCustomString",
          "CustomString": {
            "Value": "TalkSentence__4040108_5"
          }
        },
        {
          "$type": "RPG.GameCore.PlayAndWaitSimpleTalk",
          "BlackMask": true,
          "SimpleTalkList": [
            {
              "TalkSentenceID": 411080114,
              "ProtectTime": 0.3
            }
          ]
        },
        {
          "$type": "RPG.GameCore.TriggerCustomString",
          "CustomString": {
            "Value": "TalkSentence__4040108_7"
          }
        }
      ]
    },
    {
      "TaskList": [
        {
          "$type": "RPG.GameCore.WaitCustomString",
          "CustomString": {
            "Value": "TalkSentence__4040108_6"
          }
        },
        {
          "$type": "RPG.GameCore.PlayAndWaitSimpleTalk",
          "BlackMask": true,
          "SimpleTalkList": [
            {
              "TalkSentenceID": 411080115,
              "ProtectTime": 0.3
            }
          ]
        },
        {
          "$type": "RPG.GameCore.TriggerCustomString",
          "CustomString": {
            "Value": "TalkSentence__4040108_7"
          }
        }
      ]
    },
    {
      "TaskList": [
        {
          "$type": "RPG.GameCore.WaitCustomString",
          "CustomString": {
            "Value": "TalkSentence__4040108_7"
          }
        },
        {
          "$type": "RPG.GameCore.PlayAndWaitSimpleTalk",
          "BlackMask": true,
          "SimpleTalkList": [
            {
              "TalkSentenceID": 411080116,
              "ProtectTime": 0.3
            }
          ]
        },
        {
          "$type": "RPG.GameCore.TriggerSound",
          "SoundName": {
            "Value": "Ev_sfx_belobog_hwardrobe_foot"
          },
          "EmitterType": "Prop",
          "GroupID": 11,
          "ID": 300001
        },
        {
          "$type": "RPG.GameCore.PlayAndWaitSimpleTalk",
          "BlackMask": true,
          "SimpleTalkList": [
            {
              "TalkSentenceID": 411080117,
              "ProtectTime": 0.3
            }
          ]
        },
        {
          "$type": "RPG.GameCore.PlayOptionTalk",
          "OptionList": [
            {
              "TalkSentenceID": 411080138,
              "OptionIconType": "ChatContinueIcon",
              "TriggerCustomString": "TalkSentence__4040108_1"
            },
            {
              "TalkSentenceID": 411080141,
              "OptionIconType": "ChatContinueIcon",
              "TriggerCustomString": "TalkSentence__4040108_2"
            }
          ]
        }
      ]
    },
    {
      "TaskList": [
        {
          "$type": "RPG.GameCore.WaitCustomString",
          "CustomString": {
            "Value": "TalkSentence__4040108_1"
          }
        },
        {
          "$type": "RPG.GameCore.PlayAndWaitSimpleTalk",
          "BlackMask": true,
          "SimpleTalkList": [
            {
              "TalkSentenceID": 411080118,
              "ProtectTime": 0.3
            }
          ]
        },
        {
          "$type": "RPG.GameCore.PlayOptionTalk",
          "OptionList": [
            {
              "TalkSentenceID": 411080139,
              "OptionIconType": "ChatContinueIcon",
              "TriggerCustomString": "TalkSentence__4040108_3"
            },
            {
              "TalkSentenceID": 411080140,
              "OptionIconType": "ChatContinueIcon",
              "TriggerCustomString": "TalkSentence__4040108_4"
            }
          ]
        }
      ]
    },
    {
      "TaskList": [
        {
          "$type": "RPG.GameCore.WaitCustomString",
          "CustomString": {
            "Value": "TalkSentence__4040108_2"
          }
        },
        {
          "$type": "RPG.GameCore.PlayAndWaitSimpleTalk",
          "BlackMask": true,
          "SimpleTalkList": [
            {
              "TalkSentenceID": 411080123,
              "ProtectTime": 0.3
            }
          ]
        },
        {
          "$type": "RPG.GameCore.PlayOptionTalk",
          "OptionList": [
            {
              "TalkSentenceID": 411080139,
              "OptionIconType": "ChatContinueIcon",
              "TriggerCustomString": "TalkSentence__4040108_3"
            },
            {
              "TalkSentenceID": 411080140,
              "OptionIconType": "ChatContinueIcon",
              "TriggerCustomString": "TalkSentence__4040108_4"
            }
          ]
        }
      ]
    },
    {
      "TaskList": [
        {
          "$type": "RPG.GameCore.WaitCustomString",
          "CustomString": {
            "Value": "TalkSentence__4040108_3"
          }
        },
        {
          "$type": "RPG.GameCore.PlayAndWaitSimpleTalk",
          "BlackMask": true,
          "SimpleTalkList": [
            {
              "TalkSentenceID": 411080119,
              "ProtectTime": 0.3
            },
            {
              "TalkSentenceID": 411080120,
              "ProtectTime": 0.3
            }
          ]
        },
        {
          "$type": "RPG.GameCore.TriggerCustomString",
          "CustomString": {
            "Value": "TalkEnd_404010801"
          }
        }
      ]
    },
    {
      "TaskList": [
        {
          "$type": "RPG.GameCore.WaitCustomString",
          "CustomString": {
            "Value": "TalkSentence__4040108_4"
          }
        },
        {
          "$type": "RPG.GameCore.PlayAndWaitSimpleTalk",
          "BlackMask": true,
          "SimpleTalkList": [
            {
              "TalkSentenceID": 411080121,
              "ProtectTime": 0.3
            },
            {
              "TalkSentenceID": 411080122,
              "ProtectTime": 0.3
            }
          ]
        },
        {
          "$type": "RPG.GameCore.TriggerCustomString",
          "CustomString": {
            "Value": "TalkEnd_404010801"
          }
        }
      ]
    },
    {
      "TaskList": [
        {
          "$type": "RPG.GameCore.WaitCustomString",
          "CustomString": {
            "Value": "TalkEnd_404010801"
          }
        },
        {
          "$type": "RPG.GameCore.PlayAndWaitSimpleTalk",
          "BlackMask": true,
          "SimpleTalkList": [
            {
              "TalkSentenceID": 411080128,
              "ProtectTime": 0.3
            },
            {
              "TalkSentenceID": 411080129,
              "ProtectTime": 0.3
            }
          ]
        },
        {
          "$type": "RPG.GameCore.TriggerSound",
          "SoundName": {
            "Value": "Ev_sfx_belobog_hwardrobe_knocked"
          },
          "EmitterType": "Prop",
          "GroupID": 11,
          "ID": 300001
        },
        {
          "$type": "RPG.GameCore.PlayAndWaitSimpleTalk",
          "BlackMask": true,
          "SimpleTalkList": [
            {
              "TalkSentenceID": 411080130,
              "ProtectTime": 0.3
            },
            {
              "TalkSentenceID": 411080131,
              "ProtectTime": 0.3
            },
            {
              "TalkSentenceID": 411080132,
              "ProtectTime": 0.3
            },
            {
              "TalkSentenceID": 411080133
            }
          ]
        },
        {
          "$type": "RPG.GameCore.TriggerSound",
          "SoundName": {
            "Value": "Ev_sfx_belobog_hwardrobe_opendoor"
          },
          "EmitterType": "Prop",
          "GroupID": 11,
          "ID": 300001
        },
        {
          "$type": "RPG.GameCore.PlayAndWaitSimpleTalk",
          "BlackMask": true,
          "SimpleTalkList": [
            {
              "TalkSentenceID": 411080134,
              "ProtectTime": 0.3
            }
          ]
        },
        {
          "$type": "RPG.GameCore.PlayOptionTalk",
          "OptionList": [
            {
              "TalkSentenceID": 411080142,
              "OptionIconType": "ChatContinueIcon",
              "TriggerCustomString": "TalkEnd_404010801_Final"
            },
            {
              "TalkSentenceID": 411080143,
              "OptionIconType": "ChatContinueIcon",
              "TriggerCustomString": "TalkEnd_404010801_Final"
            }
          ]
        }
      ]
    },
    {
      "TaskList": [
        {
          "$type": "RPG.GameCore.WaitCustomString",
          "CustomString": {
            "Value": "TalkEnd_404010801_Final"
          }
        },
        {
          "$type": "RPG.GameCore.TriggerSound",
          "SoundName": {
            "Value": "Ev_sfx_belobog_hwardrobe_open"
          },
          "EmitterType": "Prop",
          "GroupID": 11,
          "ID": 300001
        },
        {
          "$type": "RPG.GameCore.PlayAndWaitSimpleTalk",
          "BlackMask": true,
          "SimpleTalkList": [
            {
              "TalkSentenceID": 411080135,
              "ProtectTime": 0.3
            }
          ]
        },
        {
          "$type": "RPG.GameCore.PerformanceTransition",
          "CreateNpcList": [],
          "CaptureNpcList": [],
          "DestroyNpcList": [],
          "ActiveVirtualCamera": {
            "TaskEnabled": false
          },
          "SwitchCharacterAnchor": {
            "IsLocalPlayer": true,
            "CharacterUniqueName": "LocalPlayer",
            "AreaName": {
              "Value": "LevelArea_P10101_F10101006_G11"
            },
            "AnchorName": {
              "Value": "Anchor1_4040108"
            }
          }
        },
        {
          "$type": "RPG.GameCore.PlayAndWaitSimpleTalk",
          "SimpleTalkList": [
            {
              "TalkSentenceID": 411080136,
              "ProtectTime": 0.3
            },
            {
              "TalkSentenceID": 411080137,
              "ProtectTime": 0.3
            }
          ]
        },
        {
          "$type": "RPG.GameCore.TriggerCustomString",
          "CustomString": {
            "Value": "Sub_404010801_End"
          }
        },
        {
          "$type": "RPG.GameCore.EndPerformance"
        }
      ]
    },
    {
      "TaskList": [
        {
          "$type": "RPG.GameCore.WaitPerformanceEnd"
        },
        {
          "$type": "RPG.GameCore.FinishLevelGraph"
        }
      ]
    }
  ]
}