{
  "OnInitSequece": [],
  "OnStartSequece": [
    {
      "TaskList": []
    },
    {
      "TaskList": [
        {
          "$type": "RPG.GameCore.PropSetupUITrigger",
          "DestroyAfterTriggered": true,
          "IconType": "ChatLoopIcon",
          "ButtonText": {
            "Hash": 278713937
          },
          "ButtonCallback": [
            {
              "$type": "RPG.GameCore.TriggerCustomString",
              "CustomString": {
                "Value": "Performance_202030611"
              }
            }
          ],
          "OverrideTargetTypes": [],
          "TargetType": {
            "$type": "RPG.GameCore.TargetFetchAdvPropEx",
            "FetchType": "SinglePropByPropID",
            "SinglePropID": {
              "GroupID": {
                "IsDynamic": false,
                "FixedValue": {
                  "Value": 110
                }
              },
              "ID": {
                "IsDynamic": false,
                "FixedValue": {
                  "Value": 300002
                }
              }
            }
          }
        }
      ]
    },
    {
      "TaskList": []
    },
    {
      "TaskList": [
        {
          "$type": "RPG.GameCore.WaitCustomString",
          "CustomString": {
            "Value": "Performance_202030611"
          }
        },
        {
          "$type": "RPG.GameCore.SetAudioEmotionState",
          "StateName": "State_Joyful"
        },
        {
          "$type": "RPG.GameCore.TriggerPerformance",
          "ValueSource": {},
          "PerformanceType": "C",
          "PerformanceID": 202030611
        },
        {
          "$type": "RPG.GameCore.SetAudioEmotionState",
          "ResetToFloorDefault": true
        },
        {
          "$type": "RPG.GameCore.FinishPerformanceMission",
          "Key": "Mission_202030611"
        }
      ]
    }
  ],
  "Type": "Mission"
}