{
  "BakeInfoLayouts": [
    {
      "UniqueName": "MAvatar_Serval_00_Rank06_Check",
      "Offset": 4806
    },
    {
      "UniqueName": "MAvatar_Serval_00_Rank06_Check_Show",
      "Offset": 5003
    },
    {
      "UniqueName": "Avatar_Serval_Skill01_Phase01",
      "TypeId": "TypeId_TurnBasedAbilityConfig",
      "Offset": 2
    },
    {
      "UniqueName": "Avatar_Serval_Skill01_Phase02",
      "TypeId": "TypeId_TurnBasedAbilityConfig",
      "Offset": 304
    },
    {
      "UniqueName": "Avatar_Serval_Skill02_Phase01",
      "TypeId": "TypeId_TurnBasedAbilityConfig",
      "Offset": 1081
    },
    {
      "UniqueName": "Avatar_Serval_Skill02_Phase02",
      "TypeId": "TypeId_TurnBasedAbilityConfig",
      "Offset": 1377
    },
    {
      "UniqueName": "Avatar_Serval_Skill03_EnterReady",
      "TypeId": "TypeId_TurnBasedAbilityConfig",
      "Offset": 2211
    },
    {
      "UniqueName": "Avatar_Serval_Skill03_Phase01",
      "TypeId": "TypeId_TurnBasedAbilityConfig",
      "Offset": 2541
    },
    {
      "UniqueName": "Avatar_Serval_Skill03_Phase02",
      "TypeId": "TypeId_TurnBasedAbilityConfig",
      "Offset": 2804
    },
    {
      "UniqueName": "Avatar_Serval_PassiveSkill01",
      "TypeId": "TypeId_TurnBasedAbilityConfig",
      "Offset": 3305
    },
    {
      "UniqueName": "Avatar_Serval_SkillTree02",
      "TypeId": "TypeId_TurnBasedAbilityConfig",
      "Offset": 3751
    },
    {
      "UniqueName": "Avatar_Serval_SkillTree03",
      "TypeId": "TypeId_TurnBasedAbilityConfig",
      "Offset": 3986
    },
    {
      "UniqueName": "Avatar_Serval_00_SkillMazeInLevel",
      "TypeId": "TypeId_TurnBasedAbilityConfig",
      "Offset": 4173
    },
    {
      "UniqueName": "Avatar_Serval_00_Rank06",
      "TypeId": "TypeId_TurnBasedAbilityConfig",
      "Offset": 4634
    }
  ]
}