{
  "BakeInfoLayouts": [
    {
      "UniqueName": "MAvatar_Yukong_00_Flower",
      "Offset": 8960
    },
    {
      "UniqueName": "MAvatar_Yukong_00_Flower_ATK",
      "Offset": 10129
    },
    {
      "UniqueName": "MAvatar_Yukong_00_Flower_ATK_Crit",
      "Offset": 10220
    },
    {
      "UniqueName": "MAvatar_Yukong_00_Flower_ActionTurn",
      "Offset": 10459
    },
    {
      "UniqueName": "MAvatar_Yukong_00_Passive_Bonus",
      "Offset": 10492
    },
    {
      "UniqueName": "MAvatar_Yukong_00_Passive_BonusCD",
      "Offset": 10613
    },
    {
      "UniqueName": "MAvatar_Yukong_00_Rank04_Flower_Bonus",
      "Offset": 10844
    },
    {
      "UniqueName": "MAvatar_Yukong_00_FlowerListen",
      "Offset": 10931
    },
    {
      "UniqueName": "Avatar_Yukong_00_Skill01_Phase01",
      "TypeId": "TypeId_TurnBasedAbilityConfig",
      "Offset": 2
    },
    {
      "UniqueName": "Avatar_Yukong_00_Skill01_Phase02",
      "TypeId": "TypeId_TurnBasedAbilityConfig",
      "Offset": 314
    },
    {
      "UniqueName": "Avatar_Yukong_00_Skill02_Phase01",
      "TypeId": "TypeId_TurnBasedAbilityConfig",
      "Offset": 2448
    },
    {
      "UniqueName": "Avatar_Yukong_00_Skill02_Phase02",
      "TypeId": "TypeId_TurnBasedAbilityConfig",
      "Offset": 2683
    },
    {
      "UniqueName": "Avatar_Yukong_00_Skill02_AddFlower",
      "TypeId": "TypeId_TurnBasedAbilityConfig",
      "Offset": 3233
    },
    {
      "UniqueName": "Avatar_Yukong_00_Skill02_CountDown",
      "TypeId": "TypeId_TurnBasedAbilityConfig",
      "Offset": 3586
    },
    {
      "UniqueName": "Avatar_Yukong_00_Skill03_EnterReady",
      "TypeId": "TypeId_TurnBasedAbilityConfig",
      "Offset": 3925
    },
    {
      "UniqueName": "Avatar_Yukong_00_Skill03_Phase01",
      "TypeId": "TypeId_TurnBasedAbilityConfig",
      "Offset": 4278
    },
    {
      "UniqueName": "Avatar_Yukong_00_Skill03_Phase02",
      "TypeId": "TypeId_TurnBasedAbilityConfig",
      "Offset": 4667
    },
    {
      "UniqueName": "Avatar_Yukong_00_Skill03_AddFlower",
      "TypeId": "TypeId_TurnBasedAbilityConfig",
      "Offset": 5144
    },
    {
      "UniqueName": "Avatar_Yukong_00_PassiveSkill01",
      "TypeId": "TypeId_TurnBasedAbilityConfig",
      "Offset": 5902
    },
    {
      "UniqueName": "Avatar_Yukong_00_SkillMazeInLevel",
      "TypeId": "TypeId_TurnBasedAbilityConfig",
      "Offset": 6222
    },
    {
      "UniqueName": "Avatar_Yukong_SkillTree01",
      "TypeId": "TypeId_TurnBasedAbilityConfig",
      "Offset": 6439
    },
    {
      "UniqueName": "Avatar_Yukong_SkillTree02",
      "TypeId": "TypeId_TurnBasedAbilityConfig",
      "Offset": 7258
    },
    {
      "UniqueName": "Avatar_Yukong_Rank01",
      "TypeId": "TypeId_TurnBasedAbilityConfig",
      "Offset": 7757
    },
    {
      "UniqueName": "Avatar_Yukong_Rank02",
      "TypeId": "TypeId_TurnBasedAbilityConfig",
      "Offset": 8112
    }
  ]
}