{
  "BakeInfoLayouts": [
    {
      "UniqueName": "MAvatar_Bailu_Revive_Ready",
      "Offset": 6578
    },
    {
      "UniqueName": "MAvatar_Bailu_Heal_Mark",
      "Offset": 6843
    },
    {
      "UniqueName": "MAvatar_Bailu_00_PointB1",
      "Offset": 7407
    },
    {
      "UniqueName": "MAvatar_Bailu_00_PointB1_Sub",
      "Offset": 7715
    },
    {
      "UniqueName": "MAvatar_Bailu_00_PointB1_HPIncrease",
      "Offset": 7939
    },
    {
      "UniqueName": "MAvatar_Bailu_00_PointB3",
      "Offset": 8011
    },
    {
      "UniqueName": "MAvatar_Bailu_00_Rank02",
      "Offset": 8091
    },
    {
      "UniqueName": "MAvatar_Bailu_00_Rank04",
      "Offset": 8173
    },
    {
      "UniqueName": "MAvatar_Bailu_00_Rank04_AttackUp",
      "Offset": 8324
    },
    {
      "UniqueName": "MAvatar_Bailu_Revive_Mark",
      "Offset": 8491
    },
    {
      "UniqueName": "Avatar_Bailu_00_Skill01_Phase01",
      "TypeId": "TypeId_TurnBasedAbilityConfig",
      "Offset": 2
    },
    {
      "UniqueName": "Avatar_Bailu_00_Skill01_Phase02",
      "TypeId": "TypeId_TurnBasedAbilityConfig",
      "Offset": 209
    },
    {
      "UniqueName": "Avatar_Bailu_00_Skill02_Phase01",
      "TypeId": "TypeId_TurnBasedAbilityConfig",
      "Offset": 488
    },
    {
      "UniqueName": "Avatar_Bailu_00_Skill02_Phase02",
      "TypeId": "TypeId_TurnBasedAbilityConfig",
      "Offset": 701
    },
    {
      "UniqueName": "Avatar_Bailu_00_Skill03_EnterReady",
      "TypeId": "TypeId_TurnBasedAbilityConfig",
      "Offset": 2210
    },
    {
      "UniqueName": "Avatar_Bailu_00_Skill03_Phase01",
      "TypeId": "TypeId_TurnBasedAbilityConfig",
      "Offset": 2482
    },
    {
      "UniqueName": "Avatar_Bailu_00_Skill03_Phase02",
      "TypeId": "TypeId_TurnBasedAbilityConfig",
      "Offset": 2839
    },
    {
      "UniqueName": "Avatar_Bailu_00_PassiveSkill01",
      "TypeId": "TypeId_TurnBasedAbilityConfig",
      "Offset": 3984
    },
    {
      "UniqueName": "Avatar_Bailu_00_InsertSkill_Revive",
      "TypeId": "TypeId_TurnBasedAbilityConfig",
      "Offset": 4762
    },
    {
      "UniqueName": "Avatar_Bailu_00_SkillMazeInLevel",
      "TypeId": "TypeId_TurnBasedAbilityConfig",
      "Offset": 5744
    },
    {
      "UniqueName": "Avatar_Bailu_SkillTree01",
      "TypeId": "TypeId_TurnBasedAbilityConfig",
      "Offset": 6456
    },
    {
      "UniqueName": "Avatar_Bailu_SkillTree02",
      "TypeId": "TypeId_TurnBasedAbilityConfig",
      "Offset": 6521
    }
  ]
}