{
  "BakeInfoLayouts": [
    {
      "UniqueName": "MAvatar_AetherDivide_W2_Mecha03_00_Critical",
      "Offset": 8343
    },
    {
      "UniqueName": "MAvatar_AetherDivide_W2_Mecha03_00_UltraMode",
      "Offset": 8498
    },
    {
      "UniqueName": "MAvatar_AetherDivide_W2_Mecha03_00_BE_1",
      "Offset": 9122
    },
    {
      "UniqueName": "MAvatar_AetherDivide_W2_Mecha03_00_BE_2",
      "Offset": 9163
    },
    {
      "UniqueName": "MAvatar_AetherDivide_W2_Mecha03_00_BE_Life",
      "Offset": 9207
    },
    {
      "UniqueName": "MAvatar_AetherDivide_W2_Mecha03_00_Ultra_Block",
      "Offset": 9257
    },
    {
      "UniqueName": "Avatar_AetherDivide_W2_Mecha03_00_Skill01_Phase01",
      "TypeId": "TypeId_TurnBasedAbilityConfig",
      "Offset": 2
    },
    {
      "UniqueName": "Avatar_AetherDivide_W2_Mecha03_00_Skill01_Phase02",
      "TypeId": "TypeId_TurnBasedAbilityConfig",
      "Offset": 333
    },
    {
      "UniqueName": "Avatar_AetherDivide_W2_Mecha03_00_Skill11_Phase01",
      "TypeId": "TypeId_TurnBasedAbilityConfig",
      "Offset": 825
    },
    {
      "UniqueName": "Avatar_AetherDivide_W2_Mecha03_00_Skill11_Phase02",
      "TypeId": "TypeId_TurnBasedAbilityConfig",
      "Offset": 1156
    },
    {
      "UniqueName": "Avatar_AetherDivide_W2_Mecha03_00_Skill02_Phase01",
      "TypeId": "TypeId_TurnBasedAbilityConfig",
      "Offset": 2086
    },
    {
      "UniqueName": "Avatar_AetherDivide_W2_Mecha03_00_Skill02_Phase02",
      "TypeId": "TypeId_TurnBasedAbilityConfig",
      "Offset": 2330
    },
    {
      "UniqueName": "Avatar_AetherDivide_W2_Mecha03_00_Skill03_EnterReady",
      "TypeId": "TypeId_TurnBasedAbilityConfig",
      "Offset": 2925
    },
    {
      "UniqueName": "Avatar_AetherDivide_W2_Mecha03_00_Skill03_Phase01",
      "TypeId": "TypeId_TurnBasedAbilityConfig",
      "Offset": 3175
    },
    {
      "UniqueName": "Avatar_AetherDivide_W2_Mecha03_00_Skill03_Phase02",
      "TypeId": "TypeId_TurnBasedAbilityConfig",
      "Offset": 3420
    },
    {
      "UniqueName": "Avatar_AetherDivide_W2_Mecha03_00_PassiveSkill01",
      "TypeId": "TypeId_TurnBasedAbilityConfig",
      "Offset": 4713
    },
    {
      "UniqueName": "Avatar_AetherDivide_W2_Mecha03_00_BE_Damage",
      "TypeId": "TypeId_TurnBasedAbilityConfig",
      "Offset": 6069
    },
    {
      "UniqueName": "Avatar_AetherDivide_W2_Mecha03_00_BE_PassiveSkill01_Insert",
      "TypeId": "TypeId_TurnBasedAbilityConfig",
      "Offset": 6779
    },
    {
      "UniqueName": "Avatar_AetherDivide_W2_Mecha03_00_BE_PassiveSkill01",
      "TypeId": "TypeId_TurnBasedAbilityConfig",
      "Offset": 7439
    },
    {
      "UniqueName": "Avatar_AetherDivide_W2_Mecha03_00_SkillMazeInLevel",
      "TypeId": "TypeId_TurnBasedAbilityConfig",
      "Offset": 8243
    }
  ]
}