{
  "BakeInfoLayouts": [
    {
      "UniqueName": "MAvatar_Luocha_00_Skill02_AddHealRatio",
      "Offset": 9710
    },
    {
      "UniqueName": "MAvatar_Luocha_00_Skill02_Shield",
      "Offset": 9780
    },
    {
      "UniqueName": "MAvatar_Luocha_00_Passive01_HealHPCD",
      "Offset": 10172
    },
    {
      "UniqueName": "MAvatar_Luocha_00_Passive01Modifier",
      "Offset": 10212
    },
    {
      "UniqueName": "MAvatar_Luocha_00_Passive01_InsertMark",
      "Offset": 10403
    },
    {
      "UniqueName": "MAvatar_Luocha_00_Rank01_ATKUp",
      "Offset": 10588
    },
    {
      "UniqueName": "MAvatar_Luocha_00_Rank06_AllDamageTypeResistance",
      "Offset": 10694
    },
    {
      "UniqueName": "Avatar_Luocha_00_Skill01_Phase01",
      "TypeId": "TypeId_TurnBasedAbilityConfig",
      "Offset": 2
    },
    {
      "UniqueName": "Avatar_Luocha_00_Skill01_Phase02",
      "TypeId": "TypeId_TurnBasedAbilityConfig",
      "Offset": 503
    },
    {
      "UniqueName": "Avatar_Luocha_00_Skill02_Phase01",
      "TypeId": "TypeId_TurnBasedAbilityConfig",
      "Offset": 1246
    },
    {
      "UniqueName": "Avatar_Luocha_00_Skill02_Phase02",
      "TypeId": "TypeId_TurnBasedAbilityConfig",
      "Offset": 1462
    },
    {
      "UniqueName": "Avatar_Luocha_00_Skill03_EnterReady",
      "TypeId": "TypeId_TurnBasedAbilityConfig",
      "Offset": 2408
    },
    {
      "UniqueName": "Avatar_Luocha_00_Skill03_Phase01",
      "TypeId": "TypeId_TurnBasedAbilityConfig",
      "Offset": 2758
    },
    {
      "UniqueName": "Avatar_Luocha_00_Skill03_Phase02",
      "TypeId": "TypeId_TurnBasedAbilityConfig",
      "Offset": 3695
    },
    {
      "UniqueName": "Avatar_Luocha_00_PassiveSkill01",
      "TypeId": "TypeId_TurnBasedAbilityConfig",
      "Offset": 4284
    },
    {
      "UniqueName": "Avatar_Luocha_00_Skill02_InsertAbility",
      "TypeId": "TypeId_TurnBasedAbilityConfig",
      "Offset": 5735
    },
    {
      "UniqueName": "Avatar_Luocha_00_Passive01_InsertAbility",
      "TypeId": "TypeId_TurnBasedAbilityConfig",
      "Offset": 6584
    },
    {
      "UniqueName": "Avatar_Luocha_00_SkillMazeInLevel",
      "TypeId": "TypeId_TurnBasedAbilityConfig",
      "Offset": 9284
    },
    {
      "UniqueName": "Avatar_Luocha_SkillTree03",
      "TypeId": "TypeId_TurnBasedAbilityConfig",
      "Offset": 9512
    }
  ]
}