{
  "BakeInfoLayouts": [
    {
      "UniqueName": "Avatar_QingQue_Skill11PreShowModifier",
      "Offset": 18235
    },
    {
      "UniqueName": "MAvatar_QingQue_00_BPSkill_DamageUp",
      "Offset": 18427
    },
    {
      "UniqueName": "MAvatar_QingQue_Passive_Hu",
      "Offset": 18630
    },
    {
      "UniqueName": "MAvatar_QingQue_PassiveCount_QingqueSelf",
      "Offset": 18793
    },
    {
      "UniqueName": "MAvatar_QingQue_PassiveCount_Teammate",
      "Offset": 22401
    },
    {
      "UniqueName": "MAvatar_QingQue_PassiveCount",
      "Offset": 22591
    },
    {
      "UniqueName": "MAvatar_QingQue_Passive_Wan",
      "Offset": 24091
    },
    {
      "UniqueName": "MAvatar_QingQue_Passive_Tong",
      "Offset": 24333
    },
    {
      "UniqueName": "MAvatar_QingQue_Passive_Tiao",
      "Offset": 24577
    },
    {
      "UniqueName": "MAvatar_QingQue_Passive_Yu",
      "Offset": 24818
    },
    {
      "UniqueName": "MWAvatar_Qingque_Attack_Transfer",
      "Offset": 24860
    },
    {
      "UniqueName": "MAvatar_QingQue_Passive_Hu_Flag",
      "Offset": 25119
    },
    {
      "UniqueName": "MAvatar_QingQue_Passive_Hu_Flag_Wan",
      "Offset": 25156
    },
    {
      "UniqueName": "MAvatar_QingQue_Passive_Hu_Flag_Tong",
      "Offset": 25194
    },
    {
      "UniqueName": "MAvatar_QingQue_Passive_Hu_Flag_Tiao",
      "Offset": 25232
    },
    {
      "UniqueName": "MAvatar_QingQue_Passive_Hu_Flag_Yu",
      "Offset": 25268
    },
    {
      "UniqueName": "MAvatar_QingQue_Passive_Hu_01",
      "Offset": 25299
    },
    {
      "UniqueName": "MAvatar_Qingque_SpeedUpPointB3",
      "Offset": 25331
    },
    {
      "UniqueName": "MAvatar_QingQue_00_Rank04_ATK",
      "Offset": 25421
    },
    {
      "UniqueName": "Avatar_QingQue_00_Skill01_Phase01",
      "TypeId": "TypeId_TurnBasedAbilityConfig",
      "Offset": 2
    },
    {
      "UniqueName": "Avatar_QingQue_00_Skill01_Phase02",
      "TypeId": "TypeId_TurnBasedAbilityConfig",
      "Offset": 164
    },
    {
      "UniqueName": "Avatar_QingQue_00_Skill11_Phase01",
      "TypeId": "TypeId_TurnBasedAbilityConfig",
      "Offset": 5092
    },
    {
      "UniqueName": "Avatar_QingQue_00_Skill11_Phase02",
      "TypeId": "TypeId_TurnBasedAbilityConfig",
      "Offset": 5378
    },
    {
      "UniqueName": "Avatar_QingQue_00_Skill02_Phase01",
      "TypeId": "TypeId_TurnBasedAbilityConfig",
      "Offset": 6514
    },
    {
      "UniqueName": "Avatar_QingQue_00_Skill02_Phase02",
      "TypeId": "TypeId_TurnBasedAbilityConfig",
      "Offset": 6742
    },
    {
      "UniqueName": "Avatar_Qingque_00_BpInsertAction",
      "TypeId": "TypeId_TurnBasedAbilityConfig",
      "Offset": 9220
    },
    {
      "UniqueName": "Avatar_Qingque_00_BpInsertAction_Wan",
      "TypeId": "TypeId_TurnBasedAbilityConfig",
      "Offset": 9416
    },
    {
      "UniqueName": "Avatar_Qingque_00_BpInsertAction_Tong",
      "TypeId": "TypeId_TurnBasedAbilityConfig",
      "Offset": 10277
    },
    {
      "UniqueName": "Avatar_Qingque_00_BpInsertAction_Tiao",
      "TypeId": "TypeId_TurnBasedAbilityConfig",
      "Offset": 11144
    },
    {
      "UniqueName": "Avatar_Qingque_00_Bonus",
      "TypeId": "TypeId_TurnBasedAbilityConfig",
      "Offset": 12007
    },
    {
      "UniqueName": "Avatar_Qingque_00_Skill03_EnterReady",
      "TypeId": "TypeId_TurnBasedAbilityConfig",
      "Offset": 14427
    },
    {
      "UniqueName": "Avatar_QingQue_00_Skill03_Phase01",
      "TypeId": "TypeId_TurnBasedAbilityConfig",
      "Offset": 14780
    },
    {
      "UniqueName": "Avatar_QingQue_00_Skill03_Phase02",
      "TypeId": "TypeId_TurnBasedAbilityConfig",
      "Offset": 15226
    },
    {
      "UniqueName": "Avatar_QingQue_00_PassiveSkill01",
      "TypeId": "TypeId_TurnBasedAbilityConfig",
      "Offset": 16204
    },
    {
      "UniqueName": "Avatar_Qingque_00_SkillMazeInLevel",
      "TypeId": "TypeId_TurnBasedAbilityConfig",
      "Offset": 16756
    },
    {
      "UniqueName": "Avatar_Qingque_00_Rank04_ATK",
      "TypeId": "TypeId_TurnBasedAbilityConfig",
      "Offset": 16906
    },
    {
      "UniqueName": "Avatar_Qingque_00_Rank04_ATK_Special",
      "TypeId": "TypeId_TurnBasedAbilityConfig",
      "Offset": 17451
    }
  ]
}