{
  "BakeInfoLayouts": [
    {
      "UniqueName": "Avatar_AetherDivide_W2_Beast01_01_Critical",
      "Offset": 4772
    },
    {
      "UniqueName": "Avatar_AetherDivide_W2_Beast01_01_Electric",
      "Offset": 4924
    },
    {
      "UniqueName": "Avatar_AetherDivide_W2_Beast01_01_Skill01_Phase01",
      "TypeId": "TypeId_TurnBasedAbilityConfig",
      "Offset": 2
    },
    {
      "UniqueName": "Avatar_AetherDivide_W2_Beast01_01_Skill01_Phase02",
      "TypeId": "TypeId_TurnBasedAbilityConfig",
      "Offset": 321
    },
    {
      "UniqueName": "Avatar_AetherDivide_W2_Beast01_01_Skill02_Phase01",
      "TypeId": "TypeId_TurnBasedAbilityConfig",
      "Offset": 677
    },
    {
      "UniqueName": "Avatar_AetherDivide_W2_Beast01_01_Skill02_Phase02",
      "TypeId": "TypeId_TurnBasedAbilityConfig",
      "Offset": 1002
    },
    {
      "UniqueName": "Avatar_AetherDivide_W2_Beast01_01_Skill03_EnterReady",
      "TypeId": "TypeId_TurnBasedAbilityConfig",
      "Offset": 1412
    },
    {
      "UniqueName": "Avatar_AetherDivide_W2_Beast01_01_Skill03_Phase01",
      "TypeId": "TypeId_TurnBasedAbilityConfig",
      "Offset": 1662
    },
    {
      "UniqueName": "Avatar_AetherDivide_W2_Beast01_01_Skill03_Phase02",
      "TypeId": "TypeId_TurnBasedAbilityConfig",
      "Offset": 1971
    },
    {
      "UniqueName": "Avatar_AetherDivide_W2_Beast01_01_PassiveSkill01",
      "TypeId": "TypeId_TurnBasedAbilityConfig",
      "Offset": 2694
    },
    {
      "UniqueName": "Avatar_AetherDivide_W2_Beast01_01_SkillMazeInLevel",
      "TypeId": "TypeId_TurnBasedAbilityConfig",
      "Offset": 3158
    },
    {
      "UniqueName": "BattleEventAbility_AetherDivide_W2_Beast01_01_Passive",
      "TypeId": "TypeId_TurnBasedAbilityConfig",
      "Offset": 3213
    },
    {
      "UniqueName": "Avatar_AetherDivide_W2_Beast01_01_DestroyBE",
      "TypeId": "TypeId_TurnBasedAbilityConfig",
      "Offset": 3768
    },
    {
      "UniqueName": "Avatar_AetherDivide_W2_Beast01_01_Passive_Insert",
      "TypeId": "TypeId_TurnBasedAbilityConfig",
      "Offset": 3841
    },
    {
      "UniqueName": "AetherDivide_W2_Beast01_01_NormalAttackDamage",
      "TypeId": "TypeId_TurnBasedAbilityConfig",
      "Offset": 4421
    }
  ]
}