{
  "BakeInfoLayouts": [
    {
      "UniqueName": "MAvatar_Pela_SkillTree03_DamageAddedRatio",
      "Offset": 5146
    },
    {
      "UniqueName": "MAvatar_Pela_SkillRank02_AddSpeedRatio",
      "Offset": 5229
    },
    {
      "UniqueName": "MAvatar_Pela_SkillRank04_StanceBreakTaken",
      "Offset": 5331
    },
    {
      "UniqueName": "MAvatar_Pela_SkillRank04_IceResistanceDown",
      "Offset": 5433
    },
    {
      "UniqueName": "Avatar_Pela_00_Skill01_Phase01",
      "TypeId": "TypeId_TurnBasedAbilityConfig",
      "Offset": 2
    },
    {
      "UniqueName": "Avatar_Pela_00_Skill01_Phase02",
      "TypeId": "TypeId_TurnBasedAbilityConfig",
      "Offset": 155
    },
    {
      "UniqueName": "Avatar_Pela_00_Skill02_Phase01",
      "TypeId": "TypeId_TurnBasedAbilityConfig",
      "Offset": 875
    },
    {
      "UniqueName": "Avatar_Pela_00_Skill02_Phase02",
      "TypeId": "TypeId_TurnBasedAbilityConfig",
      "Offset": 1235
    },
    {
      "UniqueName": "Avatar_Pela_00_Skill03_Cutin",
      "TypeId": "TypeId_TurnBasedAbilityConfig",
      "Offset": 1992
    },
    {
      "UniqueName": "Avatar_Pela_00_Skill03_Phase01",
      "TypeId": "TypeId_TurnBasedAbilityConfig",
      "Offset": 2347
    },
    {
      "UniqueName": "Avatar_Pela_00_Skill03_Phase02",
      "TypeId": "TypeId_TurnBasedAbilityConfig",
      "Offset": 2719
    },
    {
      "UniqueName": "Avatar_Pela_00_PassiveSkill01",
      "TypeId": "TypeId_TurnBasedAbilityConfig",
      "Offset": 3150
    },
    {
      "UniqueName": "Avatar_Pela_00_SkillMazeInLevel",
      "TypeId": "TypeId_TurnBasedAbilityConfig",
      "Offset": 4162
    },
    {
      "UniqueName": "Avatar_Pela_SkillTree01",
      "TypeId": "TypeId_TurnBasedAbilityConfig",
      "Offset": 4607
    },
    {
      "UniqueName": "Avatar_Pela_SkillTree02",
      "TypeId": "TypeId_TurnBasedAbilityConfig",
      "Offset": 4767
    }
  ]
}