{
  "BakeInfoLayouts": [
    {
      "UniqueName": "MAvatar_Huohuo_Passive_HealMark",
      "Offset": 6391
    },
    {
      "UniqueName": "MAvatar_Huohuo_Passive_HealHP",
      "Offset": 7450
    },
    {
      "UniqueName": "MAvatar_Huohuo_Passive_SPMark",
      "Offset": 9632
    },
    {
      "UniqueName": "MAvatar_Huohuo_Passive_ModifySP",
      "Offset": 9665
    },
    {
      "UniqueName": "MAvatar_Huohuo_Skill03_AttackUP",
      "Offset": 9698
    },
    {
      "UniqueName": "MAvatar_Huohuo_Rank01_SpeedUp",
      "Offset": 9783
    },
    {
      "UniqueName": "MAvatar_Huohuo_DealHeal",
      "Offset": 9867
    },
    {
      "UniqueName": "MAvatar_Huohuo_Rank06_DamageUp",
      "Offset": 10001
    },
    {
      "UniqueName": "MAvatar_Huohuo_Rank02_ReviveCount",
      "Offset": 10092
    },
    {
      "UniqueName": "MAvatar_Huohuo_Rank02",
      "Offset": 10481
    },
    {
      "UniqueName": "Avatar_Huohuo_00_Skill01_Phase01",
      "TypeId": "TypeId_TurnBasedAbilityConfig",
      "Offset": 2
    },
    {
      "UniqueName": "Avatar_Huohuo_00_Skill01_Phase02",
      "TypeId": "TypeId_TurnBasedAbilityConfig",
      "Offset": 235
    },
    {
      "UniqueName": "Avatar_Huohuo_00_Skill02_Phase01",
      "TypeId": "TypeId_TurnBasedAbilityConfig",
      "Offset": 1048
    },
    {
      "UniqueName": "Avatar_Huohuo_00_Skill02_Phase02",
      "TypeId": "TypeId_TurnBasedAbilityConfig",
      "Offset": 1959
    },
    {
      "UniqueName": "Avatar_Huohuo_00_Skill03_EnterReady",
      "TypeId": "TypeId_TurnBasedAbilityConfig",
      "Offset": 2330
    },
    {
      "UniqueName": "Avatar_Huohuo_00_Skill03_Phase01",
      "TypeId": "TypeId_TurnBasedAbilityConfig",
      "Offset": 2604
    },
    {
      "UniqueName": "Avatar_Huohuo_00_Skill03_Phase02",
      "TypeId": "TypeId_TurnBasedAbilityConfig",
      "Offset": 3248
    },
    {
      "UniqueName": "Avatar_Huohuo_00_PassiveSkill01",
      "TypeId": "TypeId_TurnBasedAbilityConfig",
      "Offset": 3457
    },
    {
      "UniqueName": "Avatar_Huohuo_00_SkillMazeInLevel",
      "TypeId": "TypeId_TurnBasedAbilityConfig",
      "Offset": 4723
    },
    {
      "UniqueName": "Avatar_Huohuo_SkillTree02",
      "TypeId": "TypeId_TurnBasedAbilityConfig",
      "Offset": 5084
    },
    {
      "UniqueName": "Avatar_Huohuo_00_Rank02_Insert",
      "TypeId": "TypeId_TurnBasedAbilityConfig",
      "Offset": 5242
    }
  ]
}