{
  "BakeInfoLayouts": [
    {
      "UniqueName": "MAvatar_Bronya_00_BPSkill_Rank02_Listen",
      "Offset": 6710
    },
    {
      "UniqueName": "MAvatar_Bronya_Rank01_CoolDown",
      "Offset": 6953
    },
    {
      "UniqueName": "Bronya_00_Skill01_Phase01",
      "TypeId": "TypeId_TurnBasedAbilityConfig",
      "Offset": 2
    },
    {
      "UniqueName": "Bronya_00_Skill01_Phase02",
      "TypeId": "TypeId_TurnBasedAbilityConfig",
      "Offset": 172
    },
    {
      "UniqueName": "Bronya_00_Skill02_Phase01",
      "TypeId": "TypeId_TurnBasedAbilityConfig",
      "Offset": 779
    },
    {
      "UniqueName": "Bronya_00_Skill02_Others_Phase02",
      "TypeId": "TypeId_TurnBasedAbilityConfig",
      "Offset": 1106
    },
    {
      "UniqueName": "Bronya_00_Skill02_Self_Phase02",
      "TypeId": "TypeId_TurnBasedAbilityConfig",
      "Offset": 1957
    },
    {
      "UniqueName": "Avatar_Bronya_00_Skill03_EnterReady",
      "TypeId": "TypeId_TurnBasedAbilityConfig",
      "Offset": 2772
    },
    {
      "UniqueName": "Bronya_00_Skill03_Phase01",
      "TypeId": "TypeId_TurnBasedAbilityConfig",
      "Offset": 3046
    },
    {
      "UniqueName": "Bronya_00_Skill03_Phase02",
      "TypeId": "TypeId_TurnBasedAbilityConfig",
      "Offset": 3534
    },
    {
      "UniqueName": "Bronya_00_PassiveSkill_1",
      "TypeId": "TypeId_TurnBasedAbilityConfig",
      "Offset": 3948
    },
    {
      "UniqueName": "Avatar_Bronya_00_SkillMazeInLevel",
      "TypeId": "TypeId_TurnBasedAbilityConfig",
      "Offset": 4305
    },
    {
      "UniqueName": "Avatar_Bronya_00_Rank01",
      "TypeId": "TypeId_TurnBasedAbilityConfig",
      "Offset": 4662
    },
    {
      "UniqueName": "Avatar_Bronya_00_Rank04",
      "TypeId": "TypeId_TurnBasedAbilityConfig",
      "Offset": 4690
    },
    {
      "UniqueName": "Avatar_Bronya_00_Rank04_ATK",
      "TypeId": "TypeId_TurnBasedAbilityConfig",
      "Offset": 5296
    },
    {
      "UniqueName": "Avatar_Bronya_SkillTree02",
      "TypeId": "TypeId_TurnBasedAbilityConfig",
      "Offset": 6046
    },
    {
      "UniqueName": "Avatar_Bronya_SkillTree03",
      "TypeId": "TypeId_TurnBasedAbilityConfig",
      "Offset": 6331
    }
  ]
}