{
  "BakeInfoLayouts": [
    {
      "UniqueName": "MAvatar_DanHengIL_00_BPCostChange",
      "Offset": 21545
    },
    {
      "UniqueName": "MAvatar_DanHengIL_00_Skill02_CriticalDamage",
      "Offset": 21631
    },
    {
      "UniqueName": "Avatar_DanHengIL_00_BPDisable",
      "Offset": 21796
    },
    {
      "UniqueName": "Avatar_DanHengIL_00_Rank06",
      "Offset": 21959
    },
    {
      "UniqueName": "MAvatar_DanHengIL_00_Rank06_ImaginaryPenetrate",
      "Offset": 22178
    },
    {
      "UniqueName": "MAvatar_DanHengIL_00_CancelCamera",
      "Offset": 22358
    },
    {
      "UniqueName": "Avatar_DanHengIL_00_Skill01_Phase01",
      "TypeId": "TypeId_TurnBasedAbilityConfig",
      "Offset": 2
    },
    {
      "UniqueName": "Avatar_DanHengIL_00_Skill01_Phase02",
      "TypeId": "TypeId_TurnBasedAbilityConfig",
      "Offset": 316
    },
    {
      "UniqueName": "Avatar_DanHengIL_00_Skill11_Phase01",
      "TypeId": "TypeId_TurnBasedAbilityConfig",
      "Offset": 1044
    },
    {
      "UniqueName": "Avatar_DanHengIL_00_Skill11_Phase02",
      "TypeId": "TypeId_TurnBasedAbilityConfig",
      "Offset": 1408
    },
    {
      "UniqueName": "Avatar_DanHengIL_00_Skill12_Phase01",
      "TypeId": "TypeId_TurnBasedAbilityConfig",
      "Offset": 2798
    },
    {
      "UniqueName": "Avatar_DanHengIL_00_Skill12_Phase02",
      "TypeId": "TypeId_TurnBasedAbilityConfig",
      "Offset": 3328
    },
    {
      "UniqueName": "Avatar_DanHengIL_00_Skill13_Phase01",
      "TypeId": "TypeId_TurnBasedAbilityConfig",
      "Offset": 6845
    },
    {
      "UniqueName": "Avatar_DanHengIL_00_Skill13_Phase02",
      "TypeId": "TypeId_TurnBasedAbilityConfig",
      "Offset": 7310
    },
    {
      "UniqueName": "Avatar_DanHengIL_00_Skill02_Phase01",
      "TypeId": "TypeId_TurnBasedAbilityConfig",
      "Offset": 11440
    },
    {
      "UniqueName": "Avatar_DanHengIL_00_Skill02_Phase02",
      "TypeId": "TypeId_TurnBasedAbilityConfig",
      "Offset": 11747
    },
    {
      "UniqueName": "Avatar_DanHengIL_00_Skill21_Phase01",
      "TypeId": "TypeId_TurnBasedAbilityConfig",
      "Offset": 13561
    },
    {
      "UniqueName": "Avatar_DanHengIL_00_Skill21_Phase02",
      "TypeId": "TypeId_TurnBasedAbilityConfig",
      "Offset": 13650
    },
    {
      "UniqueName": "Avatar_DanHengIL_00_Skill03_EnterReady",
      "TypeId": "TypeId_TurnBasedAbilityConfig",
      "Offset": 14014
    },
    {
      "UniqueName": "Avatar_DanHengIL_00_Skill03_Phase01",
      "TypeId": "TypeId_TurnBasedAbilityConfig",
      "Offset": 14344
    },
    {
      "UniqueName": "Avatar_DanHengIL_00_Skill03_Phase02",
      "TypeId": "TypeId_TurnBasedAbilityConfig",
      "Offset": 14923
    },
    {
      "UniqueName": "Avatar_DanHengIL_00_PassiveSkill01",
      "TypeId": "TypeId_TurnBasedAbilityConfig",
      "Offset": 17719
    },
    {
      "UniqueName": "Avatar_DanHengIL_00_SkillMazeInLevel",
      "TypeId": "TypeId_TurnBasedAbilityConfig",
      "Offset": 20285
    },
    {
      "UniqueName": "Avatar_DanHengIL_00_SkillTree02",
      "TypeId": "TypeId_TurnBasedAbilityConfig",
      "Offset": 21144
    },
    {
      "UniqueName": "Avatar_DanHengIL_00_SkillTree03",
      "TypeId": "TypeId_TurnBasedAbilityConfig",
      "Offset": 21348
    }
  ]
}