{
  "BakeInfoLayouts": [
    {
      "UniqueName": "Avatar_Hook_00_Skill01_Phase01",
      "TypeId": "TypeId_TurnBasedAbilityConfig",
      "Offset": 2
    },
    {
      "UniqueName": "Avatar_Hook_00_Skill01_Phase02",
      "TypeId": "TypeId_TurnBasedAbilityConfig",
      "Offset": 335
    },
    {
      "UniqueName": "Avatar_Hook_00_Skill02_Phase01",
      "TypeId": "TypeId_TurnBasedAbilityConfig",
      "Offset": 697
    },
    {
      "UniqueName": "Avatar_Hook_00_Skill02_Phase02",
      "TypeId": "TypeId_TurnBasedAbilityConfig",
      "Offset": 1087
    },
    {
      "UniqueName": "Avatar_Hook_00_Skill21_Phase01",
      "TypeId": "TypeId_TurnBasedAbilityConfig",
      "Offset": 1631
    },
    {
      "UniqueName": "Avatar_Hook_00_Skill21_Phase02",
      "TypeId": "TypeId_TurnBasedAbilityConfig",
      "Offset": 2021
    },
    {
      "UniqueName": "Avatar_Hook_00_Skill03_EnterReady",
      "TypeId": "TypeId_TurnBasedAbilityConfig",
      "Offset": 3181
    },
    {
      "UniqueName": "Avatar_Hook_00_Skill03_Phase01",
      "TypeId": "TypeId_TurnBasedAbilityConfig",
      "Offset": 3518
    },
    {
      "UniqueName": "Avatar_Hook_00_Skill03_Phase02",
      "TypeId": "TypeId_TurnBasedAbilityConfig",
      "Offset": 4019
    },
    {
      "UniqueName": "Avatar_Hook_00_PassiveSkill01",
      "TypeId": "TypeId_TurnBasedAbilityConfig",
      "Offset": 4763
    },
    {
      "UniqueName": "Avatar_Hook_00_PassiveSkill01_2",
      "TypeId": "TypeId_TurnBasedAbilityConfig",
      "Offset": 4963
    },
    {
      "UniqueName": "Avatar_Hook_00_SkillMazeInLevel",
      "TypeId": "TypeId_TurnBasedAbilityConfig",
      "Offset": 5341
    },
    {
      "UniqueName": "Avatar_Hook_SkillTree01",
      "TypeId": "TypeId_TurnBasedAbilityConfig",
      "Offset": 5864
    },
    {
      "UniqueName": "Avatar_Hook_SkillTree02",
      "TypeId": "TypeId_TurnBasedAbilityConfig",
      "Offset": 5944
    },
    {
      "UniqueName": "Avatar_Hook_Rank06",
      "TypeId": "TypeId_TurnBasedAbilityConfig",
      "Offset": 5998
    }
  ]
}