{
  "OnInitSequece": [],
  "OnStartSequece": [
    {
      "TaskList": [
        {
          "$type": "RPG.GameCore.LevelPerformanceInitialize",
          "PerformanceType": "E",
          "CreateCharacterList": [],
          "CaptureNPCList": [],
          "EntityVisiableList": [],
          "HideMunicipalCrowd": false,
          "HideMunicipalPedestrian": false,
          "PropVisiableList": [],
          "StreamingSourcesInBlackMask": [],
          "StreamingSourcesAfterBlackMask": [],
          "MarkStreamingItems": []
        },
        {
          "$type": "RPG.GameCore.TriggerSound",
          "SoundName": {
            "Value": "Ev_vo_origamibirds_appear"
          },
          "EmitterType": "TargetEvaluator",
          "TargetType": {
            "$type": "RPG.GameCore.TargetFetchAdvNpcEx",
            "FetchType": "SingleNpcByOwnerGroupAndID",
            "SingleNpcKey": {
              "Custom": true,
              "Key": "TargetNPC"
            },
            "SingleNpcID": {
              "GroupNpcID": {
                "IsDynamic": false,
                "FixedValue": {
                  "Value": 400001
                }
              }
            },
            "SingleUniqueName": {
              "Value": "InteractTarget_OrigamiBird01"
            },
            "NpcIDInOwnerGroup": {
              "IsDynamic": false,
              "FixedValue": {
                "Value": 400001
              }
            }
          }
        },
        {
          "$type": "RPG.GameCore.CharacterTriggerFreeStyle",
          "TargetAlias": {
            "$type": "RPG.GameCore.TargetFetchAdvNpcEx",
            "FetchType": "SingleNpcByOwnerGroupAndID",
            "SingleNpcKey": {
              "Custom": true,
              "Key": "TargetNPC"
            },
            "SingleNpcID": {
              "GroupNpcID": {
                "IsDynamic": false,
                "FixedValue": {
                  "Value": 400001
                }
              }
            },
            "SingleUniqueName": {
              "Value": "InteractTarget_OrigamiBird01"
            },
            "NpcIDInOwnerGroup": {
              "IsDynamic": false,
              "FixedValue": {
                "Value": 400001
              }
            }
          },
          "StoryAvatarID": "NPC_Special_OrigamiBird_00",
          "StoryMotionID": 900090265
        },
        {
          "$type": "RPG.GameCore.PlayAndWaitSimpleTalk",
          "SimpleTalkList": [
            {
              "TextSpeed": 0,
              "TalkSentenceID": 414033901,
              "ProtectTime": 0
            }
          ]
        },
        {
          "$type": "RPG.GameCore.PredicateTaskList",
          "Predicate": {
            "$type": "RPG.GameCore.ByCompareStoryLineID"
          },
          "SuccessTaskList": [
            {
              "$type": "RPG.GameCore.PlayOptionTalk",
              "OptionList": [
                {
                  "TalkSentenceID": 414033902,
                  "OptionIconType": "ChatContinueIcon",
                  "TriggerCustomString": "TalkSentence_414033903"
                }
              ]
            }
          ],
          "FailedTaskList": [
            {
              "$type": "RPG.GameCore.CharacterTriggerFreeStyle",
              "TargetAlias": {
                "$type": "RPG.GameCore.TargetFetchAdvNpcEx",
                "FetchType": "SingleNpcByOwnerGroupAndID",
                "SingleNpcKey": {
                  "Custom": true,
                  "Key": "TargetNPC"
                },
                "SingleNpcID": {
                  "GroupNpcID": {
                    "IsDynamic": false,
                    "FixedValue": {
                      "Value": 400001
                    }
                  }
                },
                "SingleUniqueName": {
                  "Value": "InteractTarget_OrigamiBird01"
                },
                "NpcIDInOwnerGroup": {
                  "IsDynamic": false,
                  "FixedValue": {
                    "Value": 400001
                  }
                }
              },
              "StoryAvatarID": "NPC_Special_OrigamiBird_00",
              "StoryMotionID": 900090200
            },
            {
              "$type": "RPG.GameCore.PlayAndWaitSimpleTalk",
              "SimpleTalkList": [
                {
                  "TextSpeed": 0,
                  "TalkSentenceID": 414033904,
                  "ProtectTime": 0
                }
              ]
            },
            {
              "$type": "RPG.GameCore.TriggerSound",
              "SoundName": {
                "Value": "Ev_vo_origamibirds_disappear"
              },
              "EmitterType": "TargetEvaluator",
              "TargetType": {
                "$type": "RPG.GameCore.TargetFetchAdvNpcEx",
                "FetchType": "SingleNpcByOwnerGroupAndID",
                "SingleNpcKey": {
                  "Custom": true,
                  "Key": "TargetNPC"
                },
                "SingleNpcID": {
                  "GroupNpcID": {
                    "IsDynamic": false,
                    "FixedValue": {
                      "Value": 400001
                    }
                  }
                },
                "SingleUniqueName": {
                  "Value": "InteractTarget_OrigamiBird01"
                },
                "NpcIDInOwnerGroup": {
                  "IsDynamic": false,
                  "FixedValue": {
                    "Value": 400001
                  }
                }
              }
            },
            {
              "$type": "RPG.GameCore.CharacterTriggerFreeStyle",
              "TargetAlias": {
                "$type": "RPG.GameCore.TargetFetchAdvNpcEx",
                "FetchType": "SingleNpcByOwnerGroupAndID",
                "SingleNpcKey": {
                  "Custom": true,
                  "Key": "TargetNPC"
                },
                "SingleNpcID": {
                  "GroupNpcID": {
                    "IsDynamic": false,
                    "FixedValue": {
                      "Value": 400001
                    }
                  }
                },
                "SingleUniqueName": {
                  "Value": "InteractTarget_OrigamiBird01"
                },
                "NpcIDInOwnerGroup": {
                  "IsDynamic": false,
                  "FixedValue": {
                    "Value": 400001
                  }
                }
              },
              "DisableAnimEvent": true,
              "StoryAvatarID": "NPC_Special_OrigamiBird_00",
              "StoryMotionID": 900090264
            },
            {
              "$type": "RPG.GameCore.WaitSecond",
              "WaitTime": {
                "IsDynamic": false,
                "FixedValue": {
                  "Value": 1.2
                }
              }
            },
            {
              "$type": "RPG.GameCore.SetTargetEntityFadeWithAnim",
              "TargetType": {
                "$type": "RPG.GameCore.TargetFetchAdvNpcEx",
                "FetchType": "SingleNpcByOwnerGroupAndID",
                "SingleNpcKey": {
                  "Custom": true,
                  "Key": "TargetNPC"
                },
                "SingleNpcID": {
                  "GroupNpcID": {
                    "IsDynamic": false,
                    "FixedValue": {
                      "Value": 400001
                    }
                  }
                },
                "SingleUniqueName": {
                  "Value": "InteractTarget_OrigamiBird01"
                },
                "NpcIDInOwnerGroup": {
                  "IsDynamic": false,
                  "FixedValue": {
                    "Value": 400001
                  }
                }
              },
              "Duration": 0.45
            },
            {
              "$type": "RPG.GameCore.WaitSecond",
              "WaitTime": {
                "IsDynamic": false,
                "FixedValue": {
                  "Value": 0.45
                }
              }
            },
            {
              "$type": "RPG.GameCore.EndPerformance"
            }
          ]
        }
      ]
    },
    {
      "TaskList": [
        {
          "$type": "RPG.GameCore.WaitCustomString",
          "CustomString": {
            "Value": "TalkSentence_414033903"
          }
        },
        {
          "$type": "RPG.GameCore.CharacterTriggerFreeStyle",
          "TargetAlias": {
            "$type": "RPG.GameCore.TargetFetchAdvNpcEx",
            "FetchType": "SingleNpcByOwnerGroupAndID",
            "SingleNpcKey": {
              "Custom": true,
              "Key": "TargetNPC"
            },
            "SingleNpcID": {
              "GroupNpcID": {
                "IsDynamic": false,
                "FixedValue": {
                  "Value": 400001
                }
              }
            },
            "SingleUniqueName": {
              "Value": "InteractTarget_OrigamiBird01"
            },
            "NpcIDInOwnerGroup": {
              "IsDynamic": false,
              "FixedValue": {
                "Value": 400001
              }
            }
          },
          "StoryAvatarID": "NPC_Special_OrigamiBird_00",
          "StoryMotionID": 900090291
        },
        {
          "$type": "RPG.GameCore.PlayAndWaitSimpleTalk",
          "SimpleTalkList": [
            {
              "TextSpeed": 0,
              "TalkSentenceID": 414033903,
              "ProtectTime": 0
            }
          ]
        },
        {
          "$type": "RPG.GameCore.CharacterTriggerFreeStyle",
          "TargetAlias": {
            "$type": "RPG.GameCore.TargetFetchAdvNpcEx",
            "FetchType": "SingleNpcByOwnerGroupAndID",
            "SingleNpcKey": {
              "Custom": true,
              "Key": "TargetNPC"
            },
            "SingleNpcID": {
              "GroupNpcID": {
                "IsDynamic": false,
                "FixedValue": {
                  "Value": 400001
                }
              }
            },
            "SingleUniqueName": {
              "Value": "InteractTarget_OrigamiBird01"
            },
            "NpcIDInOwnerGroup": {
              "IsDynamic": false,
              "FixedValue": {
                "Value": 400001
              }
            }
          },
          "StoryAvatarID": "NPC_Special_OrigamiBird_00",
          "StoryMotionID": 900090200
        },
        {
          "$type": "RPG.GameCore.PlayAndWaitSimpleTalk",
          "SimpleTalkList": [
            {
              "TextSpeed": 0,
              "TalkSentenceID": 414033904,
              "ProtectTime": 0
            }
          ]
        },
        {
          "$type": "RPG.GameCore.TriggerSound",
          "SoundName": {
            "Value": "Ev_vo_origamibirds_disappear"
          },
          "EmitterType": "TargetEvaluator",
          "TargetType": {
            "$type": "RPG.GameCore.TargetFetchAdvNpcEx",
            "FetchType": "SingleNpcByOwnerGroupAndID",
            "SingleNpcKey": {
              "Custom": true,
              "Key": "TargetNPC"
            },
            "SingleNpcID": {
              "GroupNpcID": {
                "IsDynamic": false,
                "FixedValue": {
                  "Value": 400001
                }
              }
            },
            "SingleUniqueName": {
              "Value": "InteractTarget_OrigamiBird01"
            },
            "NpcIDInOwnerGroup": {
              "IsDynamic": false,
              "FixedValue": {
                "Value": 400001
              }
            }
          }
        },
        {
          "$type": "RPG.GameCore.CharacterTriggerFreeStyle",
          "TargetAlias": {
            "$type": "RPG.GameCore.TargetFetchAdvNpcEx",
            "FetchType": "SingleNpcByOwnerGroupAndID",
            "SingleNpcKey": {
              "Custom": true,
              "Key": "TargetNPC"
            },
            "SingleNpcID": {
              "GroupNpcID": {
                "IsDynamic": false,
                "FixedValue": {
                  "Value": 400001
                }
              }
            },
            "SingleUniqueName": {
              "Value": "InteractTarget_OrigamiBird01"
            },
            "NpcIDInOwnerGroup": {
              "IsDynamic": false,
              "FixedValue": {
                "Value": 400001
              }
            }
          },
          "DisableAnimEvent": true,
          "StoryAvatarID": "NPC_Special_OrigamiBird_00",
          "StoryMotionID": 900090264
        },
        {
          "$type": "RPG.GameCore.WaitSecond",
          "WaitTime": {
            "IsDynamic": false,
            "FixedValue": {
              "Value": 1.2
            }
          }
        },
        {
          "$type": "RPG.GameCore.SetTargetEntityFadeWithAnim",
          "TargetType": {
            "$type": "RPG.GameCore.TargetFetchAdvNpcEx",
            "FetchType": "SingleNpcByOwnerGroupAndID",
            "SingleNpcKey": {
              "Custom": true,
              "Key": "TargetNPC"
            },
            "SingleNpcID": {
              "GroupNpcID": {
                "IsDynamic": false,
                "FixedValue": {
                  "Value": 400001
                }
              }
            },
            "SingleUniqueName": {
              "Value": "InteractTarget_OrigamiBird01"
            },
            "NpcIDInOwnerGroup": {
              "IsDynamic": false,
              "FixedValue": {
                "Value": 400001
              }
            }
          },
          "Duration": 0.45
        },
        {
          "$type": "RPG.GameCore.WaitSecond",
          "WaitTime": {
            "IsDynamic": false,
            "FixedValue": {
              "Value": 0.45
            }
          }
        },
        {
          "$type": "RPG.GameCore.EndPerformance"
        }
      ]
    },
    {
      "TaskList": [
        {
          "$type": "RPG.GameCore.WaitPerformanceEnd"
        },
        {
          "$type": "RPG.GameCore.FinishLevelGraph"
        }
      ]
    }
  ]
}