{
  "BakeInfoLayouts": [
    {
      "UniqueName": "Avatar_Arlan_00_Skill01_Camera",
      "TypeId": "TypeId_TurnBasedAbilityConfig",
      "Offset": 2
    },
    {
      "UniqueName": "Avatar_Arlan_Skill02_Camera",
      "TypeId": "TypeId_TurnBasedAbilityConfig",
      "Offset": 194
    },
    {
      "UniqueName": "Avatar_Arlan_Skill03_Camera",
      "TypeId": "TypeId_TurnBasedAbilityConfig",
      "Offset": 650
    },
    {
      "UniqueName": "Avatar_Arlan_Skill_LinkAttack_Camera",
      "TypeId": "TypeId_TurnBasedAbilityConfig",
      "Offset": 908
    }
  ]
}