{
  "OnInitSequece": [],
  "OnStartSequece": [
    {
      "TaskList": [
        {
          "$type": "RPG.GameCore.LevelPerformanceInitialize",
          "PerformanceType": "D",
          "CreateCharacterList": [],
          "CaptureNPCList": [],
          "EntityVisiableList": [],
          "PropVisiableList": [],
          "StreamingSourcesInBlackMask": [],
          "StreamingSourcesAfterBlackMask": [],
          "MarkStreamingItems": []
        },
        {
          "$type": "RPG.GameCore.PerformanceTransition",
          "SwitchInTime": 0,
          "CreateNpcList": [
            {
              "GroupID": {
                "IsDynamic": false,
                "FixedValue": {
                  "Value": 13
                }
              },
              "GroupNpcID": {
                "IsDynamic": false,
                "FixedValue": {
                  "Value": 400016
                }
              },
              "NPCUniqueName": {
                "Value": "YL"
              },
              "CreateList": []
            },
            {
              "GroupID": {
                "IsDynamic": false,
                "FixedValue": {
                  "Value": 13
                }
              },
              "GroupNpcID": {
                "IsDynamic": false,
                "FixedValue": {
                  "Value": 400028
                }
              },
              "NPCUniqueName": {
                "Value": "SYQ"
              },
              "CreateList": []
            },
            {
              "GroupID": {
                "IsDynamic": false,
                "FixedValue": {
                  "Value": 13
                }
              },
              "GroupNpcID": {
                "IsDynamic": false,
                "FixedValue": {
                  "Value": 400029
                }
              },
              "NPCUniqueName": {
                "Value": "PM"
              },
              "CreateList": []
            }
          ],
          "CaptureNpcList": [],
          "DestroyNpcList": [],
          "CreateProp": {
            "GroupID": {
              "IsDynamic": false,
              "FixedValue": {
                "Value": 0
              }
            },
            "GroupPropID": {
              "IsDynamic": false,
              "FixedValue": {
                "Value": 0
              }
            },
            "TaskEnabled": false
          },
          "DestroyProp": {
            "TargetType": {
              "$type": "RPG.GameCore.TargetFetchAdvPropEx"
            },
            "ID": {
              "IsDynamic": false,
              "FixedValue": {
                "Value": 0
              }
            },
            "GroupID": {
              "IsDynamic": false,
              "FixedValue": {
                "Value": 0
              }
            },
            "TaskEnabled": false
          },
          "AdvCreateGroupEntity": {
            "TaskEnabled": false
          },
          "AdvDestroyGroupEntity": {
            "TaskEnabled": false
          },
          "ActiveVirtualCamera": {
            "AreaName": "LevelArea_P20136_F20136001_G13",
            "AnchorName": "Anchor19"
          },
          "ActiveTemplateVirtualCamera": {
            "TaskEnabled": false
          },
          "SwitchCharacterAnchor": {
            "IsLocalPlayer": true,
            "CharacterUniqueName": "LocalPlayer",
            "AreaName": {
              "Value": "LevelArea_P20136_F20136001_G13"
            },
            "AnchorName": {
              "Value": "Anchor3"
            }
          },
          "AdvNpcFaceToPlayer": {
            "TaskEnabled": false
          }
        },
        {
          "$type": "RPG.GameCore.PlayAndWaitSimpleTalk",
          "SimpleTalkList": [
            {
              "TalkSentenceID": 814122001
            }
          ]
        },
        {
          "$type": "RPG.GameCore.TriggerCustomString",
          "CustomString": {
            "Value": "Victory"
          }
        },
        {
          "$type": "RPG.GameCore.PlayAndWaitSimpleTalk",
          "SimpleTalkList": [
            {
              "TalkSentenceID": 814122002
            }
          ]
        },
        {
          "$type": "RPG.GameCore.ActiveVirtualCamera",
          "AreaName": "LevelArea_P20136_F20136001_G13",
          "AnchorName": "Anchor4",
          "DynamicParams": {}
        },
        {
          "$type": "RPG.GameCore.AdvEntityFaceTo",
          "SourceType": {
            "$type": "RPG.GameCore.TargetFetchAdvNpcEx",
            "FetchType": "SingleNpcByNpcID",
            "SingleNpcID": {
              "GroupID": {
                "IsDynamic": false,
                "FixedValue": {
                  "Value": 13
                }
              },
              "GroupNpcID": {
                "IsDynamic": false,
                "FixedValue": {
                  "Value": 400016
                }
              }
            }
          },
          "TargetType": {
            "$type": "RPG.GameCore.TargetFetchAdvLocalPlayer"
          },
          "FinishImmediately": false,
          "ForceToStandBy": true
        },
        {
          "$type": "RPG.GameCore.PlayAndWaitSimpleTalk",
          "SimpleTalkList": [
            {
              "TalkSentenceID": 814122003
            }
          ]
        },
        {
          "$type": "RPG.GameCore.CharacterTriggerFreeStyle",
          "CharacterUniqueName": "YL",
          "StoryAvatarID": "NPC_Avatar_Girl_Silwolf_00",
          "StoryMotionID": 310060230
        },
        {
          "$type": "RPG.GameCore.PlayOptionTalk",
          "OptionList": [
            {
              "TalkSentenceID": 814122004,
              "OptionIconType": "ChatContinueIcon",
              "TriggerCustomString": "TalkSentence_814122005"
            },
            {
              "TalkSentenceID": 814122006,
              "OptionIconType": "ChatContinueIcon",
              "TriggerCustomString": "TalkSentence_814122007"
            }
          ]
        },
        {
          "$type": "RPG.GameCore.CharacterTriggerFreeStyle",
          "CharacterUniqueName": "LocalPlayer",
          "ForceStart": false,
          "StoryAvatarID": "NPC_Player",
          "StoryMotionID": 216
        }
      ]
    },
    {
      "TaskList": [
        {
          "$type": "RPG.GameCore.WaitCustomString",
          "CustomString": {
            "Value": "TalkSentence_814122005"
          }
        },
        {
          "$type": "RPG.GameCore.CharacterTriggerFreeStyle",
          "CharacterUniqueName": "YL",
          "StoryAvatarID": "NPC_Avatar_Girl_Silwolf_00",
          "StoryMotionID": 310060233
        },
        {
          "$type": "RPG.GameCore.PlayAndWaitSimpleTalk",
          "SimpleTalkList": [
            {
              "TalkSentenceID": 814122005
            }
          ]
        },
        {
          "$type": "RPG.GameCore.TriggerCustomString",
          "CustomString": {
            "Value": "TalkSentence_814122009"
          }
        }
      ]
    },
    {
      "TaskList": [
        {
          "$type": "RPG.GameCore.WaitCustomString",
          "CustomString": {
            "Value": "TalkSentence_814122007"
          }
        },
        {
          "$type": "RPG.GameCore.CharacterTriggerFreeStyle",
          "CharacterUniqueName": "YL",
          "StoryAvatarID": "NPC_Avatar_Girl_Silwolf_00",
          "StoryMotionID": 310060233
        },
        {
          "$type": "RPG.GameCore.PlayAndWaitSimpleTalk",
          "SimpleTalkList": [
            {
              "TalkSentenceID": 814122007
            },
            {
              "TalkSentenceID": 814122008
            }
          ]
        },
        {
          "$type": "RPG.GameCore.TriggerCustomString",
          "CustomString": {
            "Value": "TalkSentence_814122009"
          }
        }
      ]
    },
    {
      "TaskList": [
        {
          "$type": "RPG.GameCore.WaitCustomString",
          "CustomString": {
            "Value": "TalkSentence_814122009"
          }
        },
        {
          "$type": "RPG.GameCore.CharacterTriggerFreeStyle",
          "CharacterUniqueName": "YL",
          "StoryAvatarID": "NPC_Avatar_Girl_Silwolf_00",
          "StoryMotionID": 310060235
        },
        {
          "$type": "RPG.GameCore.PlayAndWaitSimpleTalk",
          "SimpleTalkList": [
            {
              "TalkSentenceID": 814122009
            },
            {
              "TalkSentenceID": 814122010
            }
          ]
        },
        {
          "$type": "RPG.GameCore.CharacterTriggerFreeStyle",
          "CharacterUniqueName": "YL",
          "StoryAvatarID": "NPC_Avatar_Girl_Silwolf_00",
          "StoryMotionID": 310060232
        },
        {
          "$type": "RPG.GameCore.PlayAndWaitSimpleTalk",
          "SimpleTalkList": [
            {
              "TalkSentenceID": 814122011
            }
          ]
        },
        {
          "$type": "RPG.GameCore.CharacterTriggerFreeStyle",
          "CharacterUniqueName": "PM",
          "StoryAvatarID": "NPC_Monster_XP_Minion04_00",
          "StoryMotionID": 200690245
        },
        {
          "$type": "RPG.GameCore.PlayAndWaitSimpleTalk",
          "SimpleTalkList": [
            {
              "TalkSentenceID": 814122012
            },
            {
              "TalkSentenceID": 814122013
            },
            {
              "TalkSentenceID": 814122014
            }
          ]
        },
        {
          "$type": "RPG.GameCore.CharacterTriggerFreeStyle",
          "CharacterUniqueName": "YL",
          "StoryAvatarID": "NPC_Avatar_Girl_Silwolf_00",
          "StoryMotionID": 310060200
        },
        {
          "$type": "RPG.GameCore.PlayAndWaitSimpleTalk",
          "SimpleTalkList": [
            {
              "TalkSentenceID": 814122015
            },
            {
              "TalkSentenceID": 814122016
            }
          ]
        },
        {
          "$type": "RPG.GameCore.PerformanceExtendEndBlack",
          "ExtendTime": 1
        },
        {
          "$type": "RPG.GameCore.PerformanceTransition",
          "SwitchOutTime": 0,
          "CreateNpcList": [],
          "CaptureNpcList": [],
          "DestroyNpcList": [
            {
              "GroupID": 13,
              "GroupNpcID": 400016,
              "DestroyList": [
                {
                  "$type": "RPG.GameCore.GroupEntityInfo",
                  "GroupID": {
                    "IsDynamic": false,
                    "FixedValue": {
                      "Value": 13
                    }
                  },
                  "GroupInstanceID": {
                    "IsDynamic": false,
                    "FixedValue": {
                      "Value": 400028
                    }
                  }
                },
                {
                  "$type": "RPG.GameCore.GroupEntityInfo",
                  "GroupID": {
                    "IsDynamic": false,
                    "FixedValue": {
                      "Value": 13
                    }
                  },
                  "GroupInstanceID": {
                    "IsDynamic": false,
                    "FixedValue": {
                      "Value": 400029
                    }
                  }
                }
              ]
            }
          ],
          "CreateProp": {
            "GroupID": {
              "IsDynamic": false,
              "FixedValue": {
                "Value": 0
              }
            },
            "GroupPropID": {
              "IsDynamic": false,
              "FixedValue": {
                "Value": 0
              }
            },
            "CreateList": [],
            "TaskEnabled": false
          },
          "DestroyProp": {
            "TargetType": {
              "$type": "RPG.GameCore.TargetFetchAdvPropEx"
            },
            "ID": {
              "IsDynamic": false,
              "FixedValue": {
                "Value": 0
              }
            },
            "GroupID": {
              "IsDynamic": false,
              "FixedValue": {
                "Value": 0
              }
            },
            "DestroyList": [],
            "TaskEnabled": false
          },
          "AdvCreateGroupEntity": {
            "InstanceIDList": [],
            "TaskEnabled": false
          },
          "AdvDestroyGroupEntity": {
            "InstanceIDList": [],
            "TaskEnabled": false
          },
          "ActiveVirtualCamera": {
            "AreaName": "LevelArea_P20136_F20136001_G13",
            "AnchorName": "Anchor4",
            "IsActive": false
          },
          "ActiveTemplateVirtualCamera": {
            "TaskEnabled": false
          },
          "SwitchCharacterAnchor": {
            "IsLocalPlayer": true,
            "CharacterUniqueName": "LocalPlayer",
            "AreaName": {
              "Value": "LevelArea_P20136_F20136001_G13"
            },
            "AnchorName": {
              "Value": "Anchor2"
            }
          },
          "AdvNpcFaceToPlayer": {
            "TaskEnabled": false
          }
        },
        {
          "$type": "RPG.GameCore.EndPerformance"
        }
      ]
    },
    {
      "TaskList": [
        {
          "$type": "RPG.GameCore.WaitPerformanceEnd"
        },
        {
          "$type": "RPG.GameCore.FinishLevelGraph"
        }
      ]
    }
  ]
}