{
  "OnInitSequece": [],
  "OnStartSequece": [
    {
      "TaskList": [
        {
          "$type": "RPG.GameCore.LevelPerformanceInitialize",
          "PerformanceType": "D",
          "CreateCharacterList": [],
          "CaptureNPCList": [],
          "EntityVisiableList": [],
          "PropVisiableList": [],
          "StreamingSourcesInBlackMask": [],
          "StreamingSourcesAfterBlackMask": [],
          "MarkStreamingItems": []
        },
        {
          "$type": "RPG.GameCore.PlayFullScreenTransfer",
          "Action": [
            {
              "$type": "RPG.GameCore.ScrTrfActPerformanceGroup",
              "AdvCreateGroupEntity": {
                "TaskEnabled": false
              },
              "AdvDestroyGroupEntity": {
                "InstanceIDList": [],
                "TaskEnabled": false
              },
              "CaptureNpc": [],
              "SwitchCharacterAnchor": {
                "IsLocalPlayer": true,
                "CharacterUniqueName": "LocalPlayer",
                "AreaName": {
                  "Value": "LevelArea_P10301_F10301001_G65"
                },
                "AnchorName": {
                  "Value": "Anchor1"
                }
              },
              "ActiveVirtualCamera": {
                "AreaName": "LevelArea_P10301_F10301001_G65",
                "AnchorName": "Anchor3"
              },
              "ActiveTemplateVirtualCamera": {
                "TaskEnabled": false
              },
              "AdvNpcFaceToPlayer": {
                "SteerImmediately": true,
                "FinishImmadiate": true,
                "TaskEnabled": false
              }
            }
          ]
        },
        {
          "$type": "RPG.GameCore.AdvEntityFaceTo",
          "SourceType": {
            "$type": "RPG.GameCore.TargetFetchAdvLocalPlayer"
          },
          "TargetType": {
            "$type": "RPG.GameCore.TargetFetchAdvPropEx",
            "FetchType": "SinglePropByPropID",
            "SinglePropID": {
              "GroupID": {
                "IsDynamic": false,
                "FixedValue": {
                  "Value": 65
                }
              },
              "ID": {
                "IsDynamic": false,
                "FixedValue": {
                  "Value": 300002
                }
              }
            }
          }
        },
        {
          "$type": "RPG.GameCore.PlayAndWaitSimpleTalk",
          "SimpleTalkList": [
            {
              "TalkSentenceID": 103030201,
              "ProtectTime": 0.3
            }
          ]
        },
        {
          "$type": "RPG.GameCore.PlayOptionTalk",
          "OptionList": [
            {
              "TalkSentenceID": 103030202,
              "OptionIconType": "ChatContinueIcon",
              "TriggerCustomString": "TalkSentence_103030203"
            },
            {
              "TalkSentenceID": 103030204,
              "OptionIconType": "ChatContinueIcon",
              "TriggerCustomString": "TalkSentence_103030205"
            }
          ]
        }
      ]
    },
    {
      "TaskList": [
        {
          "$type": "RPG.GameCore.WaitCustomString",
          "CustomString": {
            "Value": "TalkSentence_103030203"
          }
        },
        {
          "$type": "RPG.GameCore.PlayAndWaitSimpleTalk",
          "SimpleTalkList": [
            {
              "TalkSentenceID": 103030203,
              "ProtectTime": 0.3
            }
          ]
        },
        {
          "$type": "RPG.GameCore.TriggerCustomString",
          "CustomString": {
            "Value": "TalkSentence_103030206"
          }
        }
      ]
    },
    {
      "TaskList": [
        {
          "$type": "RPG.GameCore.WaitCustomString",
          "CustomString": {
            "Value": "TalkSentence_103030205"
          }
        },
        {
          "$type": "RPG.GameCore.PlayAndWaitSimpleTalk",
          "SimpleTalkList": [
            {
              "TalkSentenceID": 103030205,
              "ProtectTime": 0.3
            }
          ]
        },
        {
          "$type": "RPG.GameCore.TriggerCustomString",
          "CustomString": {
            "Value": "TalkSentence_103030206"
          }
        }
      ]
    },
    {
      "TaskList": [
        {
          "$type": "RPG.GameCore.WaitCustomString",
          "CustomString": {
            "Value": "TalkSentence_103030206"
          }
        },
        {
          "$type": "RPG.GameCore.PlayAndWaitSimpleTalk",
          "SimpleTalkList": [
            {
              "TalkSentenceID": 103030206,
              "ProtectTime": 0.3
            },
            {
              "TalkSentenceID": 103030207,
              "ProtectTime": 0.3
            }
          ]
        },
        {
          "$type": "RPG.GameCore.PlayOptionTalk",
          "OptionList": [
            {
              "TalkSentenceID": 103030208,
              "OptionIconType": "ChatContinueIcon",
              "TriggerCustomString": "TalkSentence_103030211"
            },
            {
              "TalkSentenceID": 103030209,
              "OptionIconType": "ChatContinueIcon",
              "TriggerCustomString": "TalkSentence_103030210"
            }
          ]
        }
      ]
    },
    {
      "TaskList": [
        {
          "$type": "RPG.GameCore.WaitCustomString",
          "CustomString": {
            "Value": "TalkSentence_103030210"
          }
        },
        {
          "$type": "RPG.GameCore.PlayAndWaitSimpleTalk",
          "SimpleTalkList": [
            {
              "TalkSentenceID": 103030210,
              "ProtectTime": 0.3
            }
          ]
        },
        {
          "$type": "RPG.GameCore.TriggerCustomString",
          "CustomString": {
            "Value": "TalkSentence_103030211"
          }
        }
      ]
    },
    {
      "TaskList": [
        {
          "$type": "RPG.GameCore.WaitCustomString",
          "CustomString": {
            "Value": "TalkSentence_103030211"
          }
        },
        {
          "$type": "RPG.GameCore.CharacterTriggerFreeStyle",
          "TargetAlias": {
            "$type": "RPG.GameCore.TargetFetchAdvLocalPlayer"
          },
          "ForceStart": false,
          "StoryAvatarID": "NPC_Player",
          "StoryMotionID": 210
        },
        {
          "$type": "RPG.GameCore.PlayAndWaitSimpleTalk",
          "SimpleTalkList": [
            {
              "TalkSentenceID": 103030211,
              "ProtectTime": 0.3
            },
            {
              "TalkSentenceID": 103030212,
              "ProtectTime": 0.3
            },
            {
              "TalkSentenceID": 103030213,
              "ProtectTime": 0.3
            }
          ]
        },
        {
          "$type": "RPG.GameCore.PlayOptionTalk",
          "OptionList": [
            {
              "TalkSentenceID": 103030214,
              "OptionIconType": "ChatContinueIcon",
              "TriggerCustomString": "TalkSentence_103030215"
            },
            {
              "TalkSentenceID": 103030216,
              "OptionIconType": "ChatContinueIcon",
              "TriggerCustomString": "TalkSentence_103030217"
            },
            {
              "TalkSentenceID": 103030218,
              "OptionIconType": "ChatContinueIcon",
              "TriggerCustomString": "TalkSentence_103030219"
            }
          ]
        }
      ]
    },
    {
      "TaskList": [
        {
          "$type": "RPG.GameCore.WaitCustomString",
          "CustomString": {
            "Value": "TalkSentence_103030215"
          }
        },
        {
          "$type": "RPG.GameCore.CharacterTriggerFreeStyle",
          "TargetAlias": {
            "$type": "RPG.GameCore.TargetFetchAdvLocalPlayer"
          },
          "ForceStart": false,
          "StoryAvatarID": "NPC_Player"
        },
        {
          "$type": "RPG.GameCore.PlayAndWaitSimpleTalk",
          "SimpleTalkList": [
            {
              "TalkSentenceID": 103030215,
              "ProtectTime": 0.3
            }
          ]
        },
        {
          "$type": "RPG.GameCore.TriggerCustomString",
          "CustomString": {
            "Value": "TalkSentence_103030220"
          }
        }
      ]
    },
    {
      "TaskList": [
        {
          "$type": "RPG.GameCore.WaitCustomString",
          "CustomString": {
            "Value": "TalkSentence_103030217"
          }
        },
        {
          "$type": "RPG.GameCore.CharacterTriggerFreeStyle",
          "TargetAlias": {
            "$type": "RPG.GameCore.TargetFetchAdvLocalPlayer"
          },
          "ForceStart": false,
          "StoryAvatarID": "NPC_Player"
        },
        {
          "$type": "RPG.GameCore.PlayAndWaitSimpleTalk",
          "SimpleTalkList": [
            {
              "TalkSentenceID": 103030217,
              "ProtectTime": 0.3
            }
          ]
        },
        {
          "$type": "RPG.GameCore.TriggerCustomString",
          "CustomString": {
            "Value": "TalkSentence_103030220"
          }
        }
      ]
    },
    {
      "TaskList": [
        {
          "$type": "RPG.GameCore.WaitCustomString",
          "CustomString": {
            "Value": "TalkSentence_103030219"
          }
        },
        {
          "$type": "RPG.GameCore.CharacterTriggerFreeStyle",
          "TargetAlias": {
            "$type": "RPG.GameCore.TargetFetchAdvLocalPlayer"
          },
          "ForceStart": false,
          "StoryAvatarID": "NPC_Player"
        },
        {
          "$type": "RPG.GameCore.PlayAndWaitSimpleTalk",
          "SimpleTalkList": [
            {
              "TalkSentenceID": 103030219,
              "ProtectTime": 0.3
            }
          ]
        },
        {
          "$type": "RPG.GameCore.TriggerCustomString",
          "CustomString": {
            "Value": "TalkSentence_103030220"
          }
        }
      ]
    },
    {
      "TaskList": [
        {
          "$type": "RPG.GameCore.WaitCustomString",
          "CustomString": {
            "Value": "TalkSentence_103030220"
          }
        },
        {
          "$type": "RPG.GameCore.PlayAndWaitSimpleTalk",
          "SimpleTalkList": [
            {
              "TalkSentenceID": 103030220,
              "ProtectTime": 0.3
            }
          ]
        },
        {
          "$type": "RPG.GameCore.PlayOptionTalk",
          "OptionList": [
            {
              "TalkSentenceID": 103030221,
              "OptionIconType": "ChatContinueIcon",
              "TriggerCustomString": "ALL_TALK_END"
            }
          ]
        }
      ]
    },
    {
      "TaskList": [
        {
          "$type": "RPG.GameCore.WaitCustomString",
          "CustomString": {
            "Value": "ALL_TALK_END"
          }
        },
        {
          "$type": "RPG.GameCore.CharacterTriggerFreeStyle",
          "TargetAlias": {
            "$type": "RPG.GameCore.TargetFetchAdvLocalPlayer"
          },
          "ForceStart": false,
          "StoryAvatarID": "NPC_Player",
          "StoryMotionID": 228
        },
        {
          "$type": "RPG.GameCore.WaitSecond",
          "WaitTime": {
            "IsDynamic": false,
            "FixedValue": {
              "Value": 1
            }
          }
        },
        {
          "$type": "RPG.GameCore.PlayFullScreenTransfer",
          "KeepDuration": 2,
          "PostDuration": 0,
          "Action": [
            {
              "$type": "RPG.GameCore.ScrTrfActPerformanceGroup",
              "AdvCreateGroupEntity": {
                "TaskEnabled": false
              },
              "AdvDestroyGroupEntity": {
                "TaskEnabled": false
              },
              "CaptureNpc": [],
              "SwitchCharacterAnchor": {
                "TaskEnabled": false
              },
              "ActiveVirtualCamera": {
                "AreaName": "LevelArea_P10301_F10301001_G65",
                "AnchorName": "Anchor3",
                "IsActive": false
              },
              "ActiveTemplateVirtualCamera": {
                "TaskEnabled": false
              },
              "AdvNpcFaceToPlayer": {
                "SteerImmediately": true,
                "FinishImmadiate": true,
                "TaskEnabled": false
              }
            }
          ]
        },
        {
          "$type": "RPG.GameCore.TriggerSound",
          "SoundName": {
            "Value": "Ev_sfx_storyd_main_dreamstart"
          }
        },
        {
          "$type": "RPG.GameCore.EndPerformance"
        }
      ]
    },
    {
      "TaskList": [
        {
          "$type": "RPG.GameCore.WaitPerformanceEnd"
        },
        {
          "$type": "RPG.GameCore.FinishLevelGraph"
        }
      ]
    }
  ]
}