{
  "OnInitSequece": [],
  "OnStartSequece": [
    {
      "TaskList": [
        {
          "$type": "RPG.GameCore.LevelPerformanceInitialize",
          "PerformanceType": "E",
          "HideMunicipalCrowd": false,
          "HideMunicipalPedestrian": false
        },
        {
          "$type": "RPG.GameCore.AdvNpcFaceToPlayer"
        },
        {
          "$type": "RPG.GameCore.PlayAndWaitSimpleTalk",
          "SimpleTalkList": [
            {
              "TalkSentenceID": 503063001,
              "ProtectTime": 0.3
            },
            {
              "TalkSentenceID": 503063002,
              "ProtectTime": 0.3
            },
            {
              "TalkSentenceID": 503063003,
              "ProtectTime": 0.3
            },
            {
              "TalkSentenceID": 503063004,
              "ProtectTime": 0.3
            },
            {
              "TalkSentenceID": 503063005,
              "ProtectTime": 0.3
            }
          ]
        },
        {
          "$type": "RPG.GameCore.PlayOptionTalk",
          "OptionList": [
            {
              "TalkSentenceID": 503063006,
              "OptionIconType": "ChatContinueIcon",
              "TriggerCustomString": "TalkSentence_503063007"
            },
            {
              "TalkSentenceID": 503063009,
              "OptionIconType": "ChatContinueIcon",
              "TriggerCustomString": "TalkSentence_503063010"
            }
          ]
        }
      ]
    },
    {
      "TaskList": [
        {
          "$type": "RPG.GameCore.WaitCustomString",
          "CustomString": {
            "Value": "TalkSentence_503063007"
          }
        },
        {
          "$type": "RPG.GameCore.PlayAndWaitSimpleTalk",
          "SimpleTalkList": [
            {
              "TalkSentenceID": 503063007,
              "ProtectTime": 0.3
            },
            {
              "TalkSentenceID": 503063008,
              "ProtectTime": 0.3
            }
          ]
        },
        {
          "$type": "RPG.GameCore.TriggerCustomString",
          "CustomString": {
            "Value": "TalkSentence_503063012"
          }
        }
      ]
    },
    {
      "TaskList": [
        {
          "$type": "RPG.GameCore.WaitCustomString",
          "CustomString": {
            "Value": "TalkSentence_503063010"
          }
        },
        {
          "$type": "RPG.GameCore.PlayAndWaitSimpleTalk",
          "SimpleTalkList": [
            {
              "TalkSentenceID": 503063010,
              "ProtectTime": 0.3
            },
            {
              "TalkSentenceID": 503063011,
              "ProtectTime": 0.3
            }
          ]
        },
        {
          "$type": "RPG.GameCore.TriggerCustomString",
          "CustomString": {
            "Value": "TalkSentence_503063012"
          }
        }
      ]
    },
    {
      "TaskList": [
        {
          "$type": "RPG.GameCore.WaitCustomString",
          "CustomString": {
            "Value": "TalkSentence_503063012"
          }
        },
        {
          "$type": "RPG.GameCore.PlayScreenTransfer",
          "Mode": "FullTransfer",
          "TransferFullDuration": {
            "KeepDuration": 2
          },
          "TextEnabled": true,
          "TalkSentenceID": 503063012,
          "NotAuto": true
        },
        {
          "$type": "RPG.GameCore.PlayAndWaitSimpleTalk",
          "SimpleTalkList": [
            {
              "TalkSentenceID": 503063013,
              "ProtectTime": 0.3
            },
            {
              "TalkSentenceID": 503063014,
              "ProtectTime": 0.3
            }
          ]
        },
        {
          "$type": "RPG.GameCore.EndPerformance"
        }
      ]
    },
    {
      "TaskList": [
        {
          "$type": "RPG.GameCore.WaitPerformanceEnd"
        },
        {
          "$type": "RPG.GameCore.FinishLevelGraph"
        }
      ]
    }
  ]
}