{
  "AnimatorStateEvents": [
    {
      "AnimatorStateName": "Die_Transfer",
      "NormalizedTime": 0.0005084745,
      "EventList": [
        {
          "$type": "RPG.GameCore.TriggerSoundInAnim",
          "SoundName": "Ev_sfx_avatar_die_01_jingliu"
        }
      ]
    },
    {
      "AnimatorStateName": "Die_Hit_Transfer",
      "NormalizedTime": 5.084745E-05,
      "EventList": [
        {
          "$type": "RPG.GameCore.TriggerSoundInAnim",
          "SoundName": "Ev_sfx_avatar_die_01_jingliu"
        }
      ]
    },
    {
      "AnimatorStateName": "Die_Limbo_Transfer",
      "NormalizedTime": 5.084745E-05,
      "EventList": [
        {
          "$type": "RPG.GameCore.TriggerSoundInAnim",
          "SoundName": "Ev_sfx_avatar_die_01_jingliu"
        }
      ]
    },
    {
      "AnimatorStateName": "Skill01_Ready",
      "NormalizedTime": 5.999999E-05,
      "EventList": [
        {
          "$type": "RPG.GameCore.TriggerSoundInAnim",
          "SoundName": "Ev_sfx_avatar_turn_begin_jingliu"
        }
      ]
    },
    {
      "AnimatorStateName": "Skill02_Ready_01",
      "NormalizedTime": 5.217391E-05,
      "EventList": [
        {
          "$type": "RPG.GameCore.TriggerSoundInAnim",
          "SoundName": "Ev_sfx_avatar_atk_select_jingliu"
        }
      ]
    },
    {
      "AnimatorStateName": "Skill02toSkill01",
      "NormalizedTime": 0.0005042017,
      "EventList": [
        {
          "$type": "RPG.GameCore.TriggerSoundInAnim",
          "SoundName": "Ev_sfx_avatar_atk_select_jingliu"
        }
      ]
    },
    {
      "AnimatorStateName": "Skill01toSkill02",
      "NormalizedTime": 0.0005,
      "EventList": [
        {
          "$type": "RPG.GameCore.TriggerSoundInAnim",
          "SoundName": "Ev_sfx_avatar_skill_select_jingliu"
        }
      ]
    },
    {
      "AnimatorStateName": "Hit_H",
      "NormalizedTime": 0.003333333,
      "EventList": [
        {
          "$type": "RPG.GameCore.TriggerSoundInAnim",
          "SoundName": "Ev_vo_avatar_hit_heavy_jingliu"
        }
      ]
    },
    {
      "AnimatorStateName": "Skill01",
      "NormalizedTime": 3.333333E-05,
      "EventList": [
        {
          "$type": "RPG.GameCore.TriggerSoundInAnim",
          "SoundName": "Ev_sfx_avatar_skill01_cast_jingliu"
        }
      ]
    },
    {
      "AnimatorStateName": "Skill01",
      "NormalizedTime": 0.03333334,
      "EventList": [
        {
          "$type": "RPG.GameCore.TriggerSoundInAnim",
          "SoundName": "Ev_vo_avatar_atk_cast_jingliu"
        }
      ]
    },
    {
      "AnimatorStateName": "Skill02_01",
      "NormalizedTime": 2.690583E-05,
      "EventList": [
        {
          "$type": "RPG.GameCore.TriggerSoundInAnim",
          "SoundName": "Ev_sfx_avatar_skill12_cast_jingliu"
        }
      ]
    },
    {
      "AnimatorStateName": "Skill02_01",
      "NormalizedTime": 0.003333333,
      "EventList": [
        {
          "$type": "RPG.GameCore.TriggerSoundInAnim",
          "SoundName": "Ev_vo_avatar_skill_cast_jingliu"
        }
      ]
    },
    {
      "AnimatorStateName": "Skill02",
      "NormalizedTime": 4E-05,
      "EventList": [
        {
          "$type": "RPG.GameCore.TriggerSoundInAnim",
          "SoundName": "Ev_sfx_avatar_skill02_cast_jingliu"
        }
      ]
    },
    {
      "AnimatorStateName": "Skill02",
      "NormalizedTime": 0.005,
      "EventList": [
        {
          "$type": "RPG.GameCore.TriggerSoundInAnim",
          "SoundName": "Ev_vo_avatar_skill_cast_jingliu"
        }
      ]
    },
    {
      "AnimatorStateName": "Passive",
      "NormalizedTime": 2.469136E-05,
      "EventList": [
        {
          "$type": "RPG.GameCore.TriggerSoundInAnim",
          "SoundName": "Ev_sfx_avatar_skill_passive_cast_jingliu"
        }
      ]
    },
    {
      "AnimatorStateName": "Passive",
      "NormalizedTime": 0.3833333,
      "EventList": [
        {
          "$type": "RPG.GameCore.TriggerSoundInAnim",
          "SoundName": "Ev_vo_avatar_passive_skill_jingliu"
        }
      ]
    },
    {
      "AnimatorStateName": "Skill03",
      "NormalizedTime": 0.000125,
      "EventList": [
        {
          "$type": "RPG.GameCore.TriggerSoundInAnim",
          "SoundName": "Ev_sfx_avatar_ultra_skill_cast_jingliu"
        }
      ]
    },
    {
      "AnimatorStateName": "Skill03",
      "NormalizedTime": 0.335,
      "EventList": [
        {
          "$type": "RPG.GameCore.TriggerSoundInAnim",
          "SoundName": "Ev_vo_avatar_ultra_skill_cast_jingliu"
        }
      ]
    },
    {
      "AnimatorStateName": "Die",
      "NormalizedTime": 0.1516667,
      "EventList": [
        {
          "$type": "RPG.GameCore.TriggerSoundInAnim",
          "SoundName": "Ev_sfx_avatar_die_01_jingliu"
        }
      ]
    },
    {
      "AnimatorStateName": "Die",
      "NormalizedTime": 0.003333333,
      "EventList": [
        {
          "$type": "RPG.GameCore.TriggerSoundInAnim",
          "SoundName": "Ev_vo_avatar_die_jingliu"
        }
      ]
    },
    {
      "AnimatorStateName": "Die_Hit",
      "NormalizedTime": 0.1516667,
      "EventList": [
        {
          "$type": "RPG.GameCore.TriggerSoundInAnim",
          "SoundName": "Ev_sfx_avatar_die_01_jingliu"
        }
      ]
    },
    {
      "AnimatorStateName": "Die_Hit",
      "NormalizedTime": 0.003333333,
      "EventList": [
        {
          "$type": "RPG.GameCore.TriggerSoundInAnim",
          "SoundName": "Ev_vo_avatar_die_jingliu"
        }
      ]
    },
    {
      "AnimatorStateName": "Die_Limbo",
      "NormalizedTime": 0.1516667,
      "EventList": [
        {
          "$type": "RPG.GameCore.TriggerSoundInAnim",
          "SoundName": "Ev_sfx_avatar_die_01_jingliu"
        }
      ]
    },
    {
      "AnimatorStateName": "Die_Limbo",
      "NormalizedTime": 0.003333333,
      "EventList": [
        {
          "$type": "RPG.GameCore.TriggerSoundInAnim",
          "SoundName": "Ev_vo_avatar_die_jingliu"
        }
      ]
    },
    {
      "AnimatorStateName": "Stagger_Recover",
      "NormalizedTime": 0.0006,
      "EventList": [
        {
          "$type": "RPG.GameCore.TriggerSoundInAnim",
          "SoundName": "Ev_sfx_avatar_common_stagger_recover"
        }
      ]
    }
  ]
}