{
  "OnInitSequece": [],
  "OnStartSequece": [
    {
      "Order": 1,
      "TaskList": [
        {
          "$type": "RPG.GameCore.LockPlayerControl"
        },
        {
          "$type": "RPG.GameCore.ShowReading",
          "BookID": 190201
        },
        {
          "$type": "RPG.GameCore.UnLockPlayerControl"
        },
        {
          "$type": "RPG.GameCore.PlayMissionTalk",
          "SimpleTalkList": [
            {
              "TalkSentenceID": 200024704,
              "ProtectTime": 2
            },
            {
              "TalkSentenceID": 200024705,
              "ProtectTime": 2
            },
            {
              "TalkSentenceID": 200024706,
              "ProtectTime": 2
            },
            {
              "TalkSentenceID": 200024707,
              "ProtectTime": 2
            }
          ]
        },
        {
          "$type": "RPG.GameCore.FinishPerformanceMission",
          "Key": "Mission_200011214"
        }
      ]
    }
  ],
  "Type": "Mission"
}