{
  "OnInitSequece": [],
  "OnStartSequece": [
    {
      "TaskList": [
        {
          "$type": "RPG.GameCore.PropStateExecute",
          "TargetType": {
            "$type": "RPG.GameCore.TargetFetchAdvPropEx",
            "FetchType": "SinglePropByPropID",
            "SinglePropID": {
              "GroupID": {
                "IsDynamic": false,
                "FixedValue": {
                  "Value": 18
                }
              },
              "ID": {
                "IsDynamic": false,
                "FixedValue": {
                  "Value": 300002
                }
              }
            }
          },
          "State": "Open",
          "Execute": [
            {
              "$type": "RPG.GameCore.UpdateTreasureChallengeProgress",
              "RaidTargetID": 412210101,
              "IsIncrease": true,
              "DeltaValue": 1
            },
            {
              "$type": "RPG.GameCore.FinishPerformanceMission",
              "Key": "Mission_412210107"
            }
          ]
        }
      ]
    },
    {
      "TaskList": [
        {
          "$type": "RPG.GameCore.WaitCustomString",
          "CustomString": {
            "Value": "Mission_412210107_Photo_Took"
          },
          "GoNextImmediately": true
        },
        {
          "$type": "RPG.GameCore.WaitSecond",
          "WaitTime": {
            "IsDynamic": false,
            "FixedValue": {
              "Value": 1
            }
          }
        },
        {
          "$type": "RPG.GameCore.LockPlayerControl"
        },
        {
          "$type": "RPG.GameCore.ShowTalkUI",
          "Show": true
        },
        {
          "$type": "RPG.GameCore.SelectorConfig",
          "TaskList": [
            {
              "$type": "RPG.GameCore.PropStateExecute",
              "TargetType": {
                "$type": "RPG.GameCore.TargetFetchAdvPropEx",
                "FetchType": "SinglePropByPropID",
                "SinglePropID": {
                  "GroupID": {
                    "IsDynamic": false,
                    "FixedValue": {
                      "Value": 18
                    }
                  },
                  "ID": {
                    "IsDynamic": false,
                    "FixedValue": {
                      "Value": 300001
                    }
                  }
                }
              },
              "Execute": [
                {
                  "$type": "RPG.GameCore.PlayAndWaitSimpleTalk",
                  "Backgrounds": [],
                  "SimpleTalkList": [
                    {
                      "TalkSentenceID": 412210151
                    },
                    {
                      "TalkSentenceID": 412210155
                    }
                  ]
                },
                {
                  "$type": "RPG.GameCore.ShowTalkUI"
                },
                {
                  "$type": "RPG.GameCore.UnLockPlayerControl"
                },
                {
                  "$type": "RPG.GameCore.TriggerCustomString",
                  "CustomString": {
                    "Value": "Talk_412210107"
                  }
                }
              ]
            },
            {
              "$type": "RPG.GameCore.PropStateExecute",
              "TargetType": {
                "$type": "RPG.GameCore.TargetFetchAdvPropEx",
                "FetchType": "SinglePropByPropID",
                "SinglePropID": {
                  "GroupID": {
                    "IsDynamic": false,
                    "FixedValue": {
                      "Value": 18
                    }
                  },
                  "ID": {
                    "IsDynamic": false,
                    "FixedValue": {
                      "Value": 300001
                    }
                  }
                }
              },
              "State": "Open",
              "Execute": [
                {
                  "$type": "RPG.GameCore.PlayAndWaitSimpleTalk",
                  "Backgrounds": [],
                  "SimpleTalkList": [
                    {
                      "TalkSentenceID": 412210151
                    },
                    {
                      "TalkSentenceID": 412210155
                    },
                    {
                      "TalkSentenceID": 412210426
                    }
                  ]
                },
                {
                  "$type": "RPG.GameCore.PlayOptionTalk",
                  "OptionList": [
                    {
                      "TalkSentenceID": 412210405,
                      "OptionIconType": "ChatContinueIcon",
                      "TriggerCustomString": "TalkSentence_412210405"
                    }
                  ]
                },
                {
                  "$type": "RPG.GameCore.TriggerCustomString",
                  "CustomString": {
                    "Value": "Talk_412210107"
                  }
                }
              ]
            }
          ]
        }
      ]
    },
    {
      "TaskList": [
        {
          "$type": "RPG.GameCore.WaitCustomString",
          "CustomString": {
            "Value": "Talk_412210107"
          }
        },
        {
          "$type": "RPG.GameCore.UpdateTreasureChallengeProgress",
          "RaidTargetID": 412210101,
          "IsIncrease": true,
          "DeltaValue": 1
        },
        {
          "$type": "RPG.GameCore.FinishPerformanceMission",
          "Key": "Mission_412210107"
        }
      ]
    }
  ],
  "Type": "Mission"
}