{
  "FreeStyleClipEvents": [
    {
      "FreeStyleClipName": "Monster_XP_Minion04_00_Adv_Ani_MazeRun",
      "NormalizedTime": 0.01833333,
      "EventList": [
        {
          "$type": "RPG.GameCore.TriggerSoundInAnim",
          "SoundName": "Ev_sfx_npc_special_xp_minion04_00_00_run"
        }
      ]
    },
    {
      "FreeStyleClipName": "Monster_XP_Minion04_00_Adv_Ani_MazeRun",
      "NormalizedTime": 0.1983333,
      "EventList": [
        {
          "$type": "RPG.GameCore.TriggerSoundInAnim",
          "SoundName": "Ev_sfx_npc_special_xp_minion04_00_00_run"
        }
      ]
    },
    {
      "FreeStyleClipName": "Monster_XP_Minion04_00_Adv_Ani_MazeRun",
      "NormalizedTime": 0.3616667,
      "EventList": [
        {
          "$type": "RPG.GameCore.TriggerSoundInAnim",
          "SoundName": "Ev_sfx_npc_special_xp_minion04_00_00_run"
        }
      ]
    },
    {
      "FreeStyleClipName": "Monster_XP_Minion04_00_Adv_Ani_MazeRun",
      "NormalizedTime": 0.5283334,
      "EventList": [
        {
          "$type": "RPG.GameCore.TriggerSoundInAnim",
          "SoundName": "Ev_sfx_npc_special_xp_minion04_00_00_run"
        }
      ]
    },
    {
      "FreeStyleClipName": "Monster_XP_Minion04_00_Adv_Ani_MazeRun",
      "NormalizedTime": 0.7016667,
      "EventList": [
        {
          "$type": "RPG.GameCore.TriggerSoundInAnim",
          "SoundName": "Ev_sfx_npc_special_xp_minion04_00_00_run"
        }
      ]
    },
    {
      "FreeStyleClipName": "Monster_XP_Minion04_00_Adv_Ani_MazeRun",
      "NormalizedTime": 0.8566667,
      "EventList": [
        {
          "$type": "RPG.GameCore.TriggerSoundInAnim",
          "SoundName": "Ev_sfx_npc_special_xp_minion04_00_00_run"
        }
      ]
    },
    {
      "FreeStyleClipName": "Monster_XP_Minion04_00_Adv_Ani_MazeWalk",
      "NormalizedTime": 0.055,
      "EventList": [
        {
          "$type": "RPG.GameCore.TriggerSoundInAnim",
          "SoundName": "Ev_sfx_npc_special_xp_minion04_00_00_run"
        }
      ]
    },
    {
      "FreeStyleClipName": "Monster_XP_Minion04_00_Adv_Ani_Turn_90_L",
      "NormalizedTime": 0.008333333,
      "EventList": [
        {
          "$type": "RPG.GameCore.TriggerSoundInAnim",
          "SoundName": "Ev_sfx_npc_special_xp_minion04_00_00_turn_90"
        }
      ]
    },
    {
      "FreeStyleClipName": "Monster_XP_Minion04_00_Adv_Ani_Turn_90_R",
      "NormalizedTime": 0.005,
      "EventList": [
        {
          "$type": "RPG.GameCore.TriggerSoundInAnim",
          "SoundName": "Ev_sfx_npc_special_xp_minion04_00_00_turn_90"
        }
      ]
    },
    {
      "FreeStyleClipName": "Monster_XP_Minion04_00_Adv_Ani_Charge01Loop",
      "NormalizedTime": 0.008333334,
      "EventList": [
        {
          "$type": "RPG.GameCore.TriggerSoundInAnim",
          "SoundName": "Ev_sfx_monster_c_charge01loop_minion04_00_loop",
          "StopOnAnimStateExit": "Charge01Loop"
        }
      ]
    },
    {
      "FreeStyleClipName": "Monster_XP_Minion04_00_Adv_Ani_MazeStandBy",
      "NormalizedTime": 0.001666667,
      "EventList": [
        {
          "$type": "RPG.GameCore.TriggerSoundInAnim",
          "SoundName": "Ev_sfx_monster_c_charge01loop_minion04_00_loop_stop",
          "StopOnAnimStateExit": "MazeStandBy"
        }
      ]
    },
    {
      "FreeStyleClipName": "Monster_XP_Minion04_00_Adv_Ani_Charge01BS",
      "NormalizedTime": 0.01333333,
      "EventList": [
        {
          "$type": "RPG.GameCore.TriggerSoundInAnim",
          "SoundName": "Ev_sfx_monster_c_change01bs_xp_minion04_00",
          "StopOnAnimStateExit": "Charge01BS"
        }
      ]
    },
    {
      "FreeStyleClipName": "Monster_XP_Minion04_00_Adv_Ani_Alert01BS",
      "NormalizedTime": 0.01166667,
      "EventList": [
        {
          "$type": "RPG.GameCore.TriggerSoundInAnim",
          "SoundName": "Ev_sfx_npc_special_xp_minion04_00_00_alert01bs",
          "StopOnAnimStateExit": "Alert01BS"
        }
      ]
    },
    {
      "FreeStyleClipName": "Monster_XP_Minion04_00_Adv_Ani_Alert01AS",
      "NormalizedTime": 0.005,
      "EventList": [
        {
          "$type": "RPG.GameCore.TriggerSoundInAnim",
          "SoundName": "Ev_sfx_npc_special_xp_minion04_00_00_alert01as",
          "StopOnAnimStateExit": "Alert01AS"
        }
      ]
    },
    {
      "FreeStyleClipName": "Monster_XP_Minion04_00_Adv_Ani_Happy01",
      "NormalizedTime": 0.006666667,
      "EventList": [
        {
          "$type": "RPG.GameCore.TriggerSoundInAnim",
          "SoundName": "Ev_sfx_npc_special_xp_minion04_00_00_happy01",
          "StopOnAnimStateExit": "Happy01"
        }
      ]
    },
    {
      "FreeStyleClipName": "Monster_XP_Minion04_00_Adv_Ani_Doubt01",
      "NormalizedTime": 0.1833333,
      "EventList": [
        {
          "$type": "RPG.GameCore.TriggerSoundInAnim",
          "SoundName": "Ev_sfx_npc_special_xp_minion04_00_00_doubt01",
          "StopOnAnimStateExit": "Doubt01"
        }
      ]
    }
  ]
}