{
  "OnInitSequece": [],
  "OnStartSequece": [
    {
      "TaskList": [
        {
          "$type": "RPG.GameCore.LevelPerformanceInitialize",
          "PerformanceType": "E",
          "HideMunicipalCrowd": false,
          "HideMunicipalPedestrian": false
        },
        {
          "$type": "RPG.GameCore.AdvNpcFaceToPlayer"
        },
        {
          "$type": "RPG.GameCore.PlayAndWaitSimpleTalk",
          "SimpleTalkList": [
            {
              "TalkSentenceID": 404033921,
              "ProtectTime": 0.3
            },
            {
              "TalkSentenceID": 404033922,
              "ProtectTime": 0.3
            },
            {
              "TalkSentenceID": 404033923,
              "ProtectTime": 0.3
            }
          ]
        },
        {
          "$type": "RPG.GameCore.PlayOptionTalk",
          "OptionList": [
            {
              "TalkSentenceID": 404033924,
              "OptionIconType": "ChatContinueIcon",
              "TriggerCustomString": "TalkSentence_404033925"
            },
            {
              "TalkSentenceID": 404033942,
              "OptionIconType": "ChatOutIcon",
              "TriggerCustomString": "TalkSentence_404033943"
            }
          ]
        }
      ]
    },
    {
      "TaskList": [
        {
          "$type": "RPG.GameCore.WaitCustomString",
          "CustomString": {
            "Value": "TalkSentence_404033925"
          }
        },
        {
          "$type": "RPG.GameCore.PlayAndWaitSimpleTalk",
          "SimpleTalkList": [
            {
              "TalkSentenceID": 404033925,
              "ProtectTime": 0.3
            },
            {
              "TalkSentenceID": 404033926,
              "ProtectTime": 0.3
            },
            {
              "TalkSentenceID": 404033927,
              "ProtectTime": 0.3
            },
            {
              "TalkSentenceID": 404033928,
              "ProtectTime": 0.3
            }
          ]
        },
        {
          "$type": "RPG.GameCore.PlayOptionTalk",
          "OptionList": [
            {
              "TalkSentenceID": 404033929,
              "OptionIconType": "ChatContinueIcon",
              "TriggerCustomString": "TalkSentence_404033930"
            },
            {
              "TalkSentenceID": 404033940,
              "OptionIconType": "ChatOutIcon",
              "TriggerCustomString": "TalkSentence_404033941"
            }
          ]
        }
      ]
    },
    {
      "TaskList": [
        {
          "$type": "RPG.GameCore.WaitCustomString",
          "CustomString": {
            "Value": "TalkSentence_404033930"
          }
        },
        {
          "$type": "RPG.GameCore.PlayAndWaitSimpleTalk",
          "SimpleTalkList": [
            {
              "TalkSentenceID": 404033930,
              "ProtectTime": 0.3
            },
            {
              "TalkSentenceID": 404033931,
              "ProtectTime": 0.3
            },
            {
              "TalkSentenceID": 404033932,
              "ProtectTime": 0.3
            }
          ]
        },
        {
          "$type": "RPG.GameCore.PlayOptionTalk",
          "OptionList": [
            {
              "TalkSentenceID": 404033933,
              "OptionIconType": "ChatContinueIcon",
              "TriggerCustomString": "TalkSentence_404033934"
            },
            {
              "TalkSentenceID": 404033938,
              "OptionIconType": "ChatOutIcon",
              "TriggerCustomString": "TalkSentence_404033939"
            }
          ]
        }
      ]
    },
    {
      "TaskList": [
        {
          "$type": "RPG.GameCore.WaitCustomString",
          "CustomString": {
            "Value": "TalkSentence_404033934"
          }
        },
        {
          "$type": "RPG.GameCore.PlayAndWaitSimpleTalk",
          "SimpleTalkList": [
            {
              "TalkSentenceID": 404033934,
              "ProtectTime": 0.3
            },
            {
              "TalkSentenceID": 404033935,
              "ProtectTime": 0.3
            },
            {
              "TalkSentenceID": 404033936,
              "ProtectTime": 0.3
            },
            {
              "TalkSentenceID": 404033937,
              "ProtectTime": 0.3
            }
          ]
        },
        {
          "$type": "RPG.GameCore.ClientFinishMission",
          "SubmissionID": 404033806
        },
        {
          "$type": "RPG.GameCore.TriggerCustomString",
          "CustomString": {
            "Value": "ALL_TALK_END"
          }
        }
      ]
    },
    {
      "TaskList": [
        {
          "$type": "RPG.GameCore.WaitCustomString",
          "CustomString": {
            "Value": "TalkSentence_404033939"
          }
        },
        {
          "$type": "RPG.GameCore.PlayAndWaitSimpleTalk",
          "SimpleTalkList": [
            {
              "TalkSentenceID": 404033939,
              "ProtectTime": 0.3
            }
          ]
        },
        {
          "$type": "RPG.GameCore.TriggerCustomString",
          "CustomString": {
            "Value": "ALL_TALK_END"
          }
        }
      ]
    },
    {
      "TaskList": [
        {
          "$type": "RPG.GameCore.WaitCustomString",
          "CustomString": {
            "Value": "TalkSentence_404033941"
          }
        },
        {
          "$type": "RPG.GameCore.PlayAndWaitSimpleTalk",
          "SimpleTalkList": [
            {
              "TalkSentenceID": 404033941,
              "ProtectTime": 0.3
            }
          ]
        },
        {
          "$type": "RPG.GameCore.TriggerCustomString",
          "CustomString": {
            "Value": "ALL_TALK_END"
          }
        }
      ]
    },
    {
      "TaskList": [
        {
          "$type": "RPG.GameCore.WaitCustomString",
          "CustomString": {
            "Value": "TalkSentence_404033943"
          }
        },
        {
          "$type": "RPG.GameCore.PlayAndWaitSimpleTalk",
          "SimpleTalkList": [
            {
              "TalkSentenceID": 404033943,
              "ProtectTime": 0.3
            }
          ]
        },
        {
          "$type": "RPG.GameCore.TriggerCustomString",
          "CustomString": {
            "Value": "ALL_TALK_END"
          }
        }
      ]
    },
    {
      "TaskList": [
        {
          "$type": "RPG.GameCore.WaitCustomString",
          "CustomString": {
            "Value": "ALL_TALK_END"
          }
        },
        {
          "$type": "RPG.GameCore.EndPerformance"
        }
      ]
    },
    {
      "TaskList": [
        {
          "$type": "RPG.GameCore.WaitPerformanceEnd"
        },
        {
          "$type": "RPG.GameCore.FinishLevelGraph"
        }
      ]
    }
  ]
}