{
  "OnInitSequece": [],
  "OnStartSequece": [
    {
      "TaskList": [
        {
          "$type": "RPG.GameCore.LevelPerformanceInitialize",
          "PerformanceType": "E",
          "HideMunicipalCrowd": false,
          "HideMunicipalPedestrian": false
        },
        {
          "$type": "RPG.GameCore.PerformanceTransition",
          "CreateNpcList": [],
          "CaptureNpcList": [],
          "DestroyNpcList": [],
          "CreateProp": {
            "TaskEnabled": false
          },
          "DestroyProp": {
            "TargetType": {
              "$type": "RPG.GameCore.TargetFetchAdvPropEx"
            },
            "TaskEnabled": false
          },
          "AdvCreateGroupEntity": {
            "InstanceIDList": [],
            "TaskEnabled": false
          },
          "AdvDestroyGroupEntity": {
            "InstanceIDList": [],
            "TaskEnabled": false
          },
          "ActiveVirtualCamera": {
            "TaskEnabled": false
          },
          "ActiveTemplateVirtualCamera": {
            "TaskEnabled": false
          },
          "SwitchCharacterAnchor": {
            "TaskEnabled": false
          },
          "AdvNpcFaceToPlayer": {
            "SteerImmediately": true,
            "FinishImmadiate": true,
            "TaskEnabled": false
          }
        },
        {
          "$type": "RPG.GameCore.StartDialogueEntityInteract",
          "TargetType": {
            "$type": "RPG.GameCore.TargetFetchAdvNpcEx",
            "FetchType": "SingleNpcByNpcID",
            "SingleNpcID": {
              "GroupID": {
                "IsDynamic": false,
                "FixedValue": {
                  "Value": 311
                }
              },
              "GroupNpcID": {
                "IsDynamic": false,
                "FixedValue": {
                  "Value": 400001
                }
              }
            }
          },
          "LevelGraphPath": "Config/Level/Props/InteractMode/TriggerEvent_TriggerType_08.json",
          "UseOverrideData": true,
          "ValueSource": {
            "Values": [
              {
                "$type": "RPG.GameCore.SharedString",
                "Value": "Level/Common_Adventure/Dreamland.prefab",
                "Key": "DialogueEntityInteract_AreaPath"
              },
              {
                "$type": "RPG.GameCore.SharedString",
                "Value": "Dreamland,Dreamland_Camera",
                "Key": "DialogueEntityInteract_CameraKey"
              },
              {
                "$type": "RPG.GameCore.SharedString",
                "Value": "Dreamland",
                "Key": "DialogueEntityInteract_AreaName"
              },
              {
                "$type": "RPG.GameCore.SharedFloat",
                "Key": "ResetEntityTransform"
              }
            ]
          },
          "OverrideTasks": {
            "OverrideVCamBlendConfig": true,
            "VCamBlendConfig": {
              "ExportToJson": true,
              "BlendType": "Cut"
            }
          }
        },
        {
          "$type": "RPG.GameCore.PlayAndWaitSimpleTalk",
          "SimpleTalkList": [
            {
              "TextSpeed": 0,
              "TalkSentenceID": 503072060,
              "ProtectTime": 0
            },
            {
              "TextSpeed": 0,
              "TalkSentenceID": 503072061,
              "ProtectTime": 0
            },
            {
              "TextSpeed": 0,
              "TalkSentenceID": 503072062,
              "ProtectTime": 0
            }
          ]
        },
        {
          "$type": "RPG.GameCore.PlayOptionTalk",
          "OptionList": [
            {
              "TalkSentenceID": 503072063,
              "OptionIconType": "ChatContinueIcon",
              "TriggerCustomString": "TalkSentence_503072065"
            },
            {
              "TalkSentenceID": 503072064,
              "OptionIconType": "ChatContinueIcon",
              "TriggerCustomString": "TalkSentence_503072065"
            }
          ]
        }
      ]
    },
    {
      "TaskList": [
        {
          "$type": "RPG.GameCore.WaitCustomString",
          "CustomString": {
            "Value": "TalkSentence_503072065"
          }
        },
        {
          "$type": "RPG.GameCore.PlayAndWaitSimpleTalk",
          "SimpleTalkList": [
            {
              "TextSpeed": 0,
              "TalkSentenceID": 503072065,
              "ProtectTime": 0
            }
          ]
        },
        {
          "$type": "RPG.GameCore.EndDialogueEntityInteract",
          "TargetType": {
            "$type": "RPG.GameCore.TargetFetchAdvNpcEx",
            "FetchType": "SingleNpcByNpcID",
            "SingleNpcID": {
              "GroupID": {
                "IsDynamic": false,
                "FixedValue": {
                  "Value": 311
                }
              },
              "GroupNpcID": {
                "IsDynamic": false,
                "FixedValue": {
                  "Value": 400001
                }
              }
            }
          },
          "LevelGraphPath": "Config/Level/Props/InteractMode/TriggerEvent_ExitTriggerType_08.json"
        },
        {
          "$type": "RPG.GameCore.EndPerformance"
        }
      ]
    },
    {
      "TaskList": [
        {
          "$type": "RPG.GameCore.WaitPerformanceEnd"
        },
        {
          "$type": "RPG.GameCore.FinishLevelGraph"
        }
      ]
    }
  ]
}