{
  "OnInitSequece": [],
  "OnStartSequece": [
    {
      "TaskList": [
        {
          "$type": "RPG.GameCore.AdvSetupButtonListTrigger",
          "TriggerName": "InteractTrigger",
          "ButtonsByName": [],
          "ButtonConfigs": [
            {
              "ID": "1stFloor",
              "ButtonIcon": {
                "Custom": true,
                "Key": "1stFloorButtonIcon"
              },
              "ButtonText": {
                "Custom": true,
                "Key": "1stFloorButtonText"
              }
            }
          ],
          "ConsiderAngleLimit": true,
          "InteractAngleRange": 90,
          "ConsiderOwnerForwardAngleLimit": true
        },
        {
          "$type": "RPG.GameCore.AdvSetupButtonListTrigger",
          "TriggerName": "LockTrigger",
          "ButtonsByName": [
            "Interact"
          ],
          "ButtonConfigs": [],
          "ConsiderAngleLimit": true,
          "InteractAngleRange": 90,
          "ConsiderOwnerForwardAngleLimit": true
        }
      ]
    },
    {
      "TaskList": [
        {
          "$type": "RPG.GameCore.AdvOnButtonPressed",
          "ButtonName": "1stFloor",
          "OnPressedCallback": [
            {
              "$type": "RPG.GameCore.CaptureLocalPlayer",
              "CharacterUniqueName": "LocalPlayer"
            },
            {
              "$type": "RPG.GameCore.StartPropInteractMode",
              "TargetType": {
                "$type": "RPG.GameCore.TargetFetchAdvPropEx"
              },
              "Mode": "UsePose02"
            },
            {
              "$type": "RPG.GameCore.WaitSecond",
              "WaitTime": {
                "IsDynamic": false,
                "FixedValue": {
                  "Value": 0.5
                }
              }
            },
            {
              "$type": "RPG.GameCore.PlayScreenTransfer",
              "Mode": "SwitchOut",
              "CustomTime": 0.5
            },
            {
              "$type": "RPG.GameCore.SwitchCharacterAnchorV2",
              "SwitchCharacterAnchorConfig": {
                "IsLocalPlayer": true,
                "CharacterUniqueName": "LocalPlayer",
                "LevelAreaKey": {
                  "Custom": true,
                  "Key": "1stFloorAnchor"
                }
              }
            },
            {
              "$type": "RPG.GameCore.TriggerSound",
              "SoundName": {
                "Value": "Ev_sfx_penacony_elevator"
              },
              "TargetType": {
                "$type": "RPG.GameCore.TargetFetchAdvPropEx"
              }
            },
            {
              "$type": "RPG.GameCore.WaitSecond",
              "WaitTime": {
                "IsDynamic": false,
                "FixedValue": {
                  "Value": 3
                }
              }
            },
            {
              "$type": "RPG.GameCore.PlayScreenTransfer",
              "CustomTime": 0.5
            },
            {
              "$type": "RPG.GameCore.EndPropInteract"
            },
            {
              "$type": "RPG.GameCore.ReleaseCharacter",
              "CharacterUniqueName": "LocalPlayer"
            }
          ]
        }
      ]
    },
    {
      "TaskList": [
        {
          "$type": "RPG.GameCore.AdvOnButtonPressed",
          "ButtonName": "Interact",
          "OnPressedCallback": [
            {
              "$type": "RPG.GameCore.ToastPile",
              "DescTextID": {
                "Hash": -1812081915
              },
              "DescTextKey": {
                "Custom": true,
                "Key": "LockToastPile"
              }
            }
          ]
        }
      ]
    },
    {
      "TaskList": [
        {
          "$type": "RPG.GameCore.WaitEntityEvent",
          "EventName": {
            "Value": "Clt_TriggerOpen"
          },
          "OnEvent": [
            {
              "$type": "RPG.GameCore.PredicateTaskList",
              "Predicate": {
                "$type": "RPG.GameCore.ByCompareEntityAuthoritySide"
              },
              "SuccessTaskList": [
                {
                  "$type": "RPG.GameCore.AdvClientChangePropState",
                  "TargetType": {
                    "$type": "RPG.GameCore.TargetFetchAdvPropEx"
                  },
                  "ToState": "Open"
                }
              ],
              "FailedTaskList": [
                {
                  "$type": "RPG.GameCore.PropReqInteract",
                  "TargetType": {
                    "$type": "RPG.GameCore.TargetFetchAdvPropEx"
                  },
                  "InteractID": {
                    "IsDynamic": false,
                    "FixedValue": {
                      "Value": 1010
                    }
                  }
                }
              ]
            }
          ],
          "InstanceID": {
            "IsDynamic": false,
            "FixedValue": {
              "Value": 0
            }
          }
        }
      ]
    },
    {
      "TaskList": [
        {
          "$type": "RPG.GameCore.WaitEntityEvent",
          "EventName": {
            "Value": "Clt_TriggerClose"
          },
          "OnEvent": [
            {
              "$type": "RPG.GameCore.PredicateTaskList",
              "Predicate": {
                "$type": "RPG.GameCore.ByCompareEntityAuthoritySide"
              },
              "SuccessTaskList": [
                {
                  "$type": "RPG.GameCore.AdvClientChangePropState",
                  "TargetType": {
                    "$type": "RPG.GameCore.TargetFetchAdvPropEx"
                  },
                  "FromState": "Open"
                }
              ],
              "FailedTaskList": [
                {
                  "$type": "RPG.GameCore.PropReqInteract",
                  "TargetType": {
                    "$type": "RPG.GameCore.TargetFetchAdvPropEx"
                  },
                  "InteractID": {
                    "IsDynamic": false,
                    "FixedValue": {
                      "Value": 1100
                    }
                  }
                }
              ]
            }
          ],
          "InstanceID": {
            "IsDynamic": false,
            "FixedValue": {
              "Value": 0
            }
          }
        }
      ]
    },
    {
      "TaskList": [
        {
          "$type": "RPG.GameCore.WaitEntityServerEvent",
          "TaskEnabled": true
        },
        {
          "$type": "RPG.GameCore.ChangePropState",
          "TaskEnabled": true
        }
      ]
    },
    {
      "TaskList": [
        {
          "$type": "RPG.GameCore.WaitEntityServerEvent",
          "TaskEnabled": true
        },
        {
          "$type": "RPG.GameCore.ChangePropState",
          "TaskEnabled": true
        }
      ]
    },
    {
      "TaskList": [
        {
          "$type": "RPG.GameCore.WaitPropStateChange",
          "FromAnyState": true,
          "ToState": "Open",
          "OnChange": [
            {
              "$type": "RPG.GameCore.AdvEnableButtons",
              "TriggerName": "InteractTrigger",
              "ButtonsByName": [
                "1stFloor"
              ],
              "IsEnable": true
            },
            {
              "$type": "RPG.GameCore.AdvEnableButtons",
              "TriggerName": "LockTrigger",
              "ButtonsByName": [
                "Interact"
              ]
            }
          ]
        }
      ]
    },
    {
      "TaskList": [
        {
          "$type": "RPG.GameCore.WaitPropStateChange",
          "FromAnyState": true,
          "OnChange": [
            {
              "$type": "RPG.GameCore.AdvEnableButtons",
              "TriggerName": "InteractTrigger",
              "ButtonsByName": [
                "1stFloor"
              ]
            },
            {
              "$type": "RPG.GameCore.AdvEnableButtons",
              "TriggerName": "LockTrigger",
              "ButtonsByName": [
                "Interact"
              ],
              "IsEnable": true
            }
          ]
        }
      ]
    },
    {
      "TaskList": [
        {
          "$type": "RPG.GameCore.GenericSwitchCase",
          "SwitchRef": {
            "$type": "RPG.GameCore.SwitchRefPropState"
          },
          "Cases": [
            {
              "$type": "RPG.GameCore.PropStateCaseContainer",
              "Case": "Open",
              "OnSuccess": [
                {
                  "$type": "RPG.GameCore.AdvEnableButtons",
                  "TriggerName": "InteractTrigger",
                  "ButtonsByName": [
                    "1stFloor"
                  ],
                  "IsEnable": true
                },
                {
                  "$type": "RPG.GameCore.AdvEnableButtons",
                  "TriggerName": "LockTrigger",
                  "ButtonsByName": [
                    "Interact"
                  ]
                }
              ]
            },
            {
              "$type": "RPG.GameCore.PropStateCaseContainer",
              "OnSuccess": [
                {
                  "$type": "RPG.GameCore.AdvEnableButtons",
                  "TriggerName": "InteractTrigger",
                  "ButtonsByName": [
                    "1stFloor"
                  ]
                },
                {
                  "$type": "RPG.GameCore.AdvEnableButtons",
                  "TriggerName": "LockTrigger",
                  "ButtonsByName": [
                    "Interact"
                  ],
                  "IsEnable": true
                }
              ]
            }
          ]
        }
      ]
    }
  ],
  "ValueSource": {
    "Values": [
      {
        "$type": "RPG.GameCore.SharedString",
        "Value": "SpriteOutput/TalkIcon/ChatIcon.png",
        "Key": "1stFloorButtonIcon"
      },
      {
        "$type": "RPG.GameCore.SharedString",
        "Value": "Maze_Chap00_N201_Elevator1FTo2F",
        "Key": "1stFloorButtonText"
      },
      {
        "$type": "RPG.GameCore.SharedString",
        "Key": "1stFloorAnchor"
      },
      {
        "$type": "RPG.GameCore.SharedString",
        "Value": "MazeText_Chap03_P05_ElevatorLocked",
        "Key": "LockToastPile"
      }
    ]
  },
  "Type": "Entity"
}