{
  "OnInitSequece": [],
  "OnStartSequece": [
    {
      "TaskList": [
        {
          "$type": "RPG.GameCore.AdvSetupButtonListTrigger",
          "TriggerName": "LockTrigger",
          "ButtonsByName": [
            "Interact"
          ],
          "ButtonConfigs": [],
          "ConsiderAngleLimit": true,
          "InteractAngleRange": 90,
          "ConsiderOwnerForwardAngleLimit": true
        },
        {
          "$type": "RPG.GameCore.PredicateTaskList",
          "Predicate": {
            "$type": "RPG.GameCore.ByCompareGraphDynamicFloat",
            "Name": "IsSecret",
            "Value": {
              "IsDynamic": false,
              "FixedValue": {
                "Value": 0
              }
            },
            "CompareType": "Equal"
          },
          "SuccessTaskList": [
            {
              "$type": "RPG.GameCore.AdvSetupButtonListTrigger",
              "TriggerName": "InteractTrigger",
              "ButtonsByName": [],
              "ButtonConfigs": [
                {
                  "ID": "1stFloor",
                  "ButtonIcon": {
                    "Custom": true,
                    "Key": "1stFloorButtonIcon"
                  },
                  "ButtonText": {
                    "Custom": true,
                    "Key": "1stFloorButtonText"
                  }
                },
                {
                  "ID": "2ndFloor",
                  "ButtonIcon": {
                    "Custom": true,
                    "Key": "2ndFloorButtonIcon"
                  },
                  "ButtonText": {
                    "Custom": true,
                    "Key": "2ndFloorButtonText"
                  }
                }
              ],
              "ConsiderAngleLimit": true,
              "InteractAngleRange": 90,
              "ConsiderOwnerForwardAngleLimit": true
            }
          ],
          "FailedTaskList": [
            {
              "$type": "RPG.GameCore.AdvSetupButtonListTrigger",
              "TriggerName": "InteractTrigger",
              "ButtonsByName": [],
              "ButtonConfigs": [
                {
                  "ID": "1stFloor",
                  "ButtonIcon": {
                    "Custom": true,
                    "Key": "1stFloorButtonIcon"
                  },
                  "ButtonText": {
                    "Custom": true,
                    "Key": "1stFloorButtonText"
                  }
                },
                {
                  "ID": "2ndFloor",
                  "ButtonIcon": {
                    "Custom": true,
                    "Key": "2ndFloorButtonIcon"
                  },
                  "ButtonText": {
                    "Custom": true,
                    "Key": "2ndFloorButtonText"
                  }
                },
                {
                  "ID": "3rdFloor",
                  "ButtonIcon": {
                    "Custom": true,
                    "Key": "3rdFloorButtonIcon"
                  },
                  "ButtonText": {
                    "Custom": true,
                    "Key": "3rdFloorButtonText"
                  }
                }
              ],
              "ConsiderAngleLimit": true,
              "InteractAngleRange": 90,
              "ConsiderOwnerForwardAngleLimit": true
            }
          ]
        }
      ]
    },
    {
      "TaskList": [
        {
          "$type": "RPG.GameCore.WaitGraphDynamicValueChange",
          "Name": "IsSecret",
          "OnChange": [
            {
              "$type": "RPG.GameCore.PredicateTaskList",
              "Predicate": {
                "$type": "RPG.GameCore.ByCompareGraphDynamicFloat",
                "Name": "IsSecret",
                "Value": {
                  "IsDynamic": false,
                  "FixedValue": {
                    "Value": 0
                  }
                },
                "CompareType": "Equal"
              },
              "SuccessTaskList": [
                {
                  "$type": "RPG.GameCore.AdvSetupButtonListTrigger",
                  "TriggerName": "InteractTrigger",
                  "ButtonsByName": [],
                  "ButtonConfigs": [
                    {
                      "ID": "1stFloor",
                      "ButtonIcon": {
                        "Custom": true,
                        "Key": "1stFloorButtonIcon"
                      },
                      "ButtonText": {
                        "Custom": true,
                        "Key": "1stFloorButtonText"
                      }
                    },
                    {
                      "ID": "2ndFloor",
                      "ButtonIcon": {
                        "Custom": true,
                        "Key": "2ndFloorButtonIcon"
                      },
                      "ButtonText": {
                        "Custom": true,
                        "Key": "2ndFloorButtonText"
                      }
                    }
                  ],
                  "ConsiderAngleLimit": true,
                  "InteractAngleRange": 90,
                  "ConsiderOwnerForwardAngleLimit": true
                }
              ],
              "FailedTaskList": [
                {
                  "$type": "RPG.GameCore.AdvSetupButtonListTrigger",
                  "TriggerName": "InteractTrigger",
                  "ButtonsByName": [],
                  "ButtonConfigs": [
                    {
                      "ID": "1stFloor",
                      "ButtonIcon": {
                        "Custom": true,
                        "Key": "1stFloorButtonIcon"
                      },
                      "ButtonText": {
                        "Custom": true,
                        "Key": "1stFloorButtonText"
                      }
                    },
                    {
                      "ID": "2ndFloor",
                      "ButtonIcon": {
                        "Custom": true,
                        "Key": "2ndFloorButtonIcon"
                      },
                      "ButtonText": {
                        "Custom": true,
                        "Key": "2ndFloorButtonText"
                      }
                    },
                    {
                      "ID": "3rdFloor",
                      "ButtonIcon": {
                        "Custom": true,
                        "Key": "3rdFloorButtonIcon"
                      },
                      "ButtonText": {
                        "Custom": true,
                        "Key": "3rdFloorButtonText"
                      }
                    }
                  ],
                  "ConsiderAngleLimit": true,
                  "InteractAngleRange": 90,
                  "ConsiderOwnerForwardAngleLimit": true
                }
              ]
            }
          ]
        }
      ]
    },
    {
      "TaskList": [
        {
          "$type": "RPG.GameCore.AdvOnButtonPressed",
          "ButtonName": "1stFloor",
          "OnPressedCallback": [
            {
              "$type": "RPG.GameCore.StartPropInteractMode",
              "TargetType": {
                "$type": "RPG.GameCore.TargetFetchAdvPropEx"
              },
              "Mode": "UsePose02"
            },
            {
              "$type": "RPG.GameCore.SetGraphDynamicFloat",
              "Name": "TargetFloorValue",
              "TargetIDs": [],
              "Value": {
                "IsDynamic": true,
                "PostfixExpr": {
                  "OpCodes": "AQAK",
                  "FixedValues": [],
                  "DynamicHashes": [
                    1888826405
                  ]
                }
              }
            },
            {
              "$type": "RPG.GameCore.TriggerEntityEvent",
              "EventName": {
                "Value": "Clt_OnCalled"
              }
            },
            {
              "$type": "RPG.GameCore.EndPropInteract"
            }
          ]
        }
      ]
    },
    {
      "TaskList": [
        {
          "$type": "RPG.GameCore.AdvOnButtonPressed",
          "ButtonName": "2ndFloor",
          "OnPressedCallback": [
            {
              "$type": "RPG.GameCore.StartPropInteractMode",
              "TargetType": {
                "$type": "RPG.GameCore.TargetFetchAdvPropEx"
              },
              "Mode": "UsePose02"
            },
            {
              "$type": "RPG.GameCore.SetGraphDynamicFloat",
              "Name": "TargetFloorValue",
              "TargetIDs": [],
              "Value": {
                "IsDynamic": true,
                "PostfixExpr": {
                  "OpCodes": "AQAK",
                  "FixedValues": [],
                  "DynamicHashes": [
                    112290019
                  ]
                }
              }
            },
            {
              "$type": "RPG.GameCore.TriggerEntityEvent",
              "EventName": {
                "Value": "Clt_OnCalled"
              }
            },
            {
              "$type": "RPG.GameCore.EndPropInteract"
            }
          ]
        }
      ]
    },
    {
      "TaskList": [
        {
          "$type": "RPG.GameCore.AdvOnButtonPressed",
          "ButtonName": "3rdFloor",
          "OnPressedCallback": [
            {
              "$type": "RPG.GameCore.StartPropInteractMode",
              "TargetType": {
                "$type": "RPG.GameCore.TargetFetchAdvPropEx"
              },
              "Mode": "UsePose02"
            },
            {
              "$type": "RPG.GameCore.SetGraphDynamicFloat",
              "Name": "TargetFloorValue",
              "TargetIDs": [],
              "Value": {
                "IsDynamic": true,
                "PostfixExpr": {
                  "OpCodes": "AQAK",
                  "FixedValues": [],
                  "DynamicHashes": [
                    -1225457812
                  ]
                }
              }
            },
            {
              "$type": "RPG.GameCore.TriggerEntityEvent",
              "EventName": {
                "Value": "Clt_OnCalled"
              }
            },
            {
              "$type": "RPG.GameCore.EndPropInteract"
            }
          ]
        }
      ]
    },
    {
      "TaskList": [
        {
          "$type": "RPG.GameCore.AdvOnButtonPressed",
          "ButtonName": "SecretFloor",
          "OnPressedCallback": [
            {
              "$type": "RPG.GameCore.StartPropInteractMode",
              "TargetType": {
                "$type": "RPG.GameCore.TargetFetchAdvPropEx"
              },
              "Mode": "UsePose02"
            },
            {
              "$type": "RPG.GameCore.ToastPile",
              "DescTextID": {
                "Hash": -1812081915
              },
              "DescTextKey": {
                "Custom": true,
                "Key": "SecretTosatePile"
              }
            },
            {
              "$type": "RPG.GameCore.EndPropInteract"
            }
          ]
        }
      ]
    },
    {
      "TaskList": [
        {
          "$type": "RPG.GameCore.AdvOnButtonPressed",
          "ButtonName": "Interact",
          "OnPressedCallback": [
            {
              "$type": "RPG.GameCore.ToastPile",
              "DescTextID": {
                "Hash": -1812081915
              },
              "DescTextKey": {
                "Custom": true,
                "Key": "LockToastPile"
              }
            }
          ]
        }
      ]
    },
    {
      "TaskList": [
        {
          "$type": "RPG.GameCore.WaitEntityEvent",
          "EventName": {
            "Value": "Clt_DisableInt"
          },
          "OnEvent": [
            {
              "$type": "RPG.GameCore.GenericSwitchCase",
              "SwitchRef": {
                "$type": "RPG.GameCore.SwitchRefPropState"
              },
              "Cases": [
                {
                  "$type": "RPG.GameCore.PropStateCaseContainer",
                  "Case": "Open",
                  "OnSuccess": [
                    {
                      "$type": "RPG.GameCore.PredicateTaskList",
                      "Predicate": {
                        "$type": "RPG.GameCore.ByCompareGraphDynamicFloat",
                        "Name": "IsSecret",
                        "Value": {
                          "IsDynamic": false,
                          "FixedValue": {
                            "Value": 0
                          }
                        },
                        "CompareType": "Equal"
                      },
                      "SuccessTaskList": [
                        {
                          "$type": "RPG.GameCore.AdvEnableButtons",
                          "TriggerName": "InteractTrigger",
                          "ButtonsByName": [
                            "1stFloor",
                            "2ndFloor"
                          ]
                        }
                      ],
                      "FailedTaskList": [
                        {
                          "$type": "RPG.GameCore.AdvEnableButtons",
                          "TriggerName": "InteractTrigger",
                          "ButtonsByName": [
                            "1stFloor",
                            "2ndFloor",
                            "3rdFloor"
                          ]
                        }
                      ]
                    }
                  ]
                },
                {
                  "$type": "RPG.GameCore.PropStateCaseContainer",
                  "OnSuccess": [
                    {
                      "$type": "RPG.GameCore.AdvEnableButtons",
                      "TriggerName": "LockTrigger",
                      "ButtonsByName": [
                        "Interact"
                      ]
                    }
                  ]
                }
              ]
            }
          ]
        }
      ]
    },
    {
      "TaskList": [
        {
          "$type": "RPG.GameCore.WaitEntityEvent",
          "EventName": {
            "Value": "Clt_EnableInt"
          },
          "OnEvent": [
            {
              "$type": "RPG.GameCore.GenericSwitchCase",
              "SwitchRef": {
                "$type": "RPG.GameCore.SwitchRefPropState"
              },
              "Cases": [
                {
                  "$type": "RPG.GameCore.PropStateCaseContainer",
                  "Case": "Open",
                  "OnSuccess": [
                    {
                      "$type": "RPG.GameCore.PredicateTaskList",
                      "Predicate": {
                        "$type": "RPG.GameCore.ByCompareGraphDynamicFloat",
                        "Name": "IsSecret",
                        "Value": {
                          "IsDynamic": false,
                          "FixedValue": {
                            "Value": 0
                          }
                        },
                        "CompareType": "Equal"
                      },
                      "SuccessTaskList": [
                        {
                          "$type": "RPG.GameCore.AdvEnableButtons",
                          "TriggerName": "InteractTrigger",
                          "ButtonsByName": [
                            "1stFloor",
                            "2ndFloor"
                          ],
                          "IsEnable": true
                        }
                      ],
                      "FailedTaskList": [
                        {
                          "$type": "RPG.GameCore.AdvEnableButtons",
                          "TriggerName": "InteractTrigger",
                          "ButtonsByName": [
                            "1stFloor",
                            "2ndFloor",
                            "3rdFloor"
                          ],
                          "IsEnable": true
                        }
                      ]
                    }
                  ]
                },
                {
                  "$type": "RPG.GameCore.PropStateCaseContainer",
                  "OnSuccess": [
                    {
                      "$type": "RPG.GameCore.AdvEnableButtons",
                      "TriggerName": "LockTrigger",
                      "ButtonsByName": [
                        "Interact"
                      ],
                      "IsEnable": true
                    }
                  ]
                }
              ]
            }
          ]
        }
      ]
    },
    {
      "TaskList": [
        {
          "$type": "RPG.GameCore.WaitEntityEvent",
          "EventName": {
            "Value": "Clt_TriggerOpen"
          },
          "OnEvent": [
            {
              "$type": "RPG.GameCore.PredicateTaskList",
              "Predicate": {
                "$type": "RPG.GameCore.ByCompareEntityAuthoritySide"
              },
              "SuccessTaskList": [
                {
                  "$type": "RPG.GameCore.AdvClientChangePropState",
                  "TargetType": {
                    "$type": "RPG.GameCore.TargetFetchAdvPropEx"
                  },
                  "ToState": "Open"
                }
              ],
              "FailedTaskList": [
                {
                  "$type": "RPG.GameCore.PropReqInteract",
                  "TargetType": {
                    "$type": "RPG.GameCore.TargetFetchAdvPropEx"
                  },
                  "InteractID": {
                    "IsDynamic": false,
                    "FixedValue": {
                      "Value": 1010
                    }
                  }
                }
              ]
            }
          ],
          "InstanceID": {
            "IsDynamic": false,
            "FixedValue": {
              "Value": 0
            }
          }
        }
      ]
    },
    {
      "TaskList": [
        {
          "$type": "RPG.GameCore.WaitEntityEvent",
          "EventName": {
            "Value": "Clt_TriggerClose"
          },
          "OnEvent": [
            {
              "$type": "RPG.GameCore.PredicateTaskList",
              "Predicate": {
                "$type": "RPG.GameCore.ByCompareEntityAuthoritySide"
              },
              "SuccessTaskList": [
                {
                  "$type": "RPG.GameCore.AdvClientChangePropState",
                  "TargetType": {
                    "$type": "RPG.GameCore.TargetFetchAdvPropEx"
                  },
                  "FromState": "Open"
                }
              ],
              "FailedTaskList": [
                {
                  "$type": "RPG.GameCore.PropReqInteract",
                  "TargetType": {
                    "$type": "RPG.GameCore.TargetFetchAdvPropEx"
                  },
                  "InteractID": {
                    "IsDynamic": false,
                    "FixedValue": {
                      "Value": 1100
                    }
                  }
                }
              ]
            }
          ],
          "InstanceID": {
            "IsDynamic": false,
            "FixedValue": {
              "Value": 0
            }
          }
        }
      ]
    },
    {
      "TaskList": [
        {
          "$type": "RPG.GameCore.WaitEntityServerEvent",
          "TaskEnabled": true
        },
        {
          "$type": "RPG.GameCore.ChangePropState",
          "TaskEnabled": true
        }
      ]
    },
    {
      "TaskList": [
        {
          "$type": "RPG.GameCore.WaitEntityServerEvent",
          "TaskEnabled": true
        },
        {
          "$type": "RPG.GameCore.ChangePropState",
          "TaskEnabled": true
        }
      ]
    },
    {
      "TaskList": [
        {
          "$type": "RPG.GameCore.WaitPropStateChange",
          "FromAnyState": true,
          "ToState": "Open",
          "OnChange": [
            {
              "$type": "RPG.GameCore.AdvEnableButtons",
              "TriggerName": "InteractTrigger",
              "ButtonsByName": [
                "1stFloor",
                "2ndFloor",
                "3rdFloor"
              ],
              "IsEnable": true
            },
            {
              "$type": "RPG.GameCore.AdvEnableButtons",
              "TriggerName": "LockTrigger",
              "ButtonsByName": [
                "Interact"
              ]
            }
          ]
        }
      ]
    },
    {
      "TaskList": [
        {
          "$type": "RPG.GameCore.WaitPropStateChange",
          "FromAnyState": true,
          "OnChange": [
            {
              "$type": "RPG.GameCore.AdvEnableButtons",
              "TriggerName": "InteractTrigger",
              "ButtonsByName": [
                "1stFloor",
                "2ndFloor",
                "3rdFloor"
              ]
            },
            {
              "$type": "RPG.GameCore.AdvEnableButtons",
              "TriggerName": "LockTrigger",
              "ButtonsByName": [
                "Interact"
              ],
              "IsEnable": true
            }
          ]
        }
      ]
    },
    {
      "TaskList": [
        {
          "$type": "RPG.GameCore.GenericSwitchCase",
          "SwitchRef": {
            "$type": "RPG.GameCore.SwitchRefPropState"
          },
          "Cases": [
            {
              "$type": "RPG.GameCore.PropStateCaseContainer",
              "Case": "Open",
              "OnSuccess": [
                {
                  "$type": "RPG.GameCore.AdvEnableButtons",
                  "TriggerName": "InteractTrigger",
                  "ButtonsByName": [
                    "1stFloor",
                    "2ndFloor",
                    "3rdFloor"
                  ],
                  "IsEnable": true
                },
                {
                  "$type": "RPG.GameCore.AdvEnableButtons",
                  "TriggerName": "LockTrigger",
                  "ButtonsByName": [
                    "Interact"
                  ]
                }
              ]
            },
            {
              "$type": "RPG.GameCore.PropStateCaseContainer",
              "OnSuccess": [
                {
                  "$type": "RPG.GameCore.AdvEnableButtons",
                  "TriggerName": "InteractTrigger",
                  "ButtonsByName": [
                    "1stFloor",
                    "2ndFloor",
                    "3rdFloor"
                  ]
                },
                {
                  "$type": "RPG.GameCore.AdvEnableButtons",
                  "TriggerName": "LockTrigger",
                  "ButtonsByName": [
                    "Interact"
                  ],
                  "IsEnable": true
                }
              ]
            }
          ]
        }
      ]
    }
  ],
  "ValueSource": {
    "Values": [
      {
        "$type": "RPG.GameCore.SharedString",
        "Value": "SpriteOutput/TalkIcon/CommonSignIcon.png",
        "Key": "1stFloorButtonIcon"
      },
      {
        "$type": "RPG.GameCore.SharedString",
        "Value": "Maze_Chap00_N201_Elevator1FTo2F",
        "Key": "1stFloorButtonText"
      },
      {
        "$type": "RPG.GameCore.SharedInt",
        "Key": "Value1stFloor"
      },
      {
        "$type": "RPG.GameCore.SharedString",
        "Value": "SpriteOutput/TalkIcon/CommonSignIcon.png",
        "Key": "2ndFloorButtonIcon"
      },
      {
        "$type": "RPG.GameCore.SharedString",
        "Value": "Elevator_1FToN3",
        "Key": "2ndFloorButtonText"
      },
      {
        "$type": "RPG.GameCore.SharedInt",
        "Key": "Value2ndFloor"
      },
      {
        "$type": "RPG.GameCore.SharedString",
        "Value": "SpriteOutput/TalkIcon/CommonSignIcon.png",
        "Key": "3rdFloorButtonIcon"
      },
      {
        "$type": "RPG.GameCore.SharedString",
        "Value": "Elevator_1FToN3",
        "Key": "3rdFloorButtonText"
      },
      {
        "$type": "RPG.GameCore.SharedInt",
        "Key": "Value3rdFloor"
      },
      {
        "$type": "RPG.GameCore.SharedString",
        "Value": "SpriteOutput/TalkIcon/CommonSignIcon.png",
        "Key": "SecretFloorButtonIcon"
      },
      {
        "$type": "RPG.GameCore.SharedString",
        "Value": "Maze_Chap00_N201_Elevator1FTo2F",
        "Key": "SecretFloorButtonText"
      },
      {
        "$type": "RPG.GameCore.SharedString",
        "Value": "MazeText_Chap03_P05_ElevatorLocked",
        "Key": "LockToastPile"
      },
      {
        "$type": "RPG.GameCore.SharedString",
        "Value": "MazeText_Chap03_P05_ElevatorLocked",
        "Key": "SecretTosatePile"
      },
      {
        "$type": "RPG.GameCore.SharedInt",
        "Value": 1,
        "Key": "IsSecret"
      },
      {
        "$type": "RPG.GameCore.SharedInt",
        "Key": "TargetFloorValue"
      }
    ]
  },
  "Type": "Entity"
}