{
  "StateZoneConfig": {
    "AnimatorStateZoneDescList": [
      {
        "StateName": "Attack_1",
        "TransitionType": "Next",
        "ZoneList": [
          {
            "ZoneType": "ForbidOffStage",
            "NTimeEnd": 0.075
          },
          {
            "ZoneType": "ForbidMove",
            "NTimeEnd": 0.076
          },
          {
            "ZoneType": "ForbidAtk",
            "NTimeEnd": 0.076
          },
          {
            "ZoneType": "ForbidRotation"
          },
          {
            "ZoneType": "ForbidTeamEdit",
            "NTimeEnd": 0.183
          }
        ]
      },
      {
        "StateName": "MazeSkill",
        "TransitionType": "Next",
        "ZoneList": [
          {
            "ZoneType": "ForbidOffStage",
            "NTimeEnd": 0.15
          },
          {
            "ZoneType": "ForbidMove",
            "NTimeEnd": 0.131
          },
          {
            "ZoneType": "ForbidAtk",
            "NTimeEnd": 0.131
          },
          {
            "ZoneType": "ForbidRotation"
          },
          {
            "ZoneType": "ForbidTeamEdit",
            "NTimeEnd": 0.323
          }
        ]
      }
    ]
  }
}