{
  "StateZoneConfig": {
    "AnimatorStateZoneDescList": [
      {
        "StateName": "Attack_1",
        "TransitionType": "Next",
        "ZoneList": [
          {
            "ZoneType": "ForbidOffStage",
            "NTimeEnd": 0.1
          },
          {
            "ZoneType": "ForbidMove",
            "NTimeEnd": 0.145
          },
          {
            "ZoneType": "ForbidRotation"
          },
          {
            "ZoneType": "ForbidAtk",
            "NTimeEnd": 0.134
          },
          {
            "ZoneType": "ForbidTeamEdit",
            "NTimeEnd": 0.32
          }
        ]
      },
      {
        "StateName": "MazeSkill",
        "TransitionType": "Next",
        "ZoneList": [
          {
            "ZoneType": "ForbidOffStage",
            "NTimeEnd": 0.18
          },
          {
            "ZoneType": "ForbidMove",
            "NTimeEnd": 0.18
          },
          {
            "ZoneType": "ForbidRotation",
            "NTimeEnd": 0.35
          },
          {
            "ZoneType": "ForbidAtk",
            "NTimeEnd": 0.18
          },
          {
            "ZoneType": "ForbidTeamEdit",
            "NTimeEnd": 0.35
          }
        ]
      }
    ]
  }
}