{
  "OnInitSequece": [],
  "OnStartSequece": [
    {
      "TaskList": [
        {
          "$type": "RPG.GameCore.LevelPerformanceInitialize",
          "PerformanceType": "E",
          "HideMunicipalCrowd": false,
          "HideMunicipalPedestrian": false
        },
        {
          "$type": "RPG.GameCore.AdvNpcFaceToPlayer"
        },
        {
          "$type": "RPG.GameCore.PlayAndWaitSimpleTalk",
          "SimpleTalkList": [
            {
              "TextSpeed": 0,
              "TalkSentenceID": 802214140,
              "ProtectTime": 0
            }
          ]
        },
        {
          "$type": "RPG.GameCore.PlayOptionTalk",
          "OptionList": [
            {
              "TalkSentenceID": 802214141,
              "OptionIconType": "ChatContinueIcon",
              "TriggerCustomString": "TalkSentence_802214141"
            },
            {
              "TalkSentenceID": 802214143,
              "OptionIconType": "ChatContinueIcon",
              "TriggerCustomString": "TalkSentence_802214143"
            },
            {
              "TalkSentenceID": 802214145,
              "OptionIconType": "ChatContinueIcon",
              "TriggerCustomString": "TalkSentence_802214145"
            }
          ]
        }
      ]
    },
    {
      "TaskList": [
        {
          "$type": "RPG.GameCore.WaitPerformanceEnd"
        },
        {
          "$type": "RPG.GameCore.FinishLevelGraph"
        }
      ]
    },
    {
      "TaskList": [
        {
          "$type": "RPG.GameCore.WaitCustomString",
          "CustomString": {
            "Value": "TalkSentence_802210502"
          }
        },
        {
          "$type": "RPG.GameCore.TriggerGroupEventOnDialogEnd",
          "EventName": {
            "Value": "ActivitMovie_OpenUI"
          }
        },
        {
          "$type": "RPG.GameCore.EndPerformance"
        }
      ]
    },
    {
      "TaskList": [
        {
          "$type": "RPG.GameCore.WaitCustomString",
          "CustomString": {
            "Value": "TalkSentence_802210525"
          }
        },
        {
          "$type": "RPG.GameCore.PlayAndWaitSimpleTalk",
          "SimpleTalkList": [
            {
              "TextSpeed": 0,
              "TalkSentenceID": 802214150,
              "ProtectTime": 0
            }
          ]
        },
        {
          "$type": "RPG.GameCore.EndPerformance"
        }
      ]
    },
    {
      "TaskList": [
        {
          "$type": "RPG.GameCore.WaitCustomString",
          "CustomString": {
            "Value": "TalkSentence_802214141"
          }
        },
        {
          "$type": "RPG.GameCore.PlayAndWaitSimpleTalk",
          "SimpleTalkList": [
            {
              "TextSpeed": 0,
              "TalkSentenceID": 802214142,
              "ProtectTime": 0
            }
          ]
        },
        {
          "$type": "RPG.GameCore.TriggerCustomString",
          "CustomString": {
            "Value": "TalkSentence_802214147"
          }
        }
      ]
    },
    {
      "TaskList": [
        {
          "$type": "RPG.GameCore.WaitCustomString",
          "CustomString": {
            "Value": "TalkSentence_802214143"
          }
        },
        {
          "$type": "RPG.GameCore.PlayAndWaitSimpleTalk",
          "SimpleTalkList": [
            {
              "TextSpeed": 0,
              "TalkSentenceID": 802214144,
              "ProtectTime": 0
            }
          ]
        },
        {
          "$type": "RPG.GameCore.TriggerCustomString",
          "CustomString": {
            "Value": "TalkSentence_802214147"
          }
        }
      ]
    },
    {
      "TaskList": [
        {
          "$type": "RPG.GameCore.WaitCustomString",
          "CustomString": {
            "Value": "TalkSentence_802214145"
          }
        },
        {
          "$type": "RPG.GameCore.PlayAndWaitSimpleTalk",
          "SimpleTalkList": [
            {
              "TextSpeed": 0,
              "TalkSentenceID": 802214146,
              "ProtectTime": 0
            }
          ]
        },
        {
          "$type": "RPG.GameCore.TriggerCustomString",
          "CustomString": {
            "Value": "TalkSentence_802214147"
          }
        }
      ]
    },
    {
      "TaskList": [
        {
          "$type": "RPG.GameCore.WaitCustomString",
          "CustomString": {
            "Value": "TalkSentence_802214147"
          }
        },
        {
          "$type": "RPG.GameCore.PlayAndWaitSimpleTalk",
          "SimpleTalkList": [
            {
              "TextSpeed": 0,
              "TalkSentenceID": 802214147,
              "ProtectTime": 0
            }
          ]
        },
        {
          "$type": "RPG.GameCore.PlayOptionTalk",
          "OptionList": [
            {
              "TalkSentenceID": 802214148,
              "OptionIconType": "GeneralActivityIcon",
              "TriggerCustomString": "TalkSentence_802210502"
            },
            {
              "TalkSentenceID": 802214149,
              "OptionIconType": "ChatOutIcon",
              "TriggerCustomString": "TalkSentence_802210525"
            }
          ]
        }
      ]
    }
  ]
}