{
  "OnInitSequece": [],
  "OnStartSequece": [
    {
      "TaskList": [
        {
          "$type": "RPG.GameCore.PredicateTaskList",
          "Predicate": {
            "$type": "RPG.GameCore.ByCompareFloorSavedValue",
            "Name": "EasterC2",
            "CompareType": "Equal"
          },
          "SuccessTaskList": [
            {
              "$type": "RPG.GameCore.TriggerPerformance",
              "ValueSource": {},
              "PerformanceType": "E",
              "PerformanceID": 802150511
            },
            {
              "$type": "RPG.GameCore.ShowReading",
              "BookID": 190653
            },
            {
              "$type": "RPG.GameCore.ClientFinishMission",
              "SubmissionID": 802150523
            }
          ],
          "FailedTaskList": [
            {
              "$type": "RPG.GameCore.TriggerPerformance",
              "ValueSource": {},
              "PerformanceType": "E",
              "PerformanceID": 802150535
            },
            {
              "$type": "RPG.GameCore.ShowReading",
              "BookID": 190653
            },
            {
              "$type": "RPG.GameCore.ClientFinishMission",
              "SubmissionID": 802150523
            }
          ]
        }
      ]
    }
  ]
}