{
  "OnStartSequece": [
    {
      "TaskList": [
        {
          "$type": "RPG.GameCore.LevelPerformanceInitialize",
          "PerformanceType": "E",
          "HideMunicipalCrowd": false,
          "HideMunicipalPedestrian": false
        },
        {
          "$type": "RPG.GameCore.AdvNpcFaceToPlayer"
        },
        {
          "$type": "RPG.GameCore.PlayAndWaitSimpleTalk",
          "SimpleTalkList": [
            {
              "TalkSentenceID": 503075041,
              "ProtectTime": 0.3
            }
          ]
        },
        {
          "$type": "RPG.GameCore.TriggerCustomString",
          "CustomString": {
            "Value": "Wait_Option_503075002_51"
          }
        }
      ]
    },
    {
      "IsLoop": true,
      "TaskList": [
        {
          "$type": "RPG.GameCore.WaitCustomString",
          "CustomString": {
            "Value": "Wait_Option_503075002_51"
          }
        },
        {
          "$type": "RPG.GameCore.PlayOptionTalk",
          "OptionList": [
            {
              "TalkSentenceID": 503075042,
              "OptionIconType": "ChatLoopIcon",
              "TriggerCustomString": "TalkSentence_503075043"
            },
            {
              "TalkSentenceID": 503075049,
              "OptionIconType": "ChatLoopIcon",
              "TriggerCustomString": "TalkSentence_503075050"
            },
            {
              "TalkSentenceID": 503075054,
              "OptionIconType": "ChatLoopIcon",
              "TriggerCustomString": "TalkSentence_503075055"
            },
            {
              "TalkSentenceID": 503075060,
              "OptionIconType": "ChatOutIcon",
              "TriggerCustomString": "ALL_TALK_END"
            }
          ],
          "HideSelected": true
        }
      ]
    },
    {
      "IsLoop": true,
      "TaskList": [
        {
          "$type": "RPG.GameCore.WaitCustomString",
          "CustomString": {
            "Value": "TalkSentence_503075043"
          }
        },
        {
          "$type": "RPG.GameCore.PlayAndWaitSimpleTalk",
          "SimpleTalkList": [
            {
              "TalkSentenceID": 503075043,
              "ProtectTime": 0.3
            },
            {
              "TalkSentenceID": 503075044,
              "ProtectTime": 0.3
            },
            {
              "TalkSentenceID": 503075045,
              "ProtectTime": 0.3
            },
            {
              "TalkSentenceID": 503075046,
              "ProtectTime": 0.3
            },
            {
              "TalkSentenceID": 503075047,
              "ProtectTime": 0.3
            },
            {
              "TalkSentenceID": 503075048,
              "ProtectTime": 0.3
            }
          ]
        },
        {
          "$type": "RPG.GameCore.TriggerCustomString",
          "CustomString": {
            "Value": "Wait_Option_503075002_51"
          }
        }
      ]
    },
    {
      "IsLoop": true,
      "TaskList": [
        {
          "$type": "RPG.GameCore.WaitCustomString",
          "CustomString": {
            "Value": "TalkSentence_503075050"
          }
        },
        {
          "$type": "RPG.GameCore.PlayAndWaitSimpleTalk",
          "SimpleTalkList": [
            {
              "TalkSentenceID": 503075050,
              "ProtectTime": 0.3
            },
            {
              "TalkSentenceID": 503075051,
              "ProtectTime": 0.3
            },
            {
              "TalkSentenceID": 503075052,
              "ProtectTime": 0.3
            },
            {
              "TalkSentenceID": 503075053,
              "ProtectTime": 0.3
            }
          ]
        },
        {
          "$type": "RPG.GameCore.TriggerCustomString",
          "CustomString": {
            "Value": "Wait_Option_503075002_51"
          }
        }
      ]
    },
    {
      "IsLoop": true,
      "TaskList": [
        {
          "$type": "RPG.GameCore.WaitCustomString",
          "CustomString": {
            "Value": "TalkSentence_503075055"
          }
        },
        {
          "$type": "RPG.GameCore.PlayAndWaitSimpleTalk",
          "SimpleTalkList": [
            {
              "TalkSentenceID": 503075055,
              "ProtectTime": 0.3
            },
            {
              "TalkSentenceID": 503075056,
              "ProtectTime": 0.3
            },
            {
              "TalkSentenceID": 503075057,
              "ProtectTime": 0.3
            },
            {
              "TalkSentenceID": 503075058,
              "ProtectTime": 0.3
            },
            {
              "TalkSentenceID": 503075059,
              "ProtectTime": 0.3
            }
          ]
        },
        {
          "$type": "RPG.GameCore.TriggerCustomString",
          "CustomString": {
            "Value": "Wait_Option_503075002_51"
          }
        }
      ]
    },
    {
      "TaskList": [
        {
          "$type": "RPG.GameCore.WaitCustomString",
          "CustomString": {
            "Value": "ALL_TALK_END"
          }
        },
        {
          "$type": "RPG.GameCore.EndPerformance"
        }
      ]
    },
    {
      "TaskList": [
        {
          "$type": "RPG.GameCore.WaitPerformanceEnd"
        },
        {
          "$type": "RPG.GameCore.FinishLevelGraph"
        }
      ]
    }
  ]
}