{
  "AnimatorStateEvents": [
    {
      "AnimatorStateName": "TakeOff02",
      "NormalizedTime": 0.38,
      "EventList": [
        {
          "$type": "RPG.GameCore.NpcPossession",
          "PossessionInfo": {
            "Name": "Possession_RobCraneBox_A_01"
          }
        }
      ]
    }
  ],
  "AnimatorStateGroupEvents": [
    {
      "States": [
        {
          "Name": "Resting01Loop"
        },
        {
          "Name": "Resting01AddLook"
        }
      ],
      "OnEnter": [
        {
          "$type": "RPG.GameCore.ModifyAdventureCharacterCollider",
          "HideSourceCollider": true,
          "TargetConfig": {
            "Center": {
              "X": 0,
              "Y": 0.78,
              "Z": 0
            },
            "Size": {
              "X": 0.25,
              "Y": 2.45,
              "Z": 0
            }
          }
        },
        {
          "$type": "RPG.GameCore.ByHasBillboard"
        },
        {
          "$type": "RPG.GameCore.SetBillboardInfo",
          "EditHeight": true,
          "MinHeight": 0.1,
          "MaxHeight": 0.1
        }
      ],
      "OnExit": [
        {
          "$type": "RPG.GameCore.ByHasBillboard"
        },
        {
          "$type": "RPG.GameCore.SetBillboardInfo"
        },
        {
          "$type": "RPG.GameCore.ResetAdventureCharacterCollider"
        }
      ]
    }
  ]
}