{
  "OnInitSequece": [],
  "OnStartSequece": [
    {
      "TaskList": [
        {
          "$type": "RPG.GameCore.SetAudioEmotionState",
          "StateName": "State_Tense"
        }
      ]
    },
    {
      "TaskList": [
        {
          "$type": "RPG.GameCore.PlayMissionTalk",
          "SimpleTalkList": [
            {
              "TalkSentenceID": 202150995,
              "ProtectTime": 2
            },
            {
              "TalkSentenceID": 202150996,
              "ProtectTime": 2
            }
          ]
        }
      ]
    },
    {
      "TaskList": [
        {
          "$type": "RPG.GameCore.CreateNPC",
          "GroupID": {
            "IsDynamic": false,
            "FixedValue": {
              "Value": 4
            }
          },
          "GroupNpcID": {
            "IsDynamic": false,
            "FixedValue": {
              "Value": 400006
            }
          },
          "CreateList": []
        }
      ]
    },
    {
      "TaskList": [
        {
          "$type": "RPG.GameCore.CreateNPC",
          "GroupID": {
            "IsDynamic": false,
            "FixedValue": {
              "Value": 4
            }
          },
          "GroupNpcID": {
            "IsDynamic": false,
            "FixedValue": {
              "Value": 400011
            }
          },
          "CreateList": []
        }
      ]
    },
    {
      "TaskList": [
        {
          "$type": "RPG.GameCore.CreateProp",
          "GroupID": {
            "IsDynamic": false,
            "FixedValue": {
              "Value": 4
            }
          },
          "GroupPropID": {
            "IsDynamic": false,
            "FixedValue": {
              "Value": 300012
            }
          },
          "CreateList": [
            {
              "$type": "RPG.GameCore.GroupEntityInfo",
              "GroupID": {
                "IsDynamic": false,
                "FixedValue": {
                  "Value": 4
                }
              },
              "GroupInstanceID": {
                "IsDynamic": false,
                "FixedValue": {
                  "Value": 300013
                }
              }
            },
            {
              "$type": "RPG.GameCore.GroupEntityInfo",
              "GroupID": {
                "IsDynamic": false,
                "FixedValue": {
                  "Value": 4
                }
              },
              "GroupInstanceID": {
                "IsDynamic": false,
                "FixedValue": {
                  "Value": 300014
                }
              }
            }
          ]
        }
      ]
    },
    {
      "TaskList": [
        {
          "$type": "RPG.GameCore.PropSetupTrigger",
          "TargetType": {
            "$type": "RPG.GameCore.TargetFetchAdvPropEx",
            "FetchType": "SinglePropByPropID",
            "SinglePropID": {
              "GroupID": {
                "IsDynamic": false,
                "FixedValue": {
                  "Value": 4
                }
              },
              "ID": {
                "IsDynamic": false,
                "FixedValue": {
                  "Value": 300007
                }
              }
            }
          },
          "TargetGroupID": {
            "IsDynamic": false,
            "FixedValue": {
              "Value": 0
            }
          },
          "TargetID": {
            "IsDynamic": false,
            "FixedValue": {
              "Value": 0
            }
          },
          "TargetTypes": [],
          "DestroyAfterTriggered": true,
          "OnTriggerEnter": [
            {
              "$type": "RPG.GameCore.TriggerCustomString",
              "CustomString": {
                "Value": "Mission_202031504_PropTrigger2"
              }
            }
          ]
        }
      ]
    },
    {
      "TaskList": [
        {
          "$type": "RPG.GameCore.WaitCustomString",
          "CustomString": {
            "Value": "Mission_202031504_PropTrigger2"
          }
        },
        {
          "$type": "RPG.GameCore.PlayMissionTalk",
          "SimpleTalkList": [
            {
              "TalkSentenceID": 202150997,
              "ProtectTime": 2
            }
          ]
        }
      ]
    },
    {
      "TaskList": [
        {
          "$type": "RPG.GameCore.CreateProp",
          "GroupID": {
            "IsDynamic": false,
            "FixedValue": {
              "Value": 4
            }
          },
          "GroupPropID": {
            "IsDynamic": false,
            "FixedValue": {
              "Value": 300003
            }
          },
          "CreateList": []
        },
        {
          "$type": "RPG.GameCore.PropSetupTrigger",
          "TargetType": {
            "$type": "RPG.GameCore.TargetFetchAdvPropEx",
            "FetchType": "SinglePropByPropID",
            "SinglePropID": {
              "GroupID": {
                "IsDynamic": false,
                "FixedValue": {
                  "Value": 4
                }
              },
              "ID": {
                "IsDynamic": false,
                "FixedValue": {
                  "Value": 300003
                }
              }
            }
          },
          "TargetGroupID": {
            "IsDynamic": false,
            "FixedValue": {
              "Value": 0
            }
          },
          "TargetID": {
            "IsDynamic": false,
            "FixedValue": {
              "Value": 0
            }
          },
          "TargetTypes": [],
          "DestroyAfterTriggered": true,
          "OnTriggerEnter": [
            {
              "$type": "RPG.GameCore.TriggerCustomString",
              "CustomString": {
                "Value": "Mission_202031504_PropTrigger"
              }
            }
          ]
        }
      ]
    },
    {
      "TaskList": [
        {
          "$type": "RPG.GameCore.WaitCustomString",
          "CustomString": {
            "Value": "Mission_202031504_PropTrigger"
          }
        },
        {
          "$type": "RPG.GameCore.TriggerPerformance",
          "ValueSource": {},
          "PerformanceType": "D",
          "PerformanceID": 202031504
        },
        {
          "$type": "RPG.GameCore.TriggerCustomString",
          "CustomString": {
            "Value": "Battle_20121008"
          }
        }
      ]
    },
    {
      "TaskList": [
        {
          "$type": "RPG.GameCore.WaitCustomString",
          "CustomString": {
            "Value": "Battle_20121008"
          },
          "GoNextImmediately": true
        },
        {
          "$type": "RPG.GameCore.TriggerBattle",
          "EventID": {
            "IsDynamic": false,
            "FixedValue": {
              "Value": 40222204
            }
          },
          "GroupID": {
            "IsDynamic": false,
            "FixedValue": {
              "Value": 28
            }
          },
          "BattleAreaID": {
            "IsDynamic": false,
            "FixedValue": {
              "Value": 1
            }
          }
        }
      ]
    }
  ],
  "Type": "Mission"
}