{
  "BakeInfoLayouts": [
    {
      "UniqueName": "MEquip_EquipUnique_AttackAddedRatio",
      "Offset": 42657
    },
    {
      "UniqueName": "MEquip_EquipUnique_DamageResistance",
      "Offset": 42750
    },
    {
      "UniqueName": "Ability29000",
      "TypeId": "TypeId_TurnBasedAbilityConfig",
      "Offset": 3
    },
    {
      "UniqueName": "Ability20000",
      "TypeId": "TypeId_TurnBasedAbilityConfig",
      "Offset": 70
    },
    {
      "UniqueName": "Ability20001",
      "TypeId": "TypeId_TurnBasedAbilityConfig",
      "Offset": 218
    },
    {
      "UniqueName": "Ability20002",
      "TypeId": "TypeId_TurnBasedAbilityConfig",
      "Offset": 464
    },
    {
      "UniqueName": "Ability20003",
      "TypeId": "TypeId_TurnBasedAbilityConfig",
      "Offset": 582
    },
    {
      "UniqueName": "Ability20004",
      "TypeId": "TypeId_TurnBasedAbilityConfig",
      "Offset": 1113
    },
    {
      "UniqueName": "Ability20005",
      "TypeId": "TypeId_TurnBasedAbilityConfig",
      "Offset": 1265
    },
    {
      "UniqueName": "Ability20006",
      "TypeId": "TypeId_TurnBasedAbilityConfig",
      "Offset": 1549
    },
    {
      "UniqueName": "Ability20007",
      "TypeId": "TypeId_TurnBasedAbilityConfig",
      "Offset": 1666
    },
    {
      "UniqueName": "Ability20008",
      "TypeId": "TypeId_TurnBasedAbilityConfig",
      "Offset": 1939
    },
    {
      "UniqueName": "Ability20009",
      "TypeId": "TypeId_TurnBasedAbilityConfig",
      "Offset": 2086
    },
    {
      "UniqueName": "Ability20010",
      "TypeId": "TypeId_TurnBasedAbilityConfig",
      "Offset": 2243
    },
    {
      "UniqueName": "Ability20011",
      "TypeId": "TypeId_TurnBasedAbilityConfig",
      "Offset": 2376
    },
    {
      "UniqueName": "Ability20012",
      "TypeId": "TypeId_TurnBasedAbilityConfig",
      "Offset": 2512
    },
    {
      "UniqueName": "Ability20013",
      "TypeId": "TypeId_TurnBasedAbilityConfig",
      "Offset": 2777
    },
    {
      "UniqueName": "Ability20014",
      "TypeId": "TypeId_TurnBasedAbilityConfig",
      "Offset": 2961
    },
    {
      "UniqueName": "Ability20015",
      "TypeId": "TypeId_TurnBasedAbilityConfig",
      "Offset": 3233
    },
    {
      "UniqueName": "Ability20016",
      "TypeId": "TypeId_TurnBasedAbilityConfig",
      "Offset": 3343
    },
    {
      "UniqueName": "Ability20017",
      "TypeId": "TypeId_TurnBasedAbilityConfig",
      "Offset": 3762
    },
    {
      "UniqueName": "Ability20018",
      "TypeId": "TypeId_TurnBasedAbilityConfig",
      "Offset": 3887
    },
    {
      "UniqueName": "Ability20019",
      "TypeId": "TypeId_TurnBasedAbilityConfig",
      "Offset": 4335
    },
    {
      "UniqueName": "Ability20020",
      "TypeId": "TypeId_TurnBasedAbilityConfig",
      "Offset": 4579
    },
    {
      "UniqueName": "Ability21000",
      "TypeId": "TypeId_TurnBasedAbilityConfig",
      "Offset": 4803
    },
    {
      "UniqueName": "Ability21001",
      "TypeId": "TypeId_TurnBasedAbilityConfig",
      "Offset": 4916
    },
    {
      "UniqueName": "Ability21002",
      "TypeId": "TypeId_TurnBasedAbilityConfig",
      "Offset": 5306
    },
    {
      "UniqueName": "Ability21003",
      "TypeId": "TypeId_TurnBasedAbilityConfig",
      "Offset": 5590
    },
    {
      "UniqueName": "Ability21004",
      "TypeId": "TypeId_TurnBasedAbilityConfig",
      "Offset": 6275
    },
    {
      "UniqueName": "Ability21005",
      "TypeId": "TypeId_TurnBasedAbilityConfig",
      "Offset": 6466
    },
    {
      "UniqueName": "Ability21006",
      "TypeId": "TypeId_TurnBasedAbilityConfig",
      "Offset": 7173
    },
    {
      "UniqueName": "Ability21007",
      "TypeId": "TypeId_TurnBasedAbilityConfig",
      "Offset": 7376
    },
    {
      "UniqueName": "Ability21008",
      "TypeId": "TypeId_TurnBasedAbilityConfig",
      "Offset": 7502
    },
    {
      "UniqueName": "Ability21009",
      "TypeId": "TypeId_TurnBasedAbilityConfig",
      "Offset": 7630
    },
    {
      "UniqueName": "Ability21010",
      "TypeId": "TypeId_TurnBasedAbilityConfig",
      "Offset": 7809
    },
    {
      "UniqueName": "Ability21011",
      "TypeId": "TypeId_TurnBasedAbilityConfig",
      "Offset": 8774
    },
    {
      "UniqueName": "Ability21012",
      "TypeId": "TypeId_TurnBasedAbilityConfig",
      "Offset": 9233
    },
    {
      "UniqueName": "Ability21013",
      "TypeId": "TypeId_TurnBasedAbilityConfig",
      "Offset": 9464
    },
    {
      "UniqueName": "Ability22000",
      "TypeId": "TypeId_TurnBasedAbilityConfig",
      "Offset": 9667
    },
    {
      "UniqueName": "Ability22001",
      "TypeId": "TypeId_TurnBasedAbilityConfig",
      "Offset": 9844
    },
    {
      "UniqueName": "Ability22002",
      "TypeId": "TypeId_TurnBasedAbilityConfig",
      "Offset": 10056
    },
    {
      "UniqueName": "Ability23000",
      "TypeId": "TypeId_TurnBasedAbilityConfig",
      "Offset": 10280
    },
    {
      "UniqueName": "Ability23001",
      "TypeId": "TypeId_TurnBasedAbilityConfig",
      "Offset": 11266
    },
    {
      "UniqueName": "Ability23002",
      "TypeId": "TypeId_TurnBasedAbilityConfig",
      "Offset": 11734
    },
    {
      "UniqueName": "Ability23003",
      "TypeId": "TypeId_TurnBasedAbilityConfig",
      "Offset": 12217
    },
    {
      "UniqueName": "Ability23004",
      "TypeId": "TypeId_TurnBasedAbilityConfig",
      "Offset": 12774
    },
    {
      "UniqueName": "Ability23005",
      "TypeId": "TypeId_TurnBasedAbilityConfig",
      "Offset": 13139
    },
    {
      "UniqueName": "Ability23006",
      "TypeId": "TypeId_TurnBasedAbilityConfig",
      "Offset": 13621
    },
    {
      "UniqueName": "Ability23007",
      "TypeId": "TypeId_TurnBasedAbilityConfig",
      "Offset": 14743
    },
    {
      "UniqueName": "Ability23008",
      "TypeId": "TypeId_TurnBasedAbilityConfig",
      "Offset": 15375
    },
    {
      "UniqueName": "Ability23009",
      "TypeId": "TypeId_TurnBasedAbilityConfig",
      "Offset": 15895
    },
    {
      "UniqueName": "Ability23010",
      "TypeId": "TypeId_TurnBasedAbilityConfig",
      "Offset": 16196
    },
    {
      "UniqueName": "Ability23011",
      "TypeId": "TypeId_TurnBasedAbilityConfig",
      "Offset": 16515
    },
    {
      "UniqueName": "Ability23012",
      "TypeId": "TypeId_TurnBasedAbilityConfig",
      "Offset": 16956
    },
    {
      "UniqueName": "Ability23013",
      "TypeId": "TypeId_TurnBasedAbilityConfig",
      "Offset": 17326
    },
    {
      "UniqueName": "Ability23014",
      "TypeId": "TypeId_TurnBasedAbilityConfig",
      "Offset": 17846
    },
    {
      "UniqueName": "Ability23015",
      "TypeId": "TypeId_TurnBasedAbilityConfig",
      "Offset": 18432
    },
    {
      "UniqueName": "Ability23016",
      "TypeId": "TypeId_TurnBasedAbilityConfig",
      "Offset": 18805
    },
    {
      "UniqueName": "Ability23017",
      "TypeId": "TypeId_TurnBasedAbilityConfig",
      "Offset": 19251
    },
    {
      "UniqueName": "Ability23018",
      "TypeId": "TypeId_TurnBasedAbilityConfig",
      "Offset": 19885
    },
    {
      "UniqueName": "Ability23019",
      "TypeId": "TypeId_TurnBasedAbilityConfig",
      "Offset": 20219
    },
    {
      "UniqueName": "Ability23020",
      "TypeId": "TypeId_TurnBasedAbilityConfig",
      "Offset": 20720
    },
    {
      "UniqueName": "Ability23021",
      "TypeId": "TypeId_TurnBasedAbilityConfig",
      "Offset": 21385
    },
    {
      "UniqueName": "Ability23022",
      "TypeId": "TypeId_TurnBasedAbilityConfig",
      "Offset": 22379
    },
    {
      "UniqueName": "Ability23023",
      "TypeId": "TypeId_TurnBasedAbilityConfig",
      "Offset": 23954
    },
    {
      "UniqueName": "Ability23024",
      "TypeId": "TypeId_TurnBasedAbilityConfig",
      "Offset": 24689
    },
    {
      "UniqueName": "Ability23025",
      "TypeId": "TypeId_TurnBasedAbilityConfig",
      "Offset": 25226
    },
    {
      "UniqueName": "Ability23026",
      "TypeId": "TypeId_TurnBasedAbilityConfig",
      "Offset": 25509
    },
    {
      "UniqueName": "Ability23027",
      "TypeId": "TypeId_TurnBasedAbilityConfig",
      "Offset": 26363
    },
    {
      "UniqueName": "Ability23028",
      "TypeId": "TypeId_TurnBasedAbilityConfig",
      "Offset": 26852
    },
    {
      "UniqueName": "Ability21014",
      "TypeId": "TypeId_TurnBasedAbilityConfig",
      "Offset": 27574
    },
    {
      "UniqueName": "Ability21015",
      "TypeId": "TypeId_TurnBasedAbilityConfig",
      "Offset": 28041
    },
    {
      "UniqueName": "Ability21016",
      "TypeId": "TypeId_TurnBasedAbilityConfig",
      "Offset": 28334
    },
    {
      "UniqueName": "Ability21017",
      "TypeId": "TypeId_TurnBasedAbilityConfig",
      "Offset": 28554
    },
    {
      "UniqueName": "Ability21018",
      "TypeId": "TypeId_TurnBasedAbilityConfig",
      "Offset": 28741
    },
    {
      "UniqueName": "Ability21019",
      "TypeId": "TypeId_TurnBasedAbilityConfig",
      "Offset": 28900
    },
    {
      "UniqueName": "Ability21020",
      "TypeId": "TypeId_TurnBasedAbilityConfig",
      "Offset": 29115
    },
    {
      "UniqueName": "Ability21021",
      "TypeId": "TypeId_TurnBasedAbilityConfig",
      "Offset": 29330
    },
    {
      "UniqueName": "Ability21029",
      "TypeId": "TypeId_TurnBasedAbilityConfig",
      "Offset": 29510
    },
    {
      "UniqueName": "Ability21023",
      "TypeId": "TypeId_TurnBasedAbilityConfig",
      "Offset": 29865
    },
    {
      "UniqueName": "Ability21024",
      "TypeId": "TypeId_TurnBasedAbilityConfig",
      "Offset": 30202
    },
    {
      "UniqueName": "Ability21025",
      "TypeId": "TypeId_TurnBasedAbilityConfig",
      "Offset": 30665
    },
    {
      "UniqueName": "Ability21033",
      "TypeId": "TypeId_TurnBasedAbilityConfig",
      "Offset": 30958
    },
    {
      "UniqueName": "Ability21027",
      "TypeId": "TypeId_TurnBasedAbilityConfig",
      "Offset": 31081
    },
    {
      "UniqueName": "Ability21028",
      "TypeId": "TypeId_TurnBasedAbilityConfig",
      "Offset": 31365
    },
    {
      "UniqueName": "Ability21022",
      "TypeId": "TypeId_TurnBasedAbilityConfig",
      "Offset": 31498
    },
    {
      "UniqueName": "Ability21030",
      "TypeId": "TypeId_TurnBasedAbilityConfig",
      "Offset": 31700
    },
    {
      "UniqueName": "Ability21031",
      "TypeId": "TypeId_TurnBasedAbilityConfig",
      "Offset": 32081
    },
    {
      "UniqueName": "Ability21032",
      "TypeId": "TypeId_TurnBasedAbilityConfig",
      "Offset": 32394
    },
    {
      "UniqueName": "Ability21026",
      "TypeId": "TypeId_TurnBasedAbilityConfig",
      "Offset": 33638
    },
    {
      "UniqueName": "Ability21034",
      "TypeId": "TypeId_TurnBasedAbilityConfig",
      "Offset": 33840
    },
    {
      "UniqueName": "Ability21035",
      "TypeId": "TypeId_TurnBasedAbilityConfig",
      "Offset": 34099
    },
    {
      "UniqueName": "Ability21036",
      "TypeId": "TypeId_TurnBasedAbilityConfig",
      "Offset": 34266
    },
    {
      "UniqueName": "Ability21037",
      "TypeId": "TypeId_TurnBasedAbilityConfig",
      "Offset": 34924
    },
    {
      "UniqueName": "Ability21038",
      "TypeId": "TypeId_TurnBasedAbilityConfig",
      "Offset": 35246
    },
    {
      "UniqueName": "Ability21039",
      "TypeId": "TypeId_TurnBasedAbilityConfig",
      "Offset": 36316
    },
    {
      "UniqueName": "Ability21040",
      "TypeId": "TypeId_TurnBasedAbilityConfig",
      "Offset": 37164
    },
    {
      "UniqueName": "Ability21041",
      "TypeId": "TypeId_TurnBasedAbilityConfig",
      "Offset": 37897
    },
    {
      "UniqueName": "Ability21042",
      "TypeId": "TypeId_TurnBasedAbilityConfig",
      "Offset": 38463
    },
    {
      "UniqueName": "Ability21043",
      "TypeId": "TypeId_TurnBasedAbilityConfig",
      "Offset": 38687
    },
    {
      "UniqueName": "Ability21044",
      "TypeId": "TypeId_TurnBasedAbilityConfig",
      "Offset": 39554
    },
    {
      "UniqueName": "Ability24000",
      "TypeId": "TypeId_TurnBasedAbilityConfig",
      "Offset": 39723
    },
    {
      "UniqueName": "Ability24001",
      "TypeId": "TypeId_TurnBasedAbilityConfig",
      "Offset": 40450
    },
    {
      "UniqueName": "Ability24002",
      "TypeId": "TypeId_TurnBasedAbilityConfig",
      "Offset": 40790
    },
    {
      "UniqueName": "Ability24003",
      "TypeId": "TypeId_TurnBasedAbilityConfig",
      "Offset": 41497
    },
    {
      "UniqueName": "Ability24004",
      "TypeId": "TypeId_TurnBasedAbilityConfig",
      "Offset": 41905
    }
  ]
}