{
  "OnInitSequece": [],
  "OnStartSequece": [
    {
      "TaskList": [
        {
          "$type": "RPG.GameCore.LevelPerformanceInitialize",
          "PerformanceType": "D",
          "CreateCharacterList": [],
          "EntityVisiableList": [],
          "HideMunicipalCrowd": false,
          "HideMunicipalPedestrian": false,
          "PropVisiableList": [],
          "MarkStreamingItems": []
        },
        {
          "$type": "RPG.GameCore.AdvNpcFaceToPlayer",
          "GroupID": 20,
          "GroupNpcID": 400006,
          "TryFaceToFace": false,
          "OnlyPlayerFaceToNpc": true,
          "NpcLookAtPlayer": false,
          "FinishImmadiate": true
        },
        {
          "$type": "RPG.GameCore.PlaySimpleTalk",
          "SimpleTalkList": [
            {
              "TalkSentenceID": 412221202,
              "ProtectTime": 0.3
            },
            {
              "TalkSentenceID": 412221203,
              "ProtectTime": 0.3
            },
            {
              "TalkSentenceID": 412221204,
              "ProtectTime": 0.3
            },
            {
              "TalkSentenceID": 412221205,
              "ProtectTime": 0.3
            }
          ]
        },
        {
          "$type": "RPG.GameCore.WaitSimpleTalkFinish"
        },
        {
          "$type": "RPG.GameCore.PlayOptionTalk",
          "OptionList": [
            {
              "TalkSentenceID": 412221206,
              "OptionIconType": "ChatContinueIcon",
              "TriggerCustomString": "TalkSentence_412221207"
            },
            {
              "TalkSentenceID": 412221214,
              "OptionIconType": "ChatContinueIcon",
              "TriggerCustomString": "TalkSentence_412221215"
            }
          ]
        }
      ]
    },
    {
      "TaskList": [
        {
          "$type": "RPG.GameCore.WaitCustomString",
          "CustomString": {
            "Value": "TalkSentence_412221207"
          }
        },
        {
          "$type": "RPG.GameCore.PlaySimpleTalk",
          "SimpleTalkList": [
            {
              "TalkSentenceID": 412221207,
              "ProtectTime": 0.3
            },
            {
              "TalkSentenceID": 412221208,
              "ProtectTime": 0.3
            }
          ]
        },
        {
          "$type": "RPG.GameCore.WaitSimpleTalkFinish"
        },
        {
          "$type": "RPG.GameCore.PlayOptionTalk",
          "OptionList": [
            {
              "TalkSentenceID": 412221209,
              "OptionIconType": "ChatContinueIcon",
              "TriggerCustomString": "TalkSentence_412221210"
            },
            {
              "TalkSentenceID": 412221211,
              "OptionIconType": "ChatContinueIcon",
              "TriggerCustomString": "TalkSentence_412221212"
            }
          ]
        }
      ]
    },
    {
      "TaskList": [
        {
          "$type": "RPG.GameCore.WaitCustomString",
          "CustomString": {
            "Value": "TalkSentence_412221210"
          }
        },
        {
          "$type": "RPG.GameCore.PlaySimpleTalk",
          "SimpleTalkList": [
            {
              "TalkSentenceID": 412221210,
              "ProtectTime": 0.3
            }
          ]
        },
        {
          "$type": "RPG.GameCore.WaitSimpleTalkFinish"
        },
        {
          "$type": "RPG.GameCore.TriggerCustomString",
          "CustomString": {
            "Value": "TalkSentence_412221216"
          }
        }
      ]
    },
    {
      "TaskList": [
        {
          "$type": "RPG.GameCore.WaitCustomString",
          "CustomString": {
            "Value": "TalkSentence_412221212"
          }
        },
        {
          "$type": "RPG.GameCore.PlaySimpleTalk",
          "SimpleTalkList": [
            {
              "TalkSentenceID": 412221212,
              "ProtectTime": 0.3
            },
            {
              "TalkSentenceID": 412221213,
              "ProtectTime": 0.3
            }
          ]
        },
        {
          "$type": "RPG.GameCore.WaitSimpleTalkFinish"
        },
        {
          "$type": "RPG.GameCore.TriggerCustomString",
          "CustomString": {
            "Value": "TalkSentence_412221216"
          }
        }
      ]
    },
    {
      "TaskList": [
        {
          "$type": "RPG.GameCore.WaitCustomString",
          "CustomString": {
            "Value": "TalkSentence_412221215"
          }
        },
        {
          "$type": "RPG.GameCore.PlaySimpleTalk",
          "SimpleTalkList": [
            {
              "TalkSentenceID": 412221215,
              "ProtectTime": 0.3
            }
          ]
        },
        {
          "$type": "RPG.GameCore.WaitSimpleTalkFinish"
        },
        {
          "$type": "RPG.GameCore.TriggerCustomString",
          "CustomString": {
            "Value": "TalkSentence_412221216"
          }
        }
      ]
    },
    {
      "TaskList": [
        {
          "$type": "RPG.GameCore.WaitCustomString",
          "CustomString": {
            "Value": "TalkSentence_412221216"
          }
        },
        {
          "$type": "RPG.GameCore.SelectMissionItem",
          "ItemIDList": [
            140184
          ],
          "ItemHiddenIDList": [],
          "ItemSelect": [
            {
              "Item1": 140184,
              "TriggerCustomString": "Selected_1_404022212"
            }
          ],
          "SlotNum": 1,
          "SimpleTalk": {
            "TalkSentenceID": 412221215
          },
          "OnSubmitSucceed": [],
          "OnSubmitFail": [
            {
              "$type": "RPG.GameCore.EndPerformance"
            }
          ],
          "OnSubmitCancel": [
            {
              "$type": "RPG.GameCore.EndPerformance"
            }
          ]
        }
      ]
    },
    {
      "TaskList": [
        {
          "$type": "RPG.GameCore.WaitCustomString",
          "CustomString": {
            "Value": "Selected_1_404022212"
          }
        },
        {
          "$type": "RPG.GameCore.SetMissionCustomValue",
          "SubmissionID": 404022204,
          "MissionCustomValue": {
            "ValidValueParamList": []
          },
          "CustomValue": 1
        },
        {
          "$type": "RPG.GameCore.PlaySimpleTalk",
          "SimpleTalkList": [
            {
              "TalkSentenceID": 412221216,
              "ProtectTime": 0.3
            }
          ]
        },
        {
          "$type": "RPG.GameCore.WaitSimpleTalkFinish"
        },
        {
          "$type": "RPG.GameCore.PlayOptionTalk",
          "OptionList": [
            {
              "TalkSentenceID": 412221217,
              "OptionIconType": "ChatContinueIcon",
              "TriggerCustomString": "TalkSentence_412221218"
            },
            {
              "TalkSentenceID": 412221221,
              "OptionIconType": "ChatContinueIcon",
              "TriggerCustomString": "TalkSentence_412221222"
            }
          ]
        }
      ]
    },
    {
      "TaskList": [
        {
          "$type": "RPG.GameCore.WaitCustomString",
          "CustomString": {
            "Value": "TalkSentence_412221218"
          }
        },
        {
          "$type": "RPG.GameCore.PlaySimpleTalk",
          "SimpleTalkList": [
            {
              "TalkSentenceID": 412221218,
              "ProtectTime": 0.3
            }
          ]
        },
        {
          "$type": "RPG.GameCore.WaitSimpleTalkFinish"
        },
        {
          "$type": "RPG.GameCore.PlayOptionTalk",
          "OptionList": [
            {
              "TalkSentenceID": 412221219,
              "OptionIconType": "ChatContinueIcon",
              "TriggerCustomString": "TalkSentence_412221222"
            },
            {
              "TalkSentenceID": 412221220,
              "OptionIconType": "ChatContinueIcon",
              "TriggerCustomString": "TalkSentence_412221222"
            }
          ]
        }
      ]
    },
    {
      "TaskList": [
        {
          "$type": "RPG.GameCore.WaitCustomString",
          "CustomString": {
            "Value": "TalkSentence_412221222"
          }
        },
        {
          "$type": "RPG.GameCore.PlaySimpleTalk",
          "SimpleTalkList": [
            {
              "TalkSentenceID": 412221222,
              "ProtectTime": 0.3
            },
            {
              "TalkSentenceID": 412221223,
              "ProtectTime": 0.3
            }
          ]
        },
        {
          "$type": "RPG.GameCore.WaitSimpleTalkFinish"
        },
        {
          "$type": "RPG.GameCore.EndPerformance"
        }
      ]
    },
    {
      "TaskList": [
        {
          "$type": "RPG.GameCore.CollectDataConditions",
          "TaskIDList": [],
          "MainMissionIDList": [],
          "PerformanceIDList": [],
          "PerformanceIDDsList": [],
          "CustomValueMainMissionIDList": [
            4040222
          ]
        },
        {
          "$type": "RPG.GameCore.WaitPerformanceEnd"
        },
        {
          "$type": "RPG.GameCore.PredicateTaskList",
          "Predicate": {
            "$type": "RPG.GameCore.ByCompareMissionCustomValue",
            "MainMissionID": 4040222,
            "MissionCustomValue": {},
            "EquationType": "Equal",
            "TargetValue": 1
          },
          "SuccessTaskList": [
            {
              "$type": "RPG.GameCore.TriggerCustomStringOnDialogEnd",
              "CustomString": {
                "Value": "PerformanceFinish_404022212"
              }
            },
            {
              "$type": "RPG.GameCore.FinishLevelGraph"
            }
          ],
          "FailedTaskList": [
            {
              "$type": "RPG.GameCore.FinishLevelGraph"
            }
          ]
        }
      ]
    }
  ]
}