{
  "OnInitSequece": [],
  "OnStartSequece": [
    {
      "TaskList": [
        {
          "$type": "RPG.GameCore.AdvSetupButtonListTrigger",
          "TargetType": {
            "$type": "RPG.GameCore.GroupFetchLocalTarget",
            "TargetType": "Prop",
            "Targets": [
              300001
            ]
          },
          "TriggerName": "MissionTrigger",
          "ButtonsByName": [],
          "ButtonConfigs": [
            {
              "ID": "ReInvestigate",
              "IconType": "CheckIcon",
              "ButtonText": {
                "Value": "PropInteractTitle_1"
              }
            }
          ]
        }
      ]
    },
    {
      "TaskList": [
        {
          "$type": "RPG.GameCore.AdvOnButtonPressed",
          "ButtonName": "ReInvestigate",
          "OnPressedCallback": [
            {
              "$type": "RPG.GameCore.TriggerGroupEvent",
              "EventName": {
                "Value": "ReInvestigate"
              }
            }
          ]
        }
      ]
    },
    {
      "TaskList": [
        {
          "$type": "RPG.GameCore.WaitGroupEvent",
          "EventName": {
            "Value": "ReInvestigate"
          },
          "OnEvent": [
            {
              "$type": "RPG.GameCore.TriggerPerformance",
              "ValueSource": {},
              "PerformanceType": "E",
              "PerformanceID": 103290107
            }
          ]
        }
      ]
    }
  ],
  "Type": "Group"
}