{
  "OnInitSequece": [],
  "OnStartSequece": [
    {
      "TaskList": [
        {
          "$type": "RPG.GameCore.AdvDistrictSetupTrigger",
          "GroupID": {
            "IsDynamic": false,
            "FixedValue": {
              "Value": 228
            }
          },
          "DistrictID": {
            "IsDynamic": false,
            "FixedValue": {
              "Value": 1
            }
          },
          "DisableAfterTrigger": true,
          "OnEnter": [
            {
              "$type": "RPG.GameCore.TriggerGroupEvent",
              "EventName": {
                "Value": "InvestigateCurtain"
              }
            }
          ]
        }
      ]
    },
    {
      "TaskList": [
        {
          "$type": "RPG.GameCore.WaitGroupEvent",
          "EventName": {
            "Value": "InvestigateCurtain"
          },
          "OnEvent": [
            {
              "$type": "RPG.GameCore.PlayMissionTalk",
              "SimpleTalkList": [
                {
                  "TalkSentenceID": 103290501,
                  "ProtectTime": 2
                },
                {
                  "TalkSentenceID": 103290502,
                  "ProtectTime": 2
                }
              ]
            }
          ]
        }
      ]
    }
  ],
  "Type": "Group"
}