{
  "OnInitSequece": [],
  "OnStartSequece": [
    {
      "TaskList": [
        {
          "$type": "RPG.GameCore.TriggerSound",
          "SoundName": {
            "Value": "Ev_emb_chapter3_23_crowd_00"
          }
        }
      ]
    },
    {
      "TaskList": [
        {
          "$type": "RPG.GameCore.AdvDistrictSetupTrigger",
          "GroupID": {
            "IsDynamic": false,
            "FixedValue": {
              "Value": 243
            }
          },
          "DistrictID": {
            "IsDynamic": false,
            "FixedValue": {
              "Value": 1
            }
          },
          "DisableAfterTrigger": true,
          "OnEnter": [
            {
              "$type": "RPG.GameCore.TriggerCustomString",
              "CustomString": {
                "Value": "Talk_103290243"
              }
            }
          ]
        }
      ]
    },
    {
      "TaskList": [
        {
          "$type": "RPG.GameCore.WaitCustomString",
          "CustomString": {
            "Value": "DestroyHint_1032902"
          }
        },
        {
          "$type": "RPG.GameCore.AdvDestroyGroupEntity",
          "InstanceIDList": [
            300001
          ]
        }
      ]
    }
  ],
  "Type": "Group"
}