{
  "OnInitSequece": [],
  "OnStartSequece": [
    {
      "TaskList": [
        {
          "$type": "RPG.GameCore.LevelPerformanceInitialize",
          "PerformanceType": "E",
          "CreateCharacterList": [],
          "CaptureNPCList": [],
          "EntityVisiableList": [],
          "HideProp": true,
          "PropVisiableList": [],
          "StreamingSourcesInBlackMask": [],
          "StreamingSourcesAfterBlackMask": [],
          "MarkStreamingItems": []
        },
        {
          "$type": "RPG.GameCore.PerformanceTransition",
          "CreateNpcList": [],
          "CaptureNpcList": [],
          "DestroyNpcList": [],
          "CreateProp": {
            "TaskEnabled": false
          },
          "DestroyProp": {
            "TargetType": {
              "$type": "RPG.GameCore.TargetFetchAdvPropEx"
            },
            "TaskEnabled": false
          },
          "AdvCreateGroupEntity": {
            "TaskEnabled": false
          },
          "AdvDestroyGroupEntity": {
            "TaskEnabled": false
          },
          "ActiveVirtualCamera": {
            "AreaName": "LevelArea_P20311_F20311001_G269",
            "AnchorName": "Anchor2"
          },
          "ActiveTemplateVirtualCamera": {
            "TaskEnabled": false
          },
          "SwitchCharacterAnchor": {
            "IsLocalPlayer": true,
            "CharacterUniqueName": "LocalPlayer",
            "AreaName": {
              "Value": "LevelArea_P20311_F20311001_G269"
            },
            "AnchorName": {
              "Value": "Anchor1"
            }
          },
          "AdvNpcFaceToPlayer": {
            "SteerImmediately": true,
            "FinishImmadiate": true,
            "WaitFinishMode": "Default",
            "TaskEnabled": false
          },
          "WaitStreamingFinish": true
        },
        {
          "$type": "RPG.GameCore.SetCharacterVisible",
          "TargetType": {
            "$type": "RPG.GameCore.TargetFetchAdvNpcEx",
            "FetchType": "SingleNpcByOwnerGroupAndID",
            "SingleNpcKey": {
              "Custom": true,
              "Key": "TargetNPC"
            },
            "SingleNpcID": {
              "GroupNpcID": {
                "IsDynamic": false,
                "FixedValue": {
                  "Value": 400001
                }
              }
            },
            "NpcIDInOwnerGroup": {
              "IsDynamic": false,
              "FixedValue": {
                "Value": 400001
              }
            }
          },
          "Visible": true
        },
        {
          "$type": "RPG.GameCore.CharacterTriggerFreeStyle",
          "TargetAlias": {
            "$type": "RPG.GameCore.TargetFetchAdvNpcEx",
            "FetchType": "SingleNpcByOwnerGroupAndID",
            "SingleNpcKey": {
              "Custom": true,
              "Key": "TargetNPC"
            },
            "SingleNpcID": {
              "GroupNpcID": {
                "IsDynamic": false,
                "FixedValue": {
                  "Value": 400001
                }
              }
            },
            "NpcIDInOwnerGroup": {
              "IsDynamic": false,
              "FixedValue": {
                "Value": 400001
              }
            }
          },
          "StoryAvatarID": "NPC_Special_OrigamiBird_00",
          "StoryMotionID": 900090266
        },
        {
          "$type": "RPG.GameCore.TriggerEffect",
          "TargetType": {
            "$type": "RPG.GameCore.TargetFetchAdvNpcEx",
            "FetchType": "SingleNpcByOwnerGroupAndID",
            "SingleNpcKey": {
              "Custom": true,
              "Key": "TargetNPC"
            },
            "SingleNpcID": {
              "GroupNpcID": {
                "IsDynamic": false,
                "FixedValue": {
                  "Value": 400001
                }
              }
            },
            "NpcIDInOwnerGroup": {
              "IsDynamic": false,
              "FixedValue": {
                "Value": 400001
              }
            }
          },
          "Flags": [],
          "EffectPath": "Effects/Eff_Prefab/Eff_Scene/InteractiveProp/Eff_NPC_Special_OrigamiBird_00_Appear.prefab",
          "AttachPoint": "Root",
          "Scale": {
            "X": 0.5,
            "Y": 0.5,
            "Z": 0.5
          },
          "SubObjectModifyDataList": []
        },
        {
          "$type": "RPG.GameCore.WaitSecond",
          "WaitTime": {
            "IsDynamic": false,
            "FixedValue": {
              "Value": 0.8
            }
          }
        },
        {
          "$type": "RPG.GameCore.AdvNpcFaceToPlayer",
          "GroupID": 269,
          "GroupNpcID": 400001,
          "WaitFinishMode": "Default"
        },
        {
          "$type": "RPG.GameCore.TriggerSound",
          "SoundName": {
            "Value": "Ev_vo_origamibirds_appear"
          },
          "EmitterType": "TargetEvaluator",
          "TargetType": {
            "$type": "RPG.GameCore.TargetFetchAdvNpcEx",
            "FetchType": "SingleNpcByOwnerGroupAndID",
            "SingleNpcKey": {
              "Custom": true,
              "Key": "TargetNPC"
            },
            "SingleNpcID": {
              "GroupNpcID": {
                "IsDynamic": false,
                "FixedValue": {
                  "Value": 400001
                }
              }
            },
            "SingleUniqueName": {
              "Value": "InteractTarget_OrigamiBird01"
            },
            "NpcIDInOwnerGroup": {
              "IsDynamic": false,
              "FixedValue": {
                "Value": 400001
              }
            }
          }
        },
        {
          "$type": "RPG.GameCore.CharacterTriggerFreeStyle",
          "TargetAlias": {
            "$type": "RPG.GameCore.TargetFetchAdvNpcEx",
            "FetchType": "SingleNpcByOwnerGroupAndID",
            "SingleNpcKey": {
              "Custom": true,
              "Key": "TargetNPC"
            },
            "SingleNpcID": {
              "GroupNpcID": {
                "IsDynamic": false,
                "FixedValue": {
                  "Value": 400001
                }
              }
            },
            "SingleUniqueName": {
              "Value": "InteractTarget_OrigamiBird01"
            },
            "NpcIDInOwnerGroup": {
              "IsDynamic": false,
              "FixedValue": {
                "Value": 400001
              }
            }
          },
          "StoryAvatarID": "NPC_Special_OrigamiBird_00",
          "StoryMotionID": 900090265
        },
        {
          "$type": "RPG.GameCore.PlayAndWaitSimpleTalk",
          "SimpleTalkList": [
            {
              "TalkSentenceID": 414030161
            }
          ]
        },
        {
          "$type": "RPG.GameCore.CharacterTriggerFreeStyle",
          "TargetAlias": {
            "$type": "RPG.GameCore.TargetFetchAdvNpcEx",
            "FetchType": "SingleNpcByOwnerGroupAndID",
            "SingleNpcKey": {
              "Custom": true,
              "Key": "TargetNPC"
            },
            "SingleNpcID": {
              "GroupNpcID": {
                "IsDynamic": false,
                "FixedValue": {
                  "Value": 400001
                }
              }
            },
            "SingleUniqueName": {
              "Value": "InteractTarget_OrigamiBird01"
            },
            "NpcIDInOwnerGroup": {
              "IsDynamic": false,
              "FixedValue": {
                "Value": 400001
              }
            }
          },
          "StoryAvatarID": "NPC_Special_OrigamiBird_00",
          "StoryMotionID": 900090291
        },
        {
          "$type": "RPG.GameCore.PlayAndWaitSimpleTalk",
          "SimpleTalkList": [
            {
              "TalkSentenceID": 414030162
            }
          ]
        },
        {
          "$type": "RPG.GameCore.PlayOptionTalk",
          "OptionList": [
            {
              "TalkSentenceID": 414030163,
              "OptionIconType": "ChatContinueIcon",
              "TriggerCustomString": "TalkSentence_414030164"
            }
          ]
        }
      ]
    },
    {
      "TaskList": [
        {
          "$type": "RPG.GameCore.WaitCustomString",
          "CustomString": {
            "Value": "TalkSentence_414030164"
          },
          "WaitOwnerOnly": true,
          "GoNextImmediately": true
        },
        {
          "$type": "RPG.GameCore.CharacterTriggerFreeStyle",
          "TargetAlias": {
            "$type": "RPG.GameCore.TargetFetchAdvNpcEx",
            "FetchType": "SingleNpcByOwnerGroupAndID",
            "SingleNpcKey": {
              "Custom": true,
              "Key": "TargetNPC"
            },
            "SingleNpcID": {
              "GroupNpcID": {
                "IsDynamic": false,
                "FixedValue": {
                  "Value": 400001
                }
              }
            },
            "SingleUniqueName": {
              "Value": "InteractTarget_OrigamiBird01"
            },
            "NpcIDInOwnerGroup": {
              "IsDynamic": false,
              "FixedValue": {
                "Value": 400001
              }
            }
          },
          "StoryAvatarID": "NPC_Special_OrigamiBird_00",
          "StoryMotionID": 900090200
        },
        {
          "$type": "RPG.GameCore.PlayAndWaitSimpleTalk",
          "SimpleTalkList": [
            {
              "TalkSentenceID": 414030164
            }
          ]
        },
        {
          "$type": "RPG.GameCore.CharacterTriggerFreeStyle",
          "TargetAlias": {
            "$type": "RPG.GameCore.TargetFetchAdvNpcEx",
            "FetchType": "SingleNpcByOwnerGroupAndID",
            "SingleNpcKey": {
              "Custom": true,
              "Key": "TargetNPC"
            },
            "SingleNpcID": {
              "GroupNpcID": {
                "IsDynamic": false,
                "FixedValue": {
                  "Value": 400001
                }
              }
            },
            "SingleUniqueName": {
              "Value": "InteractTarget_OrigamiBird01"
            },
            "NpcIDInOwnerGroup": {
              "IsDynamic": false,
              "FixedValue": {
                "Value": 400001
              }
            }
          },
          "StoryAvatarID": "NPC_Special_OrigamiBird_00",
          "StoryMotionID": 900090014
        },
        {
          "$type": "RPG.GameCore.PlayAndWaitSimpleTalk",
          "SimpleTalkList": [
            {
              "TalkSentenceID": 414030166
            }
          ]
        },
        {
          "$type": "RPG.GameCore.TriggerSound",
          "SoundName": {
            "Value": "Ev_vo_origamibirds_disappear"
          },
          "EmitterType": "TargetEvaluator",
          "TargetType": {
            "$type": "RPG.GameCore.TargetFetchAdvNpcEx",
            "FetchType": "SingleNpcByOwnerGroupAndID",
            "SingleNpcKey": {
              "Custom": true,
              "Key": "TargetNPC"
            },
            "SingleNpcID": {
              "GroupNpcID": {
                "IsDynamic": false,
                "FixedValue": {
                  "Value": 400001
                }
              }
            },
            "SingleUniqueName": {
              "Value": "InteractTarget_OrigamiBird01"
            },
            "NpcIDInOwnerGroup": {
              "IsDynamic": false,
              "FixedValue": {
                "Value": 400001
              }
            }
          }
        },
        {
          "$type": "RPG.GameCore.CharacterTriggerFreeStyle",
          "TargetAlias": {
            "$type": "RPG.GameCore.TargetFetchAdvNpcEx",
            "FetchType": "SingleNpcByOwnerGroupAndID",
            "SingleNpcKey": {
              "Custom": true,
              "Key": "TargetNPC"
            },
            "SingleNpcID": {
              "GroupNpcID": {
                "IsDynamic": false,
                "FixedValue": {
                  "Value": 400001
                }
              }
            },
            "SingleUniqueName": {
              "Value": "InteractTarget_OrigamiBird01"
            },
            "NpcIDInOwnerGroup": {
              "IsDynamic": false,
              "FixedValue": {
                "Value": 400001
              }
            }
          },
          "DisableAnimEvent": true,
          "StoryAvatarID": "NPC_Special_OrigamiBird_00",
          "StoryMotionID": 900090264
        },
        {
          "$type": "RPG.GameCore.AdvEntityStopLookAt",
          "SourceType": {
            "$type": "RPG.GameCore.TargetFetchAdvNpcEx",
            "FetchType": "SingleNpcByOwnerGroupAndID",
            "SingleNpcKey": {
              "Custom": true,
              "Key": "TargetNPC"
            },
            "SingleNpcID": {
              "GroupNpcID": {
                "IsDynamic": false,
                "FixedValue": {
                  "Value": 400001
                }
              }
            },
            "SingleUniqueName": {
              "Value": "InteractTarget_OrigamiBird01"
            },
            "NpcIDInOwnerGroup": {
              "IsDynamic": false,
              "FixedValue": {
                "Value": 400001
              }
            }
          },
          "TargetType": {
            "$type": "RPG.GameCore.TargetFetchAdvLocalPlayer"
          }
        },
        {
          "$type": "RPG.GameCore.WaitSecond",
          "WaitTime": {
            "IsDynamic": false,
            "FixedValue": {
              "Value": 1.2
            }
          }
        },
        {
          "$type": "RPG.GameCore.SetTargetEntityFadeWithAnim",
          "TargetType": {
            "$type": "RPG.GameCore.TargetFetchAdvNpcEx",
            "FetchType": "SingleNpcByOwnerGroupAndID",
            "SingleNpcKey": {
              "Custom": true,
              "Key": "TargetNPC"
            },
            "SingleNpcID": {
              "GroupNpcID": {
                "IsDynamic": false,
                "FixedValue": {
                  "Value": 400001
                }
              }
            },
            "SingleUniqueName": {
              "Value": "InteractTarget_OrigamiBird01"
            },
            "NpcIDInOwnerGroup": {
              "IsDynamic": false,
              "FixedValue": {
                "Value": 400001
              }
            }
          },
          "Duration": 0.45
        },
        {
          "$type": "RPG.GameCore.WaitSecond",
          "WaitTime": {
            "IsDynamic": false,
            "FixedValue": {
              "Value": 0.45
            }
          }
        },
        {
          "$type": "RPG.GameCore.PerformanceTransition",
          "CreateNpcList": [],
          "CaptureNpcList": [],
          "DestroyNpcList": [],
          "CreateProp": {
            "TaskEnabled": false
          },
          "DestroyProp": {
            "TargetType": {
              "$type": "RPG.GameCore.TargetFetchAdvPropEx"
            },
            "TaskEnabled": false
          },
          "AdvCreateGroupEntity": {
            "TaskEnabled": false
          },
          "AdvDestroyGroupEntity": {
            "TaskEnabled": false
          },
          "ActiveVirtualCamera": {
            "AreaName": "LevelArea_P20311_F20311001_G269",
            "AnchorName": "Anchor2",
            "IsActive": false
          },
          "ActiveTemplateVirtualCamera": {
            "TaskEnabled": false
          },
          "SwitchCharacterAnchor": {
            "TaskEnabled": false
          },
          "AdvNpcFaceToPlayer": {
            "SteerImmediately": true,
            "FinishImmadiate": true,
            "WaitFinishMode": "Default",
            "TaskEnabled": false
          },
          "WaitStreamingFinish": true
        },
        {
          "$type": "RPG.GameCore.EndPerformance"
        }
      ]
    },
    {
      "TaskList": [
        {
          "$type": "RPG.GameCore.WaitPerformanceEnd"
        },
        {
          "$type": "RPG.GameCore.FinishLevelGraph"
        }
      ]
    }
  ]
}