{
  "OnInitSequece": [],
  "OnStartSequece": [
    {
      "TaskList": [
        {
          "$type": "RPG.GameCore.LevelPerformanceInitialize",
          "PerformanceType": "E",
          "CreateCharacterList": [],
          "CaptureNPCList": [],
          "EntityVisiableList": [],
          "HideProp": true,
          "PropVisiableList": [],
          "StreamingSourcesInBlackMask": [],
          "StreamingSourcesAfterBlackMask": [],
          "MarkStreamingItems": []
        },
        {
          "$type": "RPG.GameCore.TriggerSound",
          "SoundName": {
            "Value": "Ev_vo_origamibirds_appear"
          },
          "EmitterType": "TargetEvaluator",
          "TargetType": {
            "$type": "RPG.GameCore.TargetFetchAdvNpcEx",
            "FetchType": "SingleNpcByOwnerGroupAndID",
            "SingleNpcKey": {
              "Custom": true,
              "Key": "TargetNPC"
            },
            "SingleNpcID": {
              "GroupNpcID": {
                "IsDynamic": false,
                "FixedValue": {
                  "Value": 400001
                }
              }
            },
            "SingleUniqueName": {
              "Value": "InteractTarget_OrigamiBird01"
            },
            "NpcIDInOwnerGroup": {
              "IsDynamic": false,
              "FixedValue": {
                "Value": 400001
              }
            }
          }
        },
        {
          "$type": "RPG.GameCore.CharacterTriggerFreeStyle",
          "TargetAlias": {
            "$type": "RPG.GameCore.TargetFetchAdvNpcEx",
            "FetchType": "SingleNpcByOwnerGroupAndID",
            "SingleNpcKey": {
              "Custom": true,
              "Key": "TargetNPC"
            },
            "SingleNpcID": {
              "GroupNpcID": {
                "IsDynamic": false,
                "FixedValue": {
                  "Value": 400001
                }
              }
            },
            "SingleUniqueName": {
              "Value": "InteractTarget_OrigamiBird01"
            },
            "NpcIDInOwnerGroup": {
              "IsDynamic": false,
              "FixedValue": {
                "Value": 400001
              }
            }
          },
          "StoryAvatarID": "NPC_Special_OrigamiBird_00",
          "StoryMotionID": 900090014
        },
        {
          "$type": "RPG.GameCore.PlayAndWaitSimpleTalk",
          "SimpleTalkList": [
            {
              "TalkSentenceID": 414030183
            }
          ]
        },
        {
          "$type": "RPG.GameCore.CharacterTriggerFreeStyle",
          "TargetAlias": {
            "$type": "RPG.GameCore.TargetFetchAdvNpcEx",
            "FetchType": "SingleNpcByOwnerGroupAndID",
            "SingleNpcKey": {
              "Custom": true,
              "Key": "TargetNPC"
            },
            "SingleNpcID": {
              "GroupNpcID": {
                "IsDynamic": false,
                "FixedValue": {
                  "Value": 400001
                }
              }
            },
            "SingleUniqueName": {
              "Value": "InteractTarget_OrigamiBird01"
            },
            "NpcIDInOwnerGroup": {
              "IsDynamic": false,
              "FixedValue": {
                "Value": 400001
              }
            }
          },
          "StoryAvatarID": "NPC_Special_OrigamiBird_00",
          "StoryMotionID": 900090014
        },
        {
          "$type": "RPG.GameCore.PlayAndWaitSimpleTalk",
          "SimpleTalkList": [
            {
              "TalkSentenceID": 414030184
            }
          ]
        },
        {
          "$type": "RPG.GameCore.PredicateTaskList",
          "Predicate": {
            "$type": "RPG.GameCore.ByCompareStoryLineID"
          },
          "SuccessTaskList": [
            {
              "$type": "RPG.GameCore.PlayOptionTalk",
              "OptionList": [
                {
                  "TalkSentenceID": 414030185,
                  "OptionIconType": "ChatContinueIcon",
                  "TriggerCustomString": "TalkSentence_414030150"
                },
                {
                  "TalkSentenceID": 414030187,
                  "OptionIconType": "ChatContinueIcon",
                  "TriggerCustomString": "TalkSentence_414030152"
                },
                {
                  "TalkSentenceID": 414030189,
                  "OptionIconType": "ChatContinueIcon",
                  "TriggerCustomString": "TalkSentence_414030190"
                }
              ]
            }
          ],
          "FailedTaskList": [
            {
              "$type": "RPG.GameCore.PlayOptionTalk",
              "OptionList": [
                {
                  "TalkSentenceID": 414030597,
                  "OptionIconType": "ChatContinueIcon",
                  "TriggerCustomString": "TalkSentence_414030150"
                }
              ]
            }
          ]
        }
      ]
    },
    {
      "TaskList": [
        {
          "$type": "RPG.GameCore.WaitCustomString",
          "CustomString": {
            "Value": "TalkSentence_414030150"
          },
          "WaitOwnerOnly": true,
          "GoNextImmediately": true
        },
        {
          "$type": "RPG.GameCore.CharacterTriggerFreeStyle",
          "TargetAlias": {
            "$type": "RPG.GameCore.TargetFetchAdvNpcEx",
            "FetchType": "SingleNpcByOwnerGroupAndID",
            "SingleNpcKey": {
              "Custom": true,
              "Key": "TargetNPC"
            },
            "SingleNpcID": {
              "GroupNpcID": {
                "IsDynamic": false,
                "FixedValue": {
                  "Value": 400001
                }
              }
            },
            "SingleUniqueName": {
              "Value": "InteractTarget_OrigamiBird01"
            },
            "NpcIDInOwnerGroup": {
              "IsDynamic": false,
              "FixedValue": {
                "Value": 400001
              }
            }
          },
          "StoryAvatarID": "NPC_Special_OrigamiBird_00",
          "StoryMotionID": 900090200
        },
        {
          "$type": "RPG.GameCore.PlayAndWaitSimpleTalk",
          "SimpleTalkList": [
            {
              "TalkSentenceID": 414030186
            }
          ]
        },
        {
          "$type": "RPG.GameCore.TriggerCustomString",
          "CustomString": {
            "Value": "TalkSentence_414030153"
          }
        }
      ]
    },
    {
      "TaskList": [
        {
          "$type": "RPG.GameCore.WaitCustomString",
          "CustomString": {
            "Value": "TalkSentence_414030152"
          },
          "WaitOwnerOnly": true,
          "GoNextImmediately": true
        },
        {
          "$type": "RPG.GameCore.CharacterTriggerFreeStyle",
          "TargetAlias": {
            "$type": "RPG.GameCore.TargetFetchAdvNpcEx",
            "FetchType": "SingleNpcByOwnerGroupAndID",
            "SingleNpcKey": {
              "Custom": true,
              "Key": "TargetNPC"
            },
            "SingleNpcID": {
              "GroupNpcID": {
                "IsDynamic": false,
                "FixedValue": {
                  "Value": 400001
                }
              }
            },
            "SingleUniqueName": {
              "Value": "InteractTarget_OrigamiBird01"
            },
            "NpcIDInOwnerGroup": {
              "IsDynamic": false,
              "FixedValue": {
                "Value": 400001
              }
            }
          },
          "StoryAvatarID": "NPC_Special_OrigamiBird_00",
          "StoryMotionID": 900090200
        },
        {
          "$type": "RPG.GameCore.PlayAndWaitSimpleTalk",
          "SimpleTalkList": [
            {
              "TalkSentenceID": 414030188
            }
          ]
        },
        {
          "$type": "RPG.GameCore.TriggerCustomString",
          "CustomString": {
            "Value": "TalkSentence_414030153"
          }
        }
      ]
    },
    {
      "TaskList": [
        {
          "$type": "RPG.GameCore.WaitCustomString",
          "CustomString": {
            "Value": "TalkSentence_414030190"
          },
          "WaitOwnerOnly": true,
          "GoNextImmediately": true
        },
        {
          "$type": "RPG.GameCore.CharacterTriggerFreeStyle",
          "TargetAlias": {
            "$type": "RPG.GameCore.TargetFetchAdvNpcEx",
            "FetchType": "SingleNpcByOwnerGroupAndID",
            "SingleNpcKey": {
              "Custom": true,
              "Key": "TargetNPC"
            },
            "SingleNpcID": {
              "GroupNpcID": {
                "IsDynamic": false,
                "FixedValue": {
                  "Value": 400001
                }
              }
            },
            "SingleUniqueName": {
              "Value": "InteractTarget_OrigamiBird01"
            },
            "NpcIDInOwnerGroup": {
              "IsDynamic": false,
              "FixedValue": {
                "Value": 400001
              }
            }
          },
          "StoryAvatarID": "NPC_Special_OrigamiBird_00",
          "StoryMotionID": 900090200
        },
        {
          "$type": "RPG.GameCore.PlayAndWaitSimpleTalk",
          "SimpleTalkList": [
            {
              "TalkSentenceID": 414030190
            }
          ]
        },
        {
          "$type": "RPG.GameCore.TriggerCustomString",
          "CustomString": {
            "Value": "TalkSentence_414030153"
          }
        }
      ]
    },
    {
      "TaskList": [
        {
          "$type": "RPG.GameCore.WaitCustomString",
          "CustomString": {
            "Value": "TalkSentence_414030153"
          },
          "WaitOwnerOnly": true,
          "GoNextImmediately": true
        },
        {
          "$type": "RPG.GameCore.CharacterTriggerFreeStyle",
          "TargetAlias": {
            "$type": "RPG.GameCore.TargetFetchAdvNpcEx",
            "FetchType": "SingleNpcByOwnerGroupAndID",
            "SingleNpcKey": {
              "Custom": true,
              "Key": "TargetNPC"
            },
            "SingleNpcID": {
              "GroupNpcID": {
                "IsDynamic": false,
                "FixedValue": {
                  "Value": 400001
                }
              }
            },
            "SingleUniqueName": {
              "Value": "InteractTarget_OrigamiBird01"
            },
            "NpcIDInOwnerGroup": {
              "IsDynamic": false,
              "FixedValue": {
                "Value": 400001
              }
            }
          },
          "StoryAvatarID": "NPC_Special_OrigamiBird_00",
          "StoryMotionID": 900090265
        },
        {
          "$type": "RPG.GameCore.PlayAndWaitSimpleTalk",
          "SimpleTalkList": [
            {
              "TalkSentenceID": 414030191
            }
          ]
        },
        {
          "$type": "RPG.GameCore.TriggerSound",
          "SoundName": {
            "Value": "Ev_vo_origamibirds_disappear"
          },
          "EmitterType": "TargetEvaluator",
          "TargetType": {
            "$type": "RPG.GameCore.TargetFetchAdvNpcEx",
            "FetchType": "SingleNpcByOwnerGroupAndID",
            "SingleNpcKey": {
              "Custom": true,
              "Key": "TargetNPC"
            },
            "SingleNpcID": {
              "GroupNpcID": {
                "IsDynamic": false,
                "FixedValue": {
                  "Value": 400001
                }
              }
            },
            "SingleUniqueName": {
              "Value": "InteractTarget_OrigamiBird01"
            },
            "NpcIDInOwnerGroup": {
              "IsDynamic": false,
              "FixedValue": {
                "Value": 400001
              }
            }
          }
        },
        {
          "$type": "RPG.GameCore.CharacterTriggerFreeStyle",
          "TargetAlias": {
            "$type": "RPG.GameCore.TargetFetchAdvNpcEx",
            "FetchType": "SingleNpcByOwnerGroupAndID",
            "SingleNpcKey": {
              "Custom": true,
              "Key": "TargetNPC"
            },
            "SingleNpcID": {
              "GroupNpcID": {
                "IsDynamic": false,
                "FixedValue": {
                  "Value": 400001
                }
              }
            },
            "SingleUniqueName": {
              "Value": "InteractTarget_OrigamiBird01"
            },
            "NpcIDInOwnerGroup": {
              "IsDynamic": false,
              "FixedValue": {
                "Value": 400001
              }
            }
          },
          "DisableAnimEvent": true,
          "StoryAvatarID": "NPC_Special_OrigamiBird_00",
          "StoryMotionID": 900090264
        },
        {
          "$type": "RPG.GameCore.WaitSecond",
          "WaitTime": {
            "IsDynamic": false,
            "FixedValue": {
              "Value": 1.2
            }
          }
        },
        {
          "$type": "RPG.GameCore.SetTargetEntityFadeWithAnim",
          "TargetType": {
            "$type": "RPG.GameCore.TargetFetchAdvNpcEx",
            "FetchType": "SingleNpcByOwnerGroupAndID",
            "SingleNpcKey": {
              "Custom": true,
              "Key": "TargetNPC"
            },
            "SingleNpcID": {
              "GroupNpcID": {
                "IsDynamic": false,
                "FixedValue": {
                  "Value": 400001
                }
              }
            },
            "SingleUniqueName": {
              "Value": "InteractTarget_OrigamiBird01"
            },
            "NpcIDInOwnerGroup": {
              "IsDynamic": false,
              "FixedValue": {
                "Value": 400001
              }
            }
          },
          "Duration": 0.45
        },
        {
          "$type": "RPG.GameCore.WaitSecond",
          "WaitTime": {
            "IsDynamic": false,
            "FixedValue": {
              "Value": 0.45
            }
          }
        },
        {
          "$type": "RPG.GameCore.EndPerformance"
        }
      ]
    },
    {
      "TaskList": [
        {
          "$type": "RPG.GameCore.WaitPerformanceEnd"
        },
        {
          "$type": "RPG.GameCore.FinishLevelGraph"
        }
      ]
    }
  ]
}