{
  "DefaultOperations": {
    "UIOperations": []
  },
  "UIPrefabOperations": [
    {
      "PrefabName": "MuseumExhibitionMapPage",
      "UIOperations": [
        {
          "Path": "Root/PanelContent/MapPanel/MapContainer/MapContent/Scaler",
          "ScaleX": 1.2,
          "ScaleY": 1.2
        }
      ]
    },
    {
      "PrefabName": "MuseumAtlasPage",
      "UIOperations": [
        {
          "Path": "Root/PanelContent",
          "OffsetLeft": -94
        }
      ]
    },
    {
      "PrefabName": "ShopPage",
      "UIOperations": [
        {
          "Path": "Root/Contents/ActivityPanel/PanelContainer/MonthCardPanel(Clone)",
          "ScaleX": 1.2,
          "ScaleY": 1.2
        }
      ]
    },
    {
      "PrefabName": "QuestOverviewDialog",
      "UIOperations": [
        {
          "Path": "Root/Contents/PanelContainer/SingleTaskActivityPanel(Clone)/PictureBg",
          "ScaleX": 1.2,
          "ScaleY": 1.2
        },
        {
          "Path": "Root/Contents/PanelContainer/QuestBoxingClubPanel(Clone)/PictureBg/ImgMainGraph",
          "ScaleX": 1.2,
          "ScaleY": 1.2
        },
        {
          "Path": "Root/Contents/QuestLimitedTimePanel/Root/Contents/PanelContainer/QuestTreasureDungeonPanel(Clone)/PictureBg",
          "ScaleX": 1.3,
          "ScaleY": 1.3
        },
        {
          "Path": "Root/Contents/QuestLimitedTimePanel/Root/Contents/PanelContainer/QuestAetherDividePanel(Clone)/PictureBg",
          "ScaleX": 1,
          "ScaleY": 1
        },
        {
          "Path": "Root/Contents/QuestLimitedTimePanel/Root/Contents/PanelContainer/QuestHeliobusPanel(Clone)/PictureBg/Avatar",
          "ScaleX": 1.25,
          "ScaleY": 1.25
        },
        {
          "Path": "Root/Contents/QuestLimitedTimePanel/Root/Contents/PanelContainer/QuestHeliobusPanel(Clone)/PictureBg/QuestStage1/Avatar",
          "ScaleX": 1.25,
          "ScaleY": 1.25
        },
        {
          "Path": "Root/Contents/QuestLimitedTimePanel/Root/Contents/PanelContainer/QuestHeliobusPanel(Clone)/PictureBg/QuestStage2/Avatar",
          "ScaleX": 1.25,
          "ScaleY": 1.25
        },
        {
          "Path": "Root/Contents/QuestResidentPanel/Root/Contents/PanelContainer/QuestHeliobusPanel(Clone)/PictureBg/Avatar",
          "ScaleX": 1.25,
          "ScaleY": 1.25
        },
        {
          "Path": "Root/Contents/QuestResidentPanel/Root/Contents/PanelContainer/QuestHeliobusPanel(Clone)/PictureBg/QuestStage1/Avatar",
          "ScaleX": 1.25,
          "ScaleY": 1.25
        },
        {
          "Path": "Root/Contents/QuestResidentPanel/Root/Contents/PanelContainer/QuestHeliobusPanel(Clone)/PictureBg/QuestStage2/Avatar",
          "ScaleX": 1.25,
          "ScaleY": 1.25
        },
        {
          "Path": "Root/Contents/QuestLimitedTimePanel/Root/Contents/PanelContainer/QuestColleaguePanel(Clone)/PictureBg",
          "ScaleX": 1.2,
          "ScaleY": 1.2
        },
        {
          "Path": "Root/Contents/QuestResidentPanel/Root/Contents/PanelContainer/QuestDrinkMakerPanel(Clone)/PictureBg/MonsterPanelPCScaler",
          "ScaleX": 1.2,
          "ScaleY": 1.2
        },
        {
          "Path": "Root/Contents/QuestLimitedTimePanel/Root/Contents/PanelContainer/QuestSpaceZooPanel(Clone)/PictureBg",
          "ScaleX": 1.2,
          "ScaleY": 1.2
        },
        {
          "Path": "Root/Contents/QuestLimitedTimePanel/Root/Contents/PanelContainer/PlayerReturnRecallPanel(Clone)/PictureBg",
          "ScaleX": 1.2,
          "ScaleY": 1.2
        },
        {
          "Path": "Root/Contents/QuestLimitedTimePanel/Root/Contents/PanelContainer/QuestFeverTimeChallengePanel(Clone)/Content/CenterImgPanel",
          "ScaleX": 1.2,
          "ScaleY": 1.2
        }
      ]
    },
    {
      "PrefabName": "BattleGamePhaseUI",
      "UIOperations": [
        {
          "Path": "ActiveCharacterSkill/SkillButtonSpecial",
          "ScaleX": 1.2,
          "ScaleY": 1.2
        }
      ]
    },
    {
      "PrefabName": "AssignmentMissionMainPage",
      "UIOperations": [
        {
          "Path": "Root/Main",
          "ScaleX": 1.2,
          "ScaleY": 1.2
        }
      ]
    },
    {
      "PrefabName": "MonopolyMiniGameLuckyCookiesAPage",
      "UIOperations": [
        {
          "Path": "Root/PanelContent/PCScaler",
          "ScaleX": 1.25,
          "ScaleY": 1.25
        }
      ]
    },
    {
      "PrefabName": "MonopolyMiniGameLuckyCookiesBPage",
      "UIOperations": [
        {
          "Path": "Root/PanelContent/PCScaler",
          "ScaleX": 1.25,
          "ScaleY": 1.25
        }
      ]
    },
    {
      "PrefabName": "MonopolyMiniGameLuckyCookiesCPage",
      "UIOperations": [
        {
          "Path": "Root/PanelContent/PCScaler",
          "ScaleX": 1.25,
          "ScaleY": 1.25
        }
      ]
    },
    {
      "PrefabName": "GachaResultDialog",
      "UIOperations": [
        {
          "Path": "Contents/ResultList/AdaptionScaler",
          "ScaleX": 1.2,
          "ScaleY": 1.2
        }
      ]
    },
    {
      "PrefabName": "ChallengeStoryMainPage",
      "UIOperations": [
        {
          "Path": "ThemePanel/ChallengeStoryThemePanel1/Root/StoryList",
          "ScaleX": 1.25,
          "ScaleY": 1.25
        },
        {
          "Path": "ThemePanel/ChallengeStoryThemePanel1/Cage",
          "ScaleX": 1.25,
          "ScaleY": 1.25
        },
        {
          "Path": "ThemePanel/ChallengeStoryThemePanel2/Root/StoryList",
          "ScaleX": 1.25,
          "ScaleY": 1.25
        },
        {
          "Path": "ThemePanel/ChallengeStoryThemePanel2/Cage",
          "ScaleX": 1.25,
          "ScaleY": 1.25
        }
      ]
    },
    {
      "PrefabName": "NewAdventureMissionPage",
      "UIOperations": [
        {
          "Path": "Root/Contents",
          "OffsetLeft": -44,
          "OffsetRight": 32
        }
      ]
    },
    {
      "PrefabName": "InventoryPage",
      "UIOperations": [
        {
          "Path": "Root/Contents",
          "OffsetLeft": -44,
          "OffsetRight": 32
        }
      ]
    },
    {
      "PrefabName": "WikipediaOverviewPage",
      "UIOperations": [
        {
          "Path": "Root/Contents",
          "OffsetLeft": -44,
          "OffsetRight": 32
        }
      ]
    },
    {
      "PrefabName": "BooklistPage",
      "UIOperations": [
        {
          "Path": "Root/Contents",
          "OffsetLeft": -44,
          "OffsetRight": 32
        }
      ]
    },
    {
      "PrefabName": "SettingsPage",
      "UIOperations": [
        {
          "Path": "Root/Contents",
          "OffsetLeft": -44
        }
      ]
    },
    {
      "PrefabName": "AbyssMainPage",
      "UIOperations": [
        {
          "Path": "Root/Contents",
          "OffsetLeft": -44
        }
      ]
    },
    {
      "PrefabName": "MaterialHandbookPage",
      "UIOperations": [
        {
          "Path": "RightPanel/MaterialsPanel",
          "OffsetLeft": -90
        },
        {
          "Path": "RightPanel/Challenge",
          "OffsetLeft": -90
        },
        {
          "Path": "RightPanel/WikiContentsPanel",
          "OffsetLeft": -90
        }
      ]
    },
    {
      "PrefabName": "DailyMissionPage",
      "UIOperations": [
        {
          "Path": "TaskPanel/LeftInfo",
          "OffsetLeft": -120,
          "OffsetRight": -40
        },
        {
          "Path": "TaskPanel/TaskTitle",
          "OffsetLeft": 40
        },
        {
          "Path": "TaskPanel/TaskList",
          "OffsetLeft": 40
        },
        {
          "Path": "DocumentPanel/LeftInfo",
          "OffsetLeft": -120,
          "OffsetRight": -40
        },
        {
          "Path": "TaskPanel/MissionList",
          "OffsetLeft": 40
        }
      ]
    },
    {
      "PrefabName": "ClockBoyMainPage",
      "UIOperations": [
        {
          "Path": "Root/Contents/RightPanelBlurRoot/MoodChangePanel/MoodChangePanel(Clone)/ClockBoyContainer",
          "ScaleX": 1.25,
          "ScaleY": 1.25
        },
        {
          "Path": "Root/Contents/RightPanelBlurRoot/MoodBrokenPanel/MoodBrokenPanel(Clone)/ClockBoyContainer",
          "ScaleX": 1.25,
          "ScaleY": 1.25
        },
        {
          "Path": "Root/Contents/RightPanelBlurRoot/MoodLockedPanel/MoodLockedPanel(Clone)/ClockBoyContainer",
          "ScaleX": 1.25,
          "ScaleY": 1.25
        }
      ]
    },
    {
      "PrefabName": "AvatarMainPage",
      "UIOperations": [
        {
          "Path": "Root/AvatarSubMenuPanel_Vertical",
          "OffsetLeft": -192
        },
        {
          "Path": "AvatarSkillTreePanel/AvatarSkillTreePanel(Clone)/SkillTreesContainer",
          "ScaleX": 1.2,
          "ScaleY": 1.2
        }
      ]
    },
    {
      "PrefabName": "TeamEditPage",
      "UIOperations": [
        {
          "Path": "Root/Contents/CurrentTeamEditPanel",
          "ScaleX": 1.25,
          "ScaleY": 1.25
        }
      ]
    },
    {
      "PrefabName": "MaterialSynthesisPage",
      "UIOperations": [
        {
          "Path": "Root/Contents/SynthesisPanel/Synthesis",
          "ScaleX": 1.25,
          "ScaleY": 1.25
        },
        {
          "Path": "Root/Contents",
          "OffsetLeft": -44,
          "OffsetRight": 32
        }
      ]
    },
    {
      "PrefabName": "MaterialSynthesisRelicPage",
      "UIOperations": [
        {
          "Path": "Root/Contents/SynthesisRelicPanel/Right",
          "ScaleX": 1,
          "ScaleY": 1
        },
        {
          "Path": "Root/Contents/SynthesisRelicPanel/Left",
          "ScaleX": 1.2,
          "ScaleY": 1.2
        }
      ]
    },
    {
      "PrefabName": "MaterialSynthesisMainPage",
      "UIOperations": [
        {
          "Path": "Root/Contents/SynthesisRelicSelectedPanel/RightPanel/Synthesis/MaterialDes/LeftItemPanel",
          "ScaleX": 1.2,
          "ScaleY": 1.2
        },
        {
          "Path": "Root/Contents/SynthesisPanel/NormalPanel/Synthesis/Material0",
          "ScaleX": 1,
          "ScaleY": 1
        },
        {
          "Path": "Root/Contents/SynthesisPanel/NormalPanel/SynthesisWithDes/Material0",
          "ScaleX": 1,
          "ScaleY": 1
        },
        {
          "Path": "Root/Contents",
          "OffsetLeft": -44,
          "OffsetRight": 32
        }
      ]
    },
    {
      "PrefabName": "PauseDialog",
      "UIOperations": [
        {
          "Path": "Root/Contents",
          "OffsetLeft": -44,
          "OffsetRight": 32
        },
        {
          "Path": "Root/FuctionButtonPanel",
          "OffsetLeft": -44,
          "OffsetRight": 32
        }
      ]
    },
    {
      "PrefabName": "EditPanelPage",
      "UIOperations": [
        {
          "Path": "PhotoImage",
          "ScaleX": 1.25,
          "ScaleY": 1.25
        }
      ]
    },
    {
      "PrefabName": "PhotoResultDialog",
      "UIOperations": [
        {
          "Path": "PhotoImage",
          "ScaleX": 1.25,
          "ScaleY": 1.25
        }
      ]
    },
    {
      "PrefabName": "PlayerInfoPage",
      "UIOperations": [
        {
          "Path": "Root/CardPanel",
          "ScaleX": 1.25,
          "ScaleY": 1.25
        }
      ]
    },
    {
      "PrefabName": "MemberListDialog",
      "UIOperations": [
        {
          "Path": "Contents/RightPanel/SupportPanel",
          "ScaleX": 1.25,
          "ScaleY": 1.25
        },
        {
          "Path": "Contents/RightPanel/DisplayAvatarPanel",
          "ScaleX": 1.25,
          "ScaleY": 1.25
        }
      ]
    },
    {
      "PrefabName": "FriendMainPage",
      "UIOperations": [
        {
          "Path": "Root/PanelContent",
          "OffsetLeft": -44,
          "OffsetRight": 32
        }
      ]
    },
    {
      "PrefabName": "MazeAdventureRewardListDialog",
      "UIOperations": [],
      "AdjustIndentBySafeArea": false,
      "AdjustIndentByScreenAspect": false
    },
    {
      "PrefabName": "FrameCaptureUI",
      "UIOperations": [],
      "AdjustIndentBySafeArea": false,
      "AdjustIndentByScreenAspect": false
    },
    {
      "PrefabName": "ScreenTransfer",
      "UIOperations": [],
      "AdjustIndentBySafeArea": false,
      "AdjustIndentByScreenAspect": false
    },
    {
      "PrefabName": "RogueAtlasOverviewPage",
      "UIOperations": [
        {
          "Path": "Root/Contents/BookPanel",
          "ScaleX": 1.2,
          "ScaleY": 1.2
        }
      ]
    },
    {
      "PrefabName": "TreasureTrotterRecordPage",
      "UIOperations": [
        {
          "Path": "Root/Content",
          "ScaleX": 1.2,
          "ScaleY": 1.2
        }
      ]
    },
    {
      "PrefabName": "PlayerReturnMainPage",
      "UIOperations": [
        {
          "Path": "Root/Contents",
          "ScaleX": 1.2,
          "ScaleY": 1.2
        }
      ]
    },
    {
      "PrefabName": "ReturnAwardDialog",
      "UIOperations": [
        {
          "Path": "Contents",
          "ScaleX": 1.2,
          "ScaleY": 1.2
        }
      ]
    },
    {
      "PrefabName": "DiceEnterGenrePage",
      "UIOperations": [
        {
          "Path": "Root/ChooseGenrePanel/Root/ListPanel/ScrollView",
          "ScaleX": 1.15,
          "ScaleY": 1.15
        }
      ]
    },
    {
      "PrefabName": "DiceMainStagePage",
      "UIOperations": [
        {
          "Path": "Root/DiceTurnPanel/Content/DiceShowPanel",
          "ScaleX": 1.2,
          "ScaleY": 1.2
        },
        {
          "Path": "Root/DiceTurnPanel/Content/EventPanel",
          "ScaleX": 1.2,
          "ScaleY": 1.2
        },
        {
          "Path": "Root/FramePanel",
          "ScaleX": 1.2,
          "ScaleY": 1.2
        },
        {
          "Path": "Root/DiceEventPanel/Content/EventPanel",
          "ScaleX": 1.2,
          "ScaleY": 1.2
        },
        {
          "Path": "Root/DiceMainConsolePanel/Content/ConsolePanel",
          "ScaleX": 1.2,
          "ScaleY": 1.2
        },
        {
          "Path": "Root/DiceBossChoosePanel/Root/BossPanel",
          "ScaleX": 1.2,
          "ScaleY": 1.2
        },
        {
          "Path": "Root/HUDPanel/TeamList",
          "ScaleX": 1.2,
          "ScaleY": 1.2
        },
        {
          "Path": "Root/DiceTurnPanel/Content/DiceShowPanel",
          "ScaleX": 1.2,
          "ScaleY": 1.2
        },
        {
          "Path": "Root/NousValuePanel/ConsolePanel",
          "ScaleX": 1.2,
          "ScaleY": 1.2
        }
      ]
    },
    {
      "PrefabName": "RogueMenuPage",
      "UIOperations": [
        {
          "Path": "Root/Contents/DiceMap",
          "ScaleX": 1.2,
          "ScaleY": 1.2
        }
      ]
    },
    {
      "PrefabName": "DiceWelcomEnterPage",
      "UIOperations": [
        {
          "Path": "Root/PanelContent",
          "ScaleX": 1.2,
          "ScaleY": 1.2
        }
      ]
    },
    {
      "PrefabName": "DicePassLvMissionToastDialog",
      "UIOperations": [
        {
          "Path": "Contents/MainPanel/Content",
          "ScaleX": 1.2,
          "ScaleY": 1.2
        }
      ]
    },
    {
      "PrefabName": "DiceSkillPage",
      "UIOperations": [
        {
          "Path": "Root/PanelContent/OverviewPanel/Root/MainPanel/Content/DiceSkillShowRoot",
          "ScaleX": 1.2,
          "ScaleY": 1.2
        }
      ]
    },
    {
      "PrefabName": "NewDailyMissionPage",
      "UIOperations": [
        {
          "Path": "Root/PadRoot",
          "ScaleX": 1.1,
          "ScaleY": 1.1
        }
      ]
    },
    {
      "PrefabName": "AetherDivideTerminalMainPage",
      "UIOperations": [
        {
          "Path": "Root/AetherDivideTerminalGymPanel",
          "ScaleX": 1.15,
          "ScaleY": 1.15
        },
        {
          "Path": "Root/AetherDivideTerminalChallengePanel/AetherDivideTerminalChallengePanel(Clone)/Content",
          "ScaleX": 1,
          "ScaleY": 1
        }
      ]
    },
    {
      "PrefabName": "AetherDivideBattleMainPage",
      "UIOperations": [
        {
          "Path": "Root/Content/CenterPanel",
          "ScaleX": 1,
          "ScaleY": 1
        }
      ]
    },
    {
      "PrefabName": "AetherDivideMemberChoosePage",
      "UIOperations": [
        {
          "Path": "Root/PanelContent/CurrentTeamEditPanel",
          "ScaleX": 1.2,
          "ScaleY": 1.2
        }
      ]
    },
    {
      "PrefabName": "AetherDivideMonsterAppearPage",
      "UIOperations": [
        {
          "Path": "Root/Content/MosterPanel",
          "ScaleX": 1.15,
          "ScaleY": 1.15
        }
      ]
    },
    {
      "PrefabName": "AetherDivideMonsterAtlasPage",
      "UIOperations": [
        {
          "Path": "Root/Content/MonsterAtlasPanel/Group4",
          "ScaleX": 1.1,
          "ScaleY": 1.1
        },
        {
          "Path": "Root/Content/MonsterAtlasPanel/Group5",
          "ScaleX": 1.2,
          "ScaleY": 1.2
        }
      ]
    },
    {
      "PrefabName": "GuessTheSilhouetteMainPage",
      "UIOperations": [
        {
          "Path": "Root/PanelContent",
          "ScaleX": 1.2,
          "ScaleY": 1.2
        }
      ]
    },
    {
      "PrefabName": "HeliobusSkillListPage",
      "UIOperations": [
        {
          "Path": "Bg/Gourd",
          "ScaleX": 1.2,
          "ScaleY": 1.2
        }
      ]
    },
    {
      "PrefabName": "HeliobusChallengelMainPage",
      "UIOperations": [
        {
          "Path": "Animator_Root/Bg/PCScaler",
          "ScaleX": 1.2,
          "ScaleY": 1.2
        },
        {
          "Path": "Animator_Root/Root/Contents/ChallengeTaskPanel/PCScaler",
          "ScaleX": 1.2,
          "ScaleY": 1.2
        }
      ]
    },
    {
      "PrefabName": "MonopolyMiniGameQAMainPage",
      "UIOperations": [
        {
          "Path": "Bg/PCScaler",
          "ScaleX": 1.25,
          "ScaleY": 1.25
        },
        {
          "Path": "Root/FrontCover/PCScaler",
          "ScaleX": 1.25,
          "ScaleY": 1.25
        },
        {
          "Path": "Root/SendPanel/PCScaler",
          "ScaleX": 1.25,
          "ScaleY": 1.25
        }
      ]
    },
    {
      "PrefabName": "MonopolyMiniGameQASendPage",
      "UIOperations": [
        {
          "Path": "Bg/PCScaler",
          "ScaleX": 1.25,
          "ScaleY": 1.25
        },
        {
          "Path": "Root/PCScaler",
          "ScaleX": 1.25,
          "ScaleY": 1.25
        }
      ]
    },
    {
      "PrefabName": "MonopolyGetDiceDialog",
      "UIOperations": [
        {
          "Path": "Bg/PCScaler",
          "ScaleX": 1.25,
          "ScaleY": 1.25
        },
        {
          "Path": "Root/FrontCover/PCScaler",
          "ScaleX": 1.25,
          "ScaleY": 1.25
        }
      ]
    },
    {
      "PrefabName": "MonopolyMainEntrancePage",
      "UIOperations": [
        {
          "Path": "Root/PanelContent/PCScaler",
          "ScaleX": 1.2,
          "ScaleY": 1.2
        }
      ]
    },
    {
      "PrefabName": "MonopolyDailyTransferDialog",
      "UIOperations": [
        {
          "Path": "Root/ServerProgress/PCScaler",
          "ScaleX": 1.2,
          "ScaleY": 1.2
        }
      ]
    },
    {
      "PrefabName": "MonopolyEventRollDialog",
      "UIOperations": [
        {
          "Path": "Bg/Mask/PictureBg",
          "ScaleX": 1.25,
          "ScaleY": 1.25
        }
      ]
    },
    {
      "PrefabName": "TutorialDialog",
      "AdjustIndentBySafeArea": false,
      "AdjustIndentByScreenAspect": false
    },
    {
      "PrefabName": "BoxingClubBattleEnterPage",
      "UIOperations": [
        {
          "Path": "Root/PanelContent",
          "OffsetLeft": -112
        }
      ]
    },
    {
      "PrefabName": "TravelBrochureDirectoryPage",
      "UIOperations": [
        {
          "Path": "Root/Contents",
          "ScaleX": 1.2,
          "ScaleY": 1.2
        },
        {
          "Path": "Root/Back_BG",
          "ScaleX": 1.2,
          "ScaleY": 1.2
        },
        {
          "Path": "Root/InvitationPanel",
          "ScaleX": 1.2,
          "ScaleY": 1.2
        },
        {
          "Path": "Root/FrontBg",
          "ScaleX": 1.2,
          "ScaleY": 1.2
        }
      ]
    },
    {
      "PrefabName": "MobilePhoneMainPage",
      "UIOperations": [
        {
          "Path": "EventBannerContainer",
          "ScaleX": 1,
          "ScaleY": 1
        }
      ]
    },
    {
      "PrefabName": "TravelBrochureMainPage",
      "UIOperations": [
        {
          "Path": "Root/Contents",
          "ScaleX": 1.2,
          "ScaleY": 1.2
        }
      ]
    },
    {
      "PrefabName": "TravelBrochureGuildPage",
      "UIOperations": [
        {
          "Path": "Root/Contents",
          "ScaleX": 1.2,
          "ScaleY": 1.2
        }
      ]
    },
    {
      "PrefabName": "TravelBrochureStickerPage",
      "UIOperations": [
        {
          "Path": "Root/Contents",
          "ScaleX": 1.2,
          "ScaleY": 1.2
        }
      ]
    },
    {
      "PrefabName": "TravelBrochureStickerProgressPage",
      "UIOperations": [
        {
          "Path": "Root/Contents",
          "ScaleX": 1.2,
          "ScaleY": 1.2
        }
      ]
    },
    {
      "PrefabName": "DrinkMakerHandBookDialog",
      "UIOperations": [
        {
          "Path": "Root/BookRoot",
          "ScaleX": 1.12,
          "ScaleY": 1.12
        }
      ]
    },
    {
      "PrefabName": "DrinkMakerReplyImgDialog",
      "UIOperations": [
        {
          "Path": "Root/BookRoot",
          "ScaleX": 1.12,
          "ScaleY": 1.12
        }
      ]
    },
    {
      "PrefabName": "DrinkMakerChallengeDialog",
      "UIOperations": [
        {
          "Path": "Root/BookRoot",
          "ScaleX": 1.12,
          "ScaleY": 1.12
        }
      ]
    },
    {
      "PrefabName": "DrinkMakerChallengeHintDailog",
      "UIOperations": [
        {
          "Path": "Root/InfoPanel/Root",
          "ScaleX": 1.12,
          "ScaleY": 1.12
        }
      ]
    },
    {
      "PrefabName": "DrinkMakerChallengeResultDailog",
      "UIOperations": [
        {
          "Path": "Root/InfoPanel",
          "ScaleX": 1.12,
          "ScaleY": 1.12
        }
      ]
    },
    {
      "PrefabName": "DrinkMakerMenuSelectPage",
      "UIOperations": [
        {
          "Path": "Root/Contents/EntryList",
          "ScaleX": 1.12,
          "ScaleY": 1.12
        }
      ]
    },
    {
      "PrefabName": "DrinkMakerWorkBookDialog",
      "UIOperations": [
        {
          "Path": "Root/BookRoot",
          "ScaleX": 1.12,
          "ScaleY": 1.12
        }
      ]
    },
    {
      "PrefabName": "ClockParkSensePointPage",
      "UIOperations": [
        {
          "Path": "Bg/PictureBg_PC",
          "ScaleX": 1.25,
          "ScaleY": 1.25
        },
        {
          "Path": "Root/Content/LeftPanel/PuzzlePanel_PC",
          "ScaleX": 1.25,
          "ScaleY": 1.25
        }
      ]
    },
    {
      "PrefabName": "ClockParkGamePlayRaidLevelPage",
      "UIOperations": [
        {
          "Path": "Root/PanelContent/MainPanel/RaidLevelPanel/RaidLevelEntrancePanel",
          "ScaleX": 1.15,
          "ScaleY": 1.15
        },
        {
          "Path": "Root/PanelContent/MainPanel/StreetEventPanel",
          "ScaleX": 1.15,
          "ScaleY": 1.15
        }
      ]
    },
    {
      "PrefabName": "ClockParkGamePlayPage",
      "UIOperations": [
        {
          "Path": "Root/PanelContent/TopBarPanel/InfiniteInfoPanel",
          "ScaleX": 1.2,
          "ScaleY": 1.2
        }
      ]
    },
    {
      "PrefabName": "ClockParkMiniGamePlayDialog",
      "UIOperations": [
        {
          "Path": "Bg",
          "ScaleX": 1,
          "ScaleY": 1
        }
      ]
    },
    {
      "PrefabName": "ChallengeResultDailog",
      "UIOperations": [
        {
          "Path": "Root/InfoPanel",
          "ScaleX": 1.12,
          "ScaleY": 1.12
        }
      ]
    },
    {
      "PrefabName": "BoxingClubResonanceSelectBuffDialog",
      "UIOperations": [
        {
          "Path": "Root/PanelContent/BuffContent",
          "ScaleX": 1.1,
          "ScaleY": 1.1
        }
      ]
    },
    {
      "PrefabName": "MiniGameSpaceMainPage",
      "UIOperations": [
        {
          "Path": "Root/PanelContent/NormalPanel/ListContain/ScrollViewFrame",
          "ScaleX": 1.1,
          "ScaleY": 1.1
        }
      ]
    },
    {
      "PrefabName": "ActivityStrongChallengeMainPage",
      "UIOperations": [
        {
          "Path": "Root/NormalDifficultyPanel",
          "ScaleX": 1.2,
          "ScaleY": 1.2
        },
        {
          "Path": "Root/TopTabArea",
          "ScaleX": 1.2,
          "ScaleY": 1.2
        },
        {
          "Path": "Root/HellDifficultyPanel",
          "ScaleX": 1.2,
          "ScaleY": 1.2
        }
      ]
    },
    {
      "PrefabName": "RogueNousNewMissionDialog",
      "UIOperations": [
        {
          "Path": "Contents/MissionContent/MainPanel",
          "ScaleX": 1.2,
          "ScaleY": 1.2
        }
      ]
    },
    {
      "PrefabName": "RogueNousDiceEditorPage",
      "UIOperations": [
        {
          "Path": "Root/PanelContent/LeftPanel",
          "ScaleX": 1.2,
          "ScaleY": 1.2
        }
      ]
    },
    {
      "PrefabName": "SpaceZooMainPage",
      "UIOperations": [
        {
          "Path": "Root/Contents/RightPanel/ChoosePanel",
          "ScaleX": 1.2,
          "ScaleY": 1.2
        }
      ]
    },
    {
      "PrefabName": "RuanMadeCakeChooseDialog",
      "UIOperations": [
        {
          "Path": "Contents/RightPanel/Bg",
          "ScaleX": 1,
          "ScaleY": 1
        },
        {
          "Path": "Contents/RightPanel/ResolutionPanel",
          "ScaleX": 1.2,
          "ScaleY": 1.2
        },
        {
          "Path": "Contents/RightPanel/ChoosePanel",
          "ScaleX": 1,
          "ScaleY": 1
        }
      ]
    },
    {
      "PrefabName": "PenaconyActivityQuestTimeLimitPage",
      "UIOperations": [
        {
          "Path": "Root/Contents",
          "ScaleX": 1.2,
          "ScaleY": 1.2
        }
      ]
    },
    {
      "PrefabName": "TelevisionMainPage",
      "UIOperations": [
        {
          "Path": "Root/Content",
          "ScaleX": 1.23,
          "ScaleY": 1.23
        }
      ]
    },
    {
      "PrefabName": "MakeFilmResultFailDialog",
      "UIOperations": [
        {
          "Path": "Root/Frame/FrameBg",
          "ScaleX": 1.2,
          "ScaleY": 1.2
        },
        {
          "Path": "Root/Frame/ClapBoard",
          "ScaleX": 1.2,
          "ScaleY": 1.2
        }
      ]
    },
    {
      "PrefabName": "MakeFilmResultSuccessDialog",
      "UIOperations": [
        {
          "Path": "Root/Frame/FrameBg",
          "ScaleX": 1.2,
          "ScaleY": 1.2
        },
        {
          "Path": "Root/Frame/ClapBoard",
          "ScaleX": 1.2,
          "ScaleY": 1.2
        }
      ]
    },
    {
      "PrefabName": "MakeFilmMainEntrancePage",
      "UIOperations": [
        {
          "Path": "Root/Contents/RightPanel",
          "ScaleX": 1.2,
          "ScaleY": 1.2
        }
      ]
    },
    {
      "PrefabName": "EvolveWeaponPickPage",
      "UIOperations": [
        {
          "Path": "Root/PanelContent/MainPanel/PropsList",
          "ScaleX": 1.2,
          "ScaleY": 1.2
        },
        {
          "Path": "Root/PanelContent/MainPanel/SlotPanel",
          "ScaleX": 1.2,
          "ScaleY": 1.2
        },
        {
          "Path": "Root/PanelContent/MainPanel/DetailPanel/Root/DialogPanel",
          "ScaleX": 1.2,
          "ScaleY": 1.2
        }
      ]
    },
    {
      "PrefabName": "EvolveStageMergedToastDialog",
      "UIOperations": [
        {
          "Path": "Contents/DescPanel/EvolveDifficultTabPanel",
          "ScaleX": 1.2,
          "ScaleY": 1.2
        },
        {
          "Path": "ToastPanel/EliteStage",
          "ScaleX": 1.2,
          "ScaleY": 1.2
        },
        {
          "Path": "ToastPanel/FinalStage",
          "ScaleX": 1.2,
          "ScaleY": 1.2
        },
        {
          "Path": "ToastPanel/AddStage",
          "ScaleX": 1.2,
          "ScaleY": 1.2
        }
      ]
    },
    {
      "PrefabName": "EvolveBuildMainPage",
      "UIOperations": [
        {
          "Path": "Root/PanelContent/ChallengeEventPanel/EventContent",
          "ScaleX": 1.2,
          "ScaleY": 1.2
        },
        {
          "Path": "Root/PanelContent/ChallengeEventPanel/BoxBtns",
          "ScaleX": 1.2,
          "ScaleY": 1.2
        },
        {
          "Path": "Root/PanelContent/ChallengeEventPanel/LevelPanel",
          "ScaleX": 1.2,
          "ScaleY": 1.2
        }
      ]
    },
    {
      "PrefabName": "EvolveBuildNovicePage",
      "UIOperations": [
        {
          "Path": "Root/PanelContent/ChallengeEventPanel/EventContent/NoviceEventContent",
          "ScaleX": 1.2,
          "ScaleY": 1.2
        }
      ]
    },
    {
      "PrefabName": "EvolvePeriodCardPickPage",
      "UIOperations": [
        {
          "Path": "Root/PanelContent/CardListPanel/Root/CardList",
          "ScaleX": 1.2,
          "ScaleY": 1.2
        }
      ]
    }
  ]
}