{
  "OnInitSequece": [],
  "OnStartSequece": [
    {
      "TaskList": [
        {
          "$type": "RPG.GameCore.LevelPerformanceInitialize",
          "PerformanceType": "E",
          "HideMunicipalCrowd": false,
          "HideMunicipalPedestrian": false
        },
        {
          "$type": "RPG.GameCore.AdvNpcFaceToPlayer"
        },
        {
          "$type": "RPG.GameCore.CaptureNPCToCharacter",
          "GroupID": {
            "IsDynamic": false,
            "FixedValue": {
              "Value": 136
            }
          },
          "GroupNpcID": {
            "IsDynamic": false,
            "FixedValue": {
              "Value": 400001
            }
          },
          "CharacterUniqueName": {
            "Value": "Puman1_G28N400001"
          }
        },
        {
          "$type": "RPG.GameCore.PlayAndWaitSimpleTalk",
          "SimpleTalkList": [
            {
              "TalkSentenceID": 501031517,
              "ProtectTime": 0.3
            }
          ]
        },
        {
          "$type": "RPG.GameCore.TriggerCustomString",
          "CustomString": {
            "Value": "Wait_Option_501031505_53"
          }
        }
      ]
    },
    {
      "IsLoop": true,
      "TaskList": [
        {
          "$type": "RPG.GameCore.WaitCustomString",
          "CustomString": {
            "Value": "Wait_Option_501031505_53"
          }
        },
        {
          "$type": "RPG.GameCore.PlayOptionTalk",
          "OptionList": [
            {
              "TalkSentenceID": 501031518,
              "OptionIconType": "ChatLoopIcon",
              "TriggerCustomString": "TalkSentence_501031519"
            },
            {
              "TalkSentenceID": 501031521,
              "OptionIconType": "ChatLoopIcon",
              "TriggerCustomString": "TalkSentence_501031522"
            },
            {
              "TalkSentenceID": 501031526,
              "OptionIconType": "ChatLoopIcon",
              "TriggerCustomString": "TalkSentence_501031527"
            },
            {
              "TalkSentenceID": 501031531,
              "OptionIconType": "ChatLoopIcon",
              "TriggerCustomString": "TalkSentence_501031532"
            },
            {
              "TalkSentenceID": 501031535,
              "OptionIconType": "ChatOutIcon",
              "TriggerCustomString": "TalkSentence_501031536"
            }
          ],
          "HideSelected": true
        }
      ]
    },
    {
      "IsLoop": true,
      "TaskList": [
        {
          "$type": "RPG.GameCore.WaitCustomString",
          "CustomString": {
            "Value": "TalkSentence_501031519"
          }
        },
        {
          "$type": "RPG.GameCore.CharacterTriggerFreeStyle",
          "CharacterUniqueName": "Puman1_G28N400001",
          "StoryAvatarID": "NPC_Monster_XP_Minion04_00",
          "StoryMotionID": 200690245
        },
        {
          "$type": "RPG.GameCore.PlayAndWaitSimpleTalk",
          "SimpleTalkList": [
            {
              "TalkSentenceID": 501031519,
              "ProtectTime": 0.3
            },
            {
              "TalkSentenceID": 501031520,
              "ProtectTime": 0.3
            }
          ]
        },
        {
          "$type": "RPG.GameCore.TriggerCustomString",
          "CustomString": {
            "Value": "Wait_Option_501031505_53"
          }
        }
      ]
    },
    {
      "IsLoop": true,
      "TaskList": [
        {
          "$type": "RPG.GameCore.WaitCustomString",
          "CustomString": {
            "Value": "TalkSentence_501031522"
          }
        },
        {
          "$type": "RPG.GameCore.CharacterTriggerFreeStyle",
          "CharacterUniqueName": "Puman1_G28N400001",
          "StoryAvatarID": "NPC_Monster_XP_Minion04_00",
          "StoryMotionID": 200690240
        },
        {
          "$type": "RPG.GameCore.PlayAndWaitSimpleTalk",
          "SimpleTalkList": [
            {
              "TalkSentenceID": 501031522,
              "ProtectTime": 0.3
            },
            {
              "TalkSentenceID": 501031523,
              "ProtectTime": 0.3
            }
          ]
        },
        {
          "$type": "RPG.GameCore.CharacterTriggerFreeStyle",
          "CharacterUniqueName": "Puman1_G28N400001",
          "StoryAvatarID": "NPC_Monster_XP_Minion04_00",
          "StoryMotionID": 200690245
        },
        {
          "$type": "RPG.GameCore.PlayAndWaitSimpleTalk",
          "SimpleTalkList": [
            {
              "TalkSentenceID": 501031524,
              "ProtectTime": 0.3
            },
            {
              "TalkSentenceID": 501031525,
              "ProtectTime": 0.3
            }
          ]
        },
        {
          "$type": "RPG.GameCore.TriggerCustomString",
          "CustomString": {
            "Value": "Wait_Option_501031505_53"
          }
        }
      ]
    },
    {
      "IsLoop": true,
      "TaskList": [
        {
          "$type": "RPG.GameCore.WaitCustomString",
          "CustomString": {
            "Value": "TalkSentence_501031527"
          }
        },
        {
          "$type": "RPG.GameCore.CharacterTriggerFreeStyle",
          "CharacterUniqueName": "Puman1_G28N400001",
          "StoryAvatarID": "NPC_Monster_XP_Minion04_00",
          "StoryMotionID": 200690246
        },
        {
          "$type": "RPG.GameCore.PlayAndWaitSimpleTalk",
          "SimpleTalkList": [
            {
              "TalkSentenceID": 501031527,
              "ProtectTime": 0.3
            },
            {
              "TalkSentenceID": 501031528,
              "ProtectTime": 0.3
            },
            {
              "TalkSentenceID": 501031529,
              "ProtectTime": 0.3
            },
            {
              "TalkSentenceID": 501031530,
              "ProtectTime": 0.3
            }
          ]
        },
        {
          "$type": "RPG.GameCore.TriggerCustomString",
          "CustomString": {
            "Value": "Wait_Option_501031505_53"
          }
        }
      ]
    },
    {
      "IsLoop": true,
      "TaskList": [
        {
          "$type": "RPG.GameCore.WaitCustomString",
          "CustomString": {
            "Value": "TalkSentence_501031532"
          }
        },
        {
          "$type": "RPG.GameCore.CharacterTriggerFreeStyle",
          "CharacterUniqueName": "Puman1_G28N400001",
          "StoryAvatarID": "NPC_Monster_XP_Minion04_00",
          "StoryMotionID": 200690240
        },
        {
          "$type": "RPG.GameCore.PlayAndWaitSimpleTalk",
          "SimpleTalkList": [
            {
              "TalkSentenceID": 501031532,
              "ProtectTime": 0.3
            },
            {
              "TalkSentenceID": 501031533,
              "ProtectTime": 0.3
            },
            {
              "TalkSentenceID": 501031534,
              "ProtectTime": 0.3
            }
          ]
        },
        {
          "$type": "RPG.GameCore.TriggerCustomString",
          "CustomString": {
            "Value": "Wait_Option_501031505_53"
          }
        }
      ]
    },
    {
      "IsLoop": true,
      "TaskList": [
        {
          "$type": "RPG.GameCore.WaitCustomString",
          "CustomString": {
            "Value": "TalkSentence_501031536"
          }
        },
        {
          "$type": "RPG.GameCore.PlayAndWaitSimpleTalk",
          "SimpleTalkList": [
            {
              "TalkSentenceID": 501031536,
              "ProtectTime": 0.3
            }
          ]
        },
        {
          "$type": "RPG.GameCore.EndPerformance"
        }
      ]
    },
    {
      "TaskList": [
        {
          "$type": "RPG.GameCore.WaitPerformanceEnd"
        },
        {
          "$type": "RPG.GameCore.FinishLevelGraph"
        }
      ]
    }
  ]
}