{
  "OnInitSequece": [],
  "OnStartSequece": [
    {
      "TaskList": [
        {
          "$type": "RPG.GameCore.LevelPerformanceInitialize",
          "PerformanceType": "D",
          "CreateCharacterList": [],
          "EntityVisiableList": [],
          "PropVisiableList": [],
          "MarkStreamingItems": []
        },
        {
          "$type": "RPG.GameCore.PerformanceTransition",
          "CreateNpcList": [
            {
              "GroupID": {
                "IsDynamic": false,
                "FixedValue": {
                  "Value": 15
                }
              },
              "GroupNpcID": {
                "IsDynamic": false,
                "FixedValue": {
                  "Value": 400001
                }
              },
              "NPCUniqueName": {
                "Value": "Unique_201190118_peila"
              },
              "CreateList": []
            }
          ],
          "CaptureNpcList": [],
          "DestroyNpcList": [],
          "CreateProp": {
            "GroupID": {
              "IsDynamic": false,
              "FixedValue": {
                "Value": 0
              }
            },
            "GroupPropID": {
              "IsDynamic": false,
              "FixedValue": {
                "Value": 0
              }
            },
            "TaskEnabled": false
          },
          "DestroyProp": {
            "TargetType": {
              "$type": "RPG.GameCore.TargetFetchAdvPropEx"
            },
            "ID": {
              "IsDynamic": false,
              "FixedValue": {
                "Value": 0
              }
            },
            "GroupID": {
              "IsDynamic": false,
              "FixedValue": {
                "Value": 0
              }
            },
            "TaskEnabled": false
          },
          "ActiveVirtualCamera": {
            "AreaName": "LevelArea_P10102_F10102002_G15",
            "AnchorName": "Anchor2"
          },
          "ActiveTemplateVirtualCamera": {
            "TaskEnabled": false
          },
          "SwitchCharacterAnchor": {
            "IsLocalPlayer": true,
            "CharacterUniqueName": "LocalPlayer",
            "AreaName": {
              "Value": "LevelArea_P10102_F10102002_G15"
            },
            "AnchorName": {
              "Value": "Anchor1"
            }
          },
          "AdvNpcFaceToPlayer": {
            "TaskEnabled": false
          }
        },
        {
          "$type": "RPG.GameCore.CharacterTriggerFreeStyle",
          "CharacterUniqueName": "Unique_201190118_peila",
          "StoryAvatarID": "NPC_Avatar_Girl_Pela_00",
          "StoryMotionID": 311060200
        },
        {
          "$type": "RPG.GameCore.PlayAndWaitSimpleTalk",
          "SimpleTalkList": [
            {
              "TalkSentenceID": 201191101,
              "ProtectTime": 0.3
            }
          ]
        },
        {
          "$type": "RPG.GameCore.TriggerSound",
          "SoundName": {
            "Value": "Ev_sfx_belobog_box_open"
          }
        },
        {
          "$type": "RPG.GameCore.WaitSecond",
          "WaitTime": {
            "IsDynamic": false,
            "FixedValue": {
              "Value": 1
            }
          }
        },
        {
          "$type": "RPG.GameCore.PlayAndWaitSimpleTalk",
          "UseBackground": true,
          "Backgrounds": [
            {
              "ImagePath": "SpriteOutput/PicTalkCG/Pic/PicSubMission_140211.png"
            },
            {
              "ImagePath": "SpriteOutput/PicTalkCG/Pic/PicSubMission_140211.png"
            }
          ],
          "SimpleTalkList": [
            {
              "TalkSentenceID": 201191102,
              "ProtectTime": 0.3
            },
            {
              "TalkSentenceID": 201191103,
              "ProtectTime": 0.3
            }
          ]
        },
        {
          "$type": "RPG.GameCore.PlayOptionTalk",
          "OptionList": [
            {
              "TalkSentenceID": 201191104,
              "OptionIconType": "ChatContinueIcon",
              "TriggerCustomString": "TalkSentence_201191105"
            },
            {
              "TalkSentenceID": 201191107,
              "OptionIconType": "ChatContinueIcon",
              "TriggerCustomString": "TalkSentence_201191108"
            },
            {
              "TalkSentenceID": 201191109,
              "OptionIconType": "ChatContinueIcon",
              "TriggerCustomString": "TalkSentence_201191110"
            }
          ]
        }
      ]
    },
    {
      "TaskList": [
        {
          "$type": "RPG.GameCore.WaitCustomString",
          "CustomString": {
            "Value": "TalkSentence_201191105"
          }
        },
        {
          "$type": "RPG.GameCore.AdvEntityFaceTo",
          "SourceType": {
            "$type": "RPG.GameCore.TargetFetchAdvNpcEx",
            "FetchType": "SingleNpcByNpcID",
            "SingleNpcID": {
              "GroupID": {
                "IsDynamic": false,
                "FixedValue": {
                  "Value": 15
                }
              },
              "GroupNpcID": {
                "IsDynamic": false,
                "FixedValue": {
                  "Value": 400001
                }
              }
            }
          },
          "TargetType": {
            "$type": "RPG.GameCore.TargetFetchAdvLocalPlayer"
          },
          "EnableSteer": true,
          "FinishImmediately": false,
          "ForceToStandBy": true
        },
        {
          "$type": "RPG.GameCore.AdvEntityFaceTo",
          "SourceType": {
            "$type": "RPG.GameCore.TargetFetchAdvLocalPlayer"
          },
          "TargetType": {
            "$type": "RPG.GameCore.TargetFetchAdvNpcEx",
            "FetchType": "SingleNpcByNpcID",
            "SingleNpcID": {
              "GroupID": {
                "IsDynamic": false,
                "FixedValue": {
                  "Value": 15
                }
              },
              "GroupNpcID": {
                "IsDynamic": false,
                "FixedValue": {
                  "Value": 400001
                }
              }
            }
          },
          "ForceToStandBy": true
        },
        {
          "$type": "RPG.GameCore.PlayAndWaitSimpleTalk",
          "SimpleTalkList": [
            {
              "TalkSentenceID": 201191105,
              "ProtectTime": 0.3
            },
            {
              "TalkSentenceID": 201191106,
              "ProtectTime": 0.3
            }
          ]
        },
        {
          "$type": "RPG.GameCore.TriggerCustomString",
          "CustomString": {
            "Value": "TalkSentence_201191112"
          }
        }
      ]
    },
    {
      "TaskList": [
        {
          "$type": "RPG.GameCore.WaitCustomString",
          "CustomString": {
            "Value": "TalkSentence_201191108"
          }
        },
        {
          "$type": "RPG.GameCore.AdvEntityFaceTo",
          "SourceType": {
            "$type": "RPG.GameCore.TargetFetchAdvNpcEx",
            "FetchType": "SingleNpcByNpcID",
            "SingleNpcID": {
              "GroupID": {
                "IsDynamic": false,
                "FixedValue": {
                  "Value": 15
                }
              },
              "GroupNpcID": {
                "IsDynamic": false,
                "FixedValue": {
                  "Value": 400001
                }
              }
            }
          },
          "TargetType": {
            "$type": "RPG.GameCore.TargetFetchAdvLocalPlayer"
          },
          "EnableSteer": true,
          "FinishImmediately": false,
          "ForceToStandBy": true
        },
        {
          "$type": "RPG.GameCore.AdvEntityFaceTo",
          "SourceType": {
            "$type": "RPG.GameCore.TargetFetchAdvLocalPlayer"
          },
          "TargetType": {
            "$type": "RPG.GameCore.TargetFetchAdvNpcEx",
            "FetchType": "SingleNpcByNpcID",
            "SingleNpcID": {
              "GroupID": {
                "IsDynamic": false,
                "FixedValue": {
                  "Value": 15
                }
              },
              "GroupNpcID": {
                "IsDynamic": false,
                "FixedValue": {
                  "Value": 400001
                }
              }
            }
          },
          "ForceToStandBy": true
        },
        {
          "$type": "RPG.GameCore.PlayAndWaitSimpleTalk",
          "SimpleTalkList": [
            {
              "TalkSentenceID": 201191108,
              "ProtectTime": 0.3
            }
          ]
        },
        {
          "$type": "RPG.GameCore.TriggerCustomString",
          "CustomString": {
            "Value": "TalkSentence_201191112"
          }
        }
      ]
    },
    {
      "TaskList": [
        {
          "$type": "RPG.GameCore.WaitCustomString",
          "CustomString": {
            "Value": "TalkSentence_201191110"
          }
        },
        {
          "$type": "RPG.GameCore.AdvEntityFaceTo",
          "SourceType": {
            "$type": "RPG.GameCore.TargetFetchAdvNpcEx",
            "FetchType": "SingleNpcByNpcID",
            "SingleNpcID": {
              "GroupID": {
                "IsDynamic": false,
                "FixedValue": {
                  "Value": 15
                }
              },
              "GroupNpcID": {
                "IsDynamic": false,
                "FixedValue": {
                  "Value": 400001
                }
              }
            }
          },
          "TargetType": {
            "$type": "RPG.GameCore.TargetFetchAdvLocalPlayer"
          },
          "EnableSteer": true,
          "FinishImmediately": false,
          "ForceToStandBy": true
        },
        {
          "$type": "RPG.GameCore.AdvEntityFaceTo",
          "SourceType": {
            "$type": "RPG.GameCore.TargetFetchAdvLocalPlayer"
          },
          "TargetType": {
            "$type": "RPG.GameCore.TargetFetchAdvNpcEx",
            "FetchType": "SingleNpcByNpcID",
            "SingleNpcID": {
              "GroupID": {
                "IsDynamic": false,
                "FixedValue": {
                  "Value": 15
                }
              },
              "GroupNpcID": {
                "IsDynamic": false,
                "FixedValue": {
                  "Value": 400001
                }
              }
            }
          },
          "ForceToStandBy": true
        },
        {
          "$type": "RPG.GameCore.PlayAndWaitSimpleTalk",
          "SimpleTalkList": [
            {
              "TalkSentenceID": 201191110,
              "ProtectTime": 0.3
            },
            {
              "TalkSentenceID": 201191111,
              "ProtectTime": 0.3
            }
          ]
        },
        {
          "$type": "RPG.GameCore.TriggerCustomString",
          "CustomString": {
            "Value": "TalkSentence_201191112"
          }
        }
      ]
    },
    {
      "TaskList": [
        {
          "$type": "RPG.GameCore.WaitCustomString",
          "CustomString": {
            "Value": "TalkSentence_201191112"
          }
        },
        {
          "$type": "RPG.GameCore.CharacterTriggerFreeStyle",
          "CharacterUniqueName": "Unique_201190118_peila",
          "StoryAvatarID": "NPC_Avatar_Girl_Pela_00",
          "StoryMotionID": 311060200
        },
        {
          "$type": "RPG.GameCore.PlayAndWaitSimpleTalk",
          "SimpleTalkList": [
            {
              "TalkSentenceID": 201191112,
              "ProtectTime": 0.3
            },
            {
              "TalkSentenceID": 201191113,
              "ProtectTime": 0.3
            },
            {
              "TalkSentenceID": 201191114,
              "ProtectTime": 0.3
            }
          ]
        },
        {
          "$type": "RPG.GameCore.PerformanceTransition",
          "CreateNpcList": [],
          "CaptureNpcList": [],
          "DestroyNpcList": [
            {
              "GroupID": 15,
              "GroupNpcID": 400001,
              "DestroyList": []
            }
          ],
          "CreateProp": {
            "GroupID": {
              "IsDynamic": false,
              "FixedValue": {
                "Value": 0
              }
            },
            "GroupPropID": {
              "IsDynamic": false,
              "FixedValue": {
                "Value": 0
              }
            },
            "TaskEnabled": false
          },
          "DestroyProp": {
            "TargetType": {
              "$type": "RPG.GameCore.TargetFetchAdvPropEx"
            },
            "ID": {
              "IsDynamic": false,
              "FixedValue": {
                "Value": 0
              }
            },
            "GroupID": {
              "IsDynamic": false,
              "FixedValue": {
                "Value": 0
              }
            },
            "TaskEnabled": false
          },
          "ActiveVirtualCamera": {
            "AreaName": "LevelArea_P10102_F10102002_G15",
            "AnchorName": "Anchor2",
            "IsActive": false
          },
          "ActiveTemplateVirtualCamera": {
            "TaskEnabled": false
          },
          "SwitchCharacterAnchor": {
            "TaskEnabled": false
          },
          "AdvNpcFaceToPlayer": {
            "TaskEnabled": false
          }
        },
        {
          "$type": "RPG.GameCore.EndPerformance"
        }
      ]
    },
    {
      "TaskList": [
        {
          "$type": "RPG.GameCore.WaitPerformanceEnd"
        },
        {
          "$type": "RPG.GameCore.FinishLevelGraph"
        }
      ]
    }
  ]
}