{
  "OnInitSequece": [],
  "OnStartSequece": [
    {
      "TaskList": [
        {
          "$type": "RPG.GameCore.CollectDataConditions",
          "TaskIDList": [
            103030206
          ],
          "MainMissionIDList": [],
          "PerformanceIDList": [],
          "PerformanceIDDsList": [],
          "CustomValueMainMissionIDList": []
        },
        {
          "$type": "RPG.GameCore.LevelPerformanceInitialize",
          "PerformanceType": "E",
          "HideMunicipalCrowd": false,
          "HideMunicipalPedestrian": false
        },
        {
          "$type": "RPG.GameCore.AdvNpcFaceToPlayer"
        },
        {
          "$type": "RPG.GameCore.PlayAndWaitSimpleTalk",
          "SimpleTalkList": [
            {
              "TalkSentenceID": 503037101,
              "ProtectTime": 0.3
            }
          ]
        },
        {
          "$type": "RPG.GameCore.PlayOptionTalk",
          "OptionList": [
            {
              "TalkSentenceID": 503037102,
              "OptionIconType": "ChatContinueIcon",
              "TriggerCustomString": "TalkSentence_503037103"
            },
            {
              "TalkSentenceID": 503037112,
              "OptionIconType": "ChatContinueIcon",
              "TriggerCustomString": "TalkSentence_503037113",
              "VisibleFilter": {
                "$type": "RPG.GameCore.ByCompareSubMissionState",
                "SubMissionID": 103030206,
                "SubMissionState": "Finish"
              }
            }
          ]
        }
      ]
    },
    {
      "TaskList": [
        {
          "$type": "RPG.GameCore.CollectDataConditions",
          "TaskIDList": [
            103030206
          ],
          "MainMissionIDList": [],
          "PerformanceIDList": [],
          "PerformanceIDDsList": [],
          "CustomValueMainMissionIDList": []
        },
        {
          "$type": "RPG.GameCore.WaitCustomString",
          "CustomString": {
            "Value": "TalkSentence_503037103"
          }
        },
        {
          "$type": "RPG.GameCore.PlayAndWaitSimpleTalk",
          "SimpleTalkList": [
            {
              "TalkSentenceID": 503037103,
              "ProtectTime": 0.3
            }
          ]
        },
        {
          "$type": "RPG.GameCore.PlayOptionTalk",
          "OptionList": [
            {
              "TalkSentenceID": 503037104,
              "OptionIconType": "ChatContinueIcon",
              "TriggerCustomString": "TalkSentence_503037105"
            },
            {
              "TalkSentenceID": 503037111,
              "OptionIconType": "ChatContinueIcon",
              "TriggerCustomString": "TalkSentence_503037113",
              "VisibleFilter": {
                "$type": "RPG.GameCore.ByCompareSubMissionState",
                "SubMissionID": 103030206,
                "SubMissionState": "Finish"
              }
            }
          ]
        }
      ]
    },
    {
      "TaskList": [
        {
          "$type": "RPG.GameCore.WaitCustomString",
          "CustomString": {
            "Value": "TalkSentence_503037105"
          }
        },
        {
          "$type": "RPG.GameCore.PlayAndWaitSimpleTalk",
          "SimpleTalkList": [
            {
              "TalkSentenceID": 503037105,
              "ProtectTime": 0.3
            }
          ]
        },
        {
          "$type": "RPG.GameCore.PlayOptionTalk",
          "OptionList": [
            {
              "TalkSentenceID": 503037106,
              "OptionIconType": "ChatContinueIcon",
              "TriggerCustomString": "TalkSentence_503037107"
            }
          ]
        }
      ]
    },
    {
      "TaskList": [
        {
          "$type": "RPG.GameCore.CollectDataConditions",
          "TaskIDList": [
            103030206
          ],
          "MainMissionIDList": [],
          "PerformanceIDList": [],
          "PerformanceIDDsList": [],
          "CustomValueMainMissionIDList": []
        },
        {
          "$type": "RPG.GameCore.WaitCustomString",
          "CustomString": {
            "Value": "TalkSentence_503037107"
          }
        },
        {
          "$type": "RPG.GameCore.PlayAndWaitSimpleTalk",
          "SimpleTalkList": [
            {
              "TalkSentenceID": 503037107,
              "ProtectTime": 0.3
            },
            {
              "TalkSentenceID": 503037108,
              "ProtectTime": 0.3
            }
          ]
        },
        {
          "$type": "RPG.GameCore.CharacterTriggerFreeStyle",
          "CharacterUniqueName": "103-400001",
          "StoryAvatarID": "NPC_Special_OrigamiBird_00",
          "StoryMotionID": 900090200
        },
        {
          "$type": "RPG.GameCore.PlayAndWaitSimpleTalk",
          "SimpleTalkList": [
            {
              "TalkSentenceID": 503037109,
              "ProtectTime": 0.3
            }
          ]
        },
        {
          "$type": "RPG.GameCore.PredicateTaskList",
          "Predicate": {
            "$type": "RPG.GameCore.ByCompareSubMissionState",
            "SubMissionID": 103030206,
            "SubMissionState": "Finish"
          },
          "SuccessTaskList": [
            {
              "$type": "RPG.GameCore.PlayOptionTalk",
              "OptionList": [
                {
                  "TalkSentenceID": 503037110,
                  "OptionIconType": "ChatContinueIcon",
                  "TriggerCustomString": "TalkSentence_503037113"
                }
              ]
            }
          ],
          "FailedTaskList": [
            {
              "$type": "RPG.GameCore.PlayAndWaitSimpleTalk",
              "SimpleTalkList": [
                {
                  "TalkSentenceID": 503037019
                },
                {
                  "TalkSentenceID": 503037020,
                  "ProtectTime": 0.3
                }
              ]
            },
            {
              "$type": "RPG.GameCore.CharacterTriggerFreeStyle",
              "CharacterUniqueName": "103-400001",
              "StoryAvatarID": "NPC_Special_OrigamiBird_00",
              "StoryMotionID": 900090291
            },
            {
              "$type": "RPG.GameCore.PlayAndWaitSimpleTalk",
              "SimpleTalkList": [
                {
                  "TalkSentenceID": 503037114,
                  "ProtectTime": 0.3
                }
              ]
            },
            {
              "$type": "RPG.GameCore.EndPerformance"
            }
          ]
        }
      ]
    },
    {
      "TaskList": [
        {
          "$type": "RPG.GameCore.WaitCustomString",
          "CustomString": {
            "Value": "TalkSentence_503037113"
          }
        },
        {
          "$type": "RPG.GameCore.PlayAndWaitSimpleTalk",
          "SimpleTalkList": [
            {
              "TalkSentenceID": 503037113,
              "ProtectTime": 0.3
            }
          ]
        },
        {
          "$type": "RPG.GameCore.CharacterTriggerFreeStyle",
          "CharacterUniqueName": "103-400001",
          "StoryAvatarID": "NPC_Special_OrigamiBird_00",
          "StoryMotionID": 900090291
        },
        {
          "$type": "RPG.GameCore.PlayAndWaitSimpleTalk",
          "SimpleTalkList": [
            {
              "TalkSentenceID": 503037114,
              "ProtectTime": 0.3
            }
          ]
        },
        {
          "$type": "RPG.GameCore.EndPerformance"
        }
      ]
    },
    {
      "TaskList": [
        {
          "$type": "RPG.GameCore.WaitPerformanceEnd"
        },
        {
          "$type": "RPG.GameCore.FinishLevelGraph"
        }
      ]
    }
  ]
}