{
  "OnInitSequece": [],
  "OnStartSequece": [
    {
      "TaskList": [
        {
          "$type": "RPG.GameCore.CollectDataConditions",
          "TaskIDList": [],
          "MainMissionIDList": [
            2030401
          ],
          "PerformanceIDList": [],
          "PerformanceIDDsList": [],
          "CustomValueMainMissionIDList": []
        },
        {
          "$type": "RPG.GameCore.LevelPerformanceInitialize",
          "PerformanceType": "E",
          "CreateCharacterList": [],
          "CaptureNPCList": [],
          "EntityVisiableList": [],
          "HideMunicipalCrowd": false,
          "HideMunicipalPedestrian": false,
          "PropVisiableList": [],
          "StreamingSourcesInBlackMask": [],
          "StreamingSourcesAfterBlackMask": [],
          "MarkStreamingItems": []
        },
        {
          "$type": "RPG.GameCore.AdvNpcFaceToPlayer"
        },
        {
          "$type": "RPG.GameCore.PlayAndWaitSimpleTalk",
          "SimpleTalkList": [
            {
              "TalkSentenceID": 503037001,
              "ProtectTime": 0.3
            }
          ]
        },
        {
          "$type": "RPG.GameCore.PredicateTaskList",
          "Predicate": {
            "$type": "RPG.GameCore.ByCompareMainMissionState",
            "MainMissionID": 2030401
          },
          "SuccessTaskList": [
            {
              "$type": "RPG.GameCore.PlayOptionTalk",
              "OptionList": [
                {
                  "TalkSentenceID": 503037229,
                  "OptionIconType": "ChatContinueIcon",
                  "TriggerCustomString": "TalkSentence_503037230"
                },
                {
                  "TalkSentenceID": 503037239,
                  "OptionIconType": "ChatContinueIcon",
                  "TriggerCustomString": "TalkSentence_503037240"
                }
              ]
            }
          ],
          "FailedTaskList": [
            {
              "$type": "RPG.GameCore.PlayOptionTalk",
              "OptionList": [
                {
                  "TalkSentenceID": 503037002,
                  "OptionIconType": "ChatContinueIcon",
                  "TriggerCustomString": "TalkSentence_503037003"
                },
                {
                  "TalkSentenceID": 503037011,
                  "OptionIconType": "ChatContinueIcon",
                  "TriggerCustomString": "TalkSentence_503037013"
                }
              ]
            }
          ]
        }
      ]
    },
    {
      "TaskList": [
        {
          "$type": "RPG.GameCore.WaitCustomString",
          "CustomString": {
            "Value": "TalkSentence_503037003"
          }
        },
        {
          "$type": "RPG.GameCore.PlayAndWaitSimpleTalk",
          "SimpleTalkList": [
            {
              "TalkSentenceID": 503037003,
              "ProtectTime": 0.3
            }
          ]
        },
        {
          "$type": "RPG.GameCore.PlayOptionTalk",
          "OptionList": [
            {
              "TalkSentenceID": 503037004,
              "OptionIconType": "ChatContinueIcon",
              "TriggerCustomString": "TalkSentence_503037005"
            },
            {
              "TalkSentenceID": 503037011,
              "OptionIconType": "ChatContinueIcon",
              "TriggerCustomString": "TalkSentence_503037013"
            }
          ]
        }
      ]
    },
    {
      "TaskList": [
        {
          "$type": "RPG.GameCore.WaitCustomString",
          "CustomString": {
            "Value": "TalkSentence_503037005"
          }
        },
        {
          "$type": "RPG.GameCore.PlayAndWaitSimpleTalk",
          "SimpleTalkList": [
            {
              "TalkSentenceID": 503037005,
              "ProtectTime": 0.3
            }
          ]
        },
        {
          "$type": "RPG.GameCore.PlayOptionTalk",
          "OptionList": [
            {
              "TalkSentenceID": 503037006,
              "OptionIconType": "ChatContinueIcon",
              "TriggerCustomString": "TalkSentence_503037007"
            }
          ]
        }
      ]
    },
    {
      "TaskList": [
        {
          "$type": "RPG.GameCore.WaitCustomString",
          "CustomString": {
            "Value": "TalkSentence_503037007"
          }
        },
        {
          "$type": "RPG.GameCore.PlayAndWaitSimpleTalk",
          "SimpleTalkList": [
            {
              "TalkSentenceID": 503037007,
              "ProtectTime": 0.3
            },
            {
              "TalkSentenceID": 503037008,
              "ProtectTime": 0.3
            }
          ]
        },
        {
          "$type": "RPG.GameCore.CharacterTriggerFreeStyle",
          "CharacterUniqueName": "103-400001",
          "StoryAvatarID": "NPC_Special_OrigamiBird_00",
          "StoryMotionID": 900090200
        },
        {
          "$type": "RPG.GameCore.PlayAndWaitSimpleTalk",
          "SimpleTalkList": [
            {
              "TalkSentenceID": 503037009,
              "ProtectTime": 0.3
            }
          ]
        },
        {
          "$type": "RPG.GameCore.PlayOptionTalk",
          "OptionList": [
            {
              "TalkSentenceID": 503037010,
              "OptionIconType": "ChatContinueIcon",
              "TriggerCustomString": "TalkSentence_503037013"
            }
          ]
        }
      ]
    },
    {
      "TaskList": [
        {
          "$type": "RPG.GameCore.WaitCustomString",
          "CustomString": {
            "Value": "TalkSentence_503037013"
          }
        },
        {
          "$type": "RPG.GameCore.PlayAndWaitSimpleTalk",
          "SimpleTalkList": [
            {
              "TalkSentenceID": 503037013,
              "ProtectTime": 0.3
            }
          ]
        },
        {
          "$type": "RPG.GameCore.PlayOptionTalk",
          "OptionList": [
            {
              "TalkSentenceID": 503037014,
              "OptionIconType": "ChatContinueIcon",
              "TriggerCustomString": "TalkSentence_503037015"
            },
            {
              "TalkSentenceID": 503037017,
              "OptionIconType": "ChatContinueIcon",
              "TriggerCustomString": "TalkSentence_503037018"
            }
          ]
        }
      ]
    },
    {
      "TaskList": [
        {
          "$type": "RPG.GameCore.WaitCustomString",
          "CustomString": {
            "Value": "TalkSentence_503037015"
          }
        },
        {
          "$type": "RPG.GameCore.PlayAndWaitSimpleTalk",
          "SimpleTalkList": [
            {
              "TalkSentenceID": 503037015,
              "ProtectTime": 0.3
            },
            {
              "TalkSentenceID": 503037016
            }
          ]
        },
        {
          "$type": "RPG.GameCore.TriggerCustomString",
          "CustomString": {
            "Value": "TalkSentence_503037020"
          }
        }
      ]
    },
    {
      "TaskList": [
        {
          "$type": "RPG.GameCore.WaitCustomString",
          "CustomString": {
            "Value": "TalkSentence_503037018"
          }
        },
        {
          "$type": "RPG.GameCore.PlayAndWaitSimpleTalk",
          "SimpleTalkList": [
            {
              "TalkSentenceID": 503037018,
              "ProtectTime": 0.3
            },
            {
              "TalkSentenceID": 503037019
            }
          ]
        },
        {
          "$type": "RPG.GameCore.TriggerCustomString",
          "CustomString": {
            "Value": "TalkSentence_503037020"
          }
        }
      ]
    },
    {
      "TaskList": [
        {
          "$type": "RPG.GameCore.WaitCustomString",
          "CustomString": {
            "Value": "TalkSentence_503037020"
          }
        },
        {
          "$type": "RPG.GameCore.PlayAndWaitSimpleTalk",
          "SimpleTalkList": [
            {
              "TalkSentenceID": 503037020,
              "ProtectTime": 0.3
            }
          ]
        },
        {
          "$type": "RPG.GameCore.CharacterTriggerFreeStyle",
          "CharacterUniqueName": "103-400001",
          "StoryAvatarID": "NPC_Special_OrigamiBird_00",
          "StoryMotionID": 900090291
        },
        {
          "$type": "RPG.GameCore.PlayAndWaitSimpleTalk",
          "SimpleTalkList": [
            {
              "TalkSentenceID": 503037021,
              "ProtectTime": 0.3
            }
          ]
        },
        {
          "$type": "RPG.GameCore.EndPerformance"
        }
      ]
    },
    {
      "TaskList": [
        {
          "$type": "RPG.GameCore.WaitPerformanceEnd"
        },
        {
          "$type": "RPG.GameCore.FinishLevelGraph"
        }
      ]
    },
    {
      "TaskList": [
        {
          "$type": "RPG.GameCore.WaitCustomString",
          "CustomString": {
            "Value": "TalkSentence_503037244"
          }
        },
        {
          "$type": "RPG.GameCore.PlayAndWaitSimpleTalk",
          "SimpleTalkList": [
            {
              "TalkSentenceID": 503037244,
              "ProtectTime": 0.3
            }
          ]
        },
        {
          "$type": "RPG.GameCore.CharacterTriggerFreeStyle",
          "CharacterUniqueName": "103-400001",
          "StoryAvatarID": "NPC_Special_OrigamiBird_00",
          "StoryMotionID": 900090291
        },
        {
          "$type": "RPG.GameCore.PlayAndWaitSimpleTalk",
          "SimpleTalkList": [
            {
              "TalkSentenceID": 503037245,
              "ProtectTime": 0.3
            }
          ]
        },
        {
          "$type": "RPG.GameCore.EndPerformance"
        }
      ]
    },
    {
      "IsLoop": true,
      "TaskList": [
        {
          "$type": "RPG.GameCore.WaitCustomString",
          "CustomString": {
            "Value": "TalkSentence_503037242"
          }
        },
        {
          "$type": "RPG.GameCore.PlayAndWaitSimpleTalk",
          "SimpleTalkList": [
            {
              "TalkSentenceID": 503037242,
              "ProtectTime": 0.3
            }
          ]
        },
        {
          "$type": "RPG.GameCore.TriggerCustomString",
          "CustomString": {
            "Value": "Wait_Option_503037008_30"
          }
        }
      ]
    },
    {
      "IsLoop": true,
      "TaskList": [
        {
          "$type": "RPG.GameCore.WaitCustomString",
          "CustomString": {
            "Value": "Wait_Option_503037008_30"
          }
        },
        {
          "$type": "RPG.GameCore.PlayOptionTalk",
          "OptionList": [
            {
              "TalkSentenceID": 503037241,
              "OptionIconType": "ChatLoopIcon",
              "TriggerCustomString": "TalkSentence_503037242"
            },
            {
              "TalkSentenceID": 503037243,
              "OptionIconType": "ChatContinueIcon",
              "TriggerCustomString": "TalkSentence_503037244"
            }
          ],
          "HideSelected": true
        }
      ]
    },
    {
      "TaskList": [
        {
          "$type": "RPG.GameCore.WaitCustomString",
          "CustomString": {
            "Value": "TalkSentence_503037240"
          }
        },
        {
          "$type": "RPG.GameCore.PlayAndWaitSimpleTalk",
          "SimpleTalkList": [
            {
              "TalkSentenceID": 503037240,
              "ProtectTime": 0.3
            }
          ]
        },
        {
          "$type": "RPG.GameCore.TriggerCustomString",
          "CustomString": {
            "Value": "Wait_Option_503037008_30"
          }
        }
      ]
    },
    {
      "TaskList": [
        {
          "$type": "RPG.GameCore.WaitCustomString",
          "CustomString": {
            "Value": "TalkSentence_503037234"
          }
        },
        {
          "$type": "RPG.GameCore.PlayAndWaitSimpleTalk",
          "SimpleTalkList": [
            {
              "TalkSentenceID": 503037234,
              "ProtectTime": 0.3
            },
            {
              "TalkSentenceID": 503037235,
              "ProtectTime": 0.3
            },
            {
              "TalkSentenceID": 503037236,
              "ProtectTime": 0.3
            }
          ]
        },
        {
          "$type": "RPG.GameCore.PlayOptionTalk",
          "OptionList": [
            {
              "TalkSentenceID": 503037237,
              "OptionIconType": "ChatContinueIcon",
              "TriggerCustomString": "TalkSentence_503037240"
            }
          ]
        }
      ]
    },
    {
      "TaskList": [
        {
          "$type": "RPG.GameCore.WaitCustomString",
          "CustomString": {
            "Value": "TalkSentence_503037232"
          }
        },
        {
          "$type": "RPG.GameCore.PlayAndWaitSimpleTalk",
          "SimpleTalkList": [
            {
              "TalkSentenceID": 503037232,
              "ProtectTime": 0.3
            }
          ]
        },
        {
          "$type": "RPG.GameCore.PlayOptionTalk",
          "OptionList": [
            {
              "TalkSentenceID": 503037233,
              "OptionIconType": "ChatContinueIcon",
              "TriggerCustomString": "TalkSentence_503037234"
            }
          ]
        }
      ]
    },
    {
      "TaskList": [
        {
          "$type": "RPG.GameCore.WaitCustomString",
          "CustomString": {
            "Value": "TalkSentence_503037230"
          }
        },
        {
          "$type": "RPG.GameCore.PlayAndWaitSimpleTalk",
          "SimpleTalkList": [
            {
              "TalkSentenceID": 503037230,
              "ProtectTime": 0.3
            }
          ]
        },
        {
          "$type": "RPG.GameCore.PlayOptionTalk",
          "OptionList": [
            {
              "TalkSentenceID": 503037231,
              "OptionIconType": "ChatContinueIcon",
              "TriggerCustomString": "TalkSentence_503037232"
            },
            {
              "TalkSentenceID": 503037238,
              "OptionIconType": "ChatContinueIcon",
              "TriggerCustomString": "TalkSentence_503037240"
            }
          ]
        }
      ]
    }
  ]
}