{
  "DimensionList": [
    {
      "GroupList": [
        {
          "ID": 2,
          "PropList": [
            {
              "ID": 300003,
              "NavMap": {
                "MapLayerID": 1
              }
            },
            {
              "ID": 300001,
              "NavMap": {
                "MapLayerID": 1
              }
            }
          ],
          "AnchorList": [
            {
              "ID": 1,
              "NavMap": {
                "MapLayerID": 1
              }
            },
            {
              "ID": 2,
              "NavMap": {
                "MapLayerID": 1
              }
            }
          ],
          "RegionIDList": []
        },
        {
          "ID": 30,
          "PropList": [
            {
              "ID": 300001,
              "NavMap": {
                "MapLayerID": 1
              }
            },
            {
              "ID": 300002,
              "NavMap": {
                "MapLayerID": 1
              }
            },
            {
              "ID": 300003,
              "NavMap": {
                "MapLayerID": 1
              }
            }
          ],
          "RegionIDList": []
        },
        {
          "ID": 7,
          "PropList": [
            {
              "ID": 300001,
              "NavMap": {
                "MapLayerID": 1
              }
            }
          ],
          "AnchorList": [
            {
              "ID": 1,
              "NavMap": {
                "MapLayerID": 1
              }
            }
          ],
          "RegionIDList": []
        },
        {
          "ID": 3,
          "PropList": [
            {
              "ID": 300001,
              "NavMap": {
                "MapLayerID": 1
              }
            },
            {
              "ID": 300002,
              "NavMap": {
                "MapLayerID": 1
              }
            }
          ],
          "NPCList": [
            {
              "ID": 400001,
              "NavMap": {
                "MapLayerID": 1
              }
            },
            {
              "ID": 400002,
              "NavMap": {
                "MapLayerID": 1
              }
            },
            {
              "ID": 400003,
              "NavMap": {
                "MapLayerID": 1
              }
            }
          ],
          "AnchorList": [
            {
              "ID": 1,
              "NavMap": {
                "MapLayerID": 1
              }
            }
          ],
          "RegionIDList": []
        },
        {
          "ID": 40,
          "NPCList": [
            {
              "ID": 400002,
              "NavMap": {
                "MapLayerID": 1
              }
            },
            {
              "ID": 400003,
              "NavMap": {
                "MapLayerID": 1
              }
            },
            {
              "ID": 400001,
              "NavMap": {
                "MapLayerID": 1
              }
            }
          ],
          "AnchorList": [
            {
              "ID": 1,
              "NavMap": {
                "MapLayerID": 1
              }
            },
            {
              "ID": 2,
              "NavMap": {
                "MapLayerID": 1
              }
            },
            {
              "ID": 3,
              "NavMap": {
                "MapLayerID": 1
              }
            },
            {
              "ID": 4,
              "NavMap": {
                "MapLayerID": 1
              }
            },
            {
              "ID": 5,
              "NavMap": {
                "MapLayerID": 1
              }
            },
            {
              "ID": 6,
              "NavMap": {
                "MapLayerID": 1
              }
            },
            {
              "ID": 7,
              "NavMap": {
                "MapLayerID": 1
              }
            }
          ],
          "RegionIDList": []
        },
        {
          "ID": 4,
          "PropList": [
            {
              "ID": 300001,
              "NavMap": {
                "MapLayerID": 1
              }
            },
            {
              "ID": 300002,
              "NavMap": {
                "MapLayerID": 1
              }
            },
            {
              "ID": 300003,
              "NavMap": {
                "MapLayerID": 1
              }
            }
          ],
          "NPCList": [
            {
              "ID": 400002,
              "NavMap": {
                "MapLayerID": 1
              }
            },
            {
              "ID": 400001,
              "NavMap": {
                "MapLayerID": 1
              }
            },
            {
              "ID": 400003,
              "NavMap": {
                "MapLayerID": 1
              }
            },
            {
              "ID": 400004,
              "NavMap": {
                "MapLayerID": 1
              }
            }
          ],
          "AnchorList": [
            {
              "ID": 1,
              "NavMap": {
                "MapLayerID": 1
              }
            },
            {
              "ID": 2,
              "NavMap": {
                "MapLayerID": 1
              }
            }
          ],
          "RegionIDList": []
        },
        {
          "ID": 35,
          "NPCList": [
            {
              "ID": 400002,
              "NavMap": {
                "MapLayerID": 1
              }
            },
            {
              "ID": 400001,
              "NavMap": {
                "MapLayerID": 1
              }
            },
            {
              "ID": 400003,
              "NavMap": {
                "MapLayerID": 1
              }
            }
          ],
          "AnchorList": [
            {
              "ID": 1,
              "NavMap": {
                "MapLayerID": 1
              }
            }
          ],
          "RegionIDList": []
        },
        {
          "ID": 36,
          "NPCList": [
            {
              "ID": 400001,
              "NavMap": {
                "MapLayerID": 1
              }
            }
          ],
          "RegionIDList": []
        },
        {
          "ID": 24,
          "PropList": [
            {
              "ID": 300001,
              "NavMap": {
                "MapLayerID": 1
              }
            },
            {
              "ID": 300002,
              "NavMap": {
                "MapLayerID": 1
              }
            },
            {
              "ID": 300003,
              "NavMap": {
                "MapLayerID": 1
              }
            }
          ],
          "RegionIDList": []
        },
        {
          "ID": 16,
          "PropList": [
            {
              "ID": 300001,
              "NavMap": {
                "MapLayerID": 1
              }
            }
          ],
          "NPCList": [
            {
              "ID": 400002,
              "NavMap": {
                "MapLayerID": 1
              }
            },
            {
              "ID": 400003,
              "NavMap": {
                "MapLayerID": 1
              }
            },
            {
              "ID": 400004,
              "NavMap": {
                "MapLayerID": 1
              }
            },
            {
              "ID": 400005,
              "NavMap": {
                "MapLayerID": 1
              }
            }
          ],
          "AnchorList": [
            {
              "ID": 1,
              "NavMap": {
                "MapLayerID": 1
              }
            }
          ],
          "RegionIDList": []
        },
        {
          "ID": 17,
          "NPCList": [
            {
              "ID": 400001,
              "NavMap": {
                "MapLayerID": 1
              }
            },
            {
              "ID": 400002,
              "NavMap": {
                "MapLayerID": 1
              }
            },
            {
              "ID": 400003,
              "NavMap": {
                "MapLayerID": 1
              }
            },
            {
              "ID": 400004,
              "NavMap": {
                "MapLayerID": 1
              }
            },
            {
              "ID": 400005,
              "NavMap": {
                "MapLayerID": 1
              }
            }
          ],
          "AnchorList": [
            {
              "ID": 1,
              "NavMap": {
                "MapLayerID": 1
              }
            }
          ],
          "RegionIDList": []
        },
        {
          "ID": 1,
          "PropList": [
            {
              "ID": 300002,
              "NavMap": {
                "MapLayerID": 1
              }
            }
          ],
          "RegionIDList": []
        },
        {
          "ID": 25,
          "PropList": [
            {
              "ID": 300001,
              "NavMap": {
                "MapLayerID": 1
              }
            },
            {
              "ID": 300002,
              "NavMap": {
                "MapLayerID": 1
              }
            }
          ],
          "NPCList": [
            {
              "ID": 400001,
              "NavMap": {
                "MapLayerID": 1
              }
            },
            {
              "ID": 400002,
              "NavMap": {
                "MapLayerID": 1
              }
            },
            {
              "ID": 400003,
              "NavMap": {
                "MapLayerID": 1
              }
            },
            {
              "ID": 400004,
              "NavMap": {
                "MapLayerID": 1
              }
            }
          ],
          "RegionIDList": []
        },
        {
          "ID": 26,
          "PropList": [
            {
              "ID": 300001,
              "NavMap": {
                "MapLayerID": 1
              }
            }
          ],
          "NPCList": [
            {
              "ID": 400001,
              "NavMap": {
                "MapLayerID": 1
              }
            },
            {
              "ID": 400002,
              "NavMap": {
                "MapLayerID": 1
              }
            },
            {
              "ID": 400003,
              "NavMap": {
                "MapLayerID": 1
              }
            },
            {
              "ID": 400004,
              "NavMap": {
                "MapLayerID": 1
              }
            },
            {
              "ID": 400005,
              "NavMap": {
                "MapLayerID": 1
              }
            }
          ],
          "RegionIDList": []
        },
        {
          "ID": 27,
          "PropList": [
            {
              "ID": 300001,
              "NavMap": {
                "MapLayerID": 1
              }
            },
            {
              "ID": 300002,
              "NavMap": {
                "MapLayerID": 1
              }
            }
          ],
          "NPCList": [
            {
              "ID": 400001,
              "NavMap": {
                "MapLayerID": 1
              }
            },
            {
              "ID": 400002,
              "NavMap": {
                "MapLayerID": 1
              }
            },
            {
              "ID": 400003,
              "NavMap": {
                "MapLayerID": 1
              }
            }
          ],
          "RegionIDList": []
        },
        {
          "ID": 28,
          "PropList": [
            {
              "ID": 300001,
              "NavMap": {
                "MapLayerID": 1
              }
            }
          ],
          "AnchorList": [
            {
              "ID": 1,
              "NavMap": {
                "MapLayerID": 1
              }
            }
          ],
          "RegionIDList": []
        },
        {
          "ID": 29,
          "AnchorList": [
            {
              "ID": 1,
              "NavMap": {
                "MapLayerID": 1
              }
            }
          ],
          "RegionIDList": []
        },
        {
          "ID": 34,
          "NPCList": [
            {
              "ID": 400001,
              "NavMap": {
                "MapLayerID": 1
              }
            }
          ],
          "AnchorList": [
            {
              "ID": 1,
              "NavMap": {
                "MapLayerID": 1
              }
            }
          ],
          "RegionIDList": []
        },
        {
          "ID": 38,
          "AnchorList": [
            {
              "ID": 1,
              "NavMap": {
                "MapLayerID": 1
              }
            },
            {
              "ID": 2,
              "NavMap": {
                "MapLayerID": 1
              }
            },
            {
              "ID": 3,
              "NavMap": {
                "MapLayerID": 1
              }
            },
            {
              "ID": 4,
              "NavMap": {
                "MapLayerID": 1
              }
            },
            {
              "ID": 5,
              "NavMap": {
                "MapLayerID": 1
              }
            },
            {
              "ID": 6,
              "NavMap": {
                "MapLayerID": 1
              }
            },
            {
              "ID": 7,
              "NavMap": {
                "MapLayerID": 1
              }
            },
            {
              "ID": 8,
              "NavMap": {
                "MapLayerID": 1
              }
            },
            {
              "ID": 9,
              "NavMap": {
                "MapLayerID": 1
              }
            },
            {
              "ID": 10,
              "NavMap": {
                "MapLayerID": 1
              }
            }
          ],
          "RegionIDList": []
        },
        {
          "ID": 44,
          "PropList": [
            {
              "ID": 300001,
              "NavMap": {
                "MapLayerID": 1
              }
            },
            {
              "ID": 300002,
              "NavMap": {
                "MapLayerID": 1
              }
            }
          ],
          "NPCList": [
            {
              "ID": 400001,
              "NavMap": {
                "MapLayerID": 1
              }
            },
            {
              "ID": 400002,
              "NavMap": {
                "MapLayerID": 1
              }
            },
            {
              "ID": 400003,
              "NavMap": {
                "MapLayerID": 1
              }
            }
          ],
          "AnchorList": [
            {
              "ID": 1,
              "NavMap": {
                "MapLayerID": 1
              }
            },
            {
              "ID": 2,
              "NavMap": {
                "MapLayerID": 1
              }
            }
          ],
          "RegionIDList": []
        },
        {
          "ID": 47,
          "PropList": [
            {
              "ID": 300001,
              "NavMap": {
                "MapLayerID": 1
              }
            }
          ],
          "AnchorList": [
            {
              "ID": 1,
              "NavMap": {
                "MapLayerID": 1
              }
            }
          ],
          "RegionIDList": []
        },
        {
          "ID": 48,
          "PropList": [
            {
              "ID": 300001,
              "NavMap": {
                "MapLayerID": 1
              }
            },
            {
              "ID": 300002,
              "NavMap": {
                "MapLayerID": 1
              }
            },
            {
              "ID": 300003,
              "NavMap": {
                "MapLayerID": 1
              }
            },
            {
              "ID": 300004,
              "NavMap": {
                "MapLayerID": 1
              }
            },
            {
              "ID": 300005,
              "NavMap": {
                "MapLayerID": 1
              }
            },
            {
              "ID": 300006,
              "NavMap": {
                "MapLayerID": 1
              }
            },
            {
              "ID": 300007,
              "NavMap": {
                "MapLayerID": 1
              }
            },
            {
              "ID": 300008,
              "NavMap": {
                "MapLayerID": 1
              }
            }
          ],
          "NPCList": [
            {
              "ID": 400001,
              "NavMap": {
                "MapLayerID": 1
              }
            },
            {
              "ID": 400002,
              "NavMap": {
                "MapLayerID": 1
              }
            },
            {
              "ID": 400003,
              "NavMap": {
                "MapLayerID": 1
              }
            },
            {
              "ID": 400004,
              "NavMap": {
                "MapLayerID": 1
              }
            },
            {
              "ID": 400005,
              "NavMap": {
                "MapLayerID": 1
              }
            },
            {
              "ID": 400006,
              "NavMap": {
                "MapLayerID": 1
              }
            },
            {
              "ID": 400007,
              "NavMap": {
                "MapLayerID": 1
              }
            },
            {
              "ID": 400008,
              "NavMap": {
                "MapLayerID": 1
              }
            },
            {
              "ID": 400009,
              "NavMap": {
                "MapLayerID": 1
              }
            },
            {
              "ID": 400010,
              "NavMap": {
                "MapLayerID": 1
              }
            }
          ],
          "AnchorList": [
            {
              "ID": 1,
              "NavMap": {
                "MapLayerID": 1
              }
            },
            {
              "ID": 2,
              "NavMap": {
                "MapLayerID": 1
              }
            },
            {
              "ID": 3,
              "NavMap": {
                "MapLayerID": 1
              }
            },
            {
              "ID": 4,
              "NavMap": {
                "MapLayerID": 1
              }
            },
            {
              "ID": 5,
              "NavMap": {
                "MapLayerID": 1
              }
            },
            {
              "ID": 6,
              "NavMap": {
                "MapLayerID": 1
              }
            },
            {
              "ID": 7,
              "NavMap": {
                "MapLayerID": 1
              }
            },
            {
              "ID": 8,
              "NavMap": {
                "MapLayerID": 1
              }
            },
            {
              "ID": 9,
              "NavMap": {
                "MapLayerID": 1
              }
            },
            {
              "ID": 10,
              "NavMap": {
                "MapLayerID": 1
              }
            },
            {
              "ID": 11,
              "NavMap": {
                "MapLayerID": 1
              }
            },
            {
              "ID": 12,
              "NavMap": {
                "MapLayerID": 1
              }
            },
            {
              "ID": 13,
              "NavMap": {
                "MapLayerID": 1
              }
            }
          ],
          "RegionIDList": []
        },
        {
          "ID": 49,
          "NPCList": [
            {
              "ID": 400001,
              "NavMap": {
                "MapLayerID": 1
              }
            },
            {
              "ID": 400002,
              "NavMap": {
                "MapLayerID": 1
              }
            },
            {
              "ID": 400003,
              "NavMap": {
                "MapLayerID": 1
              }
            },
            {
              "ID": 400004,
              "NavMap": {
                "MapLayerID": 1
              }
            },
            {
              "ID": 400005,
              "NavMap": {
                "MapLayerID": 1
              }
            },
            {
              "ID": 400006,
              "NavMap": {
                "MapLayerID": 1
              }
            },
            {
              "ID": 400007,
              "NavMap": {
                "MapLayerID": 1
              }
            },
            {
              "ID": 400008,
              "NavMap": {
                "MapLayerID": 1
              }
            },
            {
              "ID": 400009,
              "NavMap": {
                "MapLayerID": 1
              }
            },
            {
              "ID": 400010,
              "NavMap": {
                "MapLayerID": 1
              }
            },
            {
              "ID": 400011,
              "NavMap": {
                "MapLayerID": 1
              }
            },
            {
              "ID": 400012,
              "NavMap": {
                "MapLayerID": 1
              }
            },
            {
              "ID": 400013,
              "NavMap": {
                "MapLayerID": 1
              }
            },
            {
              "ID": 400014,
              "NavMap": {
                "MapLayerID": 1
              }
            },
            {
              "ID": 400015,
              "NavMap": {
                "MapLayerID": 1
              }
            },
            {
              "ID": 400016,
              "NavMap": {
                "MapLayerID": 1
              }
            },
            {
              "ID": 400017,
              "NavMap": {
                "MapLayerID": 1
              }
            },
            {
              "ID": 400018,
              "NavMap": {
                "MapLayerID": 1
              }
            },
            {
              "ID": 400019,
              "NavMap": {
                "MapLayerID": 1
              }
            },
            {
              "ID": 400020,
              "NavMap": {
                "MapLayerID": 1
              }
            },
            {
              "ID": 400021,
              "NavMap": {
                "MapLayerID": 1
              }
            },
            {
              "ID": 400022,
              "NavMap": {
                "MapLayerID": 1
              }
            },
            {
              "ID": 400023,
              "NavMap": {
                "MapLayerID": 1
              }
            },
            {
              "ID": 400024,
              "NavMap": {
                "MapLayerID": 1
              }
            },
            {
              "ID": 400025,
              "NavMap": {
                "MapLayerID": 1
              }
            },
            {
              "ID": 400026,
              "NavMap": {
                "MapLayerID": 1
              }
            },
            {
              "ID": 400027,
              "NavMap": {
                "MapLayerID": 1
              }
            },
            {
              "ID": 400028,
              "NavMap": {
                "MapLayerID": 1
              }
            }
          ],
          "AnchorList": [
            {
              "ID": 1,
              "NavMap": {
                "MapLayerID": 1
              }
            },
            {
              "ID": 2,
              "NavMap": {
                "MapLayerID": 1
              }
            },
            {
              "ID": 3,
              "NavMap": {
                "MapLayerID": 1
              }
            },
            {
              "ID": 4,
              "NavMap": {
                "MapLayerID": 1
              }
            },
            {
              "ID": 5,
              "NavMap": {
                "MapLayerID": 1
              }
            },
            {
              "ID": 6,
              "NavMap": {
                "MapLayerID": 1
              }
            },
            {
              "ID": 7,
              "NavMap": {
                "MapLayerID": 1
              }
            }
          ],
          "RegionIDList": []
        },
        {
          "ID": 54,
          "PropList": [
            {
              "ID": 300002,
              "NavMap": {
                "MapLayerID": 1
              }
            }
          ],
          "RegionIDList": []
        },
        {
          "ID": 59,
          "NPCList": [
            {
              "ID": 400001,
              "NavMap": {
                "MapLayerID": 1
              }
            },
            {
              "ID": 400002,
              "NavMap": {
                "MapLayerID": 1
              }
            }
          ],
          "AnchorList": [
            {
              "ID": 1,
              "NavMap": {
                "MapLayerID": 1
              }
            }
          ],
          "RegionIDList": []
        },
        {
          "ID": 60,
          "PropList": [
            {
              "ID": 300001,
              "NavMap": {
                "MapLayerID": 1
              }
            },
            {
              "ID": 300002,
              "NavMap": {
                "MapLayerID": 1
              }
            },
            {
              "ID": 300003,
              "NavMap": {
                "MapLayerID": 1
              }
            },
            {
              "ID": 300004,
              "NavMap": {
                "MapLayerID": 1
              }
            },
            {
              "ID": 300005,
              "NavMap": {
                "MapLayerID": 1
              }
            },
            {
              "ID": 300006,
              "NavMap": {
                "MapLayerID": 1
              }
            },
            {
              "ID": 300007,
              "NavMap": {
                "MapLayerID": 1
              }
            },
            {
              "ID": 300008,
              "NavMap": {
                "MapLayerID": 1
              }
            },
            {
              "ID": 300009,
              "NavMap": {
                "MapLayerID": 1
              }
            },
            {
              "ID": 300010,
              "NavMap": {
                "MapLayerID": 1
              }
            },
            {
              "ID": 300011,
              "NavMap": {
                "MapLayerID": 1
              }
            },
            {
              "ID": 300012,
              "NavMap": {
                "MapLayerID": 1
              }
            }
          ],
          "AnchorList": [
            {
              "ID": 1,
              "NavMap": {
                "MapLayerID": 1
              }
            },
            {
              "ID": 2,
              "NavMap": {
                "MapLayerID": 1
              }
            },
            {
              "ID": 3,
              "NavMap": {
                "MapLayerID": 1
              }
            },
            {
              "ID": 4,
              "NavMap": {
                "MapLayerID": 1
              }
            },
            {
              "ID": 5,
              "NavMap": {
                "MapLayerID": 1
              }
            },
            {
              "ID": 6,
              "NavMap": {
                "MapLayerID": 1
              }
            },
            {
              "ID": 7,
              "NavMap": {
                "MapLayerID": 1
              }
            },
            {
              "ID": 8,
              "NavMap": {
                "MapLayerID": 1
              }
            }
          ],
          "RegionIDList": []
        },
        {
          "ID": 62,
          "NPCList": [
            {
              "ID": 400001,
              "NavMap": {
                "MapLayerID": 1
              }
            }
          ],
          "AnchorList": [
            {
              "ID": 1,
              "NavMap": {
                "MapLayerID": 1
              }
            },
            {
              "ID": 2,
              "NavMap": {
                "MapLayerID": 1
              }
            }
          ],
          "RegionIDList": []
        },
        {
          "ID": 64,
          "NPCList": [
            {
              "ID": 400001,
              "NavMap": {
                "MapLayerID": 1
              }
            }
          ],
          "AnchorList": [
            {
              "ID": 1,
              "NavMap": {
                "MapLayerID": 1
              }
            },
            {
              "ID": 2,
              "NavMap": {
                "MapLayerID": 1
              }
            },
            {
              "ID": 3,
              "NavMap": {
                "MapLayerID": 1
              }
            },
            {
              "ID": 4,
              "NavMap": {
                "MapLayerID": 1
              }
            }
          ],
          "RegionIDList": []
        },
        {
          "ID": 66,
          "PropList": [
            {
              "ID": 300001,
              "NavMap": {
                "MapLayerID": 1
              }
            },
            {
              "ID": 300002,
              "NavMap": {
                "MapLayerID": 1
              }
            }
          ],
          "RegionIDList": []
        },
        {
          "ID": 67,
          "NPCList": [
            {
              "ID": 400001,
              "NavMap": {
                "MapLayerID": 1
              }
            }
          ],
          "RegionIDList": []
        },
        {
          "ID": 68,
          "NPCList": [
            {
              "ID": 400001,
              "NavMap": {
                "MapLayerID": 1
              }
            }
          ],
          "RegionIDList": []
        },
        {
          "ID": 69,
          "NPCList": [
            {
              "ID": 400001,
              "NavMap": {
                "MapLayerID": 1
              }
            }
          ],
          "RegionIDList": []
        },
        {
          "ID": 70,
          "NPCList": [
            {
              "ID": 400001,
              "NavMap": {
                "MapLayerID": 1
              }
            }
          ],
          "AnchorList": [
            {
              "ID": 1,
              "NavMap": {
                "MapLayerID": 1
              }
            }
          ],
          "RegionIDList": []
        },
        {
          "ID": 71,
          "NPCList": [
            {
              "ID": 400001,
              "NavMap": {
                "MapLayerID": 1
              }
            }
          ],
          "AnchorList": [
            {
              "ID": 1,
              "NavMap": {
                "MapLayerID": 1
              }
            },
            {
              "ID": 2,
              "NavMap": {
                "MapLayerID": 1
              }
            },
            {
              "ID": 3,
              "NavMap": {
                "MapLayerID": 1
              }
            },
            {
              "ID": 4,
              "NavMap": {
                "MapLayerID": 1
              }
            },
            {
              "ID": 5,
              "NavMap": {
                "MapLayerID": 1
              }
            },
            {
              "ID": 6,
              "NavMap": {
                "MapLayerID": 1
              }
            }
          ],
          "RegionIDList": []
        },
        {
          "ID": 72,
          "PropList": [
            {
              "ID": 300002,
              "NavMap": {
                "MapLayerID": 1
              }
            }
          ],
          "NPCList": [
            {
              "ID": 400001,
              "NavMap": {
                "MapLayerID": 1
              }
            }
          ],
          "AnchorList": [
            {
              "ID": 1,
              "NavMap": {
                "MapLayerID": 1
              }
            }
          ],
          "RegionIDList": []
        },
        {
          "ID": 73,
          "PropList": [
            {
              "ID": 300002,
              "NavMap": {
                "MapLayerID": 1
              }
            },
            {
              "ID": 300003,
              "NavMap": {
                "MapLayerID": 1
              }
            },
            {
              "ID": 300004,
              "NavMap": {
                "MapLayerID": 1
              }
            }
          ],
          "NPCList": [
            {
              "ID": 400001,
              "NavMap": {
                "MapLayerID": 1
              }
            }
          ],
          "AnchorList": [
            {
              "ID": 1,
              "NavMap": {
                "MapLayerID": 1
              }
            }
          ],
          "RegionIDList": []
        },
        {
          "ID": 74,
          "NPCList": [
            {
              "ID": 400001,
              "NavMap": {
                "MapLayerID": 1
              }
            }
          ],
          "AnchorList": [
            {
              "ID": 1,
              "NavMap": {
                "MapLayerID": 1
              }
            },
            {
              "ID": 2,
              "NavMap": {
                "MapLayerID": 1
              }
            },
            {
              "ID": 3,
              "NavMap": {
                "MapLayerID": 1
              }
            }
          ],
          "RegionIDList": []
        },
        {
          "ID": 75,
          "NPCList": [
            {
              "ID": 400001,
              "NavMap": {
                "MapLayerID": 1
              }
            }
          ],
          "AnchorList": [
            {
              "ID": 1,
              "NavMap": {
                "MapLayerID": 1
              }
            }
          ],
          "RegionIDList": []
        },
        {
          "ID": 76,
          "NPCList": [
            {
              "ID": 400001,
              "NavMap": {
                "MapLayerID": 1
              }
            }
          ],
          "AnchorList": [
            {
              "ID": 1,
              "NavMap": {
                "MapLayerID": 1
              }
            }
          ],
          "RegionIDList": []
        },
        {
          "ID": 77,
          "PropList": [
            {
              "ID": 300005,
              "NavMap": {
                "MapLayerID": 1
              }
            }
          ],
          "NPCList": [
            {
              "ID": 400001,
              "NavMap": {
                "MapLayerID": 1
              }
            }
          ],
          "AnchorList": [
            {
              "ID": 1,
              "NavMap": {
                "MapLayerID": 1
              }
            }
          ],
          "RegionIDList": []
        },
        {
          "ID": 78,
          "NPCList": [
            {
              "ID": 400001,
              "NavMap": {
                "MapLayerID": 1
              }
            }
          ],
          "AnchorList": [
            {
              "ID": 1,
              "NavMap": {
                "MapLayerID": 1
              }
            }
          ],
          "RegionIDList": []
        },
        {
          "ID": 79,
          "NPCList": [
            {
              "ID": 400001,
              "NavMap": {
                "MapLayerID": 1
              }
            }
          ],
          "AnchorList": [
            {
              "ID": 1,
              "NavMap": {
                "MapLayerID": 1
              }
            }
          ],
          "RegionIDList": []
        },
        {
          "ID": 80,
          "NPCList": [
            {
              "ID": 400001,
              "NavMap": {
                "MapLayerID": 1
              }
            }
          ],
          "AnchorList": [
            {
              "ID": 1,
              "NavMap": {
                "MapLayerID": 1
              }
            },
            {
              "ID": 2,
              "NavMap": {
                "MapLayerID": 1
              }
            }
          ],
          "RegionIDList": []
        },
        {
          "ID": 81,
          "NPCList": [
            {
              "ID": 400001,
              "NavMap": {
                "MapLayerID": 1
              }
            }
          ],
          "RegionIDList": []
        },
        {
          "ID": 82,
          "NPCList": [
            {
              "ID": 400001,
              "NavMap": {
                "MapLayerID": 1
              }
            }
          ],
          "RegionIDList": []
        },
        {
          "ID": 83,
          "NPCList": [
            {
              "ID": 400001,
              "NavMap": {
                "MapLayerID": 1
              }
            }
          ],
          "RegionIDList": []
        },
        {
          "ID": 84,
          "NPCList": [
            {
              "ID": 400001,
              "NavMap": {
                "MapLayerID": 1
              }
            }
          ],
          "AnchorList": [
            {
              "ID": 1,
              "NavMap": {
                "MapLayerID": 1
              }
            },
            {
              "ID": 2,
              "NavMap": {
                "MapLayerID": 1
              }
            }
          ],
          "RegionIDList": []
        },
        {
          "ID": 85,
          "NPCList": [
            {
              "ID": 400001,
              "NavMap": {
                "MapLayerID": 1
              }
            }
          ],
          "AnchorList": [
            {
              "ID": 1,
              "NavMap": {
                "MapLayerID": 1
              }
            }
          ],
          "RegionIDList": []
        },
        {
          "ID": 86,
          "NPCList": [
            {
              "ID": 400001,
              "NavMap": {
                "MapLayerID": 1
              }
            }
          ],
          "RegionIDList": []
        },
        {
          "ID": 100,
          "PropList": [
            {
              "ID": 300001,
              "NavMap": {
                "MapLayerID": 1
              }
            }
          ],
          "NPCList": [
            {
              "ID": 400001,
              "NavMap": {
                "MapLayerID": 1
              }
            }
          ],
          "RegionIDList": []
        },
        {
          "ID": 101,
          "PropList": [
            {
              "ID": 300001,
              "NavMap": {
                "MapLayerID": 1
              }
            }
          ],
          "NPCList": [
            {
              "ID": 400001,
              "NavMap": {
                "MapLayerID": 1
              }
            }
          ],
          "RegionIDList": []
        },
        {
          "ID": 102,
          "PropList": [
            {
              "ID": 300001,
              "NavMap": {
                "MapLayerID": 1
              }
            },
            {
              "ID": 300002,
              "NavMap": {
                "MapLayerID": 1
              }
            },
            {
              "ID": 300003,
              "NavMap": {
                "MapLayerID": 1
              }
            }
          ],
          "NPCList": [
            {
              "ID": 400001,
              "NavMap": {
                "MapLayerID": 1
              }
            }
          ],
          "RegionIDList": []
        },
        {
          "ID": 103,
          "PropList": [
            {
              "ID": 300001,
              "NavMap": {
                "MapLayerID": 1
              }
            },
            {
              "ID": 300002,
              "NavMap": {
                "MapLayerID": 1
              }
            },
            {
              "ID": 300003,
              "NavMap": {
                "MapLayerID": 1
              }
            }
          ],
          "NPCList": [
            {
              "ID": 400001,
              "NavMap": {
                "MapLayerID": 1
              }
            }
          ],
          "RegionIDList": []
        },
        {
          "ID": 104,
          "PropList": [
            {
              "ID": 300001,
              "NavMap": {
                "MapLayerID": 1
              }
            },
            {
              "ID": 300002,
              "NavMap": {
                "MapLayerID": 1
              }
            },
            {
              "ID": 300003,
              "NavMap": {
                "MapLayerID": 1
              }
            }
          ],
          "NPCList": [
            {
              "ID": 400001,
              "NavMap": {
                "MapLayerID": 1
              }
            }
          ],
          "AnchorList": [
            {
              "ID": 1,
              "NavMap": {
                "MapLayerID": 1
              }
            }
          ],
          "RegionIDList": []
        },
        {
          "ID": 105,
          "PropList": [
            {
              "ID": 300001,
              "NavMap": {
                "MapLayerID": 1
              }
            }
          ],
          "NPCList": [
            {
              "ID": 400001,
              "NavMap": {
                "MapLayerID": 1
              }
            }
          ],
          "RegionIDList": []
        },
        {
          "ID": 110,
          "PropList": [
            {
              "ID": 300002,
              "NavMap": {
                "MapLayerID": 1
              }
            }
          ],
          "NPCList": [
            {
              "ID": 400001,
              "NavMap": {
                "MapLayerID": 1
              }
            }
          ],
          "AnchorList": [
            {
              "ID": 1,
              "NavMap": {
                "MapLayerID": 1
              }
            }
          ],
          "RegionIDList": []
        },
        {
          "ID": 111,
          "PropList": [
            {
              "ID": 300002,
              "NavMap": {
                "MapLayerID": 1
              }
            },
            {
              "ID": 300003,
              "NavMap": {
                "MapLayerID": 1
              }
            },
            {
              "ID": 300004,
              "NavMap": {
                "MapLayerID": 1
              }
            }
          ],
          "NPCList": [
            {
              "ID": 400001,
              "NavMap": {
                "MapLayerID": 1
              }
            }
          ],
          "AnchorList": [
            {
              "ID": 1,
              "NavMap": {
                "MapLayerID": 1
              }
            }
          ],
          "RegionIDList": []
        },
        {
          "ID": 112,
          "PropList": [
            {
              "ID": 300005,
              "NavMap": {
                "MapLayerID": 1
              }
            }
          ],
          "NPCList": [
            {
              "ID": 400001,
              "NavMap": {
                "MapLayerID": 1
              }
            }
          ],
          "AnchorList": [
            {
              "ID": 1,
              "NavMap": {
                "MapLayerID": 1
              }
            }
          ],
          "RegionIDList": []
        },
        {
          "ID": 117,
          "NPCList": [
            {
              "ID": 400001,
              "NavMap": {
                "MapLayerID": 1
              }
            }
          ],
          "RegionIDList": []
        },
        {
          "ID": 96,
          "NPCList": [
            {
              "ID": 400002,
              "NavMap": {
                "MapLayerID": 1
              }
            }
          ],
          "RegionIDList": []
        },
        {
          "ID": 97,
          "NPCList": [
            {
              "ID": 400002,
              "NavMap": {
                "MapLayerID": 1
              }
            }
          ],
          "RegionIDList": []
        },
        {
          "ID": 119,
          "NPCList": [
            {
              "ID": 400001,
              "NavMap": {
                "MapLayerID": 1
              }
            }
          ],
          "RegionIDList": []
        },
        {
          "ID": 88,
          "NPCList": [
            {
              "ID": 400002,
              "NavMap": {
                "MapLayerID": 1
              }
            }
          ],
          "RegionIDList": []
        },
        {
          "ID": 89,
          "NPCList": [
            {
              "ID": 400002,
              "NavMap": {
                "MapLayerID": 1
              }
            }
          ],
          "RegionIDList": []
        },
        {
          "ID": 90,
          "NPCList": [
            {
              "ID": 400002,
              "NavMap": {
                "MapLayerID": 1
              }
            }
          ],
          "RegionIDList": []
        },
        {
          "ID": 91,
          "NPCList": [
            {
              "ID": 400002,
              "NavMap": {
                "MapLayerID": 1
              }
            }
          ],
          "RegionIDList": []
        },
        {
          "ID": 92,
          "NPCList": [
            {
              "ID": 400002,
              "NavMap": {
                "MapLayerID": 1
              }
            }
          ],
          "RegionIDList": []
        },
        {
          "ID": 93,
          "NPCList": [
            {
              "ID": 400002,
              "NavMap": {
                "MapLayerID": 1
              }
            }
          ],
          "RegionIDList": []
        },
        {
          "ID": 94,
          "NPCList": [
            {
              "ID": 400002,
              "NavMap": {
                "MapLayerID": 1
              }
            }
          ],
          "RegionIDList": []
        },
        {
          "ID": 95,
          "NPCList": [
            {
              "ID": 400002,
              "NavMap": {
                "MapLayerID": 1
              }
            }
          ],
          "RegionIDList": []
        },
        {
          "ID": 98,
          "PropList": [
            {
              "ID": 300001,
              "NavMap": {
                "MapLayerID": 1
              }
            }
          ],
          "NPCList": [
            {
              "ID": 400001,
              "NavMap": {
                "MapLayerID": 1
              }
            },
            {
              "ID": 400002,
              "NavMap": {
                "MapLayerID": 1
              }
            }
          ],
          "RegionIDList": []
        },
        {
          "ID": 122,
          "NPCList": [
            {
              "ID": 400001,
              "NavMap": {
                "MapLayerID": 1
              }
            }
          ],
          "RegionIDList": []
        },
        {
          "ID": 123,
          "NPCList": [
            {
              "ID": 400001,
              "NavMap": {
                "MapLayerID": 1
              }
            }
          ],
          "RegionIDList": []
        },
        {
          "ID": 124,
          "NPCList": [
            {
              "ID": 400001,
              "NavMap": {
                "MapLayerID": 1
              }
            }
          ],
          "RegionIDList": []
        },
        {
          "ID": 125,
          "NPCList": [
            {
              "ID": 400001,
              "NavMap": {
                "MapLayerID": 1
              }
            }
          ],
          "RegionIDList": []
        },
        {
          "ID": 127,
          "PropList": [
            {
              "ID": 300001,
              "NavMap": {
                "MapLayerID": 1
              }
            },
            {
              "ID": 300002,
              "NavMap": {
                "MapLayerID": 1
              }
            },
            {
              "ID": 300003,
              "NavMap": {
                "MapLayerID": 1
              }
            },
            {
              "ID": 300004,
              "NavMap": {
                "MapLayerID": 1
              }
            }
          ],
          "RegionIDList": []
        },
        {
          "ID": 128,
          "NPCList": [
            {
              "ID": 400001,
              "NavMap": {
                "MapLayerID": 1
              }
            },
            {
              "ID": 400002,
              "NavMap": {
                "MapLayerID": 1
              }
            },
            {
              "ID": 400003,
              "NavMap": {
                "MapLayerID": 1
              }
            }
          ],
          "AnchorList": [
            {
              "ID": 1,
              "NavMap": {
                "MapLayerID": 1
              }
            },
            {
              "ID": 2,
              "NavMap": {
                "MapLayerID": 1
              }
            }
          ],
          "RegionIDList": []
        },
        {
          "ID": 131,
          "PropList": [
            {
              "ID": 300001,
              "NavMap": {
                "MapLayerID": 1
              }
            }
          ],
          "RegionIDList": []
        },
        {
          "ID": 132,
          "NPCList": [
            {
              "ID": 400001,
              "NavMap": {
                "MapLayerID": 1
              }
            },
            {
              "ID": 400002,
              "NavMap": {
                "MapLayerID": 1
              }
            },
            {
              "ID": 400003,
              "NavMap": {
                "MapLayerID": 1
              }
            }
          ],
          "RegionIDList": []
        },
        {
          "ID": 133,
          "ConflictSpatialInfo": {
            "CompactGridList": [
              -1,
              1,
              0,
              1
            ],
            "LowerUpperBounds": {
              "x": -1
            }
          },
          "StreamingSpatialInfo": {
            "CompactGridList": [
              -1,
              1,
              0,
              1
            ],
            "LowerUpperBounds": {
              "x": -1
            }
          },
          "PropList": [
            {
              "ID": 300001,
              "NavMap": {
                "MapLayerID": 1
              }
            },
            {
              "ID": 300002,
              "NavMap": {
                "MapLayerID": 1
              }
            }
          ],
          "NPCList": [
            {
              "ID": 400001,
              "NavMap": {
                "MapLayerID": 1
              }
            },
            {
              "ID": 400002,
              "NavMap": {
                "MapLayerID": 1
              }
            },
            {
              "ID": 400003,
              "NavMap": {
                "MapLayerID": 1
              }
            }
          ],
          "AnchorList": [
            {
              "ID": 1,
              "NavMap": {
                "MapLayerID": 1
              }
            },
            {
              "ID": 2,
              "NavMap": {
                "MapLayerID": 1
              }
            },
            {
              "ID": 3,
              "NavMap": {
                "MapLayerID": 1
              }
            }
          ],
          "RegionIDList": []
        },
        {
          "ID": 134,
          "ConflictSpatialInfo": {
            "CompactGridList": [
              -2,
              -2,
              -1,
              -2,
              2,
              -2,
              1,
              0
            ],
            "LowerUpperBounds": {
              "x": -1,
              "y": 1
            }
          },
          "StreamingSpatialInfo": {
            "CompactGridList": [
              -2,
              -2,
              -1,
              -2,
              2,
              -2,
              1,
              0
            ],
            "LowerUpperBounds": {
              "x": -1,
              "y": 1
            }
          },
          "NPCList": [
            {
              "ID": 400001,
              "NavMap": {
                "MapLayerID": 1
              }
            },
            {
              "ID": 400002,
              "NavMap": {
                "MapLayerID": 1
              }
            },
            {
              "ID": 400003,
              "NavMap": {
                "MapLayerID": 1
              }
            },
            {
              "ID": 400004,
              "NavMap": {
                "MapLayerID": 1
              }
            },
            {
              "ID": 400005,
              "NavMap": {
                "MapLayerID": 1
              }
            }
          ],
          "RegionIDList": []
        },
        {
          "ID": 135,
          "NPCList": [
            {
              "ID": 400001,
              "NavMap": {
                "MapLayerID": 1
              }
            },
            {
              "ID": 400002,
              "NavMap": {
                "MapLayerID": 1
              }
            }
          ],
          "RegionIDList": []
        },
        {
          "ID": 136,
          "ConflictSpatialInfo": {
            "CompactGridList": [],
            "LowerUpperBounds": {}
          },
          "StreamingSpatialInfo": {
            "CompactGridList": [
              -1,
              1
            ],
            "LowerUpperBounds": {
              "x": 3,
              "y": 4
            }
          },
          "PropList": [
            {
              "ID": 300001,
              "NavMap": {
                "MapLayerID": 1
              }
            }
          ],
          "AnchorList": [
            {
              "ID": 1,
              "NavMap": {
                "MapLayerID": 1
              }
            }
          ],
          "RegionIDList": []
        },
        {
          "ID": 137,
          "ConflictSpatialInfo": {
            "CompactGridList": [
              2,
              -4,
              -3,
              4
            ],
            "LowerUpperBounds": {
              "x": -1,
              "y": 1
            }
          },
          "StreamingSpatialInfo": {
            "CompactGridList": [
              2,
              -4,
              -3,
              -1,
              -3,
              4
            ],
            "LowerUpperBounds": {
              "x": -1,
              "y": 1
            }
          },
          "PropList": [
            {
              "ID": 300001,
              "NavMap": {
                "MapLayerID": 1
              }
            }
          ],
          "NPCList": [
            {
              "ID": 400001,
              "NavMap": {
                "MapLayerID": 1
              }
            },
            {
              "ID": 400002,
              "NavMap": {
                "MapLayerID": 1
              }
            },
            {
              "ID": 400004,
              "NavMap": {
                "MapLayerID": 1
              }
            }
          ],
          "RegionIDList": []
        },
        {
          "ID": 138,
          "ConflictSpatialInfo": {
            "CompactGridList": [
              -1,
              -5,
              0,
              -5
            ],
            "LowerUpperBounds": {
              "y": 1
            }
          },
          "StreamingSpatialInfo": {
            "CompactGridList": [
              -1,
              -5,
              0,
              -5,
              -1,
              -4
            ],
            "LowerUpperBounds": {
              "x": -1,
              "y": 1
            }
          },
          "PropList": [
            {
              "ID": 300001,
              "NavMap": {
                "MapLayerID": 1
              }
            }
          ],
          "NPCList": [
            {
              "ID": 400002,
              "NavMap": {
                "MapLayerID": 1
              }
            },
            {
              "ID": 400003,
              "NavMap": {
                "MapLayerID": 1
              }
            },
            {
              "ID": 400004,
              "NavMap": {
                "MapLayerID": 1
              }
            },
            {
              "ID": 400001,
              "NavMap": {
                "MapLayerID": 1
              }
            }
          ],
          "RegionIDList": []
        },
        {
          "ID": 140,
          "ConflictSpatialInfo": {
            "CompactGridList": [],
            "LowerUpperBounds": {}
          },
          "StreamingSpatialInfo": {
            "CompactGridList": [
              -2,
              0
            ],
            "LowerUpperBounds": {
              "y": 1
            }
          },
          "PropList": [
            {
              "ID": 300001,
              "NavMap": {
                "MapLayerID": 1
              }
            },
            {
              "ID": 300002,
              "NavMap": {
                "MapLayerID": 1
              }
            }
          ],
          "RegionIDList": []
        },
        {
          "ID": 141,
          "ConflictSpatialInfo": {
            "CompactGridList": [],
            "LowerUpperBounds": {}
          },
          "StreamingSpatialInfo": {
            "CompactGridList": [
              2,
              -1
            ],
            "LowerUpperBounds": {
              "y": 1
            }
          },
          "PropList": [
            {
              "ID": 300001,
              "NavMap": {
                "MapLayerID": 1
              }
            }
          ],
          "RegionIDList": []
        },
        {
          "ID": 142,
          "ConflictSpatialInfo": {
            "CompactGridList": [],
            "LowerUpperBounds": {}
          },
          "StreamingSpatialInfo": {
            "CompactGridList": [
              -2,
              7
            ],
            "LowerUpperBounds": {
              "y": 1
            }
          },
          "PropList": [
            {
              "ID": 300001,
              "NavMap": {
                "MapLayerID": 1
              }
            }
          ],
          "RegionIDList": []
        },
        {
          "ID": 143,
          "ConflictSpatialInfo": {
            "CompactGridList": [
              1,
              2
            ],
            "LowerUpperBounds": {
              "y": 1
            }
          },
          "StreamingSpatialInfo": {
            "CompactGridList": [
              1,
              2
            ],
            "LowerUpperBounds": {
              "y": 1
            }
          },
          "NPCList": [
            {
              "ID": 400001,
              "NavMap": {
                "MapLayerID": 1
              }
            },
            {
              "ID": 400002,
              "NavMap": {
                "MapLayerID": 1
              }
            }
          ],
          "RegionIDList": []
        },
        {
          "ID": 144,
          "ConflictSpatialInfo": {
            "CompactGridList": [
              -2,
              -4
            ],
            "LowerUpperBounds": {
              "y": 1
            }
          },
          "StreamingSpatialInfo": {
            "CompactGridList": [
              -2,
              -4
            ],
            "LowerUpperBounds": {
              "y": 1
            }
          },
          "NPCList": [
            {
              "ID": 400001,
              "NavMap": {
                "MapLayerID": 1
              }
            }
          ],
          "RegionIDList": []
        },
        {
          "ID": 145,
          "ConflictSpatialInfo": {
            "CompactGridList": [
              -2,
              -4
            ],
            "LowerUpperBounds": {
              "y": 1
            }
          },
          "StreamingSpatialInfo": {
            "CompactGridList": [
              -2,
              -4
            ],
            "LowerUpperBounds": {
              "y": 1
            }
          },
          "NPCList": [
            {
              "ID": 400001,
              "NavMap": {
                "MapLayerID": 1
              }
            }
          ],
          "RegionIDList": []
        },
        {
          "ID": 146,
          "ConflictSpatialInfo": {
            "CompactGridList": [],
            "LowerUpperBounds": {}
          },
          "StreamingSpatialInfo": {
            "CompactGridList": [],
            "LowerUpperBounds": {}
          },
          "RegionIDList": []
        },
        {
          "ID": 152,
          "NPCList": [
            {
              "ID": 400001,
              "NavMap": {
                "MapLayerID": 1
              }
            },
            {
              "ID": 400004,
              "NavMap": {
                "MapLayerID": 1
              }
            },
            {
              "ID": 400002,
              "NavMap": {
                "MapLayerID": 1
              }
            },
            {
              "ID": 400003,
              "NavMap": {
                "MapLayerID": 1
              }
            }
          ],
          "AnchorList": [
            {
              "ID": 1,
              "NavMap": {
                "MapLayerID": 1
              }
            },
            {
              "ID": 2,
              "NavMap": {
                "MapLayerID": 1
              }
            },
            {
              "ID": 3,
              "NavMap": {
                "MapLayerID": 1
              }
            }
          ],
          "RegionIDList": []
        },
        {
          "ID": 153,
          "ConflictSpatialInfo": {
            "CompactGridList": [],
            "LowerUpperBounds": {}
          },
          "StreamingSpatialInfo": {
            "CompactGridList": [
              -4,
              4
            ],
            "LowerUpperBounds": {
              "y": 1
            }
          },
          "PropList": [
            {
              "ID": 300001,
              "NavMap": {
                "MapLayerID": 1
              }
            }
          ],
          "RegionIDList": []
        },
        {
          "ID": 154,
          "ConflictSpatialInfo": {
            "CompactGridList": [
              -3,
              4
            ],
            "LowerUpperBounds": {
              "x": -1
            }
          },
          "StreamingSpatialInfo": {
            "CompactGridList": [
              -3,
              4
            ],
            "LowerUpperBounds": {
              "x": -1
            }
          },
          "NPCList": [
            {
              "ID": 400001,
              "NavMap": {
                "MapLayerID": 1
              }
            }
          ],
          "RegionIDList": []
        },
        {
          "ID": 155,
          "ConflictSpatialInfo": {
            "CompactGridList": [
              1,
              -4,
              -3,
              -1,
              1,
              1
            ],
            "LowerUpperBounds": {
              "y": 1
            }
          },
          "StreamingSpatialInfo": {
            "CompactGridList": [
              1,
              -4,
              -3,
              -1,
              1,
              1
            ],
            "LowerUpperBounds": {
              "y": 1
            }
          },
          "PropList": [
            {
              "ID": 300001,
              "NavMap": {
                "MapLayerID": 1
              }
            },
            {
              "ID": 300002,
              "NavMap": {
                "MapLayerID": 1
              }
            },
            {
              "ID": 300003,
              "NavMap": {
                "MapLayerID": 1
              }
            }
          ],
          "NPCList": [
            {
              "ID": 400001,
              "NavMap": {
                "MapLayerID": 1
              }
            },
            {
              "ID": 400002,
              "NavMap": {
                "MapLayerID": 1
              }
            },
            {
              "ID": 400003,
              "NavMap": {
                "MapLayerID": 1
              }
            }
          ],
          "RegionIDList": []
        },
        {
          "ID": 156,
          "ConflictSpatialInfo": {
            "CompactGridList": [],
            "LowerUpperBounds": {}
          },
          "StreamingSpatialInfo": {
            "CompactGridList": [],
            "LowerUpperBounds": {}
          },
          "RegionIDList": []
        },
        {
          "ID": 157,
          "ConflictSpatialInfo": {
            "CompactGridList": [],
            "LowerUpperBounds": {}
          },
          "StreamingSpatialInfo": {
            "CompactGridList": [
              -4,
              4
            ],
            "LowerUpperBounds": {
              "y": 1
            }
          },
          "PropList": [
            {
              "ID": 300001,
              "NavMap": {
                "MapLayerID": 1
              }
            }
          ],
          "RegionIDList": []
        },
        {
          "ID": 158,
          "ConflictSpatialInfo": {
            "CompactGridList": [
              -3,
              4
            ],
            "LowerUpperBounds": {
              "x": -1
            }
          },
          "StreamingSpatialInfo": {
            "CompactGridList": [
              -4,
              4,
              -3,
              4
            ],
            "LowerUpperBounds": {
              "x": -1,
              "y": 1
            }
          },
          "PropList": [
            {
              "ID": 300001,
              "NavMap": {
                "MapLayerID": 1
              }
            }
          ],
          "NPCList": [
            {
              "ID": 400001,
              "NavMap": {
                "MapLayerID": 1
              }
            }
          ],
          "RegionIDList": []
        },
        {
          "ID": 159,
          "ConflictSpatialInfo": {
            "CompactGridList": [],
            "LowerUpperBounds": {}
          },
          "StreamingSpatialInfo": {
            "CompactGridList": [
              -4,
              4
            ],
            "LowerUpperBounds": {
              "y": 1
            }
          },
          "PropList": [
            {
              "ID": 300001,
              "NavMap": {
                "MapLayerID": 1
              }
            }
          ],
          "RegionIDList": []
        },
        {
          "ID": 160,
          "ConflictSpatialInfo": {
            "CompactGridList": [
              -3,
              4
            ],
            "LowerUpperBounds": {
              "x": -1
            }
          },
          "StreamingSpatialInfo": {
            "CompactGridList": [
              -3,
              4
            ],
            "LowerUpperBounds": {
              "x": -1
            }
          },
          "NPCList": [
            {
              "ID": 400001,
              "NavMap": {
                "MapLayerID": 1
              }
            }
          ],
          "RegionIDList": []
        },
        {
          "ID": 161,
          "ConflictSpatialInfo": {
            "CompactGridList": [],
            "LowerUpperBounds": {}
          },
          "StreamingSpatialInfo": {
            "CompactGridList": [
              -4,
              4
            ],
            "LowerUpperBounds": {
              "y": 1
            }
          },
          "PropList": [
            {
              "ID": 300001,
              "NavMap": {
                "MapLayerID": 1
              }
            }
          ],
          "RegionIDList": []
        },
        {
          "ID": 163,
          "ConflictSpatialInfo": {
            "CompactGridList": [
              1,
              2
            ],
            "LowerUpperBounds": {
              "y": 1
            }
          },
          "StreamingSpatialInfo": {
            "CompactGridList": [
              1,
              2
            ],
            "LowerUpperBounds": {
              "y": 1
            }
          },
          "NPCList": [
            {
              "ID": 400001,
              "NavMap": {
                "MapLayerID": 1
              }
            },
            {
              "ID": 400002,
              "NavMap": {
                "MapLayerID": 1
              }
            }
          ],
          "RegionIDList": []
        },
        {
          "ID": 164,
          "ConflictSpatialInfo": {
            "CompactGridList": [
              1,
              3
            ],
            "LowerUpperBounds": {
              "y": 1
            }
          },
          "StreamingSpatialInfo": {
            "CompactGridList": [
              1,
              3
            ],
            "LowerUpperBounds": {
              "y": 1
            }
          },
          "NPCList": [
            {
              "ID": 400001,
              "NavMap": {
                "MapLayerID": 1
              }
            }
          ],
          "RegionIDList": []
        },
        {
          "ID": 165,
          "ConflictSpatialInfo": {
            "CompactGridList": [],
            "LowerUpperBounds": {}
          },
          "StreamingSpatialInfo": {
            "CompactGridList": [],
            "LowerUpperBounds": {}
          },
          "AnchorList": [
            {
              "ID": 1,
              "NavMap": {
                "MapLayerID": 1
              }
            }
          ],
          "RegionIDList": []
        },
        {
          "ID": 166,
          "ConflictSpatialInfo": {
            "CompactGridList": [
              -3,
              3,
              -2,
              3,
              -3,
              4
            ],
            "LowerUpperBounds": {
              "x": -1,
              "y": 1
            }
          },
          "StreamingSpatialInfo": {
            "CompactGridList": [
              -3,
              3,
              -2,
              3,
              -3,
              4,
              -2,
              4
            ],
            "LowerUpperBounds": {
              "x": -1,
              "y": 1
            }
          },
          "PropList": [
            {
              "ID": 300001,
              "NavMap": {
                "MapLayerID": 1
              }
            }
          ],
          "NPCList": [
            {
              "ID": 400001,
              "NavMap": {
                "MapLayerID": 1
              }
            },
            {
              "ID": 400002,
              "NavMap": {
                "MapLayerID": 1
              }
            },
            {
              "ID": 400003,
              "NavMap": {
                "MapLayerID": 1
              }
            }
          ],
          "AnchorList": [
            {
              "ID": 1,
              "NavMap": {
                "MapLayerID": 1
              }
            }
          ],
          "RegionIDList": []
        },
        {
          "ID": 167,
          "ConflictSpatialInfo": {
            "CompactGridList": [
              1,
              -4,
              -2,
              -2,
              2,
              4,
              -3,
              6,
              -3,
              10,
              2,
              12
            ],
            "LowerUpperBounds": {
              "x": -1,
              "y": 1
            }
          },
          "StreamingSpatialInfo": {
            "CompactGridList": [
              1,
              -4,
              -2,
              -2,
              2,
              4,
              -3,
              6,
              -3,
              10,
              2,
              12
            ],
            "LowerUpperBounds": {
              "x": -1,
              "y": 1
            }
          },
          "NPCList": [
            {
              "ID": 400001,
              "NavMap": {
                "MapLayerID": 1
              }
            },
            {
              "ID": 400002,
              "NavMap": {
                "MapLayerID": 1
              }
            },
            {
              "ID": 400003,
              "NavMap": {
                "MapLayerID": 1
              }
            },
            {
              "ID": 400004,
              "NavMap": {
                "MapLayerID": 1
              }
            },
            {
              "ID": 400005,
              "NavMap": {
                "MapLayerID": 1
              }
            },
            {
              "ID": 400006,
              "NavMap": {
                "MapLayerID": 1
              }
            }
          ],
          "RegionIDList": []
        },
        {
          "ID": 168,
          "ConflictSpatialInfo": {
            "CompactGridList": [],
            "LowerUpperBounds": {}
          },
          "StreamingSpatialInfo": {
            "CompactGridList": [
              2,
              -5
            ],
            "LowerUpperBounds": {
              "y": 1
            }
          },
          "PropList": [
            {
              "ID": 300001,
              "NavMap": {
                "MapLayerID": 1
              }
            }
          ],
          "RegionIDList": []
        },
        {
          "ID": 172,
          "ConflictSpatialInfo": {
            "CompactGridList": [
              -3,
              -5
            ],
            "LowerUpperBounds": {
              "y": 1
            }
          },
          "StreamingSpatialInfo": {
            "CompactGridList": [
              -3,
              -5
            ],
            "LowerUpperBounds": {
              "y": 1
            }
          },
          "PropList": [
            {
              "ID": 300001,
              "NavMap": {
                "MapLayerID": 1
              }
            },
            {
              "ID": 300002,
              "NavMap": {
                "MapLayerID": 1
              }
            },
            {
              "ID": 300003,
              "NavMap": {
                "MapLayerID": 1
              }
            }
          ],
          "NPCList": [
            {
              "ID": 400001,
              "NavMap": {
                "MapLayerID": 1
              }
            }
          ],
          "RegionIDList": []
        },
        {
          "ID": 173,
          "ConflictSpatialInfo": {
            "CompactGridList": [],
            "LowerUpperBounds": {}
          },
          "StreamingSpatialInfo": {
            "CompactGridList": [],
            "LowerUpperBounds": {}
          },
          "RegionIDList": []
        },
        {
          "ID": 174,
          "ConflictSpatialInfo": {
            "CompactGridList": [],
            "LowerUpperBounds": {}
          },
          "StreamingSpatialInfo": {
            "CompactGridList": [
              -3,
              -5
            ],
            "LowerUpperBounds": {
              "y": 1
            }
          },
          "PropList": [
            {
              "ID": 300001,
              "NavMap": {
                "MapLayerID": 1
              }
            }
          ],
          "RegionIDList": []
        },
        {
          "ID": 175,
          "ConflictSpatialInfo": {
            "CompactGridList": [
              -3,
              -5
            ],
            "LowerUpperBounds": {
              "y": 1
            }
          },
          "StreamingSpatialInfo": {
            "CompactGridList": [
              -3,
              -5
            ],
            "LowerUpperBounds": {
              "y": 1
            }
          },
          "PropList": [
            {
              "ID": 300001,
              "NavMap": {
                "MapLayerID": 1
              }
            },
            {
              "ID": 300002,
              "NavMap": {
                "MapLayerID": 1
              }
            }
          ],
          "NPCList": [
            {
              "ID": 400001,
              "NavMap": {
                "MapLayerID": 1
              }
            }
          ],
          "RegionIDList": []
        },
        {
          "ID": 176,
          "ConflictSpatialInfo": {
            "CompactGridList": [
              -3,
              -5
            ],
            "LowerUpperBounds": {
              "x": -1,
              "y": 1
            }
          },
          "StreamingSpatialInfo": {
            "CompactGridList": [
              -3,
              -5
            ],
            "LowerUpperBounds": {
              "x": -1,
              "y": 1
            }
          },
          "PropList": [
            {
              "ID": 300001,
              "NavMap": {
                "MapLayerID": 1
              }
            }
          ],
          "NPCList": [
            {
              "ID": 400001,
              "NavMap": {
                "MapLayerID": 1
              }
            },
            {
              "ID": 400002,
              "NavMap": {
                "MapLayerID": 1
              }
            }
          ],
          "RegionIDList": []
        }
      ]
    },
    {
      "ID": 1,
      "GroupList": [
        {
          "ID": 2,
          "PropList": [
            {
              "ID": 300003,
              "NavMap": {
                "MapLayerID": 1
              }
            },
            {
              "ID": 300001,
              "NavMap": {
                "MapLayerID": 1
              }
            }
          ],
          "AnchorList": [
            {
              "ID": 1,
              "NavMap": {
                "MapLayerID": 1
              }
            },
            {
              "ID": 2,
              "NavMap": {
                "MapLayerID": 1
              }
            }
          ],
          "RegionIDList": []
        },
        {
          "ID": 3,
          "PropList": [
            {
              "ID": 300001,
              "NavMap": {
                "MapLayerID": 1
              }
            },
            {
              "ID": 300002,
              "NavMap": {
                "MapLayerID": 1
              }
            }
          ],
          "NPCList": [
            {
              "ID": 400001,
              "NavMap": {
                "MapLayerID": 1
              }
            },
            {
              "ID": 400002,
              "NavMap": {
                "MapLayerID": 1
              }
            },
            {
              "ID": 400003,
              "NavMap": {
                "MapLayerID": 1
              }
            }
          ],
          "AnchorList": [
            {
              "ID": 1,
              "NavMap": {
                "MapLayerID": 1
              }
            }
          ],
          "RegionIDList": []
        },
        {
          "ID": 38,
          "AnchorList": [
            {
              "ID": 1,
              "NavMap": {
                "MapLayerID": 1
              }
            },
            {
              "ID": 2,
              "NavMap": {
                "MapLayerID": 1
              }
            },
            {
              "ID": 3,
              "NavMap": {
                "MapLayerID": 1
              }
            },
            {
              "ID": 4,
              "NavMap": {
                "MapLayerID": 1
              }
            },
            {
              "ID": 5,
              "NavMap": {
                "MapLayerID": 1
              }
            },
            {
              "ID": 6,
              "NavMap": {
                "MapLayerID": 1
              }
            },
            {
              "ID": 7,
              "NavMap": {
                "MapLayerID": 1
              }
            },
            {
              "ID": 8,
              "NavMap": {
                "MapLayerID": 1
              }
            },
            {
              "ID": 9,
              "NavMap": {
                "MapLayerID": 1
              }
            },
            {
              "ID": 10,
              "NavMap": {
                "MapLayerID": 1
              }
            }
          ],
          "RegionIDList": []
        },
        {
          "ID": 49,
          "NPCList": [
            {
              "ID": 400001,
              "NavMap": {
                "MapLayerID": 1
              }
            },
            {
              "ID": 400002,
              "NavMap": {
                "MapLayerID": 1
              }
            },
            {
              "ID": 400003,
              "NavMap": {
                "MapLayerID": 1
              }
            },
            {
              "ID": 400004,
              "NavMap": {
                "MapLayerID": 1
              }
            },
            {
              "ID": 400005,
              "NavMap": {
                "MapLayerID": 1
              }
            },
            {
              "ID": 400006,
              "NavMap": {
                "MapLayerID": 1
              }
            },
            {
              "ID": 400007,
              "NavMap": {
                "MapLayerID": 1
              }
            },
            {
              "ID": 400008,
              "NavMap": {
                "MapLayerID": 1
              }
            },
            {
              "ID": 400009,
              "NavMap": {
                "MapLayerID": 1
              }
            },
            {
              "ID": 400010,
              "NavMap": {
                "MapLayerID": 1
              }
            },
            {
              "ID": 400011,
              "NavMap": {
                "MapLayerID": 1
              }
            },
            {
              "ID": 400012,
              "NavMap": {
                "MapLayerID": 1
              }
            },
            {
              "ID": 400013,
              "NavMap": {
                "MapLayerID": 1
              }
            },
            {
              "ID": 400014,
              "NavMap": {
                "MapLayerID": 1
              }
            },
            {
              "ID": 400015,
              "NavMap": {
                "MapLayerID": 1
              }
            },
            {
              "ID": 400016,
              "NavMap": {
                "MapLayerID": 1
              }
            },
            {
              "ID": 400017,
              "NavMap": {
                "MapLayerID": 1
              }
            },
            {
              "ID": 400018,
              "NavMap": {
                "MapLayerID": 1
              }
            },
            {
              "ID": 400019,
              "NavMap": {
                "MapLayerID": 1
              }
            },
            {
              "ID": 400020,
              "NavMap": {
                "MapLayerID": 1
              }
            },
            {
              "ID": 400021,
              "NavMap": {
                "MapLayerID": 1
              }
            },
            {
              "ID": 400022,
              "NavMap": {
                "MapLayerID": 1
              }
            },
            {
              "ID": 400023,
              "NavMap": {
                "MapLayerID": 1
              }
            },
            {
              "ID": 400024,
              "NavMap": {
                "MapLayerID": 1
              }
            },
            {
              "ID": 400025,
              "NavMap": {
                "MapLayerID": 1
              }
            },
            {
              "ID": 400026,
              "NavMap": {
                "MapLayerID": 1
              }
            },
            {
              "ID": 400027,
              "NavMap": {
                "MapLayerID": 1
              }
            },
            {
              "ID": 400028,
              "NavMap": {
                "MapLayerID": 1
              }
            }
          ],
          "AnchorList": [
            {
              "ID": 1,
              "NavMap": {
                "MapLayerID": 1
              }
            },
            {
              "ID": 2,
              "NavMap": {
                "MapLayerID": 1
              }
            },
            {
              "ID": 3,
              "NavMap": {
                "MapLayerID": 1
              }
            },
            {
              "ID": 4,
              "NavMap": {
                "MapLayerID": 1
              }
            },
            {
              "ID": 5,
              "NavMap": {
                "MapLayerID": 1
              }
            },
            {
              "ID": 6,
              "NavMap": {
                "MapLayerID": 1
              }
            },
            {
              "ID": 7,
              "NavMap": {
                "MapLayerID": 1
              }
            }
          ],
          "RegionIDList": []
        },
        {
          "ID": 142,
          "ConflictSpatialInfo": {
            "CompactGridList": [],
            "LowerUpperBounds": {}
          },
          "StreamingSpatialInfo": {
            "CompactGridList": [
              -2,
              7
            ],
            "LowerUpperBounds": {
              "y": 1
            }
          },
          "PropList": [
            {
              "ID": 300001,
              "NavMap": {
                "MapLayerID": 1
              }
            }
          ],
          "RegionIDList": []
        }
      ]
    },
    {
      "ID": 2,
      "GroupList": [
        {
          "ID": 2,
          "PropList": [
            {
              "ID": 300003,
              "NavMap": {
                "MapLayerID": 1
              }
            },
            {
              "ID": 300001,
              "NavMap": {
                "MapLayerID": 1
              }
            }
          ],
          "AnchorList": [
            {
              "ID": 1,
              "NavMap": {
                "MapLayerID": 1
              }
            },
            {
              "ID": 2,
              "NavMap": {
                "MapLayerID": 1
              }
            }
          ],
          "RegionIDList": []
        },
        {
          "ID": 3,
          "PropList": [
            {
              "ID": 300001,
              "NavMap": {
                "MapLayerID": 1
              }
            },
            {
              "ID": 300002,
              "NavMap": {
                "MapLayerID": 1
              }
            }
          ],
          "NPCList": [
            {
              "ID": 400001,
              "NavMap": {
                "MapLayerID": 1
              }
            },
            {
              "ID": 400002,
              "NavMap": {
                "MapLayerID": 1
              }
            },
            {
              "ID": 400003,
              "NavMap": {
                "MapLayerID": 1
              }
            }
          ],
          "AnchorList": [
            {
              "ID": 1,
              "NavMap": {
                "MapLayerID": 1
              }
            }
          ],
          "RegionIDList": []
        },
        {
          "ID": 38,
          "AnchorList": [
            {
              "ID": 1,
              "NavMap": {
                "MapLayerID": 1
              }
            },
            {
              "ID": 2,
              "NavMap": {
                "MapLayerID": 1
              }
            },
            {
              "ID": 3,
              "NavMap": {
                "MapLayerID": 1
              }
            },
            {
              "ID": 4,
              "NavMap": {
                "MapLayerID": 1
              }
            },
            {
              "ID": 5,
              "NavMap": {
                "MapLayerID": 1
              }
            },
            {
              "ID": 6,
              "NavMap": {
                "MapLayerID": 1
              }
            },
            {
              "ID": 7,
              "NavMap": {
                "MapLayerID": 1
              }
            },
            {
              "ID": 8,
              "NavMap": {
                "MapLayerID": 1
              }
            },
            {
              "ID": 9,
              "NavMap": {
                "MapLayerID": 1
              }
            },
            {
              "ID": 10,
              "NavMap": {
                "MapLayerID": 1
              }
            }
          ],
          "RegionIDList": []
        },
        {
          "ID": 49,
          "NPCList": [
            {
              "ID": 400001,
              "NavMap": {
                "MapLayerID": 1
              }
            },
            {
              "ID": 400002,
              "NavMap": {
                "MapLayerID": 1
              }
            },
            {
              "ID": 400003,
              "NavMap": {
                "MapLayerID": 1
              }
            },
            {
              "ID": 400004,
              "NavMap": {
                "MapLayerID": 1
              }
            },
            {
              "ID": 400005,
              "NavMap": {
                "MapLayerID": 1
              }
            },
            {
              "ID": 400006,
              "NavMap": {
                "MapLayerID": 1
              }
            },
            {
              "ID": 400007,
              "NavMap": {
                "MapLayerID": 1
              }
            },
            {
              "ID": 400008,
              "NavMap": {
                "MapLayerID": 1
              }
            },
            {
              "ID": 400009,
              "NavMap": {
                "MapLayerID": 1
              }
            },
            {
              "ID": 400010,
              "NavMap": {
                "MapLayerID": 1
              }
            },
            {
              "ID": 400011,
              "NavMap": {
                "MapLayerID": 1
              }
            },
            {
              "ID": 400012,
              "NavMap": {
                "MapLayerID": 1
              }
            },
            {
              "ID": 400013,
              "NavMap": {
                "MapLayerID": 1
              }
            },
            {
              "ID": 400014,
              "NavMap": {
                "MapLayerID": 1
              }
            },
            {
              "ID": 400015,
              "NavMap": {
                "MapLayerID": 1
              }
            },
            {
              "ID": 400016,
              "NavMap": {
                "MapLayerID": 1
              }
            },
            {
              "ID": 400017,
              "NavMap": {
                "MapLayerID": 1
              }
            },
            {
              "ID": 400018,
              "NavMap": {
                "MapLayerID": 1
              }
            },
            {
              "ID": 400019,
              "NavMap": {
                "MapLayerID": 1
              }
            },
            {
              "ID": 400020,
              "NavMap": {
                "MapLayerID": 1
              }
            },
            {
              "ID": 400021,
              "NavMap": {
                "MapLayerID": 1
              }
            },
            {
              "ID": 400022,
              "NavMap": {
                "MapLayerID": 1
              }
            },
            {
              "ID": 400023,
              "NavMap": {
                "MapLayerID": 1
              }
            },
            {
              "ID": 400024,
              "NavMap": {
                "MapLayerID": 1
              }
            },
            {
              "ID": 400025,
              "NavMap": {
                "MapLayerID": 1
              }
            },
            {
              "ID": 400026,
              "NavMap": {
                "MapLayerID": 1
              }
            },
            {
              "ID": 400027,
              "NavMap": {
                "MapLayerID": 1
              }
            },
            {
              "ID": 400028,
              "NavMap": {
                "MapLayerID": 1
              }
            }
          ],
          "AnchorList": [
            {
              "ID": 1,
              "NavMap": {
                "MapLayerID": 1
              }
            },
            {
              "ID": 2,
              "NavMap": {
                "MapLayerID": 1
              }
            },
            {
              "ID": 3,
              "NavMap": {
                "MapLayerID": 1
              }
            },
            {
              "ID": 4,
              "NavMap": {
                "MapLayerID": 1
              }
            },
            {
              "ID": 5,
              "NavMap": {
                "MapLayerID": 1
              }
            },
            {
              "ID": 6,
              "NavMap": {
                "MapLayerID": 1
              }
            },
            {
              "ID": 7,
              "NavMap": {
                "MapLayerID": 1
              }
            }
          ],
          "RegionIDList": []
        },
        {
          "ID": 142,
          "ConflictSpatialInfo": {
            "CompactGridList": [],
            "LowerUpperBounds": {}
          },
          "StreamingSpatialInfo": {
            "CompactGridList": [
              -2,
              7
            ],
            "LowerUpperBounds": {
              "y": 1
            }
          },
          "PropList": [
            {
              "ID": 300001,
              "NavMap": {
                "MapLayerID": 1
              }
            }
          ],
          "RegionIDList": []
        },
        {
          "ID": 170,
          "ConflictSpatialInfo": {
            "CompactGridList": [],
            "LowerUpperBounds": {}
          },
          "StreamingSpatialInfo": {
            "CompactGridList": [
              -4,
              -7
            ],
            "LowerUpperBounds": {
              "y": 1
            }
          },
          "PropList": [
            {
              "ID": 300001,
              "NavMap": {
                "MapLayerID": 1
              }
            }
          ],
          "RegionIDList": []
        },
        {
          "ID": 171,
          "ConflictSpatialInfo": {
            "CompactGridList": [],
            "LowerUpperBounds": {}
          },
          "StreamingSpatialInfo": {
            "CompactGridList": [],
            "LowerUpperBounds": {}
          },
          "RegionIDList": []
        }
      ]
    }
  ],
  "NavMesh": "Level/NavMesh/NavMesh-Floor_10000000.asset"
}