{
  "DimensionList": [
    {
      "GroupList": [
        {
          "ID": 2,
          "PropList": [
            {
              "ID": 300001,
              "NavMap": {
                "MapLayerID": 1
              }
            },
            {
              "ID": 300002,
              "NavMap": {
                "MapLayerID": 1
              }
            },
            {
              "ID": 300003,
              "NavMap": {
                "MapLayerID": 1
              }
            },
            {
              "ID": 300004,
              "NavMap": {
                "MapLayerID": 1
              }
            },
            {
              "ID": 300005,
              "NavMap": {
                "MapLayerID": 1
              }
            }
          ],
          "AnchorList": [
            {
              "ID": 1,
              "NavMap": {
                "MapLayerID": 1
              }
            }
          ],
          "RegionIDList": []
        },
        {
          "ID": 11,
          "PropList": [
            {
              "ID": 300001,
              "NavMap": {
                "MapLayerID": 1
              }
            },
            {
              "ID": 300002,
              "NavMap": {
                "MapLayerID": 1
              }
            }
          ],
          "AnchorList": [
            {
              "ID": 1,
              "NavMap": {
                "MapLayerID": 1
              }
            },
            {
              "ID": 2,
              "NavMap": {
                "MapLayerID": 1
              }
            },
            {
              "ID": 3,
              "NavMap": {
                "MapLayerID": 1
              }
            }
          ],
          "RegionIDList": []
        },
        {
          "ID": 3,
          "PropList": [
            {
              "ID": 300005,
              "NavMap": {
                "MapLayerID": 1
              }
            }
          ],
          "RegionIDList": []
        },
        {
          "ID": 4,
          "NPCList": [
            {
              "ID": 400001,
              "NavMap": {
                "MapLayerID": 1
              }
            }
          ],
          "AnchorList": [
            {
              "ID": 1,
              "NavMap": {
                "MapLayerID": 1
              }
            },
            {
              "ID": 2,
              "NavMap": {
                "MapLayerID": 1
              }
            }
          ],
          "RegionIDList": []
        },
        {
          "ID": 19,
          "PropList": [
            {
              "ID": 300001,
              "NavMap": {
                "MapLayerID": 1
              }
            },
            {
              "ID": 300002,
              "NavMap": {
                "MapLayerID": 1
              }
            },
            {
              "ID": 300003,
              "NavMap": {
                "MapLayerID": 1
              }
            },
            {
              "ID": 300004,
              "NavMap": {
                "MapLayerID": 1
              }
            },
            {
              "ID": 300005,
              "NavMap": {
                "MapLayerID": 1
              }
            },
            {
              "ID": 300006,
              "NavMap": {
                "MapLayerID": 1
              }
            },
            {
              "ID": 300007,
              "NavMap": {
                "MapLayerID": 1
              }
            },
            {
              "ID": 300008,
              "NavMap": {
                "MapLayerID": 1
              }
            },
            {
              "ID": 300009,
              "NavMap": {
                "MapLayerID": 1
              }
            },
            {
              "ID": 300010,
              "NavMap": {
                "MapLayerID": 1
              }
            }
          ],
          "RegionIDList": []
        },
        {
          "ID": 5,
          "PropList": [
            {
              "ID": 300001,
              "NavMap": {
                "MapLayerID": 1
              }
            },
            {
              "ID": 300002,
              "NavMap": {
                "MapLayerID": 1
              }
            },
            {
              "ID": 300003,
              "NavMap": {
                "MapLayerID": 1
              }
            },
            {
              "ID": 300004,
              "NavMap": {
                "MapLayerID": 1
              }
            },
            {
              "ID": 300005,
              "NavMap": {
                "MapLayerID": 1
              }
            },
            {
              "ID": 300006,
              "NavMap": {
                "MapLayerID": 1
              }
            },
            {
              "ID": 300007,
              "NavMap": {
                "MapLayerID": 1
              }
            },
            {
              "ID": 300008,
              "NavMap": {
                "MapLayerID": 1
              }
            },
            {
              "ID": 300009,
              "NavMap": {
                "MapLayerID": 1
              }
            },
            {
              "ID": 300010,
              "NavMap": {
                "MapLayerID": 1
              }
            },
            {
              "ID": 300011,
              "NavMap": {
                "MapLayerID": 1
              }
            },
            {
              "ID": 300012,
              "NavMap": {
                "MapLayerID": 1
              }
            },
            {
              "ID": 300013,
              "NavMap": {
                "MapLayerID": 1
              }
            },
            {
              "ID": 300014,
              "NavMap": {
                "MapLayerID": 1
              }
            }
          ],
          "NPCList": [
            {
              "ID": 400006,
              "NavMap": {
                "MapLayerID": 1
              }
            },
            {
              "ID": 400016,
              "NavMap": {
                "MapLayerID": 1
              }
            },
            {
              "ID": 400017,
              "NavMap": {
                "MapLayerID": 1
              }
            },
            {
              "ID": 400018,
              "NavMap": {
                "MapLayerID": 1
              }
            },
            {
              "ID": 400019,
              "NavMap": {
                "MapLayerID": 1
              }
            },
            {
              "ID": 400020,
              "NavMap": {
                "MapLayerID": 1
              }
            },
            {
              "ID": 400021,
              "NavMap": {
                "MapLayerID": 1
              }
            },
            {
              "ID": 400022,
              "NavMap": {
                "MapLayerID": 1
              }
            },
            {
              "ID": 400023,
              "NavMap": {
                "MapLayerID": 1
              }
            },
            {
              "ID": 400024,
              "NavMap": {
                "MapLayerID": 1
              }
            },
            {
              "ID": 400025,
              "NavMap": {
                "MapLayerID": 1
              }
            },
            {
              "ID": 400026,
              "NavMap": {
                "MapLayerID": 1
              }
            },
            {
              "ID": 400001,
              "NavMap": {
                "MapLayerID": 1
              }
            },
            {
              "ID": 400002,
              "NavMap": {
                "MapLayerID": 1
              }
            },
            {
              "ID": 400003,
              "NavMap": {
                "MapLayerID": 1
              }
            },
            {
              "ID": 400004,
              "NavMap": {
                "MapLayerID": 1
              }
            },
            {
              "ID": 400005,
              "NavMap": {
                "MapLayerID": 1
              }
            },
            {
              "ID": 400007,
              "NavMap": {
                "MapLayerID": 1
              }
            },
            {
              "ID": 400008,
              "NavMap": {
                "MapLayerID": 1
              }
            },
            {
              "ID": 400009,
              "NavMap": {
                "MapLayerID": 1
              }
            }
          ],
          "AnchorList": [
            {
              "ID": 1,
              "NavMap": {
                "MapLayerID": 1
              }
            },
            {
              "ID": 2,
              "NavMap": {
                "MapLayerID": 1
              }
            },
            {
              "ID": 3,
              "NavMap": {
                "MapLayerID": 1
              }
            },
            {
              "ID": 4,
              "NavMap": {
                "MapLayerID": 1
              }
            },
            {
              "ID": 5,
              "NavMap": {
                "MapLayerID": 1
              }
            },
            {
              "ID": 6,
              "NavMap": {
                "MapLayerID": 1
              }
            }
          ],
          "RegionIDList": []
        },
        {
          "ID": 15,
          "PropList": [
            {
              "ID": 300001,
              "NavMap": {
                "MapLayerID": 1
              }
            },
            {
              "ID": 300002,
              "NavMap": {
                "MapLayerID": 1
              }
            },
            {
              "ID": 300003,
              "NavMap": {
                "MapLayerID": 1
              }
            },
            {
              "ID": 300004,
              "NavMap": {
                "MapLayerID": 1
              }
            },
            {
              "ID": 300005,
              "NavMap": {
                "MapLayerID": 1
              }
            }
          ],
          "NPCList": [
            {
              "ID": 400001,
              "NavMap": {
                "MapLayerID": 1
              }
            }
          ],
          "RegionIDList": []
        },
        {
          "ID": 28,
          "NPCList": [
            {
              "ID": 400001,
              "NavMap": {
                "MapLayerID": 1
              }
            },
            {
              "ID": 400002,
              "NavMap": {
                "MapLayerID": 1
              }
            }
          ],
          "RegionIDList": []
        },
        {
          "ID": 9,
          "PropList": [
            {
              "ID": 300001,
              "NavMap": {
                "MapLayerID": 1
              }
            }
          ],
          "NPCList": [
            {
              "ID": 400001,
              "NavMap": {
                "MapLayerID": 1
              }
            },
            {
              "ID": 400002,
              "NavMap": {
                "MapLayerID": 1
              }
            }
          ],
          "RegionIDList": []
        },
        {
          "ID": 10,
          "NPCList": [
            {
              "ID": 400001,
              "NavMap": {
                "MapLayerID": 1
              }
            }
          ],
          "RegionIDList": []
        },
        {
          "ID": 61,
          "NPCList": [
            {
              "ID": 400001,
              "NavMap": {
                "MapLayerID": 1
              }
            }
          ],
          "RegionIDList": []
        },
        {
          "ID": 33,
          "NPCList": [
            {
              "ID": 400001,
              "NavMap": {
                "MapLayerID": 1
              }
            }
          ],
          "RegionIDList": []
        },
        {
          "ID": 6,
          "PropList": [
            {
              "ID": 300001,
              "NavMap": {
                "MapLayerID": 1
              }
            }
          ],
          "NPCList": [
            {
              "ID": 400001,
              "NavMap": {
                "MapLayerID": 1
              }
            },
            {
              "ID": 400002,
              "NavMap": {
                "MapLayerID": 1
              }
            },
            {
              "ID": 400003,
              "NavMap": {
                "MapLayerID": 1
              }
            },
            {
              "ID": 400004,
              "NavMap": {
                "MapLayerID": 1
              }
            },
            {
              "ID": 400005,
              "NavMap": {
                "MapLayerID": 1
              }
            },
            {
              "ID": 400006,
              "NavMap": {
                "MapLayerID": 1
              }
            },
            {
              "ID": 400007,
              "NavMap": {
                "MapLayerID": 1
              }
            },
            {
              "ID": 400008,
              "NavMap": {
                "MapLayerID": 1
              }
            },
            {
              "ID": 400009,
              "NavMap": {
                "MapLayerID": 1
              }
            }
          ],
          "AnchorList": [
            {
              "ID": 1,
              "NavMap": {
                "MapLayerID": 1
              }
            },
            {
              "ID": 2,
              "NavMap": {
                "MapLayerID": 1
              }
            }
          ],
          "RegionIDList": []
        },
        {
          "ID": 8,
          "NPCList": [
            {
              "ID": 400001,
              "NavMap": {
                "MapLayerID": 1
              }
            }
          ],
          "RegionIDList": []
        },
        {
          "ID": 20,
          "PropList": [
            {
              "ID": 300001,
              "NavMap": {
                "MapLayerID": 1
              }
            },
            {
              "ID": 300002,
              "NavMap": {
                "MapLayerID": 1
              }
            },
            {
              "ID": 300003,
              "NavMap": {
                "MapLayerID": 1
              }
            },
            {
              "ID": 300004,
              "NavMap": {
                "MapLayerID": 1
              }
            },
            {
              "ID": 300005,
              "NavMap": {
                "MapLayerID": 1
              }
            },
            {
              "ID": 300006,
              "NavMap": {
                "MapLayerID": 1
              }
            },
            {
              "ID": 300007,
              "NavMap": {
                "MapLayerID": 1
              }
            },
            {
              "ID": 300008,
              "NavMap": {
                "MapLayerID": 1
              }
            },
            {
              "ID": 300009,
              "NavMap": {
                "MapLayerID": 1
              }
            },
            {
              "ID": 300010,
              "NavMap": {
                "MapLayerID": 1
              }
            },
            {
              "ID": 300011,
              "NavMap": {
                "MapLayerID": 1
              }
            },
            {
              "ID": 300012,
              "NavMap": {
                "MapLayerID": 1
              }
            },
            {
              "ID": 300013,
              "NavMap": {
                "MapLayerID": 1
              }
            },
            {
              "ID": 300014,
              "NavMap": {
                "MapLayerID": 1
              }
            },
            {
              "ID": 300015,
              "NavMap": {
                "MapLayerID": 1
              }
            },
            {
              "ID": 300016,
              "NavMap": {
                "MapLayerID": 1
              }
            },
            {
              "ID": 300017,
              "NavMap": {
                "MapLayerID": 1
              }
            },
            {
              "ID": 300018,
              "NavMap": {
                "MapLayerID": 1
              }
            },
            {
              "ID": 300019,
              "NavMap": {
                "MapLayerID": 1
              }
            },
            {
              "ID": 300020,
              "NavMap": {
                "MapLayerID": 1
              }
            },
            {
              "ID": 300021,
              "NavMap": {
                "MapLayerID": 1
              }
            },
            {
              "ID": 300022,
              "NavMap": {
                "MapLayerID": 1
              }
            },
            {
              "ID": 300023,
              "NavMap": {
                "MapLayerID": 1
              }
            },
            {
              "ID": 300024,
              "NavMap": {
                "MapLayerID": 1
              }
            },
            {
              "ID": 300025,
              "NavMap": {
                "MapLayerID": 1
              }
            },
            {
              "ID": 300026,
              "NavMap": {
                "MapLayerID": 1
              }
            },
            {
              "ID": 300027,
              "NavMap": {
                "MapLayerID": 1
              }
            },
            {
              "ID": 300028,
              "NavMap": {
                "MapLayerID": 1
              }
            },
            {
              "ID": 300029,
              "NavMap": {
                "MapLayerID": 1
              }
            },
            {
              "ID": 300030,
              "NavMap": {
                "MapLayerID": 1
              }
            },
            {
              "ID": 300031,
              "NavMap": {
                "MapLayerID": 1
              }
            },
            {
              "ID": 300032,
              "NavMap": {
                "MapLayerID": 1
              }
            },
            {
              "ID": 300033,
              "NavMap": {
                "MapLayerID": 1
              }
            },
            {
              "ID": 300034,
              "NavMap": {
                "MapLayerID": 1
              }
            },
            {
              "ID": 300035,
              "NavMap": {
                "MapLayerID": 1
              }
            },
            {
              "ID": 300036,
              "NavMap": {
                "MapLayerID": 1
              }
            },
            {
              "ID": 300037,
              "NavMap": {
                "MapLayerID": 1
              }
            },
            {
              "ID": 300038,
              "NavMap": {
                "MapLayerID": 1
              }
            },
            {
              "ID": 300039,
              "NavMap": {
                "MapLayerID": 1
              }
            },
            {
              "ID": 300040,
              "NavMap": {
                "MapLayerID": 1
              }
            },
            {
              "ID": 300041,
              "NavMap": {
                "MapLayerID": 1
              }
            }
          ],
          "RegionIDList": []
        },
        {
          "ID": 24,
          "PropList": [
            {
              "ID": 300002,
              "NavMap": {
                "MapLayerID": 1
              }
            },
            {
              "ID": 300003,
              "NavMap": {
                "MapLayerID": 1
              }
            },
            {
              "ID": 300004,
              "NavMap": {
                "MapLayerID": 1
              }
            },
            {
              "ID": 300005,
              "NavMap": {
                "MapLayerID": 1
              }
            },
            {
              "ID": 300006,
              "NavMap": {
                "MapLayerID": 1
              }
            },
            {
              "ID": 300007,
              "NavMap": {
                "MapLayerID": 1
              }
            },
            {
              "ID": 300008,
              "NavMap": {
                "MapLayerID": 1
              }
            },
            {
              "ID": 300009,
              "NavMap": {
                "MapLayerID": 1
              }
            },
            {
              "ID": 300010,
              "NavMap": {
                "MapLayerID": 1
              }
            },
            {
              "ID": 300011,
              "NavMap": {
                "MapLayerID": 1
              }
            },
            {
              "ID": 300012,
              "NavMap": {
                "MapLayerID": 1
              }
            },
            {
              "ID": 300013,
              "NavMap": {
                "MapLayerID": 1
              }
            },
            {
              "ID": 300014,
              "NavMap": {
                "MapLayerID": 1
              }
            }
          ],
          "RegionIDList": []
        },
        {
          "ID": 12,
          "PropList": [
            {
              "ID": 300001,
              "NavMap": {
                "MapLayerID": 1
              }
            }
          ],
          "NPCList": [
            {
              "ID": 400001,
              "NavMap": {
                "MapLayerID": 1
              }
            },
            {
              "ID": 400002,
              "NavMap": {
                "MapLayerID": 1
              }
            },
            {
              "ID": 400005,
              "NavMap": {
                "MapLayerID": 1
              }
            },
            {
              "ID": 400007,
              "NavMap": {
                "MapLayerID": 1
              }
            },
            {
              "ID": 400009,
              "NavMap": {
                "MapLayerID": 1
              }
            },
            {
              "ID": 400003,
              "NavMap": {
                "MapLayerID": 1
              }
            }
          ],
          "AnchorList": [
            {
              "ID": 1,
              "NavMap": {
                "MapLayerID": 1
              }
            },
            {
              "ID": 2,
              "NavMap": {
                "MapLayerID": 1
              }
            },
            {
              "ID": 3,
              "NavMap": {
                "MapLayerID": 1
              }
            }
          ],
          "RegionIDList": []
        },
        {
          "ID": 7,
          "PropList": [
            {
              "ID": 300001,
              "NavMap": {
                "MapLayerID": 1
              }
            },
            {
              "ID": 300002,
              "NavMap": {
                "MapLayerID": 1
              }
            }
          ],
          "NPCList": [
            {
              "ID": 400001,
              "NavMap": {
                "MapLayerID": 1
              }
            }
          ],
          "RegionIDList": []
        },
        {
          "ID": 1,
          "PropList": [
            {
              "ID": 300002,
              "NavMap": {
                "MapLayerID": 1
              }
            }
          ],
          "AnchorList": [
            {
              "ID": 1,
              "NavMap": {
                "MapLayerID": 1
              }
            }
          ],
          "RegionIDList": []
        },
        {
          "ID": 18,
          "NPCList": [
            {
              "ID": 400002,
              "NavMap": {
                "MapLayerID": 1
              }
            },
            {
              "ID": 400001,
              "NavMap": {
                "MapLayerID": 1
              }
            }
          ],
          "RegionIDList": []
        },
        {
          "ID": 31,
          "NPCList": [
            {
              "ID": 400001,
              "NavMap": {
                "MapLayerID": 1
              }
            },
            {
              "ID": 400002,
              "NavMap": {
                "MapLayerID": 1
              }
            }
          ],
          "RegionIDList": []
        },
        {
          "ID": 16,
          "PropList": [
            {
              "ID": 300001,
              "NavMap": {
                "MapLayerID": 1
              }
            }
          ],
          "NPCList": [
            {
              "ID": 400001,
              "NavMap": {
                "MapLayerID": 1
              }
            }
          ],
          "AnchorList": [
            {
              "ID": 1,
              "NavMap": {
                "MapLayerID": 1
              }
            }
          ],
          "RegionIDList": []
        },
        {
          "ID": 93,
          "NPCList": [
            {
              "ID": 400001,
              "NavMap": {
                "MapLayerID": 1
              }
            }
          ],
          "AnchorList": [
            {
              "ID": 1,
              "NavMap": {
                "MapLayerID": 1
              }
            }
          ],
          "RegionIDList": []
        },
        {
          "ID": 17,
          "PropList": [
            {
              "ID": 300001,
              "NavMap": {
                "MapLayerID": 1
              }
            }
          ],
          "RegionIDList": []
        },
        {
          "ID": 13,
          "PropList": [
            {
              "ID": 300001,
              "NavMap": {
                "MapLayerID": 1
              }
            }
          ],
          "RegionIDList": []
        },
        {
          "ID": 14,
          "PropList": [
            {
              "ID": 300001,
              "NavMap": {
                "MapLayerID": 1
              }
            }
          ],
          "RegionIDList": []
        },
        {
          "ID": 25,
          "PropList": [
            {
              "ID": 300001,
              "NavMap": {
                "MapLayerID": 1
              }
            },
            {
              "ID": 300002,
              "NavMap": {
                "MapLayerID": 1
              }
            }
          ],
          "RegionIDList": []
        },
        {
          "ID": 26,
          "NPCList": [
            {
              "ID": 400001,
              "NavMap": {
                "MapLayerID": 1
              }
            }
          ],
          "RegionIDList": []
        },
        {
          "ID": 27,
          "PropList": [
            {
              "ID": 300001,
              "NavMap": {
                "MapLayerID": 1
              }
            },
            {
              "ID": 300002,
              "NavMap": {
                "MapLayerID": 1
              }
            },
            {
              "ID": 300003,
              "NavMap": {
                "MapLayerID": 1
              }
            },
            {
              "ID": 300004,
              "NavMap": {
                "MapLayerID": 1
              }
            }
          ],
          "NPCList": [
            {
              "ID": 400001,
              "NavMap": {
                "MapLayerID": 1
              }
            },
            {
              "ID": 400003,
              "NavMap": {
                "MapLayerID": 1
              }
            }
          ],
          "AnchorList": [
            {
              "ID": 1,
              "NavMap": {
                "MapLayerID": 1
              }
            },
            {
              "ID": 2,
              "NavMap": {
                "MapLayerID": 1
              }
            },
            {
              "ID": 3,
              "NavMap": {
                "MapLayerID": 1
              }
            }
          ],
          "RegionIDList": []
        },
        {
          "ID": 39,
          "PropList": [
            {
              "ID": 300001,
              "NavMap": {
                "MapLayerID": 1
              }
            },
            {
              "ID": 300002,
              "NavMap": {
                "MapLayerID": 1
              }
            },
            {
              "ID": 300003,
              "NavMap": {
                "MapLayerID": 1
              }
            },
            {
              "ID": 300004,
              "NavMap": {
                "MapLayerID": 1
              }
            },
            {
              "ID": 300005,
              "NavMap": {
                "MapLayerID": 1
              }
            }
          ],
          "NPCList": [
            {
              "ID": 400001,
              "NavMap": {
                "MapLayerID": 1
              }
            },
            {
              "ID": 400002,
              "NavMap": {
                "MapLayerID": 1
              }
            },
            {
              "ID": 400003,
              "NavMap": {
                "MapLayerID": 1
              }
            },
            {
              "ID": 400004,
              "NavMap": {
                "MapLayerID": 1
              }
            },
            {
              "ID": 400005,
              "NavMap": {
                "MapLayerID": 1
              }
            },
            {
              "ID": 400006,
              "NavMap": {
                "MapLayerID": 1
              }
            },
            {
              "ID": 400007,
              "NavMap": {
                "MapLayerID": 1
              }
            }
          ],
          "AnchorList": [
            {
              "ID": 1,
              "NavMap": {
                "MapLayerID": 1
              }
            }
          ],
          "RegionIDList": []
        },
        {
          "ID": 40,
          "NPCList": [
            {
              "ID": 400001,
              "NavMap": {
                "MapLayerID": 1
              }
            }
          ],
          "RegionIDList": []
        },
        {
          "ID": 41,
          "PropList": [
            {
              "ID": 300001,
              "NavMap": {
                "MapLayerID": 1
              }
            }
          ],
          "NPCList": [
            {
              "ID": 400001,
              "NavMap": {
                "MapLayerID": 1
              }
            }
          ],
          "AnchorList": [
            {
              "ID": 1,
              "NavMap": {
                "MapLayerID": 1
              }
            }
          ],
          "RegionIDList": []
        },
        {
          "ID": 43,
          "PropList": [
            {
              "ID": 300001,
              "NavMap": {
                "MapLayerID": 1
              }
            },
            {
              "ID": 300002,
              "NavMap": {
                "MapLayerID": 1
              }
            },
            {
              "ID": 300003,
              "NavMap": {
                "MapLayerID": 1
              }
            },
            {
              "ID": 300004,
              "NavMap": {
                "MapLayerID": 1
              }
            },
            {
              "ID": 300005,
              "NavMap": {
                "MapLayerID": 1
              }
            },
            {
              "ID": 300006,
              "NavMap": {
                "MapLayerID": 1
              }
            }
          ],
          "NPCList": [
            {
              "ID": 400001,
              "NavMap": {
                "MapLayerID": 1
              }
            },
            {
              "ID": 400002,
              "NavMap": {
                "MapLayerID": 1
              }
            },
            {
              "ID": 400003,
              "NavMap": {
                "MapLayerID": 1
              }
            },
            {
              "ID": 400004,
              "NavMap": {
                "MapLayerID": 1
              }
            }
          ],
          "AnchorList": [
            {
              "ID": 1,
              "NavMap": {
                "MapLayerID": 1
              }
            }
          ],
          "RegionIDList": []
        },
        {
          "ID": 44,
          "PropList": [
            {
              "ID": 300001,
              "NavMap": {
                "MapLayerID": 1
              }
            },
            {
              "ID": 300002,
              "NavMap": {
                "MapLayerID": 1
              }
            }
          ],
          "NPCList": [
            {
              "ID": 400001,
              "NavMap": {
                "MapLayerID": 1
              }
            }
          ],
          "RegionIDList": []
        },
        {
          "ID": 45,
          "NPCList": [
            {
              "ID": 400001,
              "NavMap": {
                "MapLayerID": 1
              }
            }
          ],
          "RegionIDList": []
        },
        {
          "ID": 47,
          "PropList": [
            {
              "ID": 300001,
              "NavMap": {
                "MapLayerID": 1
              }
            }
          ],
          "RegionIDList": []
        },
        {
          "ID": 50,
          "PropList": [
            {
              "ID": 300001,
              "NavMap": {
                "MapLayerID": 1
              }
            },
            {
              "ID": 300002,
              "NavMap": {
                "MapLayerID": 1
              }
            },
            {
              "ID": 300003,
              "NavMap": {
                "MapLayerID": 1
              }
            },
            {
              "ID": 300004,
              "NavMap": {
                "MapLayerID": 1
              }
            },
            {
              "ID": 300005,
              "NavMap": {
                "MapLayerID": 1
              }
            },
            {
              "ID": 300006,
              "NavMap": {
                "MapLayerID": 1
              }
            },
            {
              "ID": 300007,
              "NavMap": {
                "MapLayerID": 1
              }
            }
          ],
          "NPCList": [
            {
              "ID": 400001,
              "NavMap": {
                "MapLayerID": 1
              }
            },
            {
              "ID": 400002,
              "NavMap": {
                "MapLayerID": 1
              }
            },
            {
              "ID": 400003,
              "NavMap": {
                "MapLayerID": 1
              }
            },
            {
              "ID": 400004,
              "NavMap": {
                "MapLayerID": 1
              }
            },
            {
              "ID": 400005,
              "NavMap": {
                "MapLayerID": 1
              }
            },
            {
              "ID": 400006,
              "NavMap": {
                "MapLayerID": 1
              }
            },
            {
              "ID": 400007,
              "NavMap": {
                "MapLayerID": 1
              }
            },
            {
              "ID": 400008,
              "NavMap": {
                "MapLayerID": 1
              }
            }
          ],
          "AnchorList": [
            {
              "ID": 1,
              "NavMap": {
                "MapLayerID": 1
              }
            }
          ],
          "RegionIDList": []
        },
        {
          "ID": 51,
          "PropList": [
            {
              "ID": 300002,
              "NavMap": {
                "MapLayerID": 1
              }
            },
            {
              "ID": 300001,
              "NavMap": {
                "MapLayerID": 1
              }
            }
          ],
          "RegionIDList": []
        },
        {
          "ID": 52,
          "PropList": [
            {
              "ID": 300001,
              "NavMap": {
                "MapLayerID": 1
              }
            },
            {
              "ID": 300002,
              "NavMap": {
                "MapLayerID": 1
              }
            },
            {
              "ID": 300003,
              "NavMap": {
                "MapLayerID": 1
              }
            },
            {
              "ID": 300004,
              "NavMap": {
                "MapLayerID": 1
              }
            },
            {
              "ID": 300005,
              "NavMap": {
                "MapLayerID": 1
              }
            },
            {
              "ID": 300006,
              "NavMap": {
                "MapLayerID": 1
              }
            },
            {
              "ID": 300007,
              "NavMap": {
                "MapLayerID": 1
              }
            }
          ],
          "RegionIDList": []
        },
        {
          "ID": 54,
          "NPCList": [
            {
              "ID": 400001,
              "NavMap": {
                "MapLayerID": 1
              }
            }
          ],
          "RegionIDList": []
        },
        {
          "ID": 55,
          "PropList": [
            {
              "ID": 300001,
              "NavMap": {
                "MapLayerID": 1
              }
            }
          ],
          "NPCList": [
            {
              "ID": 400001,
              "NavMap": {
                "MapLayerID": 1
              }
            }
          ],
          "RegionIDList": []
        },
        {
          "ID": 57,
          "PropList": [
            {
              "ID": 300002,
              "NavMap": {
                "MapLayerID": 1
              }
            },
            {
              "ID": 300004,
              "NavMap": {
                "MapLayerID": 1
              }
            },
            {
              "ID": 300022,
              "NavMap": {
                "MapLayerID": 1
              }
            },
            {
              "ID": 300003,
              "NavMap": {
                "MapLayerID": 1
              }
            },
            {
              "ID": 300005,
              "NavMap": {
                "MapLayerID": 1
              }
            },
            {
              "ID": 300027,
              "NavMap": {
                "MapLayerID": 1
              }
            },
            {
              "ID": 300006,
              "NavMap": {
                "MapLayerID": 1
              }
            },
            {
              "ID": 300007,
              "NavMap": {
                "MapLayerID": 1
              }
            },
            {
              "ID": 300028,
              "NavMap": {
                "MapLayerID": 1
              }
            },
            {
              "ID": 300008,
              "NavMap": {
                "MapLayerID": 1
              }
            },
            {
              "ID": 300009,
              "NavMap": {
                "MapLayerID": 1
              }
            },
            {
              "ID": 300030,
              "NavMap": {
                "MapLayerID": 1
              }
            },
            {
              "ID": 300010,
              "NavMap": {
                "MapLayerID": 1
              }
            },
            {
              "ID": 300011,
              "NavMap": {
                "MapLayerID": 1
              }
            },
            {
              "ID": 300029,
              "NavMap": {
                "MapLayerID": 1
              }
            },
            {
              "ID": 300012,
              "NavMap": {
                "MapLayerID": 1
              }
            },
            {
              "ID": 300013,
              "NavMap": {
                "MapLayerID": 1
              }
            },
            {
              "ID": 300031,
              "NavMap": {
                "MapLayerID": 1
              }
            },
            {
              "ID": 300014,
              "NavMap": {
                "MapLayerID": 1
              }
            },
            {
              "ID": 300015,
              "NavMap": {
                "MapLayerID": 1
              }
            },
            {
              "ID": 300032,
              "NavMap": {
                "MapLayerID": 1
              }
            },
            {
              "ID": 300016,
              "NavMap": {
                "MapLayerID": 1
              }
            },
            {
              "ID": 300017,
              "NavMap": {
                "MapLayerID": 1
              }
            },
            {
              "ID": 300033,
              "NavMap": {
                "MapLayerID": 1
              }
            },
            {
              "ID": 300018,
              "NavMap": {
                "MapLayerID": 1
              }
            },
            {
              "ID": 300019,
              "NavMap": {
                "MapLayerID": 1
              }
            },
            {
              "ID": 300020,
              "NavMap": {
                "MapLayerID": 1
              }
            },
            {
              "ID": 300021,
              "NavMap": {
                "MapLayerID": 1
              }
            },
            {
              "ID": 300023,
              "NavMap": {
                "MapLayerID": 1
              }
            },
            {
              "ID": 300024,
              "NavMap": {
                "MapLayerID": 1
              }
            },
            {
              "ID": 300025,
              "NavMap": {
                "MapLayerID": 1
              }
            },
            {
              "ID": 300026,
              "NavMap": {
                "MapLayerID": 1
              }
            }
          ],
          "NPCList": [
            {
              "ID": 400001,
              "NavMap": {
                "MapLayerID": 1
              }
            },
            {
              "ID": 400002,
              "NavMap": {
                "MapLayerID": 1
              }
            },
            {
              "ID": 400003,
              "NavMap": {
                "MapLayerID": 1
              }
            },
            {
              "ID": 400004,
              "NavMap": {
                "MapLayerID": 1
              }
            },
            {
              "ID": 400005,
              "NavMap": {
                "MapLayerID": 1
              }
            },
            {
              "ID": 400006,
              "NavMap": {
                "MapLayerID": 1
              }
            },
            {
              "ID": 400007,
              "NavMap": {
                "MapLayerID": 1
              }
            },
            {
              "ID": 400008,
              "NavMap": {
                "MapLayerID": 1
              }
            },
            {
              "ID": 400009,
              "NavMap": {
                "MapLayerID": 1
              }
            },
            {
              "ID": 400010,
              "NavMap": {
                "MapLayerID": 1
              }
            },
            {
              "ID": 400011,
              "NavMap": {
                "MapLayerID": 1
              }
            },
            {
              "ID": 400012,
              "NavMap": {
                "MapLayerID": 1
              }
            },
            {
              "ID": 400013,
              "NavMap": {
                "MapLayerID": 1
              }
            },
            {
              "ID": 400014,
              "NavMap": {
                "MapLayerID": 1
              }
            },
            {
              "ID": 400015,
              "NavMap": {
                "MapLayerID": 1
              }
            },
            {
              "ID": 400016,
              "NavMap": {
                "MapLayerID": 1
              }
            },
            {
              "ID": 400017,
              "NavMap": {
                "MapLayerID": 1
              }
            },
            {
              "ID": 400018,
              "NavMap": {
                "MapLayerID": 1
              }
            },
            {
              "ID": 400019,
              "NavMap": {
                "MapLayerID": 1
              }
            },
            {
              "ID": 400020,
              "NavMap": {
                "MapLayerID": 1
              }
            },
            {
              "ID": 400021,
              "NavMap": {
                "MapLayerID": 1
              }
            }
          ],
          "RegionIDList": []
        },
        {
          "ID": 58,
          "PropList": [
            {
              "ID": 300001,
              "NavMap": {
                "MapLayerID": 1
              }
            },
            {
              "ID": 300002,
              "NavMap": {
                "MapLayerID": 1
              }
            },
            {
              "ID": 300003,
              "NavMap": {
                "MapLayerID": 1
              }
            }
          ],
          "RegionIDList": []
        },
        {
          "ID": 59,
          "PropList": [
            {
              "ID": 300001,
              "NavMap": {
                "MapLayerID": 1
              }
            }
          ],
          "NPCList": [
            {
              "ID": 400001,
              "NavMap": {
                "MapLayerID": 1
              }
            }
          ],
          "RegionIDList": []
        },
        {
          "ID": 62,
          "PropList": [
            {
              "ID": 300001,
              "NavMap": {
                "MapLayerID": 1
              }
            },
            {
              "ID": 300002,
              "NavMap": {
                "MapLayerID": 1
              }
            }
          ],
          "NPCList": [
            {
              "ID": 400001,
              "NavMap": {
                "MapLayerID": 1
              }
            },
            {
              "ID": 400002,
              "NavMap": {
                "MapLayerID": 1
              }
            },
            {
              "ID": 400003,
              "NavMap": {
                "MapLayerID": 1
              }
            }
          ],
          "AnchorList": [
            {
              "ID": 1,
              "NavMap": {
                "MapLayerID": 1
              }
            }
          ],
          "RegionIDList": []
        },
        {
          "ID": 63,
          "NPCList": [
            {
              "ID": 400001,
              "NavMap": {
                "MapLayerID": 1
              }
            }
          ],
          "RegionIDList": []
        },
        {
          "ID": 67,
          "PropList": [
            {
              "ID": 300001,
              "NavMap": {
                "MapLayerID": 1
              }
            },
            {
              "ID": 300002,
              "NavMap": {
                "MapLayerID": 1
              }
            },
            {
              "ID": 300003,
              "NavMap": {
                "MapLayerID": 1
              }
            },
            {
              "ID": 300004,
              "NavMap": {
                "MapLayerID": 1
              }
            },
            {
              "ID": 300005,
              "NavMap": {
                "MapLayerID": 1
              }
            },
            {
              "ID": 300006,
              "NavMap": {
                "MapLayerID": 1
              }
            }
          ],
          "NPCList": [
            {
              "ID": 400001,
              "NavMap": {
                "MapLayerID": 1
              }
            },
            {
              "ID": 400002,
              "NavMap": {
                "MapLayerID": 1
              }
            },
            {
              "ID": 400003,
              "NavMap": {
                "MapLayerID": 1
              }
            },
            {
              "ID": 400004,
              "NavMap": {
                "MapLayerID": 1
              }
            },
            {
              "ID": 400005,
              "NavMap": {
                "MapLayerID": 1
              }
            },
            {
              "ID": 400006,
              "NavMap": {
                "MapLayerID": 1
              }
            },
            {
              "ID": 400007,
              "NavMap": {
                "MapLayerID": 1
              }
            },
            {
              "ID": 400008,
              "NavMap": {
                "MapLayerID": 1
              }
            },
            {
              "ID": 400009,
              "NavMap": {
                "MapLayerID": 1
              }
            },
            {
              "ID": 400010,
              "NavMap": {
                "MapLayerID": 1
              }
            },
            {
              "ID": 400011,
              "NavMap": {
                "MapLayerID": 1
              }
            }
          ],
          "RegionIDList": []
        },
        {
          "ID": 68,
          "NPCList": [
            {
              "ID": 400001,
              "NavMap": {
                "MapLayerID": 1
              }
            }
          ],
          "RegionIDList": []
        },
        {
          "ID": 80,
          "PropList": [
            {
              "ID": 300001,
              "NavMap": {
                "MapLayerID": 1
              }
            }
          ],
          "NPCList": [
            {
              "ID": 400001,
              "NavMap": {
                "MapLayerID": 1
              }
            },
            {
              "ID": 400002,
              "NavMap": {
                "MapLayerID": 1
              }
            }
          ],
          "AnchorList": [
            {
              "ID": 1,
              "NavMap": {
                "MapLayerID": 1
              }
            },
            {
              "ID": 2,
              "NavMap": {
                "MapLayerID": 1
              }
            },
            {
              "ID": 3,
              "NavMap": {
                "MapLayerID": 1
              }
            },
            {
              "ID": 4,
              "NavMap": {
                "MapLayerID": 1
              }
            }
          ],
          "RegionIDList": []
        },
        {
          "ID": 69,
          "PropList": [
            {
              "ID": 300001,
              "NavMap": {
                "MapLayerID": 1
              }
            },
            {
              "ID": 300002,
              "NavMap": {
                "MapLayerID": 1
              }
            }
          ],
          "RegionIDList": []
        },
        {
          "ID": 71,
          "PropList": [
            {
              "ID": 300001,
              "NavMap": {
                "MapLayerID": 1
              }
            }
          ],
          "RegionIDList": []
        },
        {
          "ID": 72,
          "PropList": [
            {
              "ID": 300001,
              "NavMap": {
                "MapLayerID": 1
              }
            },
            {
              "ID": 300002,
              "NavMap": {
                "MapLayerID": 1
              }
            },
            {
              "ID": 300003,
              "NavMap": {
                "MapLayerID": 1
              }
            },
            {
              "ID": 300004,
              "NavMap": {
                "MapLayerID": 1
              }
            },
            {
              "ID": 300005,
              "NavMap": {
                "MapLayerID": 1
              }
            },
            {
              "ID": 300006,
              "NavMap": {
                "MapLayerID": 1
              }
            }
          ],
          "RegionIDList": []
        },
        {
          "ID": 73,
          "PropList": [
            {
              "ID": 300001,
              "NavMap": {
                "MapLayerID": 1
              }
            }
          ],
          "RegionIDList": []
        },
        {
          "ID": 74,
          "PropList": [
            {
              "ID": 300001,
              "NavMap": {
                "MapLayerID": 1
              }
            },
            {
              "ID": 300002,
              "NavMap": {
                "MapLayerID": 1
              }
            }
          ],
          "RegionIDList": []
        },
        {
          "ID": 75,
          "PropList": [
            {
              "ID": 300001,
              "NavMap": {
                "MapLayerID": 1
              }
            },
            {
              "ID": 300002,
              "NavMap": {
                "MapLayerID": 1
              }
            }
          ],
          "RegionIDList": []
        },
        {
          "ID": 81,
          "PropList": [
            {
              "ID": 300001,
              "NavMap": {
                "MapLayerID": 1
              }
            },
            {
              "ID": 300002,
              "NavMap": {
                "MapLayerID": 1
              }
            }
          ],
          "RegionIDList": []
        },
        {
          "ID": 82,
          "PropList": [
            {
              "ID": 300001,
              "NavMap": {
                "MapLayerID": 1
              }
            }
          ],
          "RegionIDList": []
        },
        {
          "ID": 86,
          "PropList": [
            {
              "ID": 300001,
              "NavMap": {
                "MapLayerID": 1
              }
            },
            {
              "ID": 300002,
              "NavMap": {
                "MapLayerID": 1
              }
            },
            {
              "ID": 300003,
              "NavMap": {
                "MapLayerID": 1
              }
            },
            {
              "ID": 300004,
              "NavMap": {
                "MapLayerID": 1
              }
            },
            {
              "ID": 300005,
              "NavMap": {
                "MapLayerID": 1
              }
            }
          ],
          "RegionIDList": []
        },
        {
          "ID": 87,
          "NPCList": [
            {
              "ID": 400001,
              "NavMap": {
                "MapLayerID": 1
              }
            }
          ],
          "RegionIDList": []
        },
        {
          "ID": 88,
          "NPCList": [
            {
              "ID": 400002,
              "NavMap": {
                "MapLayerID": 1
              }
            },
            {
              "ID": 400003,
              "NavMap": {
                "MapLayerID": 1
              }
            },
            {
              "ID": 400004,
              "NavMap": {
                "MapLayerID": 1
              }
            },
            {
              "ID": 400005,
              "NavMap": {
                "MapLayerID": 1
              }
            },
            {
              "ID": 400006,
              "NavMap": {
                "MapLayerID": 1
              }
            }
          ],
          "AnchorList": [
            {
              "ID": 1,
              "NavMap": {
                "MapLayerID": 1
              }
            },
            {
              "ID": 2,
              "NavMap": {
                "MapLayerID": 1
              }
            }
          ],
          "RegionIDList": []
        },
        {
          "ID": 89,
          "PropList": [
            {
              "ID": 300001,
              "NavMap": {
                "MapLayerID": 1
              }
            }
          ],
          "NPCList": [
            {
              "ID": 400002,
              "NavMap": {
                "MapLayerID": 1
              }
            }
          ],
          "AnchorList": [
            {
              "ID": 1,
              "NavMap": {
                "MapLayerID": 1
              }
            },
            {
              "ID": 2,
              "NavMap": {
                "MapLayerID": 1
              }
            },
            {
              "ID": 3,
              "NavMap": {
                "MapLayerID": 1
              }
            }
          ],
          "RegionIDList": []
        },
        {
          "ID": 90,
          "PropList": [
            {
              "ID": 300001,
              "NavMap": {
                "MapLayerID": 1
              }
            }
          ],
          "NPCList": [
            {
              "ID": 400001,
              "NavMap": {
                "MapLayerID": 1
              }
            },
            {
              "ID": 400002,
              "NavMap": {
                "MapLayerID": 1
              }
            },
            {
              "ID": 400003,
              "NavMap": {
                "MapLayerID": 1
              }
            },
            {
              "ID": 400004,
              "NavMap": {
                "MapLayerID": 1
              }
            },
            {
              "ID": 400005,
              "NavMap": {
                "MapLayerID": 1
              }
            }
          ],
          "RegionIDList": []
        },
        {
          "ID": 92,
          "NPCList": [
            {
              "ID": 400001,
              "NavMap": {
                "MapLayerID": 1
              }
            }
          ],
          "RegionIDList": []
        },
        {
          "ID": 96,
          "PropList": [
            {
              "ID": 300001,
              "NavMap": {
                "MapLayerID": 1
              }
            }
          ],
          "AnchorList": [
            {
              "ID": 1,
              "NavMap": {
                "MapLayerID": 1
              }
            },
            {
              "ID": 2,
              "NavMap": {
                "MapLayerID": 1
              }
            }
          ],
          "RegionIDList": []
        },
        {
          "ID": 95,
          "PropList": [
            {
              "ID": 300001,
              "NavMap": {
                "MapLayerID": 1
              }
            },
            {
              "ID": 300002,
              "NavMap": {
                "MapLayerID": 1
              }
            },
            {
              "ID": 300003,
              "NavMap": {
                "MapLayerID": 1
              }
            }
          ],
          "AnchorList": [
            {
              "ID": 1,
              "NavMap": {
                "MapLayerID": 1
              }
            }
          ],
          "RegionIDList": []
        },
        {
          "ID": 97,
          "PropList": [
            {
              "ID": 300002,
              "NavMap": {
                "MapLayerID": 1
              }
            },
            {
              "ID": 300001,
              "NavMap": {
                "MapLayerID": 1
              }
            }
          ],
          "NPCList": [
            {
              "ID": 400001,
              "NavMap": {
                "MapLayerID": 1
              }
            }
          ],
          "AnchorList": [
            {
              "ID": 1,
              "NavMap": {
                "MapLayerID": 1
              }
            },
            {
              "ID": 2,
              "NavMap": {
                "MapLayerID": 1
              }
            }
          ],
          "RegionIDList": []
        },
        {
          "ID": 99,
          "PropList": [
            {
              "ID": 300001,
              "NavMap": {
                "MapLayerID": 1
              }
            }
          ],
          "AnchorList": [
            {
              "ID": 1,
              "NavMap": {
                "MapLayerID": 1
              }
            }
          ],
          "RegionIDList": []
        },
        {
          "ID": 101,
          "PropList": [
            {
              "ID": 300002,
              "NavMap": {
                "MapLayerID": 1
              }
            }
          ],
          "RegionIDList": []
        },
        {
          "ID": 103,
          "PropList": [
            {
              "ID": 300001,
              "NavMap": {
                "MapLayerID": 1
              }
            },
            {
              "ID": 300002,
              "NavMap": {
                "MapLayerID": 1
              }
            }
          ],
          "RegionIDList": []
        },
        {
          "ID": 104,
          "PropList": [
            {
              "ID": 300001,
              "NavMap": {
                "MapLayerID": 1
              }
            },
            {
              "ID": 300002,
              "NavMap": {
                "MapLayerID": 1
              }
            }
          ],
          "RegionIDList": []
        },
        {
          "ID": 119,
          "ConflictSpatialInfo": {
            "CompactGridList": [
              6,
              2,
              6,
              3
            ],
            "LowerUpperBounds": {
              "x": -1
            }
          },
          "StreamingSpatialInfo": {
            "CompactGridList": [
              6,
              0,
              6,
              2,
              6,
              3
            ],
            "LowerUpperBounds": {
              "x": -1
            }
          },
          "PropList": [
            {
              "ID": 300001,
              "NavMap": {
                "MapLayerID": 1
              }
            }
          ],
          "NPCList": [
            {
              "ID": 400001,
              "NavMap": {
                "MapLayerID": 1
              }
            },
            {
              "ID": 400002,
              "NavMap": {
                "MapLayerID": 1
              }
            },
            {
              "ID": 400003,
              "NavMap": {
                "MapLayerID": 1
              }
            }
          ],
          "AnchorList": [
            {
              "ID": 1,
              "NavMap": {
                "MapLayerID": 1
              }
            },
            {
              "ID": 2,
              "NavMap": {
                "MapLayerID": 1
              }
            },
            {
              "ID": 3,
              "NavMap": {
                "MapLayerID": 1
              }
            }
          ],
          "RegionIDList": []
        },
        {
          "ID": 120,
          "ConflictSpatialInfo": {
            "CompactGridList": [
              -1,
              0
            ],
            "LowerUpperBounds": {
              "y": 1
            }
          },
          "StreamingSpatialInfo": {
            "CompactGridList": [
              -4,
              -2,
              -1,
              0
            ],
            "LowerUpperBounds": {
              "x": -1,
              "y": 1
            }
          },
          "PropList": [
            {
              "ID": 300001,
              "NavMap": {
                "MapLayerID": 1
              }
            },
            {
              "ID": 300002,
              "NavMap": {
                "MapLayerID": 1
              }
            },
            {
              "ID": 300003,
              "NavMap": {
                "MapLayerID": 1
              }
            }
          ],
          "NPCList": [
            {
              "ID": 400001,
              "NavMap": {
                "MapLayerID": 1
              }
            }
          ],
          "AnchorList": [
            {
              "ID": 1,
              "NavMap": {
                "MapLayerID": 1
              }
            },
            {
              "ID": 2,
              "NavMap": {
                "MapLayerID": 1
              }
            },
            {
              "ID": 3,
              "NavMap": {
                "MapLayerID": 1
              }
            },
            {
              "ID": 4,
              "NavMap": {
                "MapLayerID": 1
              }
            }
          ],
          "RegionIDList": []
        },
        {
          "ID": 125,
          "ConflictSpatialInfo": {
            "CompactGridList": [
              6,
              3
            ],
            "LowerUpperBounds": {
              "x": -1
            }
          },
          "StreamingSpatialInfo": {
            "CompactGridList": [
              6,
              3
            ],
            "LowerUpperBounds": {
              "x": -1
            }
          },
          "NPCList": [
            {
              "ID": 400001,
              "NavMap": {
                "MapLayerID": 1
              }
            }
          ],
          "RegionIDList": []
        },
        {
          "ID": 126,
          "ConflictSpatialInfo": {
            "CompactGridList": [
              0,
              -10
            ],
            "LowerUpperBounds": {
              "x": -1
            }
          },
          "StreamingSpatialInfo": {
            "CompactGridList": [
              0,
              -10
            ],
            "LowerUpperBounds": {
              "x": -1
            }
          },
          "NPCList": [
            {
              "ID": 400001,
              "NavMap": {
                "MapLayerID": 1
              }
            }
          ],
          "RegionIDList": []
        },
        {
          "ID": 127,
          "ConflictSpatialInfo": {
            "CompactGridList": [
              0,
              50
            ],
            "LowerUpperBounds": {
              "x": -15,
              "y": -14
            }
          },
          "StreamingSpatialInfo": {
            "CompactGridList": [
              0,
              50
            ],
            "LowerUpperBounds": {
              "x": -15,
              "y": -14
            }
          },
          "NPCList": [
            {
              "ID": 400001,
              "NavMap": {
                "MapLayerID": 1
              }
            }
          ],
          "RegionIDList": []
        },
        {
          "ID": 131,
          "ConflictSpatialInfo": {
            "CompactGridList": [
              14,
              -21
            ],
            "LowerUpperBounds": {
              "x": 2,
              "y": 3
            }
          },
          "StreamingSpatialInfo": {
            "CompactGridList": [
              14,
              -21
            ],
            "LowerUpperBounds": {
              "x": 2,
              "y": 3
            }
          },
          "NPCList": [
            {
              "ID": 400001,
              "NavMap": {
                "MapLayerID": 1
              }
            }
          ],
          "RegionIDList": []
        },
        {
          "ID": 136,
          "ConflictSpatialInfo": {
            "CompactGridList": [
              -1,
              0,
              0,
              0
            ],
            "LowerUpperBounds": {
              "y": 1
            }
          },
          "StreamingSpatialInfo": {
            "CompactGridList": [
              -1,
              0,
              0,
              0
            ],
            "LowerUpperBounds": {
              "y": 1
            }
          },
          "NPCList": [
            {
              "ID": 400001,
              "NavMap": {
                "MapLayerID": 1
              }
            },
            {
              "ID": 400002,
              "NavMap": {
                "MapLayerID": 1
              }
            }
          ],
          "RegionIDList": []
        },
        {
          "ID": 137,
          "ConflictSpatialInfo": {
            "CompactGridList": [
              -18,
              -25
            ],
            "LowerUpperBounds": {
              "x": 2,
              "y": 3
            }
          },
          "StreamingSpatialInfo": {
            "CompactGridList": [
              -18,
              -25
            ],
            "LowerUpperBounds": {
              "x": 2,
              "y": 3
            }
          },
          "NPCList": [
            {
              "ID": 400001,
              "NavMap": {
                "MapLayerID": 1
              }
            }
          ],
          "RegionIDList": []
        },
        {
          "ID": 138,
          "ConflictSpatialInfo": {
            "CompactGridList": [],
            "LowerUpperBounds": {}
          },
          "StreamingSpatialInfo": {
            "CompactGridList": [],
            "LowerUpperBounds": {}
          },
          "RegionIDList": []
        },
        {
          "ID": 139,
          "ConflictSpatialInfo": {
            "CompactGridList": [],
            "LowerUpperBounds": {}
          },
          "StreamingSpatialInfo": {
            "CompactGridList": [],
            "LowerUpperBounds": {}
          },
          "RegionIDList": []
        },
        {
          "ID": 142,
          "ConflictSpatialInfo": {
            "CompactGridList": [
              -1,
              20,
              0,
              20,
              0,
              21
            ],
            "LowerUpperBounds": {
              "y": 1
            }
          },
          "StreamingSpatialInfo": {
            "CompactGridList": [
              -1,
              20,
              0,
              20,
              0,
              21
            ],
            "LowerUpperBounds": {
              "y": 1
            }
          },
          "PropList": [
            {
              "ID": 300001,
              "NavMap": {
                "MapLayerID": 1
              }
            }
          ],
          "NPCList": [
            {
              "ID": 400001,
              "NavMap": {
                "MapLayerID": 1
              }
            },
            {
              "ID": 400002,
              "NavMap": {
                "MapLayerID": 1
              }
            },
            {
              "ID": 400003,
              "NavMap": {
                "MapLayerID": 1
              }
            }
          ],
          "RegionIDList": []
        },
        {
          "ID": 143,
          "ConflictSpatialInfo": {
            "CompactGridList": [],
            "LowerUpperBounds": {}
          },
          "StreamingSpatialInfo": {
            "CompactGridList": [
              -14,
              -12,
              5,
              -9
            ],
            "LowerUpperBounds": {
              "x": -2
            }
          },
          "PropList": [
            {
              "ID": 300001,
              "NavMap": {
                "MapLayerID": 1
              }
            },
            {
              "ID": 300002,
              "NavMap": {
                "MapLayerID": 1
              }
            }
          ],
          "RegionIDList": []
        },
        {
          "ID": 144,
          "ConflictSpatialInfo": {
            "CompactGridList": [
              0,
              50
            ],
            "LowerUpperBounds": {
              "x": -15,
              "y": -14
            }
          },
          "StreamingSpatialInfo": {
            "CompactGridList": [
              -1,
              0,
              0,
              50
            ],
            "LowerUpperBounds": {
              "x": -15,
              "y": 1
            }
          },
          "PropList": [
            {
              "ID": 300001,
              "NavMap": {
                "MapLayerID": 1
              }
            }
          ],
          "NPCList": [
            {
              "ID": 400001,
              "NavMap": {
                "MapLayerID": 1
              }
            }
          ],
          "RegionIDList": []
        },
        {
          "ID": 145,
          "ConflictSpatialInfo": {
            "CompactGridList": [
              0,
              50
            ],
            "LowerUpperBounds": {
              "x": -15,
              "y": -14
            }
          },
          "StreamingSpatialInfo": {
            "CompactGridList": [
              0,
              50
            ],
            "LowerUpperBounds": {
              "x": -15,
              "y": -14
            }
          },
          "NPCList": [
            {
              "ID": 400001,
              "NavMap": {
                "MapLayerID": 1
              }
            }
          ],
          "RegionIDList": []
        }
      ]
    }
  ],
  "NavMesh": "Level/NavMesh/NavMesh-Floor_10001001.asset"
}