{
  "DimensionList": [
    {
      "GroupList": [
        {
          "ID": 1,
          "ConflictSpatialInfo": {
            "CompactGridList": [
              1,
              16
            ],
            "LowerUpperBounds": {
              "x": 17,
              "y": 18
            }
          },
          "StreamingSpatialInfo": {
            "CompactGridList": [
              1,
              16,
              -45,
              17,
              -40,
              17,
              -35,
              17,
              -30,
              17,
              -28,
              17,
              -25,
              17,
              -20,
              17,
              -46,
              18,
              -36,
              18,
              -31,
              18,
              -28,
              18,
              -26,
              18,
              -21,
              18,
              -45,
              22,
              -40,
              22,
              -35,
              22,
              -30,
              22,
              -41,
              23,
              -36,
              23,
              -50,
              27,
              -48,
              27,
              -45,
              27,
              -43,
              27,
              -40,
              27,
              -38,
              27,
              -35,
              27,
              -33,
              27,
              -30,
              27,
              -28,
              27,
              -18,
              27,
              -46,
              28,
              -28,
              28,
              -48,
              30,
              -46,
              30,
              -45,
              30,
              -43,
              30,
              -40,
              30,
              -38,
              30,
              -35,
              30,
              -33,
              30,
              -45,
              32,
              -43,
              32,
              -40,
              32,
              -38,
              32,
              -35,
              32,
              -33,
              32,
              -32,
              32,
              -30,
              32,
              -28,
              32,
              -25,
              32,
              -28,
              33,
              -26,
              33,
              -45,
              35,
              -43,
              35,
              -40,
              35,
              -38,
              35,
              -31,
              35,
              -30,
              35,
              -28,
              35,
              -25,
              35,
              -33,
              37,
              -28,
              37
            ],
            "LowerUpperBounds": {
              "x": 17,
              "y": 20
            }
          },
          "PropList": [
            {
              "ID": 300001,
              "NavMap": {
                "MapLayerID": 1
              }
            },
            {
              "ID": 300002,
              "NavMap": {
                "MapLayerID": 1
              }
            },
            {
              "ID": 300003,
              "NavMap": {
                "MapLayerID": 1
              }
            },
            {
              "ID": 300004,
              "NavMap": {
                "MapLayerID": 1
              }
            },
            {
              "ID": 300005,
              "NavMap": {
                "MapLayerID": 1
              }
            },
            {
              "ID": 300006,
              "NavMap": {
                "MapLayerID": 1
              }
            },
            {
              "ID": 300009,
              "NavMap": {
                "MapLayerID": 1
              }
            },
            {
              "ID": 300010,
              "NavMap": {
                "MapLayerID": 1
              }
            },
            {
              "ID": 300011,
              "NavMap": {
                "MapLayerID": 1
              }
            },
            {
              "ID": 300012,
              "NavMap": {
                "MapLayerID": 1
              }
            },
            {
              "ID": 300013,
              "NavMap": {
                "MapLayerID": 1
              }
            },
            {
              "ID": 300014,
              "NavMap": {
                "MapLayerID": 1
              }
            },
            {
              "ID": 300015,
              "NavMap": {
                "MapLayerID": 1
              }
            },
            {
              "ID": 300016,
              "NavMap": {
                "MapLayerID": 1
              }
            },
            {
              "ID": 300017,
              "NavMap": {
                "MapLayerID": 1
              }
            },
            {
              "ID": 300018,
              "NavMap": {
                "MapLayerID": 1
              }
            },
            {
              "ID": 300019,
              "NavMap": {
                "MapLayerID": 1
              }
            },
            {
              "ID": 300021,
              "NavMap": {
                "MapLayerID": 1
              }
            },
            {
              "ID": 300020,
              "NavMap": {
                "MapLayerID": 1
              }
            },
            {
              "ID": 300022,
              "NavMap": {
                "MapLayerID": 1
              }
            },
            {
              "ID": 300023,
              "NavMap": {
                "MapLayerID": 1
              }
            },
            {
              "ID": 300024,
              "NavMap": {
                "MapLayerID": 1
              }
            },
            {
              "ID": 300025,
              "NavMap": {
                "MapLayerID": 1
              }
            },
            {
              "ID": 300026,
              "NavMap": {
                "MapLayerID": 1
              }
            },
            {
              "ID": 300027,
              "NavMap": {
                "MapLayerID": 1
              }
            },
            {
              "ID": 300028,
              "NavMap": {
                "MapLayerID": 1
              }
            },
            {
              "ID": 300007,
              "NavMap": {
                "MapLayerID": 1
              }
            },
            {
              "ID": 300008,
              "NavMap": {
                "MapLayerID": 1
              }
            },
            {
              "ID": 300029,
              "NavMap": {
                "MapLayerID": 1
              }
            },
            {
              "ID": 300030,
              "NavMap": {
                "MapLayerID": 1
              }
            },
            {
              "ID": 300031,
              "NavMap": {
                "MapLayerID": 1
              }
            },
            {
              "ID": 300032,
              "NavMap": {
                "MapLayerID": 1
              }
            },
            {
              "ID": 300033,
              "NavMap": {
                "MapLayerID": 1
              }
            },
            {
              "ID": 300034,
              "NavMap": {
                "MapLayerID": 1
              }
            },
            {
              "ID": 300035,
              "NavMap": {
                "MapLayerID": 1
              }
            },
            {
              "ID": 300036,
              "NavMap": {
                "MapLayerID": 1
              }
            },
            {
              "ID": 300037,
              "NavMap": {
                "MapLayerID": 1
              }
            },
            {
              "ID": 300038,
              "NavMap": {
                "MapLayerID": 1
              }
            },
            {
              "ID": 300039,
              "NavMap": {
                "MapLayerID": 1
              }
            },
            {
              "ID": 300040,
              "NavMap": {
                "MapLayerID": 1
              }
            },
            {
              "ID": 300041,
              "NavMap": {
                "MapLayerID": 1
              }
            },
            {
              "ID": 300042,
              "NavMap": {
                "MapLayerID": 1
              }
            },
            {
              "ID": 300043,
              "NavMap": {
                "MapLayerID": 1
              }
            },
            {
              "ID": 300044,
              "NavMap": {
                "MapLayerID": 1
              }
            },
            {
              "ID": 300045,
              "NavMap": {
                "MapLayerID": 1
              }
            },
            {
              "ID": 300046,
              "NavMap": {
                "MapLayerID": 1
              }
            },
            {
              "ID": 300047,
              "NavMap": {
                "MapLayerID": 1
              }
            },
            {
              "ID": 300048,
              "NavMap": {
                "MapLayerID": 1
              }
            },
            {
              "ID": 300049,
              "NavMap": {
                "MapLayerID": 1
              }
            },
            {
              "ID": 300050,
              "NavMap": {
                "MapLayerID": 1
              }
            },
            {
              "ID": 300051,
              "NavMap": {
                "MapLayerID": 1
              }
            },
            {
              "ID": 300052,
              "NavMap": {
                "MapLayerID": 1
              }
            },
            {
              "ID": 300053,
              "NavMap": {
                "MapLayerID": 1
              }
            },
            {
              "ID": 300054,
              "NavMap": {
                "MapLayerID": 1
              }
            },
            {
              "ID": 300055,
              "NavMap": {
                "MapLayerID": 1
              }
            },
            {
              "ID": 300056,
              "NavMap": {
                "MapLayerID": 1
              }
            },
            {
              "ID": 300057,
              "NavMap": {
                "MapLayerID": 1
              }
            },
            {
              "ID": 300058,
              "NavMap": {
                "MapLayerID": 1
              }
            },
            {
              "ID": 300059,
              "NavMap": {
                "MapLayerID": 1
              }
            },
            {
              "ID": 300060,
              "NavMap": {
                "MapLayerID": 1
              }
            },
            {
              "ID": 300061,
              "NavMap": {
                "MapLayerID": 1
              }
            },
            {
              "ID": 300062,
              "NavMap": {
                "MapLayerID": 1
              }
            },
            {
              "ID": 300063,
              "NavMap": {
                "MapLayerID": 1
              }
            },
            {
              "ID": 300064,
              "NavMap": {
                "MapLayerID": 1
              }
            }
          ],
          "NPCList": [
            {
              "ID": 400001,
              "NavMap": {
                "MapLayerID": 1
              }
            }
          ],
          "AnchorList": [
            {
              "ID": 1,
              "NavMap": {
                "MapLayerID": 1
              }
            },
            {
              "ID": 2,
              "NavMap": {
                "MapLayerID": 1
              }
            },
            {
              "ID": 3,
              "NavMap": {
                "MapLayerID": 1
              }
            },
            {
              "ID": 4,
              "NavMap": {
                "MapLayerID": 1
              }
            },
            {
              "ID": 5,
              "NavMap": {
                "MapLayerID": 1
              }
            }
          ],
          "RegionIDList": []
        },
        {
          "ID": 16,
          "ConflictSpatialInfo": {
            "CompactGridList": [
              0,
              0
            ],
            "LowerUpperBounds": {
              "y": 1
            }
          },
          "StreamingSpatialInfo": {
            "CompactGridList": [
              0,
              0,
              -23,
              22
            ],
            "LowerUpperBounds": {
              "y": 18
            }
          },
          "PropList": [
            {
              "ID": 300001,
              "NavMap": {
                "MapLayerID": 1
              }
            }
          ],
          "NPCList": [
            {
              "ID": 400001,
              "NavMap": {
                "MapLayerID": 1
              }
            }
          ],
          "RegionIDList": []
        },
        {
          "ID": 22,
          "ConflictSpatialInfo": {
            "CompactGridList": [],
            "LowerUpperBounds": {}
          },
          "StreamingSpatialInfo": {
            "CompactGridList": [
              -43,
              37,
              -38,
              37,
              -39,
              38,
              -35,
              40
            ],
            "LowerUpperBounds": {
              "x": 17,
              "y": 18
            }
          },
          "PropList": [
            {
              "ID": 300001,
              "NavMap": {
                "MapLayerID": 1
              }
            },
            {
              "ID": 300002,
              "NavMap": {
                "MapLayerID": 1
              }
            },
            {
              "ID": 300003,
              "NavMap": {
                "MapLayerID": 1
              }
            },
            {
              "ID": 300004,
              "NavMap": {
                "MapLayerID": 1
              }
            }
          ],
          "RegionIDList": []
        },
        {
          "ID": 23,
          "ConflictSpatialInfo": {
            "CompactGridList": [],
            "LowerUpperBounds": {}
          },
          "StreamingSpatialInfo": {
            "CompactGridList": [
              0,
              25,
              2,
              25,
              5,
              25,
              7,
              25,
              0,
              27,
              2,
              27,
              5,
              27,
              7,
              27,
              0,
              30,
              2,
              30,
              5,
              30,
              7,
              30,
              10,
              30,
              12,
              30,
              15,
              30,
              23,
              30,
              12,
              32,
              18,
              32,
              20,
              32,
              23,
              32,
              12,
              33,
              18,
              35,
              20,
              35,
              23,
              35,
              25,
              35,
              28,
              35
            ],
            "LowerUpperBounds": {
              "x": 17,
              "y": 19
            }
          },
          "PropList": [
            {
              "ID": 300001,
              "NavMap": {
                "MapLayerID": 1
              }
            },
            {
              "ID": 300002,
              "NavMap": {
                "MapLayerID": 1
              }
            },
            {
              "ID": 300003,
              "NavMap": {
                "MapLayerID": 1
              }
            },
            {
              "ID": 300004,
              "NavMap": {
                "MapLayerID": 1
              }
            },
            {
              "ID": 300005,
              "NavMap": {
                "MapLayerID": 1
              }
            },
            {
              "ID": 300006,
              "NavMap": {
                "MapLayerID": 1
              }
            },
            {
              "ID": 300007,
              "NavMap": {
                "MapLayerID": 1
              }
            },
            {
              "ID": 300008,
              "NavMap": {
                "MapLayerID": 1
              }
            },
            {
              "ID": 300009,
              "NavMap": {
                "MapLayerID": 1
              }
            },
            {
              "ID": 300010,
              "NavMap": {
                "MapLayerID": 1
              }
            },
            {
              "ID": 300011,
              "NavMap": {
                "MapLayerID": 1
              }
            },
            {
              "ID": 300012,
              "NavMap": {
                "MapLayerID": 1
              }
            },
            {
              "ID": 300013,
              "NavMap": {
                "MapLayerID": 1
              }
            },
            {
              "ID": 300014,
              "NavMap": {
                "MapLayerID": 1
              }
            },
            {
              "ID": 300015,
              "NavMap": {
                "MapLayerID": 1
              }
            },
            {
              "ID": 300016,
              "NavMap": {
                "MapLayerID": 1
              }
            },
            {
              "ID": 300017,
              "NavMap": {
                "MapLayerID": 1
              }
            },
            {
              "ID": 300018,
              "NavMap": {
                "MapLayerID": 1
              }
            },
            {
              "ID": 300019,
              "NavMap": {
                "MapLayerID": 1
              }
            },
            {
              "ID": 300020,
              "NavMap": {
                "MapLayerID": 1
              }
            },
            {
              "ID": 300021,
              "NavMap": {
                "MapLayerID": 1
              }
            },
            {
              "ID": 300022,
              "NavMap": {
                "MapLayerID": 1
              }
            },
            {
              "ID": 300023,
              "NavMap": {
                "MapLayerID": 1
              }
            },
            {
              "ID": 300024,
              "NavMap": {
                "MapLayerID": 1
              }
            },
            {
              "ID": 300025,
              "NavMap": {
                "MapLayerID": 1
              }
            },
            {
              "ID": 300026,
              "NavMap": {
                "MapLayerID": 1
              }
            }
          ],
          "AnchorList": [
            {
              "ID": 1,
              "NavMap": {
                "MapLayerID": 1
              }
            },
            {
              "ID": 2,
              "NavMap": {
                "MapLayerID": 1
              }
            },
            {
              "ID": 3,
              "NavMap": {
                "MapLayerID": 1
              }
            },
            {
              "ID": 4,
              "NavMap": {
                "MapLayerID": 1
              }
            },
            {
              "ID": 5,
              "NavMap": {
                "MapLayerID": 1
              }
            },
            {
              "ID": 6,
              "NavMap": {
                "MapLayerID": 1
              }
            },
            {
              "ID": 7,
              "NavMap": {
                "MapLayerID": 1
              }
            },
            {
              "ID": 8,
              "NavMap": {
                "MapLayerID": 1
              }
            },
            {
              "ID": 9,
              "NavMap": {
                "MapLayerID": 1
              }
            },
            {
              "ID": 10,
              "NavMap": {
                "MapLayerID": 1
              }
            }
          ],
          "RegionIDList": []
        }
      ]
    }
  ],
  "NavMesh": "Level/NavMesh/NavMesh-Floor_90303009.asset"
}