{
  "OnStartSequece": [
    {
      "TaskList": [
        {
          "$type": "RPG.GameCore.LevelPerformanceInitialize",
          "PerformanceType": "E",
          "HideMunicipalCrowd": false,
          "HideMunicipalPedestrian": false
        },
        {
          "$type": "RPG.GameCore.AdvNpcFaceToPlayer"
        },
        {
          "$type": "RPG.GameCore.PlayOptionTalk",
          "OptionList": [
            {
              "TalkSentenceID": 802230001,
              "OptionIconType": "ChatContinueIcon",
              "TriggerCustomString": "TalkSentence_802230002"
            }
          ]
        }
      ]
    },
    {
      "TaskList": [
        {
          "$type": "RPG.GameCore.WaitCustomString",
          "CustomString": {
            "Value": "TalkSentence_802230002"
          }
        },
        {
          "$type": "RPG.GameCore.PlayAndWaitSimpleTalk",
          "SimpleTalkList": [
            {
              "TextSpeed": 0,
              "TalkSentenceID": 802230002,
              "ProtectTime": 0
            },
            {
              "TextSpeed": 0,
              "TalkSentenceID": 802230003,
              "ProtectTime": 0
            }
          ]
        },
        {
          "$type": "RPG.GameCore.PlayOptionTalk",
          "OptionList": [
            {
              "TalkSentenceID": 802230004,
              "OptionIconType": "ChatContinueIcon",
              "TriggerCustomString": "TalkSentence_802230005"
            },
            {
              "TalkSentenceID": 802230006,
              "OptionIconType": "ChatContinueIcon",
              "TriggerCustomString": "TalkSentence_802230007"
            }
          ]
        }
      ]
    },
    {
      "TaskList": [
        {
          "$type": "RPG.GameCore.WaitCustomString",
          "CustomString": {
            "Value": "TalkSentence_802230005"
          }
        },
        {
          "$type": "RPG.GameCore.PlayAndWaitSimpleTalk",
          "SimpleTalkList": [
            {
              "TextSpeed": 0,
              "TalkSentenceID": 802230005,
              "ProtectTime": 0
            }
          ]
        },
        {
          "$type": "RPG.GameCore.TriggerCustomString",
          "CustomString": {
            "Value": "TalkSentence_802230009"
          }
        }
      ]
    },
    {
      "TaskList": [
        {
          "$type": "RPG.GameCore.WaitCustomString",
          "CustomString": {
            "Value": "TalkSentence_802230007"
          }
        },
        {
          "$type": "RPG.GameCore.PlayAndWaitSimpleTalk",
          "SimpleTalkList": [
            {
              "TextSpeed": 0,
              "TalkSentenceID": 802230007,
              "ProtectTime": 0
            },
            {
              "TextSpeed": 0,
              "TalkSentenceID": 802230008,
              "ProtectTime": 0
            }
          ]
        },
        {
          "$type": "RPG.GameCore.TriggerCustomString",
          "CustomString": {
            "Value": "TalkSentence_802230009"
          }
        }
      ]
    },
    {
      "TaskList": [
        {
          "$type": "RPG.GameCore.WaitCustomString",
          "CustomString": {
            "Value": "TalkSentence_802230009"
          }
        },
        {
          "$type": "RPG.GameCore.PlayAndWaitSimpleTalk",
          "SimpleTalkList": [
            {
              "TextSpeed": 0,
              "TalkSentenceID": 802230009,
              "ProtectTime": 0
            },
            {
              "TextSpeed": 0,
              "TalkSentenceID": 802230010,
              "ProtectTime": 0
            },
            {
              "TextSpeed": 0,
              "TalkSentenceID": 802230011,
              "ProtectTime": 0
            },
            {
              "TextSpeed": 0,
              "TalkSentenceID": 802230012,
              "ProtectTime": 0
            }
          ]
        },
        {
          "$type": "RPG.GameCore.PlayOptionTalk",
          "OptionList": [
            {
              "TalkSentenceID": 802230013,
              "OptionIconType": "ChatContinueIcon",
              "TriggerCustomString": "TalkSentence_802230015"
            },
            {
              "TalkSentenceID": 802230014,
              "OptionIconType": "ChatContinueIcon",
              "TriggerCustomString": "TalkSentence_802230015"
            }
          ]
        }
      ]
    },
    {
      "TaskList": [
        {
          "$type": "RPG.GameCore.WaitCustomString",
          "CustomString": {
            "Value": "TalkSentence_802230015"
          }
        },
        {
          "$type": "RPG.GameCore.PlayAndWaitSimpleTalk",
          "SimpleTalkList": [
            {
              "TextSpeed": 0,
              "TalkSentenceID": 802230015,
              "ProtectTime": 0
            },
            {
              "TextSpeed": 0,
              "TalkSentenceID": 802230016,
              "ProtectTime": 0
            }
          ]
        },
        {
          "$type": "RPG.GameCore.EndPerformance"
        }
      ]
    },
    {
      "TaskList": [
        {
          "$type": "RPG.GameCore.WaitPerformanceEnd"
        },
        {
          "$type": "RPG.GameCore.FinishLevelGraph"
        }
      ]
    }
  ]
}