{
  "OnInitSequece": [],
  "OnStartSequece": [
    {
      "TaskList": [
        {
          "$type": "RPG.GameCore.WaitCustomString",
          "CustomString": {
            "Value": "TriggerSuperBig"
          },
          "GoNextImmediately": true
        },
        {
          "$type": "RPG.GameCore.TriggerCustomString",
          "CustomString": {
            "Value": "OrigamiSuperbig"
          }
        }
      ]
    },
    {
      "TaskList": [
        {
          "$type": "RPG.GameCore.WaitCustomString",
          "CustomString": {
            "Value": "OrigamiSuperbig"
          },
          "WaitOwnerOnly": true,
          "GoNextImmediately": true
        },
        {
          "$type": "RPG.GameCore.TriggerEntityEvent",
          "EventName": {
            "Value": "Clt_TriggerLock"
          },
          "InstanceID": {
            "IsDynamic": false,
            "FixedValue": {
              "Value": 300001
            }
          }
        },
        {
          "$type": "RPG.GameCore.PlayFullScreenTransfer",
          "Action": [
            {
              "$type": "RPG.GameCore.ScrTrfActPerformance",
              "CreateNpc": {
                "TaskEnabled": false
              },
              "DestroyNpc": {
                "Hide": true,
                "TaskEnabled": false
              },
              "CreateProp": {
                "TaskEnabled": false
              },
              "DestroyProp": {
                "TargetType": {
                  "$type": "RPG.GameCore.TargetFetchAdvPropEx"
                },
                "TaskEnabled": false
              },
              "CaptureNpc": [],
              "SwitchCharacterAnchor": {
                "TaskEnabled": false
              },
              "ActiveVirtualCamera": {
                "AreaName": "LevelArea_P20322_F20322001_G164",
                "AnchorName": "Anchor1"
              },
              "ActiveTemplateVirtualCamera": {
                "TaskEnabled": false
              },
              "AdvNpcFaceToPlayer": {
                "SteerImmediately": true,
                "FinishImmadiate": true,
                "TaskEnabled": false
              }
            }
          ]
        },
        {
          "$type": "RPG.GameCore.StartPropInteractMode",
          "TargetType": {
            "$type": "RPG.GameCore.GroupFetchLocalTarget",
            "Targets": [
              400001
            ]
          },
          "Mode": "OpenUI"
        },
        {
          "$type": "RPG.GameCore.PlayOptionTalk",
          "OptionList": [
            {
              "OptionTextmapID": {
                "Hash": 52050150
              },
              "OptionIconType": "OrigamiBirdIcon",
              "TriggerCustomString": "MazeText_Maze_OrigamiBird_Normal_PullOut"
            }
          ]
        }
      ]
    },
    {
      "TaskList": [
        {
          "$type": "RPG.GameCore.WaitCustomString",
          "CustomString": {
            "Value": "MazeText_Maze_OrigamiBird_Normal_PullOut"
          },
          "WaitOwnerOnly": true,
          "GoNextImmediately": true
        },
        {
          "$type": "RPG.GameCore.TriggerEntityEvent",
          "EventName": {
            "Value": "Clt_TriggerPullSuccessHaveCamera"
          },
          "InstanceID": {
            "IsDynamic": false,
            "FixedValue": {
              "Value": 300001
            }
          }
        }
      ]
    },
    {
      "TaskList": [
        {
          "$type": "RPG.GameCore.WaitEntityEvent",
          "EventName": {
            "Value": "Clt_OnShowSuccessed"
          },
          "OnEvent": [
            {
              "$type": "RPG.GameCore.TriggerPerformance",
              "PerformanceType": "E",
              "PerformanceType_DS": {
                "Custom": true,
                "Key": "TriggerPerformanceTpye"
              },
              "PerformanceID_DS": {
                "Custom": true,
                "Key": "TriggerPerformance"
              }
            },
            {
              "$type": "RPG.GameCore.TriggerEntityEvent",
              "EventName": {
                "Value": "Clt_TriggerPerformanceFinish"
              },
              "InstanceID": {
                "IsDynamic": false,
                "FixedValue": {
                  "Value": 300001
                }
              }
            },
            {
              "$type": "RPG.GameCore.TriggerEntityEvent",
              "EventName": {
                "Value": "Clt_OnUnlock"
              },
              "InstanceID": {
                "IsDynamic": false,
                "FixedValue": {
                  "Value": 300001
                }
              }
            },
            {
              "$type": "RPG.GameCore.EndPropInteract"
            }
          ],
          "InstanceID": {
            "IsDynamic": false,
            "FixedValue": {
              "Value": 300001
            }
          }
        }
      ]
    },
    {
      "TaskList": [
        {
          "$type": "RPG.GameCore.PropStateChangeListenerConfig",
          "FromState": "EventClose",
          "ToState": "EventOpen",
          "FromAnyState": true,
          "OnChange": [
            {
              "$type": "RPG.GameCore.TriggerCustomString",
              "CustomString": {
                "Custom": true,
                "Key": "MissionStr"
              }
            }
          ],
          "TargetType": {
            "$type": "RPG.GameCore.GroupFetchLocalTarget",
            "TargetType": "Prop",
            "Targets": [
              300001
            ]
          }
        }
      ]
    },
    {
      "TaskList": [
        {
          "$type": "RPG.GameCore.LoopWaitServerPropStateChange",
          "TaskEnabled": true
        }
      ]
    },
    {
      "TaskList": [
        {
          "$type": "RPG.GameCore.WaitFloorSavedValueChangeV2",
          "Name": {
            "Value": "FSV_HugeOrigami"
          },
          "Condition": {
            "$type": "RPG.GameCore.ByCompareFloorSavedValue",
            "Name": "FSV_HugeOrigami",
            "CompareType": "Equal"
          },
          "OnChange": [
            {
              "$type": "RPG.GameCore.AdvEnableTrigger",
              "TargetType": {
                "$type": "RPG.GameCore.GroupFetchLocalTarget",
                "TargetType": "Prop",
                "Targets": [
                  300001
                ]
              },
              "TriggerName": "InteractTrigger"
            }
          ]
        }
      ]
    },
    {
      "TaskList": [
        {
          "$type": "RPG.GameCore.WaitFloorSavedValueChangeV2",
          "Name": {
            "Value": "FSV_HugeOrigami"
          },
          "Condition": {
            "$type": "RPG.GameCore.ByCompareFloorSavedValue",
            "Name": "FSV_HugeOrigami",
            "CompareType": "Equal",
            "CompareValue": 1
          },
          "OnChange": [
            {
              "$type": "RPG.GameCore.AdvEnableTrigger",
              "TargetType": {
                "$type": "RPG.GameCore.GroupFetchLocalTarget",
                "TargetType": "Prop",
                "Targets": [
                  300001
                ]
              },
              "IsEnable": true,
              "TriggerName": "InteractTrigger"
            }
          ]
        }
      ]
    },
    {
      "TaskList": [
        {
          "$type": "RPG.GameCore.PredicateTaskList",
          "Predicate": {
            "$type": "RPG.GameCore.ByCompareFloorSavedValue",
            "Name": "FSV_HugeOrigami",
            "CompareType": "Equal",
            "CompareValue": 1
          },
          "SuccessTaskList": [
            {
              "$type": "RPG.GameCore.AdvEnableTrigger",
              "TargetType": {
                "$type": "RPG.GameCore.GroupFetchLocalTarget",
                "TargetType": "Prop",
                "Targets": [
                  300001
                ]
              },
              "IsEnable": true,
              "TriggerName": "InteractTrigger"
            }
          ]
        }
      ]
    },
    {
      "TaskList": [
        {
          "$type": "RPG.GameCore.PredicateTaskList",
          "Predicate": {
            "$type": "RPG.GameCore.ByCompareFloorSavedValue",
            "Name": "FSV_HugeOrigami",
            "CompareType": "Equal"
          },
          "SuccessTaskList": [
            {
              "$type": "RPG.GameCore.AdvEnableTrigger",
              "TargetType": {
                "$type": "RPG.GameCore.GroupFetchLocalTarget",
                "TargetType": "Prop",
                "Targets": [
                  300001
                ]
              },
              "TriggerName": "InteractTrigger"
            }
          ]
        }
      ]
    },
    {
      "TaskList": [
        {
          "$type": "RPG.GameCore.PredicateTaskList",
          "Predicate": {
            "$type": "RPG.GameCore.ByComparePropState",
            "TargetType": {
              "$type": "RPG.GameCore.GroupFetchLocalTarget",
              "TargetType": "Prop",
              "Targets": [
                300001
              ]
            },
            "State": "EventClose"
          },
          "SuccessTaskList": [
            {
              "$type": "RPG.GameCore.AdvCreateGroupEntity",
              "InstanceIDList": [
                300003
              ]
            }
          ]
        }
      ]
    }
  ],
  "ValueSource": {
    "Values": [
      {
        "$type": "RPG.GameCore.SharedString",
        "Value": "NULL",
        "Key": "MissionStr"
      },
      {
        "$type": "RPG.GameCore.SharedString",
        "Value": "E",
        "Key": "TriggerPerformanceTpye"
      },
      {
        "$type": "RPG.GameCore.SharedString",
        "Key": "TriggerPerformance"
      },
      {
        "$type": "RPG.GameCore.SharedString",
        "Value": "300001",
        "Key": "Origami"
      },
      {
        "$type": "RPG.GameCore.SharedString",
        "Value": "300002",
        "Key": "TargetIcon"
      }
    ]
  },
  "Type": "Group"
}