{
  "LockSourceFlagConfig": {
    "UI": "Count",
    "TaskLockAll": "OnOff",
    "TaskLockPlayerControl": "Count",
    "TaskLockCamera": "Count",
    "LockBattle": "OnOff",
    "LockLevelGraph": "Count",
    "PauseGame": "OnOff",
    "ShowRareRewardHint": "Count",
    "PhotoGraph": "Count",
    "FarmCocoonPage": "Count",
    "PausePerformance": "OnOff",
    "FakeAvatar": "OnOff",
    "Tutorial": "OnOff",
    "LookAtPhone": "OnOff",
    "Teleport": "OnOff",
    "IsometricView": "OnOff",
    "InstantKill": "OnOff",
    "PropInteract": "OnOff",
    "FullScreenLock": "OnOff"
  },
  "LockSourceTargetMapping": {
    "UI": {
      "LockTargetList": [
        "PlayerControl",
        "Camera",
        "MainCameraLateUpdate",
        "EntityTimeScale",
        "EnvironmentTimeScale",
        "MissionTalk",
        "Sound",
        "Effect",
        "ChallengeEventTimer",
        "TaskOpenScreenTransfer",
        "DebugUIInput"
      ]
    },
    "UIWithoutSound": {
      "LockTargetList": [
        "PlayerControl",
        "Camera",
        "MainCameraLateUpdate",
        "EntityTimeScale",
        "EnvironmentTimeScale",
        "MissionTalk",
        "Effect",
        "ChallengeEventTimer",
        "TaskOpenScreenTransfer",
        "DebugUIInput"
      ]
    },
    "TaskLockAll": {
      "LockTargetList": [
        "PlayerControl",
        "Camera",
        "InputControl",
        "EntityTimeScale",
        "EnvironmentTimeScale",
        "MissionTalk",
        "Sound",
        "Effect",
        "ChallengeEventTimer",
        "DebugUIInput"
      ]
    },
    "TaskLockPlayerControl": {
      "LockTargetList": [
        "PlayerControl",
        "ChallengeEventTimer"
      ]
    },
    "TaskLockCamera": {
      "LockTargetList": [
        "Camera"
      ]
    },
    "LockBattle": {
      "LockTargetList": [
        "Camera",
        "InputControl",
        "ChallengeEventTimer"
      ]
    },
    "LockLevelGraph": {
      "LockTargetList": [
        "PlayerControl"
      ]
    },
    "PauseGame": {
      "LockTargetList": [
        "GameWorldTimeScale"
      ]
    },
    "ShowRareRewardHint": {
      "LockTargetList": [
        "PlayerControl",
        "Camera",
        "MonsterAI",
        "DebugUIInput"
      ]
    },
    "Tutorial": {
      "LockTargetList": [
        "PlayerControl",
        "Camera"
      ]
    },
    "PhotoGraph": {
      "LockTargetList": [
        "PlayerControl"
      ]
    },
    "FarmCocoonPage": {
      "LockTargetList": [
        "CharacterIdleShow"
      ]
    },
    "PausePerformance": {
      "LockTargetList": [
        "PlayerControl",
        "Camera",
        "MainCameraLateUpdate",
        "EntityTimeScale",
        "EnvironmentTimeScale",
        "PerformanceTimeScale",
        "TaskOpenScreenTransfer",
        "DebugUIInput"
      ]
    },
    "FakeAvatar": {
      "LockTargetList": [
        "HideSummonUnit_FollowUnit",
        "HideSummonUnit_FollowField"
      ]
    },
    "LittleGame": {
      "LockTargetList": [
        "HideAllHoYoGroup"
      ]
    },
    "LookAtPhone": {
      "LockTargetList": [
        "MonsterAI",
        "LocalPlayerLookAt",
        "PerformanceMode"
      ]
    },
    "Teleport": {
      "LockTargetList": [
        "HideSummonUnit_FollowUnit",
        "HideSummonUnit_FollowField"
      ]
    },
    "IsometricView": {
      "LockTargetList": [
        "HideSummonUnit_FollowUnit",
        "HideSummonUnit_FollowField",
        "HideSummonUnit_Field",
        "HideSummonUnit_StaticUnit",
        "CharacterIdleShow"
      ]
    },
    "WolfBroGame": {
      "LockTargetList": [
        "MapRotationPlayerEffect",
        "MapRotationVolume"
      ]
    },
    "InstantKill": {
      "LockTargetList": [
        "InstantKillToast"
      ]
    },
    "GhostTrigger": {
      "LockTargetList": [
        "HideSummonUnit_FollowUnit",
        "HideSummonUnit_FollowField",
        "GhostTriggerBanMazeSkill"
      ]
    },
    "PropInteract": {
      "LockTargetList": [
        "PropInteractMuteInputAction"
      ]
    },
    "FullScreenLock": {
      "LockTargetList": [
        "UIFullScreenBlock"
      ]
    }
  },
  "LockTargetParamList": {
    "PropInteractMuteInputAction": {
      "$type": "RPG.GameCore.PropInteractMuteInputActionParam",
      "MuteInputActionList": [
        "Maze_ShortCutwyhee",
        "Maze_Avatar",
        "Maze_Team",
        "Maze_Map",
        "Maze_Bag",
        "Maze_Job",
        "Maze_Shop",
        "Maze_Gacha",
        "Maze_TutorialOverView",
        "Maze_BattlePass",
        "Maze_HandbookPage",
        "Maze_Activity",
        "Menu_PhoneOrQuitGame"
      ]
    }
  }
}