{
  "StateList": [
    {
      "MotionID": 311060000,
      "EntranceFreeStyleIDList": [
        311060200,
        311060002,
        311060003,
        311060007,
        311060008,
        311060011,
        311060009,
        311060013,
        311060010,
        311060012,
        311060014,
        311060217,
        311060223,
        311060232,
        311060238,
        311060248,
        311060265,
        311060257,
        311060275,
        311060905
      ],
      "CanTransitionToState": true
    },
    {
      "MotionID": 311060200,
      "EntranceFreeStyleIDList": [
        311060000
      ],
      "CanTransitionToState": true
    },
    {
      "MotionID": 311060001,
      "EntranceFreeStyleIDList": [
        311060000
      ]
    },
    {
      "MotionID": 311060002,
      "EntranceFreeStyleIDList": [
        311060000,
        311060001
      ],
      "CanTransitionToState": true
    },
    {
      "MotionID": 311060003,
      "EntranceFreeStyleIDList": [
        311060000,
        311060001
      ],
      "CanTransitionToState": true
    },
    {
      "MotionID": 311060006,
      "EntranceFreeStyleIDList": [
        311060004,
        311060005
      ]
    },
    {
      "MotionID": 311060004,
      "EntranceFreeStyleIDList": [
        311060000
      ]
    },
    {
      "MotionID": 311060005,
      "EntranceFreeStyleIDList": [
        311060000
      ]
    },
    {
      "MotionID": 311060007,
      "EntranceFreeStyleIDList": [
        311060000,
        311060006,
        311060004
      ],
      "CanTransitionToState": true
    },
    {
      "MotionID": 311060008,
      "EntranceFreeStyleIDList": [
        311060000,
        311060006,
        311060005
      ],
      "CanTransitionToState": true
    },
    {
      "MotionID": 311060011,
      "EntranceFreeStyleIDList": [
        311060000
      ],
      "CanTransitionToState": true
    },
    {
      "MotionID": 311060009,
      "EntranceFreeStyleIDList": [
        311060000
      ],
      "CanTransitionToState": true
    },
    {
      "MotionID": 311060013,
      "EntranceFreeStyleIDList": [
        311060000
      ],
      "CanTransitionToState": true
    },
    {
      "MotionID": 311060010,
      "EntranceFreeStyleIDList": [
        311060000
      ],
      "CanTransitionToState": true
    },
    {
      "MotionID": 311060012,
      "EntranceFreeStyleIDList": [
        311060000
      ],
      "CanTransitionToState": true
    },
    {
      "MotionID": 311060014,
      "EntranceFreeStyleIDList": [
        311060000
      ],
      "CanTransitionToState": true
    },
    {
      "MotionID": 311060215,
      "EntranceFreeStyleIDList": [
        311060000
      ]
    },
    {
      "MotionID": 311060216,
      "EntranceFreeStyleIDList": [
        311060215,
        311060220
      ]
    },
    {
      "MotionID": 311060217,
      "EntranceFreeStyleIDList": [
        311060216,
        311060215
      ],
      "CanTransitionToState": true
    },
    {
      "MotionID": 311060218,
      "EntranceFreeStyleIDList": [
        311060216
      ]
    },
    {
      "MotionID": 311060219,
      "EntranceFreeStyleIDList": [
        311060218
      ]
    },
    {
      "MotionID": 311060220,
      "EntranceFreeStyleIDList": [
        311060219,
        311060218
      ]
    },
    {
      "MotionID": 311060221,
      "EntranceFreeStyleIDList": [
        311060000
      ]
    },
    {
      "MotionID": 311060222,
      "EntranceFreeStyleIDList": [
        311060221,
        311060226
      ]
    },
    {
      "MotionID": 311060223,
      "EntranceFreeStyleIDList": [
        311060222,
        311060221
      ],
      "CanTransitionToState": true
    },
    {
      "MotionID": 311060224,
      "EntranceFreeStyleIDList": [
        311060222
      ]
    },
    {
      "MotionID": 311060225,
      "EntranceFreeStyleIDList": [
        311060224
      ]
    },
    {
      "MotionID": 311060226,
      "EntranceFreeStyleIDList": [
        311060225,
        311060224
      ]
    },
    {
      "MotionID": 311060230,
      "EntranceFreeStyleIDList": [
        311060000
      ]
    },
    {
      "MotionID": 311060231,
      "EntranceFreeStyleIDList": [
        311060230,
        311060235
      ]
    },
    {
      "MotionID": 311060232,
      "EntranceFreeStyleIDList": [
        311060231,
        311060230
      ],
      "CanTransitionToState": true
    },
    {
      "MotionID": 311060233,
      "EntranceFreeStyleIDList": [
        311060231
      ]
    },
    {
      "MotionID": 311060234,
      "EntranceFreeStyleIDList": [
        311060233
      ]
    },
    {
      "MotionID": 311060235,
      "EntranceFreeStyleIDList": [
        311060234,
        311060233
      ]
    },
    {
      "MotionID": 311060236,
      "EntranceFreeStyleIDList": [
        311060000
      ]
    },
    {
      "MotionID": 311060237,
      "EntranceFreeStyleIDList": [
        311060236
      ]
    },
    {
      "MotionID": 311060238,
      "EntranceFreeStyleIDList": [
        311060237,
        311060236
      ],
      "CanTransitionToState": true
    },
    {
      "MotionID": 311060248,
      "EntranceFreeStyleIDList": [
        311060000
      ],
      "CanTransitionToState": true
    },
    {
      "MotionID": 311060265,
      "EntranceFreeStyleIDList": [
        311060000
      ],
      "CanTransitionToState": true
    },
    {
      "MotionID": 311060255,
      "EntranceFreeStyleIDList": [
        311060000
      ]
    },
    {
      "MotionID": 311060256,
      "EntranceFreeStyleIDList": [
        311060255
      ]
    },
    {
      "MotionID": 311060257,
      "EntranceFreeStyleIDList": [
        311060256,
        311060255
      ],
      "CanTransitionToState": true
    },
    {
      "MotionID": 311060273,
      "EntranceFreeStyleIDList": [
        311060000
      ]
    },
    {
      "MotionID": 311060274,
      "EntranceFreeStyleIDList": [
        311060273
      ]
    },
    {
      "MotionID": 311060275,
      "EntranceFreeStyleIDList": [
        311060274,
        311060273
      ],
      "CanTransitionToState": true
    },
    {
      "MotionID": 311060903,
      "EntranceFreeStyleIDList": [
        311060000
      ]
    },
    {
      "MotionID": 311060904,
      "EntranceFreeStyleIDList": [
        311060903
      ]
    },
    {
      "MotionID": 311060905,
      "EntranceFreeStyleIDList": [
        311060904,
        311060903
      ],
      "CanTransitionToState": true
    },
    {
      "MotionID": 311060017,
      "EntranceFreeStyleIDList": []
    }
  ]
}