{
  "StateList": [
    {
      "MotionID": 312020000,
      "EntranceFreeStyleIDList": [
        312020200,
        312020201,
        312020002,
        312020003,
        312020007,
        312020008,
        312020011,
        312020009,
        312020013,
        312020010,
        312020012,
        312020014,
        312020217,
        312020232,
        312020241,
        312020266,
        312020254,
        312020275,
        312020247
      ],
      "CanTransitionToState": true
    },
    {
      "MotionID": 312020200,
      "EntranceFreeStyleIDList": [
        312020000
      ],
      "CanTransitionToState": true
    },
    {
      "MotionID": 312020201,
      "EntranceFreeStyleIDList": [
        312020000
      ],
      "CanTransitionToState": true
    },
    {
      "MotionID": 312020001,
      "EntranceFreeStyleIDList": [
        312020000
      ]
    },
    {
      "MotionID": 312020002,
      "EntranceFreeStyleIDList": [
        312020000,
        312020001
      ],
      "CanTransitionToState": true
    },
    {
      "MotionID": 312020003,
      "EntranceFreeStyleIDList": [
        312020000,
        312020001
      ],
      "CanTransitionToState": true
    },
    {
      "MotionID": 312020006,
      "EntranceFreeStyleIDList": [
        312020004,
        312020005
      ]
    },
    {
      "MotionID": 312020004,
      "EntranceFreeStyleIDList": [
        312020000
      ]
    },
    {
      "MotionID": 312020005,
      "EntranceFreeStyleIDList": [
        312020000
      ]
    },
    {
      "MotionID": 312020007,
      "EntranceFreeStyleIDList": [
        312020000,
        312020006,
        312020004
      ],
      "CanTransitionToState": true
    },
    {
      "MotionID": 312020008,
      "EntranceFreeStyleIDList": [
        312020000,
        312020006,
        312020005
      ],
      "CanTransitionToState": true
    },
    {
      "MotionID": 312020011,
      "EntranceFreeStyleIDList": [
        312020000
      ],
      "CanTransitionToState": true
    },
    {
      "MotionID": 312020009,
      "EntranceFreeStyleIDList": [
        312020000
      ],
      "CanTransitionToState": true
    },
    {
      "MotionID": 312020013,
      "EntranceFreeStyleIDList": [
        312020000
      ],
      "CanTransitionToState": true
    },
    {
      "MotionID": 312020010,
      "EntranceFreeStyleIDList": [
        312020000
      ],
      "CanTransitionToState": true
    },
    {
      "MotionID": 312020012,
      "EntranceFreeStyleIDList": [
        312020000
      ],
      "CanTransitionToState": true
    },
    {
      "MotionID": 312020014,
      "EntranceFreeStyleIDList": [
        312020000
      ],
      "CanTransitionToState": true
    },
    {
      "MotionID": 312020215,
      "EntranceFreeStyleIDList": [
        312020000
      ]
    },
    {
      "MotionID": 312020216,
      "EntranceFreeStyleIDList": [
        312020215,
        312020220
      ]
    },
    {
      "MotionID": 312020217,
      "EntranceFreeStyleIDList": [
        312020216,
        312020215
      ],
      "CanTransitionToState": true
    },
    {
      "MotionID": 312020218,
      "EntranceFreeStyleIDList": [
        312020216
      ]
    },
    {
      "MotionID": 312020219,
      "EntranceFreeStyleIDList": [
        312020218
      ]
    },
    {
      "MotionID": 312020220,
      "EntranceFreeStyleIDList": [
        312020219,
        312020218
      ]
    },
    {
      "MotionID": 312020230,
      "EntranceFreeStyleIDList": [
        312020000
      ]
    },
    {
      "MotionID": 312020231,
      "EntranceFreeStyleIDList": [
        312020230,
        312020235
      ]
    },
    {
      "MotionID": 312020232,
      "EntranceFreeStyleIDList": [
        312020231,
        312020230
      ],
      "CanTransitionToState": true
    },
    {
      "MotionID": 312020233,
      "EntranceFreeStyleIDList": [
        312020231
      ]
    },
    {
      "MotionID": 312020234,
      "EntranceFreeStyleIDList": [
        312020233
      ]
    },
    {
      "MotionID": 312020235,
      "EntranceFreeStyleIDList": [
        312020234,
        312020233
      ]
    },
    {
      "MotionID": 312020239,
      "EntranceFreeStyleIDList": [
        312020000
      ]
    },
    {
      "MotionID": 312020240,
      "EntranceFreeStyleIDList": [
        312020239
      ]
    },
    {
      "MotionID": 312020241,
      "EntranceFreeStyleIDList": [
        312020240,
        312020239
      ],
      "CanTransitionToState": true
    },
    {
      "MotionID": 312020245,
      "EntranceFreeStyleIDList": [
        312020000
      ]
    },
    {
      "MotionID": 312020246,
      "EntranceFreeStyleIDList": [
        312020245
      ]
    },
    {
      "MotionID": 312020247,
      "EntranceFreeStyleIDList": [
        312020246,
        312020245
      ],
      "CanTransitionToState": true
    },
    {
      "MotionID": 312020266,
      "EntranceFreeStyleIDList": [
        312020000
      ],
      "CanTransitionToState": true
    },
    {
      "MotionID": 312020252,
      "EntranceFreeStyleIDList": [
        312020000
      ]
    },
    {
      "MotionID": 312020253,
      "EntranceFreeStyleIDList": [
        312020252
      ]
    },
    {
      "MotionID": 312020254,
      "EntranceFreeStyleIDList": [
        312020253,
        312020252
      ],
      "CanTransitionToState": true
    },
    {
      "MotionID": 312020273,
      "EntranceFreeStyleIDList": [
        312020000
      ]
    },
    {
      "MotionID": 312020274,
      "EntranceFreeStyleIDList": [
        312020273
      ]
    },
    {
      "MotionID": 312020275,
      "EntranceFreeStyleIDList": [
        312020274,
        312020273
      ],
      "CanTransitionToState": true
    },
    {
      "MotionID": 312020017,
      "EntranceFreeStyleIDList": []
    }
  ]
}