{
  "StateList": [
    {
      "MotionID": 311030000,
      "EntranceFreeStyleIDList": [
        311030200,
        311030002,
        311030003,
        311030007,
        311030008,
        311030011,
        311030009,
        311030013,
        311030010,
        311030012,
        311030014,
        311030211,
        311030217,
        311030232,
        311030244,
        311030275
      ],
      "CanTransitionToState": true
    },
    {
      "MotionID": 311030200,
      "EntranceFreeStyleIDList": [
        311030000
      ],
      "CanTransitionToState": true
    },
    {
      "MotionID": 311030001,
      "EntranceFreeStyleIDList": [
        311030000
      ]
    },
    {
      "MotionID": 311030002,
      "EntranceFreeStyleIDList": [
        311030000,
        311030001
      ],
      "CanTransitionToState": true
    },
    {
      "MotionID": 311030003,
      "EntranceFreeStyleIDList": [
        311030000,
        311030001
      ],
      "CanTransitionToState": true
    },
    {
      "MotionID": 311030006,
      "EntranceFreeStyleIDList": [
        311030004,
        311030005
      ]
    },
    {
      "MotionID": 311030004,
      "EntranceFreeStyleIDList": [
        311030000
      ]
    },
    {
      "MotionID": 311030005,
      "EntranceFreeStyleIDList": [
        311030000
      ]
    },
    {
      "MotionID": 311030007,
      "EntranceFreeStyleIDList": [
        311030000,
        311030006,
        311030004
      ],
      "CanTransitionToState": true
    },
    {
      "MotionID": 311030008,
      "EntranceFreeStyleIDList": [
        311030000,
        311030006,
        311030005
      ],
      "CanTransitionToState": true
    },
    {
      "MotionID": 311030011,
      "EntranceFreeStyleIDList": [
        311030000
      ],
      "CanTransitionToState": true
    },
    {
      "MotionID": 311030009,
      "EntranceFreeStyleIDList": [
        311030000
      ],
      "CanTransitionToState": true
    },
    {
      "MotionID": 311030013,
      "EntranceFreeStyleIDList": [
        311030000
      ],
      "CanTransitionToState": true
    },
    {
      "MotionID": 311030010,
      "EntranceFreeStyleIDList": [
        311030000
      ],
      "CanTransitionToState": true
    },
    {
      "MotionID": 311030012,
      "EntranceFreeStyleIDList": [
        311030000
      ],
      "CanTransitionToState": true
    },
    {
      "MotionID": 311030014,
      "EntranceFreeStyleIDList": [
        311030000
      ],
      "CanTransitionToState": true
    },
    {
      "MotionID": 311030209,
      "EntranceFreeStyleIDList": [
        311030000
      ]
    },
    {
      "MotionID": 311030210,
      "EntranceFreeStyleIDList": [
        311030209,
        311030214
      ]
    },
    {
      "MotionID": 311030211,
      "EntranceFreeStyleIDList": [
        311030210,
        311030209
      ],
      "CanTransitionToState": true
    },
    {
      "MotionID": 311030212,
      "EntranceFreeStyleIDList": [
        311030210
      ]
    },
    {
      "MotionID": 311030213,
      "EntranceFreeStyleIDList": [
        311030212
      ]
    },
    {
      "MotionID": 311030214,
      "EntranceFreeStyleIDList": [
        311030213,
        311030212
      ]
    },
    {
      "MotionID": 311030215,
      "EntranceFreeStyleIDList": [
        311030000
      ]
    },
    {
      "MotionID": 311030216,
      "EntranceFreeStyleIDList": [
        311030215,
        311030220
      ]
    },
    {
      "MotionID": 311030217,
      "EntranceFreeStyleIDList": [
        311030216,
        311030215
      ],
      "CanTransitionToState": true
    },
    {
      "MotionID": 311030218,
      "EntranceFreeStyleIDList": [
        311030216
      ]
    },
    {
      "MotionID": 311030219,
      "EntranceFreeStyleIDList": [
        311030218
      ]
    },
    {
      "MotionID": 311030220,
      "EntranceFreeStyleIDList": [
        311030219,
        311030218
      ]
    },
    {
      "MotionID": 311030230,
      "EntranceFreeStyleIDList": [
        311030000
      ]
    },
    {
      "MotionID": 311030231,
      "EntranceFreeStyleIDList": [
        311030230,
        311030235
      ]
    },
    {
      "MotionID": 311030232,
      "EntranceFreeStyleIDList": [
        311030231,
        311030230
      ],
      "CanTransitionToState": true
    },
    {
      "MotionID": 311030233,
      "EntranceFreeStyleIDList": [
        311030231
      ]
    },
    {
      "MotionID": 311030234,
      "EntranceFreeStyleIDList": [
        311030233
      ]
    },
    {
      "MotionID": 311030235,
      "EntranceFreeStyleIDList": [
        311030234,
        311030233
      ]
    },
    {
      "MotionID": 311030242,
      "EntranceFreeStyleIDList": [
        311030000
      ]
    },
    {
      "MotionID": 311030243,
      "EntranceFreeStyleIDList": [
        311030242
      ]
    },
    {
      "MotionID": 311030244,
      "EntranceFreeStyleIDList": [
        311030243,
        311030242
      ],
      "CanTransitionToState": true
    },
    {
      "MotionID": 311030273,
      "EntranceFreeStyleIDList": [
        311030000
      ]
    },
    {
      "MotionID": 311030274,
      "EntranceFreeStyleIDList": [
        311030273
      ]
    },
    {
      "MotionID": 311030275,
      "EntranceFreeStyleIDList": [
        311030274,
        311030273
      ],
      "CanTransitionToState": true
    },
    {
      "MotionID": 311030017,
      "EntranceFreeStyleIDList": []
    }
  ]
}