{
  "StateList": [
    {
      "MotionID": 313020000,
      "EntranceFreeStyleIDList": [
        313020200,
        313020201,
        313020002,
        313020003,
        313020007,
        313020008,
        313020011,
        313020009,
        313020013,
        313020010,
        313020012,
        313020014,
        313020217,
        313020223,
        313020261,
        313020275,
        313020945,
        313020247
      ],
      "CanTransitionToState": true
    },
    {
      "MotionID": 313020200,
      "EntranceFreeStyleIDList": [
        313020000
      ],
      "CanTransitionToState": true
    },
    {
      "MotionID": 313020201,
      "EntranceFreeStyleIDList": [
        313020000
      ],
      "CanTransitionToState": true
    },
    {
      "MotionID": 313020001,
      "EntranceFreeStyleIDList": [
        313020000
      ]
    },
    {
      "MotionID": 313020002,
      "EntranceFreeStyleIDList": [
        313020000,
        313020001
      ],
      "CanTransitionToState": true
    },
    {
      "MotionID": 313020003,
      "EntranceFreeStyleIDList": [
        313020000,
        313020001
      ],
      "CanTransitionToState": true
    },
    {
      "MotionID": 313020006,
      "EntranceFreeStyleIDList": [
        313020004,
        313020005
      ]
    },
    {
      "MotionID": 313020004,
      "EntranceFreeStyleIDList": [
        313020000
      ]
    },
    {
      "MotionID": 313020005,
      "EntranceFreeStyleIDList": [
        313020000
      ]
    },
    {
      "MotionID": 313020007,
      "EntranceFreeStyleIDList": [
        313020000,
        313020006,
        313020004
      ],
      "CanTransitionToState": true
    },
    {
      "MotionID": 313020008,
      "EntranceFreeStyleIDList": [
        313020000,
        313020006,
        313020005
      ],
      "CanTransitionToState": true
    },
    {
      "MotionID": 313020011,
      "EntranceFreeStyleIDList": [
        313020000
      ],
      "CanTransitionToState": true
    },
    {
      "MotionID": 313020009,
      "EntranceFreeStyleIDList": [
        313020000
      ],
      "CanTransitionToState": true
    },
    {
      "MotionID": 313020013,
      "EntranceFreeStyleIDList": [
        313020000
      ],
      "CanTransitionToState": true
    },
    {
      "MotionID": 313020010,
      "EntranceFreeStyleIDList": [
        313020000
      ],
      "CanTransitionToState": true
    },
    {
      "MotionID": 313020012,
      "EntranceFreeStyleIDList": [
        313020000
      ],
      "CanTransitionToState": true
    },
    {
      "MotionID": 313020014,
      "EntranceFreeStyleIDList": [
        313020000
      ],
      "CanTransitionToState": true
    },
    {
      "MotionID": 313020215,
      "EntranceFreeStyleIDList": [
        313020000
      ]
    },
    {
      "MotionID": 313020216,
      "EntranceFreeStyleIDList": [
        313020215,
        313020220
      ]
    },
    {
      "MotionID": 313020217,
      "EntranceFreeStyleIDList": [
        313020216,
        313020215
      ],
      "CanTransitionToState": true
    },
    {
      "MotionID": 313020218,
      "EntranceFreeStyleIDList": [
        313020216
      ]
    },
    {
      "MotionID": 313020219,
      "EntranceFreeStyleIDList": [
        313020218
      ]
    },
    {
      "MotionID": 313020220,
      "EntranceFreeStyleIDList": [
        313020219,
        313020218
      ]
    },
    {
      "MotionID": 313020221,
      "EntranceFreeStyleIDList": [
        313020000
      ]
    },
    {
      "MotionID": 313020222,
      "EntranceFreeStyleIDList": [
        313020221,
        313020226
      ]
    },
    {
      "MotionID": 313020223,
      "EntranceFreeStyleIDList": [
        313020222,
        313020221
      ],
      "CanTransitionToState": true
    },
    {
      "MotionID": 313020224,
      "EntranceFreeStyleIDList": [
        313020222
      ]
    },
    {
      "MotionID": 313020225,
      "EntranceFreeStyleIDList": [
        313020224
      ]
    },
    {
      "MotionID": 313020226,
      "EntranceFreeStyleIDList": [
        313020225,
        313020224
      ]
    },
    {
      "MotionID": 313020245,
      "EntranceFreeStyleIDList": [
        313020000
      ]
    },
    {
      "MotionID": 313020246,
      "EntranceFreeStyleIDList": [
        313020245
      ]
    },
    {
      "MotionID": 313020247,
      "EntranceFreeStyleIDList": [
        313020246,
        313020245
      ],
      "CanTransitionToState": true
    },
    {
      "MotionID": 313020261,
      "EntranceFreeStyleIDList": [
        313020000
      ],
      "CanTransitionToState": true
    },
    {
      "MotionID": 313020273,
      "EntranceFreeStyleIDList": [
        313020000
      ]
    },
    {
      "MotionID": 313020274,
      "EntranceFreeStyleIDList": [
        313020273
      ]
    },
    {
      "MotionID": 313020275,
      "EntranceFreeStyleIDList": [
        313020274,
        313020273
      ],
      "CanTransitionToState": true
    },
    {
      "MotionID": 313020943,
      "EntranceFreeStyleIDList": [
        313020000
      ]
    },
    {
      "MotionID": 313020944,
      "EntranceFreeStyleIDList": [
        313020943
      ]
    },
    {
      "MotionID": 313020945,
      "EntranceFreeStyleIDList": [
        313020944
      ]
    },
    {
      "MotionID": 313020017,
      "EntranceFreeStyleIDList": []
    }
  ]
}