{
  "StateList": [
    {
      "MotionID": 311090000,
      "EntranceFreeStyleIDList": [
        311090200,
        311090002,
        311090003,
        311090007,
        311090008,
        311090011,
        311090009,
        311090013,
        311090010,
        311090012,
        311090014,
        311090211,
        311090217,
        311090223,
        311090275
      ],
      "CanTransitionToState": true
    },
    {
      "MotionID": 311090200,
      "EntranceFreeStyleIDList": [
        311090000
      ],
      "CanTransitionToState": true
    },
    {
      "MotionID": 311090001,
      "EntranceFreeStyleIDList": [
        311090000
      ]
    },
    {
      "MotionID": 311090002,
      "EntranceFreeStyleIDList": [
        311090000,
        311090001
      ],
      "CanTransitionToState": true
    },
    {
      "MotionID": 311090003,
      "EntranceFreeStyleIDList": [
        311090000,
        311090001
      ],
      "CanTransitionToState": true
    },
    {
      "MotionID": 311090006,
      "EntranceFreeStyleIDList": [
        311090004,
        311090005
      ]
    },
    {
      "MotionID": 311090004,
      "EntranceFreeStyleIDList": [
        311090000
      ]
    },
    {
      "MotionID": 311090005,
      "EntranceFreeStyleIDList": [
        311090000
      ]
    },
    {
      "MotionID": 311090007,
      "EntranceFreeStyleIDList": [
        311090000,
        311090006,
        311090004
      ],
      "CanTransitionToState": true
    },
    {
      "MotionID": 311090008,
      "EntranceFreeStyleIDList": [
        311090000,
        311090006,
        311090005
      ],
      "CanTransitionToState": true
    },
    {
      "MotionID": 311090011,
      "EntranceFreeStyleIDList": [
        311090000
      ],
      "CanTransitionToState": true
    },
    {
      "MotionID": 311090009,
      "EntranceFreeStyleIDList": [
        311090000
      ],
      "CanTransitionToState": true
    },
    {
      "MotionID": 311090013,
      "EntranceFreeStyleIDList": [
        311090000
      ],
      "CanTransitionToState": true
    },
    {
      "MotionID": 311090010,
      "EntranceFreeStyleIDList": [
        311090000
      ],
      "CanTransitionToState": true
    },
    {
      "MotionID": 311090012,
      "EntranceFreeStyleIDList": [
        311090000
      ],
      "CanTransitionToState": true
    },
    {
      "MotionID": 311090014,
      "EntranceFreeStyleIDList": [
        311090000
      ],
      "CanTransitionToState": true
    },
    {
      "MotionID": 311090209,
      "EntranceFreeStyleIDList": [
        311090000
      ]
    },
    {
      "MotionID": 311090210,
      "EntranceFreeStyleIDList": [
        311090209,
        311090214
      ]
    },
    {
      "MotionID": 311090211,
      "EntranceFreeStyleIDList": [
        311090210,
        311090209
      ],
      "CanTransitionToState": true
    },
    {
      "MotionID": 311090212,
      "EntranceFreeStyleIDList": [
        311090210
      ]
    },
    {
      "MotionID": 311090213,
      "EntranceFreeStyleIDList": [
        311090212
      ]
    },
    {
      "MotionID": 311090214,
      "EntranceFreeStyleIDList": [
        311090213,
        311090212
      ]
    },
    {
      "MotionID": 311090215,
      "EntranceFreeStyleIDList": [
        311090000
      ]
    },
    {
      "MotionID": 311090216,
      "EntranceFreeStyleIDList": [
        311090215,
        311090220
      ]
    },
    {
      "MotionID": 311090217,
      "EntranceFreeStyleIDList": [
        311090216,
        311090215
      ],
      "CanTransitionToState": true
    },
    {
      "MotionID": 311090218,
      "EntranceFreeStyleIDList": [
        311090216
      ]
    },
    {
      "MotionID": 311090219,
      "EntranceFreeStyleIDList": [
        311090218
      ]
    },
    {
      "MotionID": 311090220,
      "EntranceFreeStyleIDList": [
        311090219,
        311090218
      ]
    },
    {
      "MotionID": 311090221,
      "EntranceFreeStyleIDList": [
        311090000
      ]
    },
    {
      "MotionID": 311090222,
      "EntranceFreeStyleIDList": [
        311090221,
        311090226
      ]
    },
    {
      "MotionID": 311090223,
      "EntranceFreeStyleIDList": [
        311090222,
        311090221
      ],
      "CanTransitionToState": true
    },
    {
      "MotionID": 311090224,
      "EntranceFreeStyleIDList": [
        311090222
      ]
    },
    {
      "MotionID": 311090225,
      "EntranceFreeStyleIDList": [
        311090224
      ]
    },
    {
      "MotionID": 311090226,
      "EntranceFreeStyleIDList": [
        311090225,
        311090224
      ]
    },
    {
      "MotionID": 311090273,
      "EntranceFreeStyleIDList": [
        311090000
      ]
    },
    {
      "MotionID": 311090274,
      "EntranceFreeStyleIDList": [
        311090273
      ]
    },
    {
      "MotionID": 311090275,
      "EntranceFreeStyleIDList": [
        311090274,
        311090273
      ],
      "CanTransitionToState": true
    },
    {
      "MotionID": 311090017,
      "EntranceFreeStyleIDList": []
    }
  ]
}