{
  "StateList": [
    {
      "MotionID": 310040000,
      "EntranceFreeStyleIDList": [
        310040200,
        310040201,
        310040002,
        310040003,
        310040007,
        310040008,
        310040011,
        310040009,
        310040013,
        310040010,
        310040012,
        310040014,
        310040217,
        310040223,
        310040229,
        310040232,
        310040275
      ],
      "CanTransitionToState": true
    },
    {
      "MotionID": 310040200,
      "EntranceFreeStyleIDList": [
        310040000
      ],
      "CanTransitionToState": true
    },
    {
      "MotionID": 310040201,
      "EntranceFreeStyleIDList": [
        310040000
      ],
      "CanTransitionToState": true
    },
    {
      "MotionID": 310040001,
      "EntranceFreeStyleIDList": [
        310040000
      ]
    },
    {
      "MotionID": 310040002,
      "EntranceFreeStyleIDList": [
        310040000,
        310040001
      ],
      "CanTransitionToState": true
    },
    {
      "MotionID": 310040003,
      "EntranceFreeStyleIDList": [
        310040000,
        310040001
      ],
      "CanTransitionToState": true
    },
    {
      "MotionID": 310040006,
      "EntranceFreeStyleIDList": [
        310040004,
        310040005
      ]
    },
    {
      "MotionID": 310040004,
      "EntranceFreeStyleIDList": [
        310040000
      ]
    },
    {
      "MotionID": 310040005,
      "EntranceFreeStyleIDList": [
        310040000
      ]
    },
    {
      "MotionID": 310040007,
      "EntranceFreeStyleIDList": [
        310040000,
        310040006,
        310040004
      ],
      "CanTransitionToState": true
    },
    {
      "MotionID": 310040008,
      "EntranceFreeStyleIDList": [
        310040000,
        310040006,
        310040005
      ],
      "CanTransitionToState": true
    },
    {
      "MotionID": 310040011,
      "EntranceFreeStyleIDList": [
        310040000
      ],
      "CanTransitionToState": true
    },
    {
      "MotionID": 310040009,
      "EntranceFreeStyleIDList": [
        310040000
      ],
      "CanTransitionToState": true
    },
    {
      "MotionID": 310040013,
      "EntranceFreeStyleIDList": [
        310040000
      ],
      "CanTransitionToState": true
    },
    {
      "MotionID": 310040010,
      "EntranceFreeStyleIDList": [
        310040000
      ],
      "CanTransitionToState": true
    },
    {
      "MotionID": 310040012,
      "EntranceFreeStyleIDList": [
        310040000
      ],
      "CanTransitionToState": true
    },
    {
      "MotionID": 310040014,
      "EntranceFreeStyleIDList": [
        310040000
      ],
      "CanTransitionToState": true
    },
    {
      "MotionID": 310040900,
      "EntranceFreeStyleIDList": []
    },
    {
      "MotionID": 310040215,
      "EntranceFreeStyleIDList": [
        310040000
      ]
    },
    {
      "MotionID": 310040216,
      "EntranceFreeStyleIDList": [
        310040215,
        310040220
      ]
    },
    {
      "MotionID": 310040217,
      "EntranceFreeStyleIDList": [
        310040216,
        310040215
      ],
      "CanTransitionToState": true
    },
    {
      "MotionID": 310040218,
      "EntranceFreeStyleIDList": [
        310040216
      ]
    },
    {
      "MotionID": 310040219,
      "EntranceFreeStyleIDList": [
        310040218
      ]
    },
    {
      "MotionID": 310040220,
      "EntranceFreeStyleIDList": [
        310040219,
        310040218
      ]
    },
    {
      "MotionID": 310040221,
      "EntranceFreeStyleIDList": [
        310040000
      ]
    },
    {
      "MotionID": 310040222,
      "EntranceFreeStyleIDList": [
        310040221,
        310040226
      ]
    },
    {
      "MotionID": 310040223,
      "EntranceFreeStyleIDList": [
        310040222,
        310040221
      ],
      "CanTransitionToState": true
    },
    {
      "MotionID": 310040224,
      "EntranceFreeStyleIDList": [
        310040222
      ]
    },
    {
      "MotionID": 310040225,
      "EntranceFreeStyleIDList": [
        310040224
      ]
    },
    {
      "MotionID": 310040226,
      "EntranceFreeStyleIDList": [
        310040225,
        310040224
      ]
    },
    {
      "MotionID": 310040227,
      "EntranceFreeStyleIDList": [
        310040000
      ]
    },
    {
      "MotionID": 310040228,
      "EntranceFreeStyleIDList": [
        310040227
      ]
    },
    {
      "MotionID": 310040229,
      "EntranceFreeStyleIDList": [
        310040228,
        310040227
      ],
      "CanTransitionToState": true
    },
    {
      "MotionID": 310040230,
      "EntranceFreeStyleIDList": [
        310040000
      ]
    },
    {
      "MotionID": 310040231,
      "EntranceFreeStyleIDList": [
        310040230,
        310040235
      ]
    },
    {
      "MotionID": 310040232,
      "EntranceFreeStyleIDList": [
        310040231,
        310040230
      ],
      "CanTransitionToState": true
    },
    {
      "MotionID": 310040233,
      "EntranceFreeStyleIDList": [
        310040231
      ]
    },
    {
      "MotionID": 310040234,
      "EntranceFreeStyleIDList": [
        310040233
      ]
    },
    {
      "MotionID": 310040235,
      "EntranceFreeStyleIDList": [
        310040234,
        310040233
      ]
    },
    {
      "MotionID": 310040273,
      "EntranceFreeStyleIDList": [
        310040000
      ]
    },
    {
      "MotionID": 310040274,
      "EntranceFreeStyleIDList": [
        310040273
      ]
    },
    {
      "MotionID": 310040275,
      "EntranceFreeStyleIDList": [
        310040274,
        310040273
      ],
      "CanTransitionToState": true
    },
    {
      "MotionID": 310040017,
      "EntranceFreeStyleIDList": []
    }
  ]
}