{
  "StateList": [
    {
      "MotionID": 390010000,
      "EntranceFreeStyleIDList": [
        390010200,
        390010201,
        390010002,
        390010003,
        390010007,
        390010008,
        390010011,
        390010009,
        390010013,
        390010010,
        390010012,
        390010014,
        390010202,
        390010205,
        390010208,
        390010211,
        390010217,
        390010223,
        390010229,
        390010232,
        390010238,
        390010241,
        390010244,
        390010248,
        390010249,
        390010250,
        390010251,
        390010266,
        390010254,
        390010257,
        390010260,
        390010269,
        390010272,
        390010275,
        390010284,
        390010287,
        390010247
      ],
      "CanTransitionToState": true
    },
    {
      "MotionID": 390010200,
      "EntranceFreeStyleIDList": [
        390010000
      ],
      "CanTransitionToState": true
    },
    {
      "MotionID": 390010201,
      "EntranceFreeStyleIDList": [
        390010000
      ],
      "CanTransitionToState": true
    },
    {
      "MotionID": 390010001,
      "EntranceFreeStyleIDList": [
        390010000
      ]
    },
    {
      "MotionID": 390010002,
      "EntranceFreeStyleIDList": [
        390010000,
        390010001
      ],
      "CanTransitionToState": true
    },
    {
      "MotionID": 390010003,
      "EntranceFreeStyleIDList": [
        390010000,
        390010001
      ],
      "CanTransitionToState": true
    },
    {
      "MotionID": 390010006,
      "EntranceFreeStyleIDList": [
        390010004,
        390010005
      ]
    },
    {
      "MotionID": 390010004,
      "EntranceFreeStyleIDList": [
        390010000
      ]
    },
    {
      "MotionID": 390010005,
      "EntranceFreeStyleIDList": [
        390010000
      ]
    },
    {
      "MotionID": 390010007,
      "EntranceFreeStyleIDList": [
        390010000,
        390010006,
        390010004
      ],
      "CanTransitionToState": true
    },
    {
      "MotionID": 390010008,
      "EntranceFreeStyleIDList": [
        390010000,
        390010006,
        390010005
      ],
      "CanTransitionToState": true
    },
    {
      "MotionID": 390010011,
      "EntranceFreeStyleIDList": [
        390010000
      ],
      "CanTransitionToState": true
    },
    {
      "MotionID": 390010009,
      "EntranceFreeStyleIDList": [
        390010000
      ],
      "CanTransitionToState": true
    },
    {
      "MotionID": 390010013,
      "EntranceFreeStyleIDList": [
        390010000
      ],
      "CanTransitionToState": true
    },
    {
      "MotionID": 390010010,
      "EntranceFreeStyleIDList": [
        390010000
      ],
      "CanTransitionToState": true
    },
    {
      "MotionID": 390010012,
      "EntranceFreeStyleIDList": [
        390010000
      ],
      "CanTransitionToState": true
    },
    {
      "MotionID": 390010014,
      "EntranceFreeStyleIDList": [
        390010000
      ],
      "CanTransitionToState": true
    },
    {
      "MotionID": 390010202,
      "EntranceFreeStyleIDList": [
        390010000
      ],
      "CanTransitionToState": true
    },
    {
      "MotionID": 390010203,
      "EntranceFreeStyleIDList": [
        390010000
      ]
    },
    {
      "MotionID": 390010204,
      "EntranceFreeStyleIDList": [
        390010203
      ]
    },
    {
      "MotionID": 390010205,
      "EntranceFreeStyleIDList": [
        390010204,
        390010203
      ],
      "CanTransitionToState": true
    },
    {
      "MotionID": 390010900,
      "EntranceFreeStyleIDList": []
    },
    {
      "MotionID": 390010206,
      "EntranceFreeStyleIDList": [
        390010000
      ]
    },
    {
      "MotionID": 390010207,
      "EntranceFreeStyleIDList": [
        390010206
      ]
    },
    {
      "MotionID": 390010208,
      "EntranceFreeStyleIDList": [
        390010207,
        390010206
      ],
      "CanTransitionToState": true
    },
    {
      "MotionID": 390010209,
      "EntranceFreeStyleIDList": [
        390010000
      ]
    },
    {
      "MotionID": 390010210,
      "EntranceFreeStyleIDList": [
        390010209,
        390010214
      ]
    },
    {
      "MotionID": 390010211,
      "EntranceFreeStyleIDList": [
        390010210,
        390010209
      ],
      "CanTransitionToState": true
    },
    {
      "MotionID": 390010212,
      "EntranceFreeStyleIDList": [
        390010210
      ]
    },
    {
      "MotionID": 390010213,
      "EntranceFreeStyleIDList": [
        390010212
      ]
    },
    {
      "MotionID": 390010214,
      "EntranceFreeStyleIDList": [
        390010213,
        390010212
      ]
    },
    {
      "MotionID": 390010215,
      "EntranceFreeStyleIDList": [
        390010000
      ]
    },
    {
      "MotionID": 390010216,
      "EntranceFreeStyleIDList": [
        390010215,
        390010220
      ]
    },
    {
      "MotionID": 390010217,
      "EntranceFreeStyleIDList": [
        390010216,
        390010215
      ],
      "CanTransitionToState": true
    },
    {
      "MotionID": 390010218,
      "EntranceFreeStyleIDList": [
        390010216
      ]
    },
    {
      "MotionID": 390010219,
      "EntranceFreeStyleIDList": [
        390010218
      ]
    },
    {
      "MotionID": 390010220,
      "EntranceFreeStyleIDList": [
        390010219,
        390010218
      ]
    },
    {
      "MotionID": 390010221,
      "EntranceFreeStyleIDList": [
        390010000
      ]
    },
    {
      "MotionID": 390010222,
      "EntranceFreeStyleIDList": [
        390010221,
        390010226
      ]
    },
    {
      "MotionID": 390010223,
      "EntranceFreeStyleIDList": [
        390010222,
        390010221
      ],
      "CanTransitionToState": true
    },
    {
      "MotionID": 390010224,
      "EntranceFreeStyleIDList": [
        390010222
      ]
    },
    {
      "MotionID": 390010225,
      "EntranceFreeStyleIDList": [
        390010224
      ]
    },
    {
      "MotionID": 390010226,
      "EntranceFreeStyleIDList": [
        390010225,
        390010224
      ]
    },
    {
      "MotionID": 390010227,
      "EntranceFreeStyleIDList": [
        390010000
      ]
    },
    {
      "MotionID": 390010228,
      "EntranceFreeStyleIDList": [
        390010227
      ]
    },
    {
      "MotionID": 390010229,
      "EntranceFreeStyleIDList": [
        390010228,
        390010227
      ],
      "CanTransitionToState": true
    },
    {
      "MotionID": 390010230,
      "EntranceFreeStyleIDList": [
        390010000
      ]
    },
    {
      "MotionID": 390010231,
      "EntranceFreeStyleIDList": [
        390010230,
        390010235
      ]
    },
    {
      "MotionID": 390010232,
      "EntranceFreeStyleIDList": [
        390010231,
        390010230
      ],
      "CanTransitionToState": true
    },
    {
      "MotionID": 390010233,
      "EntranceFreeStyleIDList": [
        390010231
      ]
    },
    {
      "MotionID": 390010234,
      "EntranceFreeStyleIDList": [
        390010233
      ]
    },
    {
      "MotionID": 390010235,
      "EntranceFreeStyleIDList": [
        390010234,
        390010233
      ]
    },
    {
      "MotionID": 390010236,
      "EntranceFreeStyleIDList": [
        390010000
      ]
    },
    {
      "MotionID": 390010237,
      "EntranceFreeStyleIDList": [
        390010236
      ]
    },
    {
      "MotionID": 390010238,
      "EntranceFreeStyleIDList": [
        390010237,
        390010236
      ],
      "CanTransitionToState": true
    },
    {
      "MotionID": 390010239,
      "EntranceFreeStyleIDList": [
        390010000
      ]
    },
    {
      "MotionID": 390010240,
      "EntranceFreeStyleIDList": [
        390010239
      ]
    },
    {
      "MotionID": 390010241,
      "EntranceFreeStyleIDList": [
        390010240,
        390010239
      ],
      "CanTransitionToState": true
    },
    {
      "MotionID": 390010242,
      "EntranceFreeStyleIDList": [
        390010000
      ]
    },
    {
      "MotionID": 390010243,
      "EntranceFreeStyleIDList": [
        390010242
      ]
    },
    {
      "MotionID": 390010244,
      "EntranceFreeStyleIDList": [
        390010243,
        390010242
      ],
      "CanTransitionToState": true
    },
    {
      "MotionID": 390010245,
      "EntranceFreeStyleIDList": [
        390010000
      ]
    },
    {
      "MotionID": 390010246,
      "EntranceFreeStyleIDList": [
        390010245
      ]
    },
    {
      "MotionID": 390010247,
      "EntranceFreeStyleIDList": [
        390010246,
        390010245
      ],
      "CanTransitionToState": true
    },
    {
      "MotionID": 390010248,
      "EntranceFreeStyleIDList": [
        390010000
      ],
      "CanTransitionToState": true
    },
    {
      "MotionID": 390010249,
      "EntranceFreeStyleIDList": [
        390010000
      ],
      "CanTransitionToState": true
    },
    {
      "MotionID": 390010250,
      "EntranceFreeStyleIDList": [
        390010000
      ],
      "CanTransitionToState": true
    },
    {
      "MotionID": 390010251,
      "EntranceFreeStyleIDList": [
        390010000
      ],
      "CanTransitionToState": true
    },
    {
      "MotionID": 390010266,
      "EntranceFreeStyleIDList": [
        390010000
      ],
      "CanTransitionToState": true
    },
    {
      "MotionID": 390010252,
      "EntranceFreeStyleIDList": [
        390010000
      ]
    },
    {
      "MotionID": 390010253,
      "EntranceFreeStyleIDList": [
        390010252
      ]
    },
    {
      "MotionID": 390010254,
      "EntranceFreeStyleIDList": [
        390010253,
        390010252
      ],
      "CanTransitionToState": true
    },
    {
      "MotionID": 390010255,
      "EntranceFreeStyleIDList": [
        390010000
      ]
    },
    {
      "MotionID": 390010256,
      "EntranceFreeStyleIDList": [
        390010255
      ]
    },
    {
      "MotionID": 390010257,
      "EntranceFreeStyleIDList": [
        390010256,
        390010255
      ],
      "CanTransitionToState": true
    },
    {
      "MotionID": 390010258,
      "EntranceFreeStyleIDList": [
        390010000
      ]
    },
    {
      "MotionID": 390010259,
      "EntranceFreeStyleIDList": [
        390010258
      ]
    },
    {
      "MotionID": 390010260,
      "EntranceFreeStyleIDList": [
        390010259,
        390010258
      ],
      "CanTransitionToState": true
    },
    {
      "MotionID": 390010267,
      "EntranceFreeStyleIDList": [
        390010000
      ]
    },
    {
      "MotionID": 390010268,
      "EntranceFreeStyleIDList": [
        390010267
      ]
    },
    {
      "MotionID": 390010269,
      "EntranceFreeStyleIDList": [
        390010268,
        390010267
      ],
      "CanTransitionToState": true
    },
    {
      "MotionID": 390010270,
      "EntranceFreeStyleIDList": [
        390010000
      ]
    },
    {
      "MotionID": 390010271,
      "EntranceFreeStyleIDList": [
        390010270
      ]
    },
    {
      "MotionID": 390010272,
      "EntranceFreeStyleIDList": [
        390010271,
        390010270
      ],
      "CanTransitionToState": true
    },
    {
      "MotionID": 390010273,
      "EntranceFreeStyleIDList": [
        390010000
      ]
    },
    {
      "MotionID": 390010274,
      "EntranceFreeStyleIDList": [
        390010273
      ]
    },
    {
      "MotionID": 390010275,
      "EntranceFreeStyleIDList": [
        390010274,
        390010273
      ],
      "CanTransitionToState": true
    },
    {
      "MotionID": 390010282,
      "EntranceFreeStyleIDList": [
        390010000
      ]
    },
    {
      "MotionID": 390010283,
      "EntranceFreeStyleIDList": [
        390010282
      ]
    },
    {
      "MotionID": 390010284,
      "EntranceFreeStyleIDList": [
        390010283,
        390010282
      ],
      "CanTransitionToState": true
    },
    {
      "MotionID": 390010285,
      "EntranceFreeStyleIDList": [
        390010000
      ]
    },
    {
      "MotionID": 390010286,
      "EntranceFreeStyleIDList": [
        390010285
      ]
    },
    {
      "MotionID": 390010287,
      "EntranceFreeStyleIDList": [
        390010286,
        390010285
      ],
      "CanTransitionToState": true
    },
    {
      "MotionID": 390010017,
      "EntranceFreeStyleIDList": []
    }
  ]
}