{
  "StateList": [
    {
      "MotionID": 311010000,
      "EntranceFreeStyleIDList": [
        311010200,
        311010201,
        311010002,
        311010003,
        311010007,
        311010008,
        311010011,
        311010009,
        311010013,
        311010010,
        311010012,
        311010014,
        311010217,
        311010223,
        311010229,
        311010232,
        311010238,
        311010244,
        311010266,
        311010260,
        311010275,
        311010247
      ],
      "CanTransitionToState": true
    },
    {
      "MotionID": 311010200,
      "EntranceFreeStyleIDList": [
        311010000
      ],
      "CanTransitionToState": true
    },
    {
      "MotionID": 311010201,
      "EntranceFreeStyleIDList": [
        311010000
      ],
      "CanTransitionToState": true
    },
    {
      "MotionID": 311010001,
      "EntranceFreeStyleIDList": [
        311010000
      ]
    },
    {
      "MotionID": 311010002,
      "EntranceFreeStyleIDList": [
        311010000,
        311010001
      ],
      "CanTransitionToState": true
    },
    {
      "MotionID": 311010003,
      "EntranceFreeStyleIDList": [
        311010000,
        311010001
      ],
      "CanTransitionToState": true
    },
    {
      "MotionID": 311010006,
      "EntranceFreeStyleIDList": [
        311010004,
        311010005
      ]
    },
    {
      "MotionID": 311010004,
      "EntranceFreeStyleIDList": [
        311010000
      ]
    },
    {
      "MotionID": 311010005,
      "EntranceFreeStyleIDList": [
        311010000
      ]
    },
    {
      "MotionID": 311010007,
      "EntranceFreeStyleIDList": [
        311010000,
        311010006,
        311010004
      ],
      "CanTransitionToState": true
    },
    {
      "MotionID": 311010008,
      "EntranceFreeStyleIDList": [
        311010000,
        311010006,
        311010005
      ],
      "CanTransitionToState": true
    },
    {
      "MotionID": 311010011,
      "EntranceFreeStyleIDList": [
        311010000
      ],
      "CanTransitionToState": true
    },
    {
      "MotionID": 311010009,
      "EntranceFreeStyleIDList": [
        311010000
      ],
      "CanTransitionToState": true
    },
    {
      "MotionID": 311010013,
      "EntranceFreeStyleIDList": [
        311010000
      ],
      "CanTransitionToState": true
    },
    {
      "MotionID": 311010010,
      "EntranceFreeStyleIDList": [
        311010000
      ],
      "CanTransitionToState": true
    },
    {
      "MotionID": 311010012,
      "EntranceFreeStyleIDList": [
        311010000
      ],
      "CanTransitionToState": true
    },
    {
      "MotionID": 311010014,
      "EntranceFreeStyleIDList": [
        311010000
      ],
      "CanTransitionToState": true
    },
    {
      "MotionID": 311010934,
      "EntranceFreeStyleIDList": [
        311010933,
        311010935,
        311010938
      ]
    },
    {
      "MotionID": 311010931,
      "EntranceFreeStyleIDList": [
        311010934
      ]
    },
    {
      "MotionID": 311010932,
      "EntranceFreeStyleIDList": [
        311010931
      ]
    },
    {
      "MotionID": 311010933,
      "EntranceFreeStyleIDList": [
        311010932,
        311010931
      ]
    },
    {
      "MotionID": 311010935,
      "EntranceFreeStyleIDList": [
        311010934
      ]
    },
    {
      "MotionID": 311010936,
      "EntranceFreeStyleIDList": [
        311010934
      ]
    },
    {
      "MotionID": 311010937,
      "EntranceFreeStyleIDList": [
        311010936
      ]
    },
    {
      "MotionID": 311010938,
      "EntranceFreeStyleIDList": [
        311010937,
        311010936
      ]
    },
    {
      "MotionID": 311010215,
      "EntranceFreeStyleIDList": [
        311010000
      ]
    },
    {
      "MotionID": 311010216,
      "EntranceFreeStyleIDList": [
        311010215,
        311010220
      ]
    },
    {
      "MotionID": 311010217,
      "EntranceFreeStyleIDList": [
        311010216,
        311010215
      ],
      "CanTransitionToState": true
    },
    {
      "MotionID": 311010218,
      "EntranceFreeStyleIDList": [
        311010216
      ]
    },
    {
      "MotionID": 311010219,
      "EntranceFreeStyleIDList": [
        311010218
      ]
    },
    {
      "MotionID": 311010220,
      "EntranceFreeStyleIDList": [
        311010219,
        311010218
      ]
    },
    {
      "MotionID": 311010221,
      "EntranceFreeStyleIDList": [
        311010000
      ]
    },
    {
      "MotionID": 311010222,
      "EntranceFreeStyleIDList": [
        311010221,
        311010226
      ]
    },
    {
      "MotionID": 311010223,
      "EntranceFreeStyleIDList": [
        311010222,
        311010221
      ],
      "CanTransitionToState": true
    },
    {
      "MotionID": 311010224,
      "EntranceFreeStyleIDList": [
        311010222
      ]
    },
    {
      "MotionID": 311010225,
      "EntranceFreeStyleIDList": [
        311010224
      ]
    },
    {
      "MotionID": 311010226,
      "EntranceFreeStyleIDList": [
        311010225,
        311010224
      ]
    },
    {
      "MotionID": 311010227,
      "EntranceFreeStyleIDList": [
        311010000
      ]
    },
    {
      "MotionID": 311010228,
      "EntranceFreeStyleIDList": [
        311010227
      ]
    },
    {
      "MotionID": 311010229,
      "EntranceFreeStyleIDList": [
        311010228,
        311010227
      ],
      "CanTransitionToState": true
    },
    {
      "MotionID": 311010230,
      "EntranceFreeStyleIDList": [
        311010000
      ]
    },
    {
      "MotionID": 311010231,
      "EntranceFreeStyleIDList": [
        311010230,
        311010235
      ]
    },
    {
      "MotionID": 311010232,
      "EntranceFreeStyleIDList": [
        311010231,
        311010230
      ],
      "CanTransitionToState": true
    },
    {
      "MotionID": 311010233,
      "EntranceFreeStyleIDList": [
        311010231
      ]
    },
    {
      "MotionID": 311010234,
      "EntranceFreeStyleIDList": [
        311010233
      ]
    },
    {
      "MotionID": 311010235,
      "EntranceFreeStyleIDList": [
        311010234,
        311010233
      ]
    },
    {
      "MotionID": 311010236,
      "EntranceFreeStyleIDList": [
        311010000
      ]
    },
    {
      "MotionID": 311010237,
      "EntranceFreeStyleIDList": [
        311010236
      ]
    },
    {
      "MotionID": 311010238,
      "EntranceFreeStyleIDList": [
        311010237,
        311010236
      ],
      "CanTransitionToState": true
    },
    {
      "MotionID": 311010242,
      "EntranceFreeStyleIDList": [
        311010000
      ]
    },
    {
      "MotionID": 311010243,
      "EntranceFreeStyleIDList": [
        311010242
      ]
    },
    {
      "MotionID": 311010244,
      "EntranceFreeStyleIDList": [
        311010243,
        311010242
      ],
      "CanTransitionToState": true
    },
    {
      "MotionID": 311010245,
      "EntranceFreeStyleIDList": [
        311010000
      ]
    },
    {
      "MotionID": 311010246,
      "EntranceFreeStyleIDList": [
        311010245
      ]
    },
    {
      "MotionID": 311010247,
      "EntranceFreeStyleIDList": [
        311010246,
        311010245
      ],
      "CanTransitionToState": true
    },
    {
      "MotionID": 311010266,
      "EntranceFreeStyleIDList": [
        311010000
      ],
      "CanTransitionToState": true
    },
    {
      "MotionID": 311010258,
      "EntranceFreeStyleIDList": [
        311010000
      ]
    },
    {
      "MotionID": 311010259,
      "EntranceFreeStyleIDList": [
        311010258
      ]
    },
    {
      "MotionID": 311010260,
      "EntranceFreeStyleIDList": [
        311010259,
        311010258
      ],
      "CanTransitionToState": true
    },
    {
      "MotionID": 311010273,
      "EntranceFreeStyleIDList": [
        311010000
      ]
    },
    {
      "MotionID": 311010274,
      "EntranceFreeStyleIDList": [
        311010273
      ]
    },
    {
      "MotionID": 311010275,
      "EntranceFreeStyleIDList": [
        311010274,
        311010273
      ],
      "CanTransitionToState": true
    },
    {
      "MotionID": 311010930,
      "EntranceFreeStyleIDList": []
    },
    {
      "MotionID": 311010017,
      "EntranceFreeStyleIDList": []
    }
  ]
}