{
  "StateList": [
    {
      "MotionID": 312150000,
      "EntranceFreeStyleIDList": [
        312150200,
        312150002,
        312150003,
        312150007,
        312150008,
        312150011,
        312150009,
        312150013,
        312150010,
        312150012,
        312150014,
        312150232,
        312150275
      ],
      "CanTransitionToState": true
    },
    {
      "MotionID": 312150200,
      "EntranceFreeStyleIDList": [
        312150000
      ],
      "CanTransitionToState": true
    },
    {
      "MotionID": 312150001,
      "EntranceFreeStyleIDList": [
        312150000
      ]
    },
    {
      "MotionID": 312150002,
      "EntranceFreeStyleIDList": [
        312150000,
        312150001
      ],
      "CanTransitionToState": true
    },
    {
      "MotionID": 312150003,
      "EntranceFreeStyleIDList": [
        312150000,
        312150001
      ],
      "CanTransitionToState": true
    },
    {
      "MotionID": 312150006,
      "EntranceFreeStyleIDList": [
        312150004,
        312150005
      ]
    },
    {
      "MotionID": 312150004,
      "EntranceFreeStyleIDList": [
        312150000
      ]
    },
    {
      "MotionID": 312150005,
      "EntranceFreeStyleIDList": [
        312150000
      ]
    },
    {
      "MotionID": 312150007,
      "EntranceFreeStyleIDList": [
        312150000,
        312150006,
        312150004
      ],
      "CanTransitionToState": true
    },
    {
      "MotionID": 312150008,
      "EntranceFreeStyleIDList": [
        312150000,
        312150006,
        312150005
      ],
      "CanTransitionToState": true
    },
    {
      "MotionID": 312150011,
      "EntranceFreeStyleIDList": [
        312150000
      ],
      "CanTransitionToState": true
    },
    {
      "MotionID": 312150009,
      "EntranceFreeStyleIDList": [
        312150000
      ],
      "CanTransitionToState": true
    },
    {
      "MotionID": 312150013,
      "EntranceFreeStyleIDList": [
        312150000
      ],
      "CanTransitionToState": true
    },
    {
      "MotionID": 312150010,
      "EntranceFreeStyleIDList": [
        312150000
      ],
      "CanTransitionToState": true
    },
    {
      "MotionID": 312150012,
      "EntranceFreeStyleIDList": [
        312150000
      ],
      "CanTransitionToState": true
    },
    {
      "MotionID": 312150014,
      "EntranceFreeStyleIDList": [
        312150000
      ],
      "CanTransitionToState": true
    },
    {
      "MotionID": 312150900,
      "EntranceFreeStyleIDList": []
    },
    {
      "MotionID": 312150230,
      "EntranceFreeStyleIDList": [
        312150000
      ]
    },
    {
      "MotionID": 312150231,
      "EntranceFreeStyleIDList": [
        312150230,
        312150235
      ]
    },
    {
      "MotionID": 312150232,
      "EntranceFreeStyleIDList": [
        312150231,
        312150230
      ],
      "CanTransitionToState": true
    },
    {
      "MotionID": 312150233,
      "EntranceFreeStyleIDList": [
        312150231
      ]
    },
    {
      "MotionID": 312150234,
      "EntranceFreeStyleIDList": [
        312150233
      ]
    },
    {
      "MotionID": 312150235,
      "EntranceFreeStyleIDList": [
        312150234,
        312150233
      ]
    },
    {
      "MotionID": 312150273,
      "EntranceFreeStyleIDList": [
        312150000
      ]
    },
    {
      "MotionID": 312150274,
      "EntranceFreeStyleIDList": [
        312150273
      ]
    },
    {
      "MotionID": 312150275,
      "EntranceFreeStyleIDList": [
        312150274,
        312150273
      ],
      "CanTransitionToState": true
    },
    {
      "MotionID": 312150017,
      "EntranceFreeStyleIDList": []
    }
  ]
}