{
  "StateList": [
    {
      "MotionID": 312010000,
      "EntranceFreeStyleIDList": [
        312010200,
        312010002,
        312010003,
        312010007,
        312010008,
        312010011,
        312010009,
        312010013,
        312010010,
        312010012,
        312010014,
        312010223,
        312010229,
        312010265,
        312010275
      ],
      "CanTransitionToState": true
    },
    {
      "MotionID": 312010200,
      "EntranceFreeStyleIDList": [
        312010000
      ],
      "CanTransitionToState": true
    },
    {
      "MotionID": 312010001,
      "EntranceFreeStyleIDList": [
        312010000
      ]
    },
    {
      "MotionID": 312010002,
      "EntranceFreeStyleIDList": [
        312010000,
        312010001
      ],
      "CanTransitionToState": true
    },
    {
      "MotionID": 312010003,
      "EntranceFreeStyleIDList": [
        312010000,
        312010001
      ],
      "CanTransitionToState": true
    },
    {
      "MotionID": 312010006,
      "EntranceFreeStyleIDList": [
        312010004,
        312010005
      ]
    },
    {
      "MotionID": 312010004,
      "EntranceFreeStyleIDList": [
        312010000
      ]
    },
    {
      "MotionID": 312010005,
      "EntranceFreeStyleIDList": [
        312010000
      ]
    },
    {
      "MotionID": 312010007,
      "EntranceFreeStyleIDList": [
        312010000,
        312010006,
        312010004
      ],
      "CanTransitionToState": true
    },
    {
      "MotionID": 312010008,
      "EntranceFreeStyleIDList": [
        312010000,
        312010006,
        312010005
      ],
      "CanTransitionToState": true
    },
    {
      "MotionID": 312010011,
      "EntranceFreeStyleIDList": [
        312010000
      ],
      "CanTransitionToState": true
    },
    {
      "MotionID": 312010009,
      "EntranceFreeStyleIDList": [
        312010000
      ],
      "CanTransitionToState": true
    },
    {
      "MotionID": 312010013,
      "EntranceFreeStyleIDList": [
        312010000
      ],
      "CanTransitionToState": true
    },
    {
      "MotionID": 312010010,
      "EntranceFreeStyleIDList": [
        312010000
      ],
      "CanTransitionToState": true
    },
    {
      "MotionID": 312010012,
      "EntranceFreeStyleIDList": [
        312010000
      ],
      "CanTransitionToState": true
    },
    {
      "MotionID": 312010014,
      "EntranceFreeStyleIDList": [
        312010000
      ],
      "CanTransitionToState": true
    },
    {
      "MotionID": 312010221,
      "EntranceFreeStyleIDList": [
        312010000
      ]
    },
    {
      "MotionID": 312010222,
      "EntranceFreeStyleIDList": [
        312010221,
        312010226
      ]
    },
    {
      "MotionID": 312010223,
      "EntranceFreeStyleIDList": [
        312010222,
        312010221
      ],
      "CanTransitionToState": true
    },
    {
      "MotionID": 312010224,
      "EntranceFreeStyleIDList": [
        312010222
      ]
    },
    {
      "MotionID": 312010225,
      "EntranceFreeStyleIDList": [
        312010224
      ]
    },
    {
      "MotionID": 312010226,
      "EntranceFreeStyleIDList": [
        312010225,
        312010224
      ]
    },
    {
      "MotionID": 312010227,
      "EntranceFreeStyleIDList": [
        312010000
      ]
    },
    {
      "MotionID": 312010228,
      "EntranceFreeStyleIDList": [
        312010227
      ]
    },
    {
      "MotionID": 312010229,
      "EntranceFreeStyleIDList": [
        312010228,
        312010227
      ],
      "CanTransitionToState": true
    },
    {
      "MotionID": 312010265,
      "EntranceFreeStyleIDList": [
        312010000
      ],
      "CanTransitionToState": true
    },
    {
      "MotionID": 312010273,
      "EntranceFreeStyleIDList": [
        312010000
      ]
    },
    {
      "MotionID": 312010274,
      "EntranceFreeStyleIDList": [
        312010273
      ]
    },
    {
      "MotionID": 312010275,
      "EntranceFreeStyleIDList": [
        312010274,
        312010273
      ],
      "CanTransitionToState": true
    },
    {
      "MotionID": 312010906,
      "EntranceFreeStyleIDList": []
    },
    {
      "MotionID": 312010017,
      "EntranceFreeStyleIDList": []
    }
  ]
}