{
  "StateList": [
    {
      "MotionID": 310030000,
      "EntranceFreeStyleIDList": [
        310030200,
        310030201,
        310030002,
        310030003,
        310030007,
        310030008,
        310030011,
        310030009,
        310030013,
        310030010,
        310030012,
        310030014,
        310030217,
        310030223,
        310030229,
        310030232,
        310030248,
        310030275,
        310030247
      ],
      "CanTransitionToState": true
    },
    {
      "MotionID": 310030200,
      "EntranceFreeStyleIDList": [
        310030000
      ],
      "CanTransitionToState": true
    },
    {
      "MotionID": 310030201,
      "EntranceFreeStyleIDList": [
        310030000
      ],
      "CanTransitionToState": true
    },
    {
      "MotionID": 310030001,
      "EntranceFreeStyleIDList": [
        310030000
      ]
    },
    {
      "MotionID": 310030002,
      "EntranceFreeStyleIDList": [
        310030000,
        310030001
      ],
      "CanTransitionToState": true
    },
    {
      "MotionID": 310030003,
      "EntranceFreeStyleIDList": [
        310030000,
        310030001
      ],
      "CanTransitionToState": true
    },
    {
      "MotionID": 310030006,
      "EntranceFreeStyleIDList": [
        310030004,
        310030005
      ]
    },
    {
      "MotionID": 310030004,
      "EntranceFreeStyleIDList": [
        310030000
      ]
    },
    {
      "MotionID": 310030005,
      "EntranceFreeStyleIDList": [
        310030000
      ]
    },
    {
      "MotionID": 310030007,
      "EntranceFreeStyleIDList": [
        310030000,
        310030006,
        310030004
      ],
      "CanTransitionToState": true
    },
    {
      "MotionID": 310030008,
      "EntranceFreeStyleIDList": [
        310030000,
        310030006,
        310030005
      ],
      "CanTransitionToState": true
    },
    {
      "MotionID": 310030011,
      "EntranceFreeStyleIDList": [
        310030000
      ],
      "CanTransitionToState": true
    },
    {
      "MotionID": 310030009,
      "EntranceFreeStyleIDList": [
        310030000
      ],
      "CanTransitionToState": true
    },
    {
      "MotionID": 310030013,
      "EntranceFreeStyleIDList": [
        310030000
      ],
      "CanTransitionToState": true
    },
    {
      "MotionID": 310030010,
      "EntranceFreeStyleIDList": [
        310030000
      ],
      "CanTransitionToState": true
    },
    {
      "MotionID": 310030012,
      "EntranceFreeStyleIDList": [
        310030000
      ],
      "CanTransitionToState": true
    },
    {
      "MotionID": 310030014,
      "EntranceFreeStyleIDList": [
        310030000
      ],
      "CanTransitionToState": true
    },
    {
      "MotionID": 310030900,
      "EntranceFreeStyleIDList": []
    },
    {
      "MotionID": 310030215,
      "EntranceFreeStyleIDList": [
        310030000
      ]
    },
    {
      "MotionID": 310030216,
      "EntranceFreeStyleIDList": [
        310030215,
        310030220
      ]
    },
    {
      "MotionID": 310030217,
      "EntranceFreeStyleIDList": [
        310030216,
        310030215
      ],
      "CanTransitionToState": true
    },
    {
      "MotionID": 310030218,
      "EntranceFreeStyleIDList": [
        310030216
      ]
    },
    {
      "MotionID": 310030219,
      "EntranceFreeStyleIDList": [
        310030218
      ]
    },
    {
      "MotionID": 310030220,
      "EntranceFreeStyleIDList": [
        310030219,
        310030218
      ]
    },
    {
      "MotionID": 310030221,
      "EntranceFreeStyleIDList": [
        310030000
      ]
    },
    {
      "MotionID": 310030222,
      "EntranceFreeStyleIDList": [
        310030221,
        310030226
      ]
    },
    {
      "MotionID": 310030223,
      "EntranceFreeStyleIDList": [
        310030222,
        310030221
      ],
      "CanTransitionToState": true
    },
    {
      "MotionID": 310030224,
      "EntranceFreeStyleIDList": [
        310030222
      ]
    },
    {
      "MotionID": 310030225,
      "EntranceFreeStyleIDList": [
        310030224
      ]
    },
    {
      "MotionID": 310030226,
      "EntranceFreeStyleIDList": [
        310030225,
        310030224
      ]
    },
    {
      "MotionID": 310030227,
      "EntranceFreeStyleIDList": [
        310030000
      ]
    },
    {
      "MotionID": 310030228,
      "EntranceFreeStyleIDList": [
        310030227
      ]
    },
    {
      "MotionID": 310030229,
      "EntranceFreeStyleIDList": [
        310030228,
        310030227
      ],
      "CanTransitionToState": true
    },
    {
      "MotionID": 310030230,
      "EntranceFreeStyleIDList": [
        310030000
      ]
    },
    {
      "MotionID": 310030231,
      "EntranceFreeStyleIDList": [
        310030230,
        310030235
      ]
    },
    {
      "MotionID": 310030232,
      "EntranceFreeStyleIDList": [
        310030231,
        310030230
      ],
      "CanTransitionToState": true
    },
    {
      "MotionID": 310030233,
      "EntranceFreeStyleIDList": [
        310030231
      ]
    },
    {
      "MotionID": 310030234,
      "EntranceFreeStyleIDList": [
        310030233
      ]
    },
    {
      "MotionID": 310030235,
      "EntranceFreeStyleIDList": [
        310030234,
        310030233
      ]
    },
    {
      "MotionID": 310030245,
      "EntranceFreeStyleIDList": [
        310030000
      ]
    },
    {
      "MotionID": 310030246,
      "EntranceFreeStyleIDList": [
        310030245
      ]
    },
    {
      "MotionID": 310030247,
      "EntranceFreeStyleIDList": [
        310030246,
        310030245
      ],
      "CanTransitionToState": true
    },
    {
      "MotionID": 310030248,
      "EntranceFreeStyleIDList": [
        310030000
      ],
      "CanTransitionToState": true
    },
    {
      "MotionID": 310030273,
      "EntranceFreeStyleIDList": [
        310030000
      ]
    },
    {
      "MotionID": 310030274,
      "EntranceFreeStyleIDList": [
        310030273
      ]
    },
    {
      "MotionID": 310030275,
      "EntranceFreeStyleIDList": [
        310030274,
        310030273
      ],
      "CanTransitionToState": true
    },
    {
      "MotionID": 310030017,
      "EntranceFreeStyleIDList": []
    }
  ]
}