{
  "StateList": [
    {
      "MotionID": 100030000,
      "EntranceFreeStyleIDList": [
        100030200,
        100030002,
        100030003,
        100030011,
        100030012,
        100030202,
        100030211,
        100030223,
        100030229,
        100030359,
        100030244,
        100030325,
        100030326,
        100030248,
        100030334,
        100030290,
        100030362,
        100030269,
        100030346,
        100030314,
        100030331,
        100030238,
        100030394,
        100030397
      ],
      "CanTransitionToState": true
    },
    {
      "MotionID": 100030200,
      "EntranceFreeStyleIDList": [
        100030000
      ],
      "CanTransitionToState": true
    },
    {
      "MotionID": 100030001,
      "EntranceFreeStyleIDList": [
        100030000
      ]
    },
    {
      "MotionID": 100030002,
      "EntranceFreeStyleIDList": [
        100030000,
        100030001
      ],
      "CanTransitionToState": true
    },
    {
      "MotionID": 100030003,
      "EntranceFreeStyleIDList": [
        100030000,
        100030001
      ],
      "CanTransitionToState": true
    },
    {
      "MotionID": 100030011,
      "EntranceFreeStyleIDList": [
        100030000
      ],
      "CanTransitionToState": true
    },
    {
      "MotionID": 100030012,
      "EntranceFreeStyleIDList": [
        100030000
      ],
      "CanTransitionToState": true
    },
    {
      "MotionID": 100030202,
      "EntranceFreeStyleIDList": [
        100030000
      ],
      "CanTransitionToState": true
    },
    {
      "MotionID": 100030209,
      "EntranceFreeStyleIDList": [
        100030000
      ]
    },
    {
      "MotionID": 100030210,
      "EntranceFreeStyleIDList": [
        100030209,
        100030365,
        100030319
      ]
    },
    {
      "MotionID": 100030211,
      "EntranceFreeStyleIDList": [
        100030210,
        100030209,
        100030365,
        100030319
      ],
      "CanTransitionToState": true
    },
    {
      "MotionID": 100030221,
      "EntranceFreeStyleIDList": [
        100030000
      ]
    },
    {
      "MotionID": 100030222,
      "EntranceFreeStyleIDList": [
        100030221,
        100030367,
        100030368
      ]
    },
    {
      "MotionID": 100030223,
      "EntranceFreeStyleIDList": [
        100030222,
        100030221,
        100030367,
        100030368
      ],
      "CanTransitionToState": true
    },
    {
      "MotionID": 100030227,
      "EntranceFreeStyleIDList": [
        100030000
      ]
    },
    {
      "MotionID": 100030228,
      "EntranceFreeStyleIDList": [
        100030227
      ]
    },
    {
      "MotionID": 100030229,
      "EntranceFreeStyleIDList": [
        100030228,
        100030227
      ],
      "CanTransitionToState": true
    },
    {
      "MotionID": 100030357,
      "EntranceFreeStyleIDList": [
        100030000
      ]
    },
    {
      "MotionID": 100030358,
      "EntranceFreeStyleIDList": [
        100030357
      ]
    },
    {
      "MotionID": 100030359,
      "EntranceFreeStyleIDList": [
        100030358,
        100030357
      ],
      "CanTransitionToState": true
    },
    {
      "MotionID": 100030242,
      "EntranceFreeStyleIDList": [
        100030000
      ]
    },
    {
      "MotionID": 100030243,
      "EntranceFreeStyleIDList": [
        100030242
      ]
    },
    {
      "MotionID": 100030244,
      "EntranceFreeStyleIDList": [
        100030243,
        100030242
      ],
      "CanTransitionToState": true
    },
    {
      "MotionID": 100030325,
      "EntranceFreeStyleIDList": [
        100030000
      ],
      "CanTransitionToState": true
    },
    {
      "MotionID": 100030326,
      "EntranceFreeStyleIDList": [
        100030000
      ],
      "CanTransitionToState": true
    },
    {
      "MotionID": 100030248,
      "EntranceFreeStyleIDList": [
        100030000
      ],
      "CanTransitionToState": true
    },
    {
      "MotionID": 100030332,
      "EntranceFreeStyleIDList": [
        100030000
      ]
    },
    {
      "MotionID": 100030333,
      "EntranceFreeStyleIDList": [
        100030332
      ]
    },
    {
      "MotionID": 100030334,
      "EntranceFreeStyleIDList": [
        100030333,
        100030332
      ],
      "CanTransitionToState": true
    },
    {
      "MotionID": 100030288,
      "EntranceFreeStyleIDList": [
        100030000
      ]
    },
    {
      "MotionID": 100030289,
      "EntranceFreeStyleIDList": [
        100030288
      ]
    },
    {
      "MotionID": 100030290,
      "EntranceFreeStyleIDList": [
        100030289,
        100030288
      ],
      "CanTransitionToState": true
    },
    {
      "MotionID": 100030360,
      "EntranceFreeStyleIDList": [
        100030000
      ]
    },
    {
      "MotionID": 100030361,
      "EntranceFreeStyleIDList": [
        100030360
      ]
    },
    {
      "MotionID": 100030362,
      "EntranceFreeStyleIDList": [
        100030361,
        100030360
      ],
      "CanTransitionToState": true
    },
    {
      "MotionID": 100030267,
      "EntranceFreeStyleIDList": [
        100030000
      ]
    },
    {
      "MotionID": 100030268,
      "EntranceFreeStyleIDList": [
        100030267
      ]
    },
    {
      "MotionID": 100030269,
      "EntranceFreeStyleIDList": [
        100030268,
        100030267
      ],
      "CanTransitionToState": true
    },
    {
      "MotionID": 100030344,
      "EntranceFreeStyleIDList": [
        100030000
      ]
    },
    {
      "MotionID": 100030345,
      "EntranceFreeStyleIDList": [
        100030344
      ]
    },
    {
      "MotionID": 100030346,
      "EntranceFreeStyleIDList": [
        100030345,
        100030344
      ],
      "CanTransitionToState": true
    },
    {
      "MotionID": 100030313,
      "EntranceFreeStyleIDList": [
        100030000
      ]
    },
    {
      "MotionID": 100030293,
      "EntranceFreeStyleIDList": [
        100030313
      ]
    },
    {
      "MotionID": 100030314,
      "EntranceFreeStyleIDList": [
        100030293,
        100030313
      ],
      "CanTransitionToState": true
    },
    {
      "MotionID": 100030291,
      "EntranceFreeStyleIDList": []
    },
    {
      "MotionID": 100030297,
      "EntranceFreeStyleIDList": []
    },
    {
      "MotionID": 100030298,
      "EntranceFreeStyleIDList": []
    },
    {
      "MotionID": 100030299,
      "EntranceFreeStyleIDList": []
    },
    {
      "MotionID": 100030304,
      "EntranceFreeStyleIDList": []
    },
    {
      "MotionID": 100030305,
      "EntranceFreeStyleIDList": []
    },
    {
      "MotionID": 100030306,
      "EntranceFreeStyleIDList": []
    },
    {
      "MotionID": 100030365,
      "EntranceFreeStyleIDList": [
        100030210,
        100030209
      ]
    },
    {
      "MotionID": 100030331,
      "EntranceFreeStyleIDList": [
        100030000
      ],
      "CanTransitionToState": true
    },
    {
      "MotionID": 100030367,
      "EntranceFreeStyleIDList": [
        100030222,
        100030221
      ]
    },
    {
      "MotionID": 100030319,
      "EntranceFreeStyleIDList": [
        100030209,
        100030210
      ]
    },
    {
      "MotionID": 100030368,
      "EntranceFreeStyleIDList": [
        100030221,
        100030222
      ]
    },
    {
      "MotionID": 100030236,
      "EntranceFreeStyleIDList": [
        100030000
      ]
    },
    {
      "MotionID": 100030237,
      "EntranceFreeStyleIDList": [
        100030236
      ]
    },
    {
      "MotionID": 100030238,
      "EntranceFreeStyleIDList": [
        100030237,
        100030236
      ],
      "CanTransitionToState": true
    },
    {
      "MotionID": 100030373,
      "EntranceFreeStyleIDList": []
    },
    {
      "MotionID": 100030392,
      "EntranceFreeStyleIDList": [
        100030000
      ]
    },
    {
      "MotionID": 100030394,
      "EntranceFreeStyleIDList": [
        100030393,
        100030392
      ]
    },
    {
      "MotionID": 100030393,
      "EntranceFreeStyleIDList": [
        100030392
      ]
    },
    {
      "MotionID": 100030395,
      "EntranceFreeStyleIDList": [
        100030000
      ]
    },
    {
      "MotionID": 100030396,
      "EntranceFreeStyleIDList": [
        100030395
      ]
    },
    {
      "MotionID": 100030397,
      "EntranceFreeStyleIDList": [
        100030396,
        100030395
      ]
    }
  ]
}