{
  "StateList": [
    {
      "MotionID": 311110000,
      "EntranceFreeStyleIDList": [
        311110200,
        311110002,
        311110003,
        311110007,
        311110008,
        311110011,
        311110009,
        311110013,
        311110010,
        311110012,
        311110014,
        311110211,
        311110229,
        311110275,
        311110281,
        311110909
      ],
      "CanTransitionToState": true
    },
    {
      "MotionID": 311110200,
      "EntranceFreeStyleIDList": [
        311110000
      ],
      "CanTransitionToState": true
    },
    {
      "MotionID": 311110001,
      "EntranceFreeStyleIDList": [
        311110000
      ]
    },
    {
      "MotionID": 311110002,
      "EntranceFreeStyleIDList": [
        311110000,
        311110001
      ],
      "CanTransitionToState": true
    },
    {
      "MotionID": 311110003,
      "EntranceFreeStyleIDList": [
        311110000,
        311110001
      ],
      "CanTransitionToState": true
    },
    {
      "MotionID": 311110006,
      "EntranceFreeStyleIDList": [
        311110004,
        311110005
      ]
    },
    {
      "MotionID": 311110004,
      "EntranceFreeStyleIDList": [
        311110000
      ]
    },
    {
      "MotionID": 311110005,
      "EntranceFreeStyleIDList": [
        311110000
      ]
    },
    {
      "MotionID": 311110007,
      "EntranceFreeStyleIDList": [
        311110000,
        311110006,
        311110004
      ],
      "CanTransitionToState": true
    },
    {
      "MotionID": 311110008,
      "EntranceFreeStyleIDList": [
        311110000,
        311110006,
        311110005
      ],
      "CanTransitionToState": true
    },
    {
      "MotionID": 311110011,
      "EntranceFreeStyleIDList": [
        311110000
      ],
      "CanTransitionToState": true
    },
    {
      "MotionID": 311110009,
      "EntranceFreeStyleIDList": [
        311110000
      ],
      "CanTransitionToState": true
    },
    {
      "MotionID": 311110013,
      "EntranceFreeStyleIDList": [
        311110000
      ],
      "CanTransitionToState": true
    },
    {
      "MotionID": 311110010,
      "EntranceFreeStyleIDList": [
        311110000
      ],
      "CanTransitionToState": true
    },
    {
      "MotionID": 311110012,
      "EntranceFreeStyleIDList": [
        311110000
      ],
      "CanTransitionToState": true
    },
    {
      "MotionID": 311110014,
      "EntranceFreeStyleIDList": [
        311110000
      ],
      "CanTransitionToState": true
    },
    {
      "MotionID": 311110209,
      "EntranceFreeStyleIDList": [
        311110000
      ]
    },
    {
      "MotionID": 311110210,
      "EntranceFreeStyleIDList": [
        311110209,
        311110214
      ]
    },
    {
      "MotionID": 311110211,
      "EntranceFreeStyleIDList": [
        311110210,
        311110209
      ],
      "CanTransitionToState": true
    },
    {
      "MotionID": 311110212,
      "EntranceFreeStyleIDList": [
        311110210
      ]
    },
    {
      "MotionID": 311110213,
      "EntranceFreeStyleIDList": [
        311110212
      ]
    },
    {
      "MotionID": 311110214,
      "EntranceFreeStyleIDList": [
        311110213,
        311110212
      ]
    },
    {
      "MotionID": 311110227,
      "EntranceFreeStyleIDList": [
        311110000
      ]
    },
    {
      "MotionID": 311110228,
      "EntranceFreeStyleIDList": [
        311110227
      ]
    },
    {
      "MotionID": 311110229,
      "EntranceFreeStyleIDList": [
        311110228,
        311110227
      ],
      "CanTransitionToState": true
    },
    {
      "MotionID": 311110273,
      "EntranceFreeStyleIDList": [
        311110000
      ]
    },
    {
      "MotionID": 311110274,
      "EntranceFreeStyleIDList": [
        311110273
      ]
    },
    {
      "MotionID": 311110275,
      "EntranceFreeStyleIDList": [
        311110274,
        311110273
      ],
      "CanTransitionToState": true
    },
    {
      "MotionID": 311110279,
      "EntranceFreeStyleIDList": [
        311110000
      ]
    },
    {
      "MotionID": 311110280,
      "EntranceFreeStyleIDList": [
        311110279
      ]
    },
    {
      "MotionID": 311110281,
      "EntranceFreeStyleIDList": [
        311110280,
        311110279
      ],
      "CanTransitionToState": true
    },
    {
      "MotionID": 311110907,
      "EntranceFreeStyleIDList": [
        311110000
      ]
    },
    {
      "MotionID": 311110908,
      "EntranceFreeStyleIDList": [
        311110907
      ]
    },
    {
      "MotionID": 311110909,
      "EntranceFreeStyleIDList": [
        311110908,
        311110907
      ],
      "CanTransitionToState": true
    }
  ]
}