{
  "StateList": [
    {
      "MotionID": 380020000,
      "EntranceFreeStyleIDList": [
        380020200,
        380020201,
        380020002,
        380020003,
        380020007,
        380020008,
        380020011,
        380020009,
        380020013,
        380020010,
        380020012,
        380020014,
        380020202,
        380020205,
        380020208,
        380020211,
        380020217,
        380020223,
        380020229,
        380020232,
        380020238,
        380020244,
        380020248,
        380020261,
        380020257,
        380020260,
        380020269,
        380020272,
        380020275,
        380020278,
        380020287,
        380020912,
        380020247
      ],
      "CanTransitionToState": true
    },
    {
      "MotionID": 380020200,
      "EntranceFreeStyleIDList": [
        380020000
      ],
      "CanTransitionToState": true
    },
    {
      "MotionID": 380020201,
      "EntranceFreeStyleIDList": [
        380020000
      ],
      "CanTransitionToState": true
    },
    {
      "MotionID": 380020001,
      "EntranceFreeStyleIDList": [
        380020000
      ]
    },
    {
      "MotionID": 380020002,
      "EntranceFreeStyleIDList": [
        380020000,
        380020001
      ],
      "CanTransitionToState": true
    },
    {
      "MotionID": 380020003,
      "EntranceFreeStyleIDList": [
        380020000,
        380020001
      ],
      "CanTransitionToState": true
    },
    {
      "MotionID": 380020006,
      "EntranceFreeStyleIDList": [
        380020004,
        380020005
      ]
    },
    {
      "MotionID": 380020004,
      "EntranceFreeStyleIDList": [
        380020000
      ]
    },
    {
      "MotionID": 380020005,
      "EntranceFreeStyleIDList": [
        380020000
      ]
    },
    {
      "MotionID": 380020007,
      "EntranceFreeStyleIDList": [
        380020000,
        380020006,
        380020004
      ],
      "CanTransitionToState": true
    },
    {
      "MotionID": 380020008,
      "EntranceFreeStyleIDList": [
        380020000,
        380020006,
        380020005
      ],
      "CanTransitionToState": true
    },
    {
      "MotionID": 380020011,
      "EntranceFreeStyleIDList": [
        380020000
      ],
      "CanTransitionToState": true
    },
    {
      "MotionID": 380020009,
      "EntranceFreeStyleIDList": [
        380020000
      ],
      "CanTransitionToState": true
    },
    {
      "MotionID": 380020013,
      "EntranceFreeStyleIDList": [
        380020000
      ],
      "CanTransitionToState": true
    },
    {
      "MotionID": 380020010,
      "EntranceFreeStyleIDList": [
        380020000
      ],
      "CanTransitionToState": true
    },
    {
      "MotionID": 380020012,
      "EntranceFreeStyleIDList": [
        380020000
      ],
      "CanTransitionToState": true
    },
    {
      "MotionID": 380020014,
      "EntranceFreeStyleIDList": [
        380020000
      ],
      "CanTransitionToState": true
    },
    {
      "MotionID": 380020202,
      "EntranceFreeStyleIDList": [
        380020000
      ],
      "CanTransitionToState": true
    },
    {
      "MotionID": 380020203,
      "EntranceFreeStyleIDList": [
        380020000
      ]
    },
    {
      "MotionID": 380020204,
      "EntranceFreeStyleIDList": [
        380020203
      ]
    },
    {
      "MotionID": 380020205,
      "EntranceFreeStyleIDList": [
        380020204,
        380020203
      ],
      "CanTransitionToState": true
    },
    {
      "MotionID": 380020900,
      "EntranceFreeStyleIDList": []
    },
    {
      "MotionID": 380020206,
      "EntranceFreeStyleIDList": [
        380020000
      ]
    },
    {
      "MotionID": 380020207,
      "EntranceFreeStyleIDList": [
        380020206
      ]
    },
    {
      "MotionID": 380020208,
      "EntranceFreeStyleIDList": [
        380020207,
        380020206
      ],
      "CanTransitionToState": true
    },
    {
      "MotionID": 380020209,
      "EntranceFreeStyleIDList": [
        380020000
      ]
    },
    {
      "MotionID": 380020210,
      "EntranceFreeStyleIDList": [
        380020209,
        380020214
      ]
    },
    {
      "MotionID": 380020211,
      "EntranceFreeStyleIDList": [
        380020210,
        380020209
      ],
      "CanTransitionToState": true
    },
    {
      "MotionID": 380020212,
      "EntranceFreeStyleIDList": [
        380020210
      ]
    },
    {
      "MotionID": 380020213,
      "EntranceFreeStyleIDList": [
        380020212
      ]
    },
    {
      "MotionID": 380020214,
      "EntranceFreeStyleIDList": [
        380020213,
        380020212
      ]
    },
    {
      "MotionID": 380020215,
      "EntranceFreeStyleIDList": [
        380020000
      ]
    },
    {
      "MotionID": 380020216,
      "EntranceFreeStyleIDList": [
        380020215,
        380020220
      ]
    },
    {
      "MotionID": 380020217,
      "EntranceFreeStyleIDList": [
        380020216,
        380020215
      ],
      "CanTransitionToState": true
    },
    {
      "MotionID": 380020218,
      "EntranceFreeStyleIDList": [
        380020216
      ]
    },
    {
      "MotionID": 380020219,
      "EntranceFreeStyleIDList": [
        380020218
      ]
    },
    {
      "MotionID": 380020220,
      "EntranceFreeStyleIDList": [
        380020219,
        380020218
      ]
    },
    {
      "MotionID": 380020221,
      "EntranceFreeStyleIDList": [
        380020000
      ]
    },
    {
      "MotionID": 380020222,
      "EntranceFreeStyleIDList": [
        380020221,
        380020226
      ]
    },
    {
      "MotionID": 380020223,
      "EntranceFreeStyleIDList": [
        380020222,
        380020221
      ],
      "CanTransitionToState": true
    },
    {
      "MotionID": 380020224,
      "EntranceFreeStyleIDList": [
        380020222
      ]
    },
    {
      "MotionID": 380020225,
      "EntranceFreeStyleIDList": [
        380020224
      ]
    },
    {
      "MotionID": 380020226,
      "EntranceFreeStyleIDList": [
        380020225,
        380020224
      ]
    },
    {
      "MotionID": 380020227,
      "EntranceFreeStyleIDList": [
        380020000
      ]
    },
    {
      "MotionID": 380020228,
      "EntranceFreeStyleIDList": [
        380020227
      ]
    },
    {
      "MotionID": 380020229,
      "EntranceFreeStyleIDList": [
        380020228,
        380020227
      ],
      "CanTransitionToState": true
    },
    {
      "MotionID": 380020230,
      "EntranceFreeStyleIDList": [
        380020000
      ]
    },
    {
      "MotionID": 380020231,
      "EntranceFreeStyleIDList": [
        380020230,
        380020235
      ]
    },
    {
      "MotionID": 380020232,
      "EntranceFreeStyleIDList": [
        380020231,
        380020230
      ],
      "CanTransitionToState": true
    },
    {
      "MotionID": 380020233,
      "EntranceFreeStyleIDList": [
        380020231
      ]
    },
    {
      "MotionID": 380020234,
      "EntranceFreeStyleIDList": [
        380020233
      ]
    },
    {
      "MotionID": 380020235,
      "EntranceFreeStyleIDList": [
        380020234,
        380020233
      ]
    },
    {
      "MotionID": 380020236,
      "EntranceFreeStyleIDList": [
        380020000
      ]
    },
    {
      "MotionID": 380020237,
      "EntranceFreeStyleIDList": [
        380020236
      ]
    },
    {
      "MotionID": 380020238,
      "EntranceFreeStyleIDList": [
        380020237,
        380020236
      ],
      "CanTransitionToState": true
    },
    {
      "MotionID": 380020242,
      "EntranceFreeStyleIDList": [
        380020000
      ]
    },
    {
      "MotionID": 380020243,
      "EntranceFreeStyleIDList": [
        380020242
      ]
    },
    {
      "MotionID": 380020244,
      "EntranceFreeStyleIDList": [
        380020243,
        380020242
      ],
      "CanTransitionToState": true
    },
    {
      "MotionID": 380020245,
      "EntranceFreeStyleIDList": [
        380020000
      ]
    },
    {
      "MotionID": 380020246,
      "EntranceFreeStyleIDList": [
        380020245
      ]
    },
    {
      "MotionID": 380020247,
      "EntranceFreeStyleIDList": [
        380020246,
        380020245
      ],
      "CanTransitionToState": true
    },
    {
      "MotionID": 380020248,
      "EntranceFreeStyleIDList": [
        380020000
      ],
      "CanTransitionToState": true
    },
    {
      "MotionID": 380020261,
      "EntranceFreeStyleIDList": [
        380020000
      ],
      "CanTransitionToState": true
    },
    {
      "MotionID": 380020255,
      "EntranceFreeStyleIDList": [
        380020000
      ]
    },
    {
      "MotionID": 380020256,
      "EntranceFreeStyleIDList": [
        380020255
      ]
    },
    {
      "MotionID": 380020257,
      "EntranceFreeStyleIDList": [
        380020256,
        380020255
      ],
      "CanTransitionToState": true
    },
    {
      "MotionID": 380020258,
      "EntranceFreeStyleIDList": [
        380020000
      ]
    },
    {
      "MotionID": 380020259,
      "EntranceFreeStyleIDList": [
        380020258
      ]
    },
    {
      "MotionID": 380020260,
      "EntranceFreeStyleIDList": [
        380020259,
        380020258
      ],
      "CanTransitionToState": true
    },
    {
      "MotionID": 380020267,
      "EntranceFreeStyleIDList": [
        380020000
      ]
    },
    {
      "MotionID": 380020268,
      "EntranceFreeStyleIDList": [
        380020267
      ]
    },
    {
      "MotionID": 380020269,
      "EntranceFreeStyleIDList": [
        380020268,
        380020267
      ],
      "CanTransitionToState": true
    },
    {
      "MotionID": 380020270,
      "EntranceFreeStyleIDList": [
        380020000
      ]
    },
    {
      "MotionID": 380020271,
      "EntranceFreeStyleIDList": [
        380020270
      ]
    },
    {
      "MotionID": 380020272,
      "EntranceFreeStyleIDList": [
        380020271,
        380020270
      ],
      "CanTransitionToState": true
    },
    {
      "MotionID": 380020273,
      "EntranceFreeStyleIDList": [
        380020000
      ]
    },
    {
      "MotionID": 380020274,
      "EntranceFreeStyleIDList": [
        380020273
      ]
    },
    {
      "MotionID": 380020275,
      "EntranceFreeStyleIDList": [
        380020274,
        380020273
      ],
      "CanTransitionToState": true
    },
    {
      "MotionID": 380020276,
      "EntranceFreeStyleIDList": [
        380020000
      ]
    },
    {
      "MotionID": 380020277,
      "EntranceFreeStyleIDList": [
        380020276
      ]
    },
    {
      "MotionID": 380020278,
      "EntranceFreeStyleIDList": [
        380020277,
        380020276
      ],
      "CanTransitionToState": true
    },
    {
      "MotionID": 380020285,
      "EntranceFreeStyleIDList": [
        380020000
      ]
    },
    {
      "MotionID": 380020286,
      "EntranceFreeStyleIDList": [
        380020285
      ]
    },
    {
      "MotionID": 380020287,
      "EntranceFreeStyleIDList": [
        380020286,
        380020285
      ],
      "CanTransitionToState": true
    },
    {
      "MotionID": 380020910,
      "EntranceFreeStyleIDList": [
        380020000
      ]
    },
    {
      "MotionID": 380020911,
      "EntranceFreeStyleIDList": [
        380020910
      ]
    },
    {
      "MotionID": 380020912,
      "EntranceFreeStyleIDList": [
        380020911,
        380020910
      ],
      "CanTransitionToState": true
    },
    {
      "MotionID": 380020950,
      "EntranceFreeStyleIDList": []
    }
  ]
}