{
  "OnInitSequece": [],
  "OnStartSequece": [
    {
      "TaskList": [
        {
          "$type": "RPG.GameCore.LevelPerformanceInitialize",
          "PerformanceType": "E",
          "HideMunicipalCrowd": false,
          "HideMunicipalPedestrian": false
        },
        {
          "$type": "RPG.GameCore.AdvNpcFaceToPlayer"
        },
        {
          "$type": "RPG.GameCore.PlayAndWaitSimpleTalk",
          "SimpleTalkList": [
            {
              "TalkSentenceID": 503031011,
              "ProtectTime": 0.3
            }
          ]
        },
        {
          "$type": "RPG.GameCore.TriggerCustomString",
          "CustomString": {
            "Value": "Wait_Option_503031003_29"
          }
        }
      ]
    },
    {
      "IsLoop": true,
      "TaskList": [
        {
          "$type": "RPG.GameCore.WaitCustomString",
          "CustomString": {
            "Value": "Wait_Option_503031003_29"
          }
        },
        {
          "$type": "RPG.GameCore.PredicateTaskList",
          "Predicate": {
            "$type": "RPG.GameCore.ByCompareItemNumber",
            "ItemID": {
              "IsDynamic": false,
              "FixedValue": {
                "Value": 140352
              }
            },
            "Number": {
              "IsDynamic": false,
              "FixedValue": {
                "Value": 1
              }
            },
            "CompareType": "GreaterEqual"
          },
          "SuccessTaskList": [
            {
              "$type": "RPG.GameCore.PlayOptionTalk",
              "OptionList": [
                {
                  "TalkSentenceID": 404001652,
                  "OptionIconType": "ChatLoopIcon",
                  "TriggerCustomString": "TalkSentence_103030301"
                },
                {
                  "TalkSentenceID": 503031012,
                  "OptionIconType": "ChatLoopIcon",
                  "TriggerCustomString": "TalkSentence_503031013"
                },
                {
                  "TalkSentenceID": 503031021,
                  "OptionIconType": "ChatLoopIcon",
                  "TriggerCustomString": "TalkSentence_503031022"
                },
                {
                  "TalkSentenceID": 503031025,
                  "OptionIconType": "ChatLoopIcon",
                  "TriggerCustomString": "TalkSentence_503031026"
                },
                {
                  "TalkSentenceID": 503031032,
                  "OptionIconType": "ChatOutIcon",
                  "TriggerCustomString": "TalkSentence_503031033"
                }
              ],
              "HideSelected": true
            }
          ],
          "FailedTaskList": [
            {
              "$type": "RPG.GameCore.PlayOptionTalk",
              "OptionList": [
                {
                  "TalkSentenceID": 503031012,
                  "OptionIconType": "ChatLoopIcon",
                  "TriggerCustomString": "TalkSentence_503031013"
                },
                {
                  "TalkSentenceID": 503031021,
                  "OptionIconType": "ChatLoopIcon",
                  "TriggerCustomString": "TalkSentence_503031022"
                },
                {
                  "TalkSentenceID": 503031025,
                  "OptionIconType": "ChatLoopIcon",
                  "TriggerCustomString": "TalkSentence_503031026"
                },
                {
                  "TalkSentenceID": 503031032,
                  "OptionIconType": "ChatOutIcon",
                  "TriggerCustomString": "TalkSentence_503031033"
                }
              ],
              "HideSelected": true
            }
          ]
        }
      ]
    },
    {
      "IsLoop": true,
      "TaskList": [
        {
          "$type": "RPG.GameCore.WaitCustomString",
          "CustomString": {
            "Value": "TalkSentence_503031013"
          }
        },
        {
          "$type": "RPG.GameCore.PlayAndWaitSimpleTalk",
          "SimpleTalkList": [
            {
              "TalkSentenceID": 503031013,
              "ProtectTime": 0.3
            },
            {
              "TalkSentenceID": 503031014,
              "ProtectTime": 0.3
            },
            {
              "TalkSentenceID": 503031015,
              "ProtectTime": 0.3
            },
            {
              "TalkSentenceID": 503031016,
              "ProtectTime": 0.3
            }
          ]
        },
        {
          "$type": "RPG.GameCore.PlayOptionTalk",
          "OptionList": [
            {
              "TalkSentenceID": 503031017,
              "OptionIconType": "ChatLoopIcon",
              "TriggerCustomString": "TalkSentence_503031018"
            }
          ],
          "HideSelected": true
        }
      ]
    },
    {
      "IsLoop": true,
      "TaskList": [
        {
          "$type": "RPG.GameCore.WaitCustomString",
          "CustomString": {
            "Value": "TalkSentence_503031018"
          }
        },
        {
          "$type": "RPG.GameCore.PlayAndWaitSimpleTalk",
          "SimpleTalkList": [
            {
              "TalkSentenceID": 503031018,
              "ProtectTime": 0.3
            },
            {
              "TalkSentenceID": 503031019,
              "ProtectTime": 0.3
            },
            {
              "TalkSentenceID": 503031020,
              "ProtectTime": 0.3
            }
          ]
        },
        {
          "$type": "RPG.GameCore.TriggerCustomString",
          "CustomString": {
            "Value": "Wait_Option_503031003_29"
          }
        }
      ]
    },
    {
      "IsLoop": true,
      "TaskList": [
        {
          "$type": "RPG.GameCore.WaitCustomString",
          "CustomString": {
            "Value": "TalkSentence_503031022"
          }
        },
        {
          "$type": "RPG.GameCore.PlayAndWaitSimpleTalk",
          "SimpleTalkList": [
            {
              "TalkSentenceID": 503031022,
              "ProtectTime": 0.3
            },
            {
              "TalkSentenceID": 503031023,
              "ProtectTime": 0.3
            },
            {
              "TalkSentenceID": 503031024,
              "ProtectTime": 0.3
            }
          ]
        },
        {
          "$type": "RPG.GameCore.TriggerCustomString",
          "CustomString": {
            "Value": "Wait_Option_503031003_29"
          }
        }
      ]
    },
    {
      "IsLoop": true,
      "TaskList": [
        {
          "$type": "RPG.GameCore.WaitCustomString",
          "CustomString": {
            "Value": "TalkSentence_503031026"
          }
        },
        {
          "$type": "RPG.GameCore.PlayAndWaitSimpleTalk",
          "SimpleTalkList": [
            {
              "TalkSentenceID": 503031026,
              "ProtectTime": 0.3
            },
            {
              "TalkSentenceID": 503031027,
              "ProtectTime": 0.3
            },
            {
              "TalkSentenceID": 503031028,
              "ProtectTime": 0.3
            },
            {
              "TalkSentenceID": 503031029,
              "ProtectTime": 0.3
            },
            {
              "TalkSentenceID": 503031030,
              "ProtectTime": 0.3
            },
            {
              "TalkSentenceID": 503031031,
              "ProtectTime": 0.3
            }
          ]
        },
        {
          "$type": "RPG.GameCore.TriggerCustomString",
          "CustomString": {
            "Value": "Wait_Option_503031003_29"
          }
        }
      ]
    },
    {
      "IsLoop": true,
      "TaskList": [
        {
          "$type": "RPG.GameCore.WaitCustomString",
          "CustomString": {
            "Value": "TalkSentence_503031033"
          }
        },
        {
          "$type": "RPG.GameCore.PlayAndWaitSimpleTalk",
          "SimpleTalkList": [
            {
              "TalkSentenceID": 503031033,
              "ProtectTime": 0.3
            },
            {
              "TalkSentenceID": 503031034,
              "ProtectTime": 0.3
            }
          ]
        },
        {
          "$type": "RPG.GameCore.EndPerformance"
        }
      ]
    },
    {
      "TaskList": [
        {
          "$type": "RPG.GameCore.WaitPerformanceEnd"
        },
        {
          "$type": "RPG.GameCore.FinishLevelGraph"
        }
      ]
    },
    {
      "TaskList": [
        {
          "$type": "RPG.GameCore.WaitCustomString",
          "CustomString": {
            "Value": "TalkSentence_103030520"
          }
        },
        {
          "$type": "RPG.GameCore.PlayFullScreenTransfer",
          "PrevDuration": 0,
          "KeepDuration": 3,
          "PostDuration": 0,
          "Action": [
            {
              "$type": "RPG.GameCore.ScrTrfActTaskList",
              "TaskList": [
                {
                  "$type": "RPG.GameCore.TriggerSound",
                  "SoundName": {
                    "Value": "Ev_sfx_storyd_main_cg_penacony_103030199_stop"
                  }
                }
              ]
            }
          ]
        },
        {
          "$type": "RPG.GameCore.EndPerformance"
        }
      ]
    },
    {
      "TaskList": [
        {
          "$type": "RPG.GameCore.WaitCustomString",
          "CustomString": {
            "Value": "TalkSentence_103030512"
          }
        },
        {
          "$type": "RPG.GameCore.PlayAndWaitSimpleTalk",
          "UseBackground": true,
          "Backgrounds": [
            {
              "CgID": 1432
            },
            {
              "CgID": 1432
            },
            {
              "CgID": 1433
            },
            {
              "CgID": 1433
            },
            {
              "CgID": 1433
            },
            {
              "CgID": 1433
            },
            {
              "CgID": 1433
            }
          ],
          "SimpleTalkList": [
            {
              "TalkSentenceID": 103030512,
              "ProtectTime": 0.3
            },
            {
              "TalkSentenceID": 103030513,
              "ProtectTime": 0.3
            },
            {
              "TalkSentenceID": 103030514,
              "ProtectTime": 0.3
            },
            {
              "TalkSentenceID": 103030515,
              "ProtectTime": 0.3
            },
            {
              "TalkSentenceID": 103030516,
              "ProtectTime": 0.3
            },
            {
              "TalkSentenceID": 103030517,
              "ProtectTime": 0.3
            },
            {
              "TalkSentenceID": 103030518,
              "ProtectTime": 0.3
            }
          ]
        },
        {
          "$type": "RPG.GameCore.TriggerCustomString",
          "CustomString": {
            "Value": "TalkSentence_103030520"
          }
        }
      ]
    },
    {
      "TaskList": [
        {
          "$type": "RPG.GameCore.WaitCustomString",
          "CustomString": {
            "Value": "TalkSentence_103030511"
          }
        },
        {
          "$type": "RPG.GameCore.PlayAndWaitSimpleTalk",
          "UseBackground": true,
          "Backgrounds": [
            {
              "CgID": 1432
            }
          ],
          "SimpleTalkList": [
            {
              "TalkSentenceID": 103030511,
              "ProtectTime": 0.3
            }
          ]
        },
        {
          "$type": "RPG.GameCore.TriggerCustomString",
          "CustomString": {
            "Value": "TalkSentence_103030512"
          }
        }
      ]
    },
    {
      "TaskList": [
        {
          "$type": "RPG.GameCore.WaitCustomString",
          "CustomString": {
            "Value": "TalkSentence_103030509"
          }
        },
        {
          "$type": "RPG.GameCore.PlayAndWaitSimpleTalk",
          "UseBackground": true,
          "Backgrounds": [
            {
              "CgID": 1432
            }
          ],
          "SimpleTalkList": [
            {
              "TalkSentenceID": 103030509,
              "ProtectTime": 0.3
            }
          ]
        },
        {
          "$type": "RPG.GameCore.TriggerCustomString",
          "CustomString": {
            "Value": "TalkSentence_103030512"
          }
        }
      ]
    },
    {
      "TaskList": [
        {
          "$type": "RPG.GameCore.WaitCustomString",
          "CustomString": {
            "Value": "TalkSentence_103030507"
          }
        },
        {
          "$type": "RPG.GameCore.PlayAndWaitSimpleTalk",
          "UseBackground": true,
          "Backgrounds": [
            {
              "CgID": 1432
            }
          ],
          "SimpleTalkList": [
            {
              "TalkSentenceID": 103030507,
              "ProtectTime": 0.3
            }
          ]
        },
        {
          "$type": "RPG.GameCore.TriggerCustomString",
          "CustomString": {
            "Value": "TalkSentence_103030512"
          }
        }
      ]
    },
    {
      "TaskList": [
        {
          "$type": "RPG.GameCore.WaitCustomString",
          "CustomString": {
            "Value": "TalkSentence_103030492"
          }
        },
        {
          "$type": "RPG.GameCore.PlayAndWaitSimpleTalk",
          "UseBackground": true,
          "Backgrounds": [
            {
              "CgID": 1429
            },
            {
              "CgID": 1429
            },
            {
              "CgID": 1429
            },
            {
              "CgID": 1429
            },
            {
              "CgID": 1430
            },
            {
              "CgID": 1430
            },
            {
              "CgID": 1430
            },
            {
              "CgID": 1431
            },
            {
              "CgID": 1431
            },
            {
              "CgID": 1431
            },
            {
              "CgID": 1432
            },
            {
              "CgID": 1432
            },
            {
              "CgID": 1432
            },
            {
              "CgID": 1432
            }
          ],
          "SimpleTalkList": [
            {
              "TalkSentenceID": 103030492,
              "ProtectTime": 0.3
            },
            {
              "TalkSentenceID": 103030493,
              "ProtectTime": 0.3
            },
            {
              "TalkSentenceID": 103030494,
              "ProtectTime": 0.3
            },
            {
              "TalkSentenceID": 103030495,
              "ProtectTime": 0.3
            },
            {
              "TalkSentenceID": 103030496,
              "ProtectTime": 0.3
            },
            {
              "TalkSentenceID": 103030497,
              "ProtectTime": 0.3
            },
            {
              "TalkSentenceID": 103030498,
              "ProtectTime": 0.3
            },
            {
              "TalkSentenceID": 103030499,
              "ProtectTime": 0.3
            },
            {
              "TalkSentenceID": 103030500,
              "ProtectTime": 0.3
            },
            {
              "TalkSentenceID": 103030501,
              "ProtectTime": 0.3
            },
            {
              "TalkSentenceID": 103030502,
              "ProtectTime": 0.3
            },
            {
              "TalkSentenceID": 103030503,
              "ProtectTime": 0.3
            },
            {
              "TalkSentenceID": 103030504,
              "ProtectTime": 0.3
            },
            {
              "TalkSentenceID": 103030505,
              "ProtectTime": 0.3
            }
          ]
        },
        {
          "$type": "RPG.GameCore.PlayOptionTalk",
          "OptionList": [
            {
              "TalkSentenceID": 103030506,
              "OptionIconType": "ChatContinueIcon",
              "TriggerCustomString": "TalkSentence_103030507"
            },
            {
              "TalkSentenceID": 103030508,
              "OptionIconType": "ChatContinueIcon",
              "TriggerCustomString": "TalkSentence_103030509"
            },
            {
              "TalkSentenceID": 103030510,
              "OptionIconType": "ChatContinueIcon",
              "TriggerCustomString": "TalkSentence_103030511"
            }
          ]
        }
      ]
    },
    {
      "TaskList": [
        {
          "$type": "RPG.GameCore.WaitCustomString",
          "CustomString": {
            "Value": "TalkSentence_103030484"
          }
        },
        {
          "$type": "RPG.GameCore.PlayAndWaitSimpleTalk",
          "UseBackground": true,
          "Backgrounds": [
            {
              "CgID": 1432
            },
            {
              "CgID": 1432
            },
            {
              "CgID": 1433
            },
            {
              "CgID": 1433
            },
            {
              "CgID": 1433
            },
            {
              "CgID": 1433
            },
            {
              "CgID": 1433
            }
          ],
          "SimpleTalkList": [
            {
              "TalkSentenceID": 103030484,
              "ProtectTime": 0.3
            },
            {
              "TalkSentenceID": 103030485,
              "ProtectTime": 0.3
            },
            {
              "TalkSentenceID": 103030486,
              "ProtectTime": 0.3
            },
            {
              "TalkSentenceID": 103030487,
              "ProtectTime": 0.3
            },
            {
              "TalkSentenceID": 103030488,
              "ProtectTime": 0.3
            },
            {
              "TalkSentenceID": 103030489,
              "ProtectTime": 0.3
            },
            {
              "TalkSentenceID": 103030490,
              "ProtectTime": 0.3
            }
          ]
        },
        {
          "$type": "RPG.GameCore.TriggerCustomString",
          "CustomString": {
            "Value": "TalkSentence_103030520"
          }
        }
      ]
    },
    {
      "TaskList": [
        {
          "$type": "RPG.GameCore.WaitCustomString",
          "CustomString": {
            "Value": "TalkSentence_103030483"
          }
        },
        {
          "$type": "RPG.GameCore.PlayAndWaitSimpleTalk",
          "UseBackground": true,
          "Backgrounds": [
            {
              "CgID": 1432
            }
          ],
          "SimpleTalkList": [
            {
              "TalkSentenceID": 103030483,
              "ProtectTime": 0.3
            }
          ]
        },
        {
          "$type": "RPG.GameCore.TriggerCustomString",
          "CustomString": {
            "Value": "TalkSentence_103030484"
          }
        }
      ]
    },
    {
      "TaskList": [
        {
          "$type": "RPG.GameCore.WaitCustomString",
          "CustomString": {
            "Value": "TalkSentence_103030481"
          }
        },
        {
          "$type": "RPG.GameCore.PlayAndWaitSimpleTalk",
          "UseBackground": true,
          "Backgrounds": [
            {
              "CgID": 1432
            }
          ],
          "SimpleTalkList": [
            {
              "TalkSentenceID": 103030481,
              "ProtectTime": 0.3
            }
          ]
        },
        {
          "$type": "RPG.GameCore.TriggerCustomString",
          "CustomString": {
            "Value": "TalkSentence_103030484"
          }
        }
      ]
    },
    {
      "TaskList": [
        {
          "$type": "RPG.GameCore.WaitCustomString",
          "CustomString": {
            "Value": "TalkSentence_103030479"
          }
        },
        {
          "$type": "RPG.GameCore.PlayAndWaitSimpleTalk",
          "UseBackground": true,
          "Backgrounds": [
            {
              "CgID": 1432
            }
          ],
          "SimpleTalkList": [
            {
              "TalkSentenceID": 103030479,
              "ProtectTime": 0.3
            }
          ]
        },
        {
          "$type": "RPG.GameCore.TriggerCustomString",
          "CustomString": {
            "Value": "TalkSentence_103030484"
          }
        }
      ]
    },
    {
      "TaskList": [
        {
          "$type": "RPG.GameCore.WaitCustomString",
          "CustomString": {
            "Value": "TalkSentence_103030464"
          }
        },
        {
          "$type": "RPG.GameCore.PlayAndWaitSimpleTalk",
          "UseBackground": true,
          "Backgrounds": [
            {
              "CgID": 1429
            },
            {
              "CgID": 1429
            },
            {
              "CgID": 1429
            },
            {
              "CgID": 1429
            },
            {
              "CgID": 1430
            },
            {
              "CgID": 1430
            },
            {
              "CgID": 1430
            },
            {
              "CgID": 1431
            },
            {
              "CgID": 1431
            },
            {
              "CgID": 1431
            },
            {
              "CgID": 1432
            },
            {
              "CgID": 1432
            },
            {
              "CgID": 1432
            },
            {
              "CgID": 1432
            }
          ],
          "SimpleTalkList": [
            {
              "TalkSentenceID": 103030464,
              "ProtectTime": 0.3
            },
            {
              "TalkSentenceID": 103030465,
              "ProtectTime": 0.3
            },
            {
              "TalkSentenceID": 103030466,
              "ProtectTime": 0.3
            },
            {
              "TalkSentenceID": 103030467,
              "ProtectTime": 0.3
            },
            {
              "TalkSentenceID": 103030468,
              "ProtectTime": 0.3
            },
            {
              "TalkSentenceID": 103030469,
              "ProtectTime": 0.3
            },
            {
              "TalkSentenceID": 103030470,
              "ProtectTime": 0.3
            },
            {
              "TalkSentenceID": 103030471,
              "ProtectTime": 0.3
            },
            {
              "TalkSentenceID": 103030472,
              "ProtectTime": 0.3
            },
            {
              "TalkSentenceID": 103030473,
              "ProtectTime": 0.3
            },
            {
              "TalkSentenceID": 103030474,
              "ProtectTime": 0.3
            },
            {
              "TalkSentenceID": 103030475,
              "ProtectTime": 0.3
            },
            {
              "TalkSentenceID": 103030476,
              "ProtectTime": 0.3
            },
            {
              "TalkSentenceID": 103030477,
              "ProtectTime": 0.3
            }
          ]
        },
        {
          "$type": "RPG.GameCore.PlayOptionTalk",
          "OptionList": [
            {
              "TalkSentenceID": 103030478,
              "OptionIconType": "ChatContinueIcon",
              "TriggerCustomString": "TalkSentence_103030479"
            },
            {
              "TalkSentenceID": 103030480,
              "OptionIconType": "ChatContinueIcon",
              "TriggerCustomString": "TalkSentence_103030481"
            },
            {
              "TalkSentenceID": 103030482,
              "OptionIconType": "ChatContinueIcon",
              "TriggerCustomString": "TalkSentence_103030483"
            }
          ]
        }
      ]
    },
    {
      "TaskList": [
        {
          "$type": "RPG.GameCore.WaitCustomString",
          "CustomString": {
            "Value": "TalkSentence_103030456"
          }
        },
        {
          "$type": "RPG.GameCore.PlayAndWaitSimpleTalk",
          "UseBackground": true,
          "Backgrounds": [
            {
              "CgID": 1432
            },
            {
              "CgID": 1432
            },
            {
              "CgID": 1433
            },
            {
              "CgID": 1433
            },
            {
              "CgID": 1433
            },
            {
              "CgID": 1433
            },
            {
              "CgID": 1433
            }
          ],
          "SimpleTalkList": [
            {
              "TalkSentenceID": 103030456,
              "ProtectTime": 0.3
            },
            {
              "TalkSentenceID": 103030457,
              "ProtectTime": 0.3
            },
            {
              "TalkSentenceID": 103030458,
              "ProtectTime": 0.3
            },
            {
              "TalkSentenceID": 103030459,
              "ProtectTime": 0.3
            },
            {
              "TalkSentenceID": 103030460,
              "ProtectTime": 0.3
            },
            {
              "TalkSentenceID": 103030461,
              "ProtectTime": 0.3
            },
            {
              "TalkSentenceID": 103030462,
              "ProtectTime": 0.3
            }
          ]
        },
        {
          "$type": "RPG.GameCore.TriggerCustomString",
          "CustomString": {
            "Value": "TalkSentence_103030520"
          }
        }
      ]
    },
    {
      "TaskList": [
        {
          "$type": "RPG.GameCore.WaitCustomString",
          "CustomString": {
            "Value": "TalkSentence_103030455"
          }
        },
        {
          "$type": "RPG.GameCore.PlayAndWaitSimpleTalk",
          "UseBackground": true,
          "Backgrounds": [
            {
              "CgID": 1432
            }
          ],
          "SimpleTalkList": [
            {
              "TalkSentenceID": 103030455,
              "ProtectTime": 0.3
            }
          ]
        },
        {
          "$type": "RPG.GameCore.TriggerCustomString",
          "CustomString": {
            "Value": "TalkSentence_103030456"
          }
        }
      ]
    },
    {
      "TaskList": [
        {
          "$type": "RPG.GameCore.WaitCustomString",
          "CustomString": {
            "Value": "TalkSentence_103030453"
          }
        },
        {
          "$type": "RPG.GameCore.PlayAndWaitSimpleTalk",
          "UseBackground": true,
          "Backgrounds": [
            {
              "CgID": 1432
            }
          ],
          "SimpleTalkList": [
            {
              "TalkSentenceID": 103030453,
              "ProtectTime": 0.3
            }
          ]
        },
        {
          "$type": "RPG.GameCore.TriggerCustomString",
          "CustomString": {
            "Value": "TalkSentence_103030456"
          }
        }
      ]
    },
    {
      "TaskList": [
        {
          "$type": "RPG.GameCore.WaitCustomString",
          "CustomString": {
            "Value": "TalkSentence_103030451"
          }
        },
        {
          "$type": "RPG.GameCore.PlayAndWaitSimpleTalk",
          "UseBackground": true,
          "Backgrounds": [
            {
              "CgID": 1432
            }
          ],
          "SimpleTalkList": [
            {
              "TalkSentenceID": 103030451,
              "ProtectTime": 0.3
            }
          ]
        },
        {
          "$type": "RPG.GameCore.TriggerCustomString",
          "CustomString": {
            "Value": "TalkSentence_103030456"
          }
        }
      ]
    },
    {
      "TaskList": [
        {
          "$type": "RPG.GameCore.WaitCustomString",
          "CustomString": {
            "Value": "TalkSentence_103030436"
          }
        },
        {
          "$type": "RPG.GameCore.PlayAndWaitSimpleTalk",
          "UseBackground": true,
          "Backgrounds": [
            {
              "CgID": 1429
            },
            {
              "CgID": 1429
            },
            {
              "CgID": 1429
            },
            {
              "CgID": 1429
            },
            {},
            {
              "CgID": 1430
            },
            {
              "CgID": 1430
            },
            {
              "CgID": 1431
            },
            {
              "CgID": 1431
            },
            {
              "CgID": 1431
            },
            {
              "CgID": 1432
            },
            {
              "CgID": 1432
            },
            {
              "CgID": 1432
            },
            {
              "CgID": 1432
            }
          ],
          "SimpleTalkList": [
            {
              "TalkSentenceID": 103030436,
              "ProtectTime": 0.3
            },
            {
              "TalkSentenceID": 103030437,
              "ProtectTime": 0.3
            },
            {
              "TalkSentenceID": 103030438,
              "ProtectTime": 0.3
            },
            {
              "TalkSentenceID": 103030439,
              "ProtectTime": 0.3
            },
            {
              "TalkSentenceID": 103030440,
              "ProtectTime": 0.3,
              "ForceToNextTime": 1430
            },
            {
              "TalkSentenceID": 103030441,
              "ProtectTime": 0.3
            },
            {
              "TalkSentenceID": 103030442,
              "ProtectTime": 0.3
            },
            {
              "TalkSentenceID": 103030443,
              "ProtectTime": 0.3
            },
            {
              "TalkSentenceID": 103030444,
              "ProtectTime": 0.3
            },
            {
              "TalkSentenceID": 103030445,
              "ProtectTime": 0.3
            },
            {
              "TalkSentenceID": 103030446,
              "ProtectTime": 0.3
            },
            {
              "TalkSentenceID": 103030447,
              "ProtectTime": 0.3
            },
            {
              "TalkSentenceID": 103030448,
              "ProtectTime": 0.3
            },
            {
              "TalkSentenceID": 103030449,
              "ProtectTime": 0.3
            }
          ]
        },
        {
          "$type": "RPG.GameCore.PlayOptionTalk",
          "OptionList": [
            {
              "TalkSentenceID": 103030450,
              "OptionIconType": "ChatContinueIcon",
              "TriggerCustomString": "TalkSentence_103030451"
            },
            {
              "TalkSentenceID": 103030452,
              "OptionIconType": "ChatContinueIcon",
              "TriggerCustomString": "TalkSentence_103030453"
            },
            {
              "TalkSentenceID": 103030454,
              "OptionIconType": "ChatContinueIcon",
              "TriggerCustomString": "TalkSentence_103030455"
            }
          ]
        }
      ]
    },
    {
      "TaskList": [
        {
          "$type": "RPG.GameCore.WaitCustomString",
          "CustomString": {
            "Value": "TalkSentence_103030428"
          }
        },
        {
          "$type": "RPG.GameCore.PlayAndWaitSimpleTalk",
          "UseBackground": true,
          "Backgrounds": [
            {
              "CgID": 1432
            },
            {
              "CgID": 1432
            },
            {
              "CgID": 1433
            },
            {
              "CgID": 1433
            },
            {
              "CgID": 1433
            },
            {
              "CgID": 1433
            },
            {
              "CgID": 1433
            }
          ],
          "SimpleTalkList": [
            {
              "TalkSentenceID": 103030428,
              "ProtectTime": 0.3
            },
            {
              "TalkSentenceID": 103030429,
              "ProtectTime": 0.3
            },
            {
              "TalkSentenceID": 103030430,
              "ProtectTime": 0.3
            },
            {
              "TalkSentenceID": 103030431,
              "ProtectTime": 0.3
            },
            {
              "TalkSentenceID": 103030432,
              "ProtectTime": 0.3
            },
            {
              "TalkSentenceID": 103030433,
              "ProtectTime": 0.3
            },
            {
              "TalkSentenceID": 103030434,
              "ProtectTime": 0.3
            }
          ]
        },
        {
          "$type": "RPG.GameCore.TriggerCustomString",
          "CustomString": {
            "Value": "TalkSentence_103030520"
          }
        }
      ]
    },
    {
      "TaskList": [
        {
          "$type": "RPG.GameCore.WaitCustomString",
          "CustomString": {
            "Value": "TalkSentence_103030427"
          }
        },
        {
          "$type": "RPG.GameCore.PlayAndWaitSimpleTalk",
          "UseBackground": true,
          "Backgrounds": [
            {
              "CgID": 1432
            }
          ],
          "SimpleTalkList": [
            {
              "TalkSentenceID": 103030427,
              "ProtectTime": 0.3
            }
          ]
        },
        {
          "$type": "RPG.GameCore.TriggerCustomString",
          "CustomString": {
            "Value": "TalkSentence_103030428"
          }
        }
      ]
    },
    {
      "TaskList": [
        {
          "$type": "RPG.GameCore.WaitCustomString",
          "CustomString": {
            "Value": "TalkSentence_103030425"
          }
        },
        {
          "$type": "RPG.GameCore.PlayAndWaitSimpleTalk",
          "UseBackground": true,
          "Backgrounds": [
            {
              "CgID": 1432
            }
          ],
          "SimpleTalkList": [
            {
              "TalkSentenceID": 103030425,
              "ProtectTime": 0.3
            }
          ]
        },
        {
          "$type": "RPG.GameCore.TriggerCustomString",
          "CustomString": {
            "Value": "TalkSentence_103030428"
          }
        }
      ]
    },
    {
      "TaskList": [
        {
          "$type": "RPG.GameCore.WaitCustomString",
          "CustomString": {
            "Value": "TalkSentence_103030423"
          }
        },
        {
          "$type": "RPG.GameCore.PlayAndWaitSimpleTalk",
          "UseBackground": true,
          "Backgrounds": [
            {
              "CgID": 1432
            }
          ],
          "SimpleTalkList": [
            {
              "TalkSentenceID": 103030423,
              "ProtectTime": 0.3
            }
          ]
        },
        {
          "$type": "RPG.GameCore.TriggerCustomString",
          "CustomString": {
            "Value": "TalkSentence_103030428"
          }
        }
      ]
    },
    {
      "TaskList": [
        {
          "$type": "RPG.GameCore.WaitCustomString",
          "CustomString": {
            "Value": "TalkSentence_103030408"
          }
        },
        {
          "$type": "RPG.GameCore.PlayAndWaitSimpleTalk",
          "UseBackground": true,
          "Backgrounds": [
            {
              "CgID": 1429
            },
            {
              "CgID": 1429
            },
            {
              "CgID": 1429
            },
            {
              "CgID": 1429
            },
            {
              "CgID": 1430
            },
            {
              "CgID": 1430
            },
            {
              "CgID": 1430
            },
            {
              "CgID": 1431
            },
            {
              "CgID": 1431
            },
            {
              "CgID": 1431
            },
            {
              "CgID": 1432
            },
            {
              "CgID": 1432
            },
            {
              "CgID": 1432
            },
            {
              "CgID": 1432
            }
          ],
          "SimpleTalkList": [
            {
              "TalkSentenceID": 103030408,
              "ProtectTime": 0.3
            },
            {
              "TalkSentenceID": 103030409,
              "ProtectTime": 0.3
            },
            {
              "TalkSentenceID": 103030410,
              "ProtectTime": 0.3
            },
            {
              "TalkSentenceID": 103030411,
              "ProtectTime": 0.3
            },
            {
              "TalkSentenceID": 103030412,
              "ProtectTime": 0.3
            },
            {
              "TalkSentenceID": 103030413,
              "ProtectTime": 0.3
            },
            {
              "TalkSentenceID": 103030414,
              "ProtectTime": 0.3
            },
            {
              "TalkSentenceID": 103030415,
              "ProtectTime": 0.3
            },
            {
              "TalkSentenceID": 103030416,
              "ProtectTime": 0.3
            },
            {
              "TalkSentenceID": 103030417,
              "ProtectTime": 0.3
            },
            {
              "TalkSentenceID": 103030418,
              "ProtectTime": 0.3
            },
            {
              "TalkSentenceID": 103030419,
              "ProtectTime": 0.3
            },
            {
              "TalkSentenceID": 103030420,
              "ProtectTime": 0.3
            },
            {
              "TalkSentenceID": 103030421,
              "ProtectTime": 0.3
            }
          ]
        },
        {
          "$type": "RPG.GameCore.PlayOptionTalk",
          "OptionList": [
            {
              "TalkSentenceID": 103030422,
              "OptionIconType": "ChatContinueIcon",
              "TriggerCustomString": "TalkSentence_103030423"
            },
            {
              "TalkSentenceID": 103030424,
              "OptionIconType": "ChatContinueIcon",
              "TriggerCustomString": "TalkSentence_103030425"
            },
            {
              "TalkSentenceID": 103030426,
              "OptionIconType": "ChatContinueIcon",
              "TriggerCustomString": "TalkSentence_103030427"
            }
          ]
        }
      ]
    },
    {
      "IsLoop": true,
      "TaskList": [
        {
          "$type": "RPG.GameCore.WaitCustomString",
          "CustomString": {
            "Value": "Wait_Option_103030199_174"
          }
        },
        {
          "$type": "RPG.GameCore.PlayOptionTalk",
          "OptionList": [
            {
              "TalkSentenceID": 103030407,
              "OptionIconType": "ChatContinueIcon",
              "TriggerCustomString": "TalkSentence_103030408"
            },
            {
              "TalkSentenceID": 103030435,
              "OptionIconType": "ChatContinueIcon",
              "TriggerCustomString": "TalkSentence_103030436"
            },
            {
              "TalkSentenceID": 103030463,
              "OptionIconType": "ChatContinueIcon",
              "TriggerCustomString": "TalkSentence_103030464"
            },
            {
              "TalkSentenceID": 103030491,
              "OptionIconType": "ChatContinueIcon",
              "TriggerCustomString": "TalkSentence_103030492"
            },
            {
              "TalkSentenceID": 103030519,
              "OptionIconType": "ChatBackIcon",
              "TriggerCustomString": "Wait_Option_103030199_82"
            }
          ]
        }
      ]
    },
    {
      "IsLoop": true,
      "TaskList": [
        {
          "$type": "RPG.GameCore.WaitCustomString",
          "CustomString": {
            "Value": "TalkSentence_103030399"
          }
        },
        {
          "$type": "RPG.GameCore.PlayAndWaitSimpleTalk",
          "UseBackground": true,
          "Backgrounds": [
            {
              "CgID": 1432
            },
            {
              "CgID": 1432
            },
            {
              "CgID": 1433
            },
            {
              "CgID": 1433
            },
            {
              "CgID": 1433
            },
            {
              "CgID": 1433
            },
            {
              "CgID": 1433
            }
          ],
          "SimpleTalkList": [
            {
              "TalkSentenceID": 103030399,
              "ProtectTime": 0.3
            },
            {
              "TalkSentenceID": 103030400,
              "ProtectTime": 0.3
            },
            {
              "TalkSentenceID": 103030401,
              "ProtectTime": 0.3
            },
            {
              "TalkSentenceID": 103030402,
              "ProtectTime": 0.3
            },
            {
              "TalkSentenceID": 103030403,
              "ProtectTime": 0.3
            },
            {
              "TalkSentenceID": 103030404,
              "ProtectTime": 0.3
            },
            {
              "TalkSentenceID": 103030405,
              "ProtectTime": 0.3
            }
          ]
        },
        {
          "$type": "RPG.GameCore.TriggerCustomString",
          "CustomString": {
            "Value": "TalkSentence_103030520"
          }
        }
      ]
    },
    {
      "IsLoop": true,
      "TaskList": [
        {
          "$type": "RPG.GameCore.WaitCustomString",
          "CustomString": {
            "Value": "TalkSentence_103030398"
          }
        },
        {
          "$type": "RPG.GameCore.PlayAndWaitSimpleTalk",
          "UseBackground": true,
          "Backgrounds": [
            {
              "CgID": 1432
            }
          ],
          "SimpleTalkList": [
            {
              "TalkSentenceID": 103030398,
              "ProtectTime": 0.3
            }
          ]
        },
        {
          "$type": "RPG.GameCore.TriggerCustomString",
          "CustomString": {
            "Value": "TalkSentence_103030399"
          }
        }
      ]
    },
    {
      "IsLoop": true,
      "TaskList": [
        {
          "$type": "RPG.GameCore.WaitCustomString",
          "CustomString": {
            "Value": "TalkSentence_103030396"
          }
        },
        {
          "$type": "RPG.GameCore.PlayAndWaitSimpleTalk",
          "UseBackground": true,
          "Backgrounds": [
            {
              "CgID": 1432
            }
          ],
          "SimpleTalkList": [
            {
              "TalkSentenceID": 103030396,
              "ProtectTime": 0.3
            }
          ]
        },
        {
          "$type": "RPG.GameCore.TriggerCustomString",
          "CustomString": {
            "Value": "TalkSentence_103030399"
          }
        }
      ]
    },
    {
      "IsLoop": true,
      "TaskList": [
        {
          "$type": "RPG.GameCore.WaitCustomString",
          "CustomString": {
            "Value": "TalkSentence_103030394"
          }
        },
        {
          "$type": "RPG.GameCore.PlayAndWaitSimpleTalk",
          "UseBackground": true,
          "Backgrounds": [
            {
              "CgID": 1432
            }
          ],
          "SimpleTalkList": [
            {
              "TalkSentenceID": 103030394,
              "ProtectTime": 0.3
            }
          ]
        },
        {
          "$type": "RPG.GameCore.TriggerCustomString",
          "CustomString": {
            "Value": "TalkSentence_103030399"
          }
        }
      ]
    },
    {
      "IsLoop": true,
      "TaskList": [
        {
          "$type": "RPG.GameCore.WaitCustomString",
          "CustomString": {
            "Value": "TalkSentence_103030379"
          }
        },
        {
          "$type": "RPG.GameCore.PlayAndWaitSimpleTalk",
          "UseBackground": true,
          "Backgrounds": [
            {
              "CgID": 1429
            },
            {
              "CgID": 1429
            },
            {
              "CgID": 1429
            },
            {
              "CgID": 1429
            },
            {
              "CgID": 1430
            },
            {
              "CgID": 1430
            },
            {
              "CgID": 1430
            },
            {
              "CgID": 1431
            },
            {
              "CgID": 1431
            },
            {
              "CgID": 1431
            },
            {
              "CgID": 1432
            },
            {
              "CgID": 1432
            },
            {
              "CgID": 1432
            },
            {
              "CgID": 1432
            }
          ],
          "SimpleTalkList": [
            {
              "TalkSentenceID": 103030379,
              "ProtectTime": 0.3
            },
            {
              "TalkSentenceID": 103030380,
              "ProtectTime": 0.3
            },
            {
              "TalkSentenceID": 103030381,
              "ProtectTime": 0.3
            },
            {
              "TalkSentenceID": 103030382,
              "ProtectTime": 0.3
            },
            {
              "TalkSentenceID": 103030383,
              "ProtectTime": 0.3
            },
            {
              "TalkSentenceID": 103030384,
              "ProtectTime": 0.3
            },
            {
              "TalkSentenceID": 103030385,
              "ProtectTime": 0.3
            },
            {
              "TalkSentenceID": 103030386,
              "ProtectTime": 0.3
            },
            {
              "TalkSentenceID": 103030387,
              "ProtectTime": 0.3
            },
            {
              "TalkSentenceID": 103030388,
              "ProtectTime": 0.3
            },
            {
              "TalkSentenceID": 103030389,
              "ProtectTime": 0.3
            },
            {
              "TalkSentenceID": 103030390,
              "ProtectTime": 0.3
            },
            {
              "TalkSentenceID": 103030391,
              "ProtectTime": 0.3
            },
            {
              "TalkSentenceID": 103030392,
              "ProtectTime": 0.3
            }
          ]
        },
        {
          "$type": "RPG.GameCore.PlayOptionTalk",
          "OptionList": [
            {
              "TalkSentenceID": 103030393,
              "OptionIconType": "ChatContinueIcon",
              "TriggerCustomString": "TalkSentence_103030394"
            },
            {
              "TalkSentenceID": 103030395,
              "OptionIconType": "ChatContinueIcon",
              "TriggerCustomString": "TalkSentence_103030396"
            },
            {
              "TalkSentenceID": 103030397,
              "OptionIconType": "ChatContinueIcon",
              "TriggerCustomString": "TalkSentence_103030398"
            }
          ]
        }
      ]
    },
    {
      "IsLoop": true,
      "TaskList": [
        {
          "$type": "RPG.GameCore.WaitCustomString",
          "CustomString": {
            "Value": "TalkSentence_103030371"
          }
        },
        {
          "$type": "RPG.GameCore.PlayAndWaitSimpleTalk",
          "UseBackground": true,
          "Backgrounds": [
            {
              "CgID": 1432
            },
            {
              "CgID": 1432
            },
            {
              "CgID": 1433
            },
            {
              "CgID": 1433
            },
            {
              "CgID": 1433
            },
            {
              "CgID": 1433
            },
            {
              "CgID": 1433
            }
          ],
          "SimpleTalkList": [
            {
              "TalkSentenceID": 103030371,
              "ProtectTime": 0.3
            },
            {
              "TalkSentenceID": 103030372,
              "ProtectTime": 0.3
            },
            {
              "TalkSentenceID": 103030373,
              "ProtectTime": 0.3
            },
            {
              "TalkSentenceID": 103030374,
              "ProtectTime": 0.3
            },
            {
              "TalkSentenceID": 103030375,
              "ProtectTime": 0.3
            },
            {
              "TalkSentenceID": 103030376,
              "ProtectTime": 0.3
            },
            {
              "TalkSentenceID": 103030377,
              "ProtectTime": 0.3
            }
          ]
        },
        {
          "$type": "RPG.GameCore.TriggerCustomString",
          "CustomString": {
            "Value": "TalkSentence_103030520"
          }
        }
      ]
    },
    {
      "IsLoop": true,
      "TaskList": [
        {
          "$type": "RPG.GameCore.WaitCustomString",
          "CustomString": {
            "Value": "TalkSentence_103030370"
          }
        },
        {
          "$type": "RPG.GameCore.PlayAndWaitSimpleTalk",
          "UseBackground": true,
          "Backgrounds": [
            {
              "CgID": 1432
            }
          ],
          "SimpleTalkList": [
            {
              "TalkSentenceID": 103030370,
              "ProtectTime": 0.3
            }
          ]
        },
        {
          "$type": "RPG.GameCore.TriggerCustomString",
          "CustomString": {
            "Value": "TalkSentence_103030371"
          }
        }
      ]
    },
    {
      "IsLoop": true,
      "TaskList": [
        {
          "$type": "RPG.GameCore.WaitCustomString",
          "CustomString": {
            "Value": "TalkSentence_103030368"
          }
        },
        {
          "$type": "RPG.GameCore.PlayAndWaitSimpleTalk",
          "UseBackground": true,
          "Backgrounds": [
            {
              "CgID": 1432
            }
          ],
          "SimpleTalkList": [
            {
              "TalkSentenceID": 103030368,
              "ProtectTime": 0.3
            }
          ]
        },
        {
          "$type": "RPG.GameCore.TriggerCustomString",
          "CustomString": {
            "Value": "TalkSentence_103030371"
          }
        }
      ]
    },
    {
      "IsLoop": true,
      "TaskList": [
        {
          "$type": "RPG.GameCore.WaitCustomString",
          "CustomString": {
            "Value": "TalkSentence_103030366"
          }
        },
        {
          "$type": "RPG.GameCore.PlayAndWaitSimpleTalk",
          "UseBackground": true,
          "Backgrounds": [
            {
              "CgID": 1432
            }
          ],
          "SimpleTalkList": [
            {
              "TalkSentenceID": 103030366,
              "ProtectTime": 0.3
            }
          ]
        },
        {
          "$type": "RPG.GameCore.TriggerCustomString",
          "CustomString": {
            "Value": "TalkSentence_103030371"
          }
        }
      ]
    },
    {
      "IsLoop": true,
      "TaskList": [
        {
          "$type": "RPG.GameCore.WaitCustomString",
          "CustomString": {
            "Value": "TalkSentence_103030351"
          }
        },
        {
          "$type": "RPG.GameCore.PlayAndWaitSimpleTalk",
          "UseBackground": true,
          "Backgrounds": [
            {
              "CgID": 1429
            },
            {
              "CgID": 1429
            },
            {
              "CgID": 1429
            },
            {
              "CgID": 1429
            },
            {
              "CgID": 1430
            },
            {
              "CgID": 1430
            },
            {
              "CgID": 1430
            },
            {
              "CgID": 1431
            },
            {
              "CgID": 1431
            },
            {
              "CgID": 1431
            },
            {
              "CgID": 1432
            },
            {
              "CgID": 1432
            },
            {
              "CgID": 1432
            },
            {
              "CgID": 1432
            }
          ],
          "SimpleTalkList": [
            {
              "TalkSentenceID": 103030351,
              "ProtectTime": 0.3
            },
            {
              "TalkSentenceID": 103030352,
              "ProtectTime": 0.3
            },
            {
              "TalkSentenceID": 103030353,
              "ProtectTime": 0.3
            },
            {
              "TalkSentenceID": 103030354,
              "ProtectTime": 0.3
            },
            {
              "TalkSentenceID": 103030355,
              "ProtectTime": 0.3
            },
            {
              "TalkSentenceID": 103030356,
              "ProtectTime": 0.3
            },
            {
              "TalkSentenceID": 103030357,
              "ProtectTime": 0.3
            },
            {
              "TalkSentenceID": 103030358,
              "ProtectTime": 0.3
            },
            {
              "TalkSentenceID": 103030359,
              "ProtectTime": 0.3
            },
            {
              "TalkSentenceID": 103030360,
              "ProtectTime": 0.3
            },
            {
              "TalkSentenceID": 103030361,
              "ProtectTime": 0.3
            },
            {
              "TalkSentenceID": 103030362,
              "ProtectTime": 0.3
            },
            {
              "TalkSentenceID": 103030363,
              "ProtectTime": 0.3
            },
            {
              "TalkSentenceID": 103030364,
              "ProtectTime": 0.3
            }
          ]
        },
        {
          "$type": "RPG.GameCore.PlayOptionTalk",
          "OptionList": [
            {
              "TalkSentenceID": 103030365,
              "OptionIconType": "ChatContinueIcon",
              "TriggerCustomString": "TalkSentence_103030366"
            },
            {
              "TalkSentenceID": 103030367,
              "OptionIconType": "ChatContinueIcon",
              "TriggerCustomString": "TalkSentence_103030368"
            },
            {
              "TalkSentenceID": 103030369,
              "OptionIconType": "ChatContinueIcon",
              "TriggerCustomString": "TalkSentence_103030370"
            }
          ]
        }
      ]
    },
    {
      "IsLoop": true,
      "TaskList": [
        {
          "$type": "RPG.GameCore.WaitCustomString",
          "CustomString": {
            "Value": "TalkSentence_103030343"
          }
        },
        {
          "$type": "RPG.GameCore.PlayAndWaitSimpleTalk",
          "UseBackground": true,
          "Backgrounds": [
            {
              "CgID": 1432
            },
            {
              "CgID": 1432
            },
            {
              "CgID": 1433
            },
            {
              "CgID": 1433
            },
            {
              "CgID": 1433
            },
            {
              "CgID": 1433
            },
            {
              "CgID": 1433
            }
          ],
          "SimpleTalkList": [
            {
              "TalkSentenceID": 103030343,
              "ProtectTime": 0.3
            },
            {
              "TalkSentenceID": 103030344,
              "ProtectTime": 0.3
            },
            {
              "TalkSentenceID": 103030345,
              "ProtectTime": 0.3
            },
            {
              "TalkSentenceID": 103030346,
              "ProtectTime": 0.3
            },
            {
              "TalkSentenceID": 103030347,
              "ProtectTime": 0.3
            },
            {
              "TalkSentenceID": 103030348,
              "ProtectTime": 0.3
            },
            {
              "TalkSentenceID": 103030349,
              "ProtectTime": 0.3
            }
          ]
        },
        {
          "$type": "RPG.GameCore.TriggerCustomString",
          "CustomString": {
            "Value": "TalkSentence_103030520"
          }
        }
      ]
    },
    {
      "IsLoop": true,
      "TaskList": [
        {
          "$type": "RPG.GameCore.WaitCustomString",
          "CustomString": {
            "Value": "TalkSentence_103030342"
          }
        },
        {
          "$type": "RPG.GameCore.PlayAndWaitSimpleTalk",
          "UseBackground": true,
          "Backgrounds": [
            {
              "CgID": 1432
            }
          ],
          "SimpleTalkList": [
            {
              "TalkSentenceID": 103030342,
              "ProtectTime": 0.3
            }
          ]
        },
        {
          "$type": "RPG.GameCore.TriggerCustomString",
          "CustomString": {
            "Value": "TalkSentence_103030343"
          }
        }
      ]
    },
    {
      "IsLoop": true,
      "TaskList": [
        {
          "$type": "RPG.GameCore.WaitCustomString",
          "CustomString": {
            "Value": "TalkSentence_103030340"
          }
        },
        {
          "$type": "RPG.GameCore.PlayAndWaitSimpleTalk",
          "UseBackground": true,
          "Backgrounds": [
            {
              "CgID": 1432
            }
          ],
          "SimpleTalkList": [
            {
              "TalkSentenceID": 103030340,
              "ProtectTime": 0.3
            }
          ]
        },
        {
          "$type": "RPG.GameCore.TriggerCustomString",
          "CustomString": {
            "Value": "TalkSentence_103030343"
          }
        }
      ]
    },
    {
      "IsLoop": true,
      "TaskList": [
        {
          "$type": "RPG.GameCore.WaitCustomString",
          "CustomString": {
            "Value": "TalkSentence_103030338"
          }
        },
        {
          "$type": "RPG.GameCore.PlayAndWaitSimpleTalk",
          "UseBackground": true,
          "Backgrounds": [
            {
              "CgID": 1432
            }
          ],
          "SimpleTalkList": [
            {
              "TalkSentenceID": 103030338,
              "ProtectTime": 0.3
            }
          ]
        },
        {
          "$type": "RPG.GameCore.TriggerCustomString",
          "CustomString": {
            "Value": "TalkSentence_103030343"
          }
        }
      ]
    },
    {
      "IsLoop": true,
      "TaskList": [
        {
          "$type": "RPG.GameCore.WaitCustomString",
          "CustomString": {
            "Value": "TalkSentence_103030323"
          }
        },
        {
          "$type": "RPG.GameCore.PlayAndWaitSimpleTalk",
          "UseBackground": true,
          "Backgrounds": [
            {
              "CgID": 1429
            },
            {
              "CgID": 1429
            },
            {
              "CgID": 1429
            },
            {
              "CgID": 1429
            },
            {
              "CgID": 1430
            },
            {
              "CgID": 1430
            },
            {
              "CgID": 1430
            },
            {
              "CgID": 1431
            },
            {
              "CgID": 1431
            },
            {
              "CgID": 1431
            },
            {
              "CgID": 1432
            },
            {
              "CgID": 1432
            },
            {
              "CgID": 1432
            },
            {
              "CgID": 1432
            }
          ],
          "SimpleTalkList": [
            {
              "TalkSentenceID": 103030323,
              "ProtectTime": 0.3
            },
            {
              "TalkSentenceID": 103030324,
              "ProtectTime": 0.3
            },
            {
              "TalkSentenceID": 103030325,
              "ProtectTime": 0.3
            },
            {
              "TalkSentenceID": 103030326,
              "ProtectTime": 0.3
            },
            {
              "TalkSentenceID": 103030327,
              "ProtectTime": 0.3
            },
            {
              "TalkSentenceID": 103030328,
              "ProtectTime": 0.3
            },
            {
              "TalkSentenceID": 103030329,
              "ProtectTime": 0.3
            },
            {
              "TalkSentenceID": 103030330,
              "ProtectTime": 0.3
            },
            {
              "TalkSentenceID": 103030331,
              "ProtectTime": 0.3
            },
            {
              "TalkSentenceID": 103030332,
              "ProtectTime": 0.3
            },
            {
              "TalkSentenceID": 103030333,
              "ProtectTime": 0.3
            },
            {
              "TalkSentenceID": 103030334,
              "ProtectTime": 0.3
            },
            {
              "TalkSentenceID": 103030335,
              "ProtectTime": 0.3
            },
            {
              "TalkSentenceID": 103030336,
              "ProtectTime": 0.3
            }
          ]
        },
        {
          "$type": "RPG.GameCore.PlayOptionTalk",
          "OptionList": [
            {
              "TalkSentenceID": 103030337,
              "OptionIconType": "ChatContinueIcon",
              "TriggerCustomString": "TalkSentence_103030338"
            },
            {
              "TalkSentenceID": 103030339,
              "OptionIconType": "ChatContinueIcon",
              "TriggerCustomString": "TalkSentence_103030340"
            },
            {
              "TalkSentenceID": 103030341,
              "OptionIconType": "ChatContinueIcon",
              "TriggerCustomString": "TalkSentence_103030342"
            }
          ]
        }
      ]
    },
    {
      "IsLoop": true,
      "TaskList": [
        {
          "$type": "RPG.GameCore.WaitCustomString",
          "CustomString": {
            "Value": "Wait_Option_103030199_82"
          }
        },
        {
          "$type": "RPG.GameCore.PlayOptionTalk",
          "OptionList": [
            {
              "TalkSentenceID": 103030322,
              "OptionIconType": "ChatContinueIcon",
              "TriggerCustomString": "TalkSentence_103030323"
            },
            {
              "TalkSentenceID": 103030350,
              "OptionIconType": "ChatContinueIcon",
              "TriggerCustomString": "TalkSentence_103030351"
            },
            {
              "TalkSentenceID": 103030378,
              "OptionIconType": "ChatContinueIcon",
              "TriggerCustomString": "TalkSentence_103030379"
            },
            {
              "TalkSentenceID": 103030406,
              "OptionIconType": "ChatContinueIcon",
              "TriggerCustomString": "Wait_Option_103030199_174"
            }
          ]
        }
      ]
    },
    {
      "TaskList": [
        {
          "$type": "RPG.GameCore.WaitCustomString",
          "CustomString": {
            "Value": "TalkSentence_103030321"
          }
        },
        {
          "$type": "RPG.GameCore.PlayAndWaitSimpleTalk",
          "UseBackground": true,
          "Backgrounds": [
            {
              "CgID": 1429
            }
          ],
          "SimpleTalkList": [
            {
              "TalkSentenceID": 103030321,
              "ProtectTime": 0.3
            }
          ]
        },
        {
          "$type": "RPG.GameCore.TriggerCustomString",
          "CustomString": {
            "Value": "Wait_Option_103030199_82"
          }
        }
      ]
    },
    {
      "TaskList": [
        {
          "$type": "RPG.GameCore.WaitCustomString",
          "CustomString": {
            "Value": "TalkSentence_103030320"
          }
        },
        {
          "$type": "RPG.GameCore.PlayAndWaitSimpleTalk",
          "UseBackground": true,
          "Backgrounds": [
            {
              "CgID": 1429
            }
          ],
          "SimpleTalkList": [
            {
              "TalkSentenceID": 103030320,
              "ProtectTime": 0.3
            }
          ]
        },
        {
          "$type": "RPG.GameCore.TriggerCustomString",
          "CustomString": {
            "Value": "TalkSentence_103030321"
          }
        }
      ]
    },
    {
      "TaskList": [
        {
          "$type": "RPG.GameCore.WaitCustomString",
          "CustomString": {
            "Value": "TalkSentence_103030318"
          }
        },
        {
          "$type": "RPG.GameCore.PlayAndWaitSimpleTalk",
          "UseBackground": true,
          "Backgrounds": [
            {
              "CgID": 1429
            }
          ],
          "SimpleTalkList": [
            {
              "TalkSentenceID": 103030318,
              "ProtectTime": 0.3
            }
          ]
        },
        {
          "$type": "RPG.GameCore.TriggerCustomString",
          "CustomString": {
            "Value": "TalkSentence_103030321"
          }
        }
      ]
    },
    {
      "TaskList": [
        {
          "$type": "RPG.GameCore.WaitCustomString",
          "CustomString": {
            "Value": "TalkSentence_103030316"
          }
        },
        {
          "$type": "RPG.GameCore.PlayAndWaitSimpleTalk",
          "UseBackground": true,
          "Backgrounds": [
            {
              "CgID": 1429
            }
          ],
          "SimpleTalkList": [
            {
              "TalkSentenceID": 103030316,
              "ProtectTime": 0.3
            }
          ]
        },
        {
          "$type": "RPG.GameCore.TriggerCustomString",
          "CustomString": {
            "Value": "TalkSentence_103030321"
          }
        }
      ]
    },
    {
      "TaskList": [
        {
          "$type": "RPG.GameCore.WaitCustomString",
          "CustomString": {
            "Value": "TalkSentence_103030313"
          }
        },
        {
          "$type": "RPG.GameCore.PlayAndWaitSimpleTalk",
          "UseBackground": true,
          "Backgrounds": [
            {
              "CgID": 1429
            },
            {
              "CgID": 1429
            }
          ],
          "SimpleTalkList": [
            {
              "TalkSentenceID": 103030313,
              "ProtectTime": 0.3
            },
            {
              "TalkSentenceID": 103030314,
              "ProtectTime": 0.3
            }
          ]
        },
        {
          "$type": "RPG.GameCore.PlayOptionTalk",
          "OptionList": [
            {
              "TalkSentenceID": 103030315,
              "OptionIconType": "ChatContinueIcon",
              "TriggerCustomString": "TalkSentence_103030316"
            },
            {
              "TalkSentenceID": 103030317,
              "OptionIconType": "ChatContinueIcon",
              "TriggerCustomString": "TalkSentence_103030318"
            },
            {
              "TalkSentenceID": 103030319,
              "OptionIconType": "ChatContinueIcon",
              "TriggerCustomString": "TalkSentence_103030320"
            }
          ]
        }
      ]
    },
    {
      "TaskList": [
        {
          "$type": "RPG.GameCore.WaitCustomString",
          "CustomString": {
            "Value": "TalkSentence_103030305"
          }
        },
        {
          "$type": "RPG.GameCore.PlayAndWaitSimpleTalk",
          "UseBackground": true,
          "Backgrounds": [
            {
              "CgID": 1429
            },
            {
              "CgID": 1429
            },
            {
              "CgID": 1429
            },
            {
              "CgID": 1429
            },
            {
              "CgID": 1429
            }
          ],
          "SimpleTalkList": [
            {
              "TalkSentenceID": 103030305,
              "ProtectTime": 0.3
            },
            {
              "TalkSentenceID": 103030306,
              "ProtectTime": 0.3
            },
            {
              "TalkSentenceID": 103030307,
              "ProtectTime": 0.3
            },
            {
              "TalkSentenceID": 103030308,
              "ProtectTime": 0.3
            },
            {
              "TalkSentenceID": 103030309,
              "ProtectTime": 0.3
            }
          ]
        },
        {
          "$type": "RPG.GameCore.PlayOptionTalk",
          "OptionList": [
            {
              "TalkSentenceID": 103030310,
              "OptionIconType": "ChatContinueIcon",
              "TriggerCustomString": "TalkSentence_103030313"
            },
            {
              "TalkSentenceID": 103030311,
              "OptionIconType": "ChatContinueIcon",
              "TriggerCustomString": "TalkSentence_103030313"
            },
            {
              "TalkSentenceID": 103030312,
              "OptionIconType": "ChatContinueIcon",
              "TriggerCustomString": "TalkSentence_103030313"
            }
          ]
        }
      ]
    },
    {
      "TaskList": [
        {
          "$type": "RPG.GameCore.WaitCustomString",
          "CustomString": {
            "Value": "TalkSentence_103030301"
          }
        },
        {
          "$type": "RPG.GameCore.PlayFullScreenTransfer",
          "PrevDuration": 0,
          "Action": [
            {
              "$type": "RPG.GameCore.ScrTrfActTaskList",
              "TaskList": [
                {
                  "$type": "RPG.GameCore.TriggerSound",
                  "SoundName": {
                    "Value": "Ev_sfx_storyd_main_cg_penacony_103030199"
                  }
                }
              ]
            }
          ]
        },
        {
          "$type": "RPG.GameCore.PlayAndWaitSimpleTalk",
          "UseBackground": true,
          "SkipFirstTalkBgFadeIn": true,
          "Backgrounds": [
            {
              "CgID": 1429
            }
          ],
          "SimpleTalkList": [
            {
              "TalkSentenceID": 103030301,
              "ProtectTime": 0.3
            }
          ]
        },
        {
          "$type": "RPG.GameCore.PlayOptionTalk",
          "OptionList": [
            {
              "TalkSentenceID": 103030302,
              "OptionIconType": "ChatContinueIcon",
              "TriggerCustomString": "TalkSentence_103030305"
            },
            {
              "TalkSentenceID": 103030303,
              "OptionIconType": "ChatContinueIcon",
              "TriggerCustomString": "TalkSentence_103030305"
            },
            {
              "TalkSentenceID": 103030304,
              "OptionIconType": "ChatContinueIcon",
              "TriggerCustomString": "TalkSentence_103030305"
            }
          ]
        }
      ]
    }
  ]
}