{
  "OnInitSequece": [],
  "OnStartSequece": [
    {
      "TaskList": [
        {
          "$type": "RPG.GameCore.PropSetupUITrigger",
          "ColliderRelativePath": "Trigger",
          "ButtonCallback": [
            {
              "$type": "RPG.GameCore.PredicateTaskList",
              "Predicate": {
                "$type": "RPG.GameCore.PropPredicateWithEntity",
                "LayerMask": [
                  "NPC",
                  "NPCMonster"
                ],
                "TargetType": {
                  "$type": "RPG.GameCore.TargetFetchAdvPropEx",
                  "FetchType": "SinglePropByPropKey",
                  "SinglePropKey": {
                    "Custom": true,
                    "Key": "Maze_Chap01_RotateBridge_Part01"
                  }
                }
              },
              "SuccessTaskList": [
                {
                  "$type": "RPG.GameCore.ToastPile",
                  "DescTextID": {
                    "Hash": 732398138
                  }
                }
              ],
              "FailedTaskList": [
                {
                  "$type": "RPG.GameCore.SelectorConfig",
                  "TaskList": [
                    {
                      "$type": "RPG.GameCore.PropStateExecute",
                      "TargetType": {
                        "$type": "RPG.GameCore.TargetFetchAdvPropEx"
                      },
                      "Execute": [
                        {
                          "$type": "RPG.GameCore.StartPropInteractMode",
                          "TargetType": {
                            "$type": "RPG.GameCore.TargetFetchAdvPropEx"
                          },
                          "Mode": "UsePose02"
                        },
                        {
                          "$type": "RPG.GameCore.PropTriggerAnimState",
                          "AnimStateName": "TriggerSelectBegin",
                          "TargetType": {
                            "$type": "RPG.GameCore.TargetFetchAdvPropEx"
                          }
                        },
                        {
                          "$type": "RPG.GameCore.PlayScreenTransfer",
                          "Mode": "SwitchOut",
                          "CustomTime": 0.5
                        },
                        {
                          "$type": "RPG.GameCore.ShowTalkUI",
                          "Show": true
                        },
                        {
                          "$type": "RPG.GameCore.ActiveVirtualCamera",
                          "LevelAreaCameraKey": {
                            "Custom": true,
                            "Key": "Maze_Chap01_RotateBridge_CamAnchor"
                          },
                          "BlendConfig": {
                            "ExportToJson": true,
                            "BlendType": "Cut"
                          }
                        },
                        {
                          "$type": "RPG.GameCore.WaitSecond",
                          "WaitTime": {
                            "IsDynamic": false,
                            "FixedValue": {
                              "Value": 0.5
                            }
                          }
                        },
                        {
                          "$type": "RPG.GameCore.PlayScreenTransfer",
                          "CustomTime": 0.5
                        },
                        {
                          "$type": "RPG.GameCore.PlayOptionTalk",
                          "OptionList": [
                            {
                              "OptionTextmapID": {
                                "Hash": 876425567
                              },
                              "OptionIconType": "TriggerProp",
                              "TriggerCustomString": "Maze_Chap01_Bridge_Rotate_Turn_Clockwise"
                            },
                            {
                              "OptionTextmapID": {
                                "Hash": -455717622
                              },
                              "OptionIconType": "TriggerProp",
                              "TriggerCustomString": "Maze_Chap01_Bridge_Rotate_Turn_Counter_Clockwise"
                            },
                            {
                              "OptionTextmapID": {
                                "Hash": -2083051010
                              },
                              "OptionIconType": "ChatOutIcon",
                              "TriggerCustomString": "Maze_Chap01_Bridge_EndInteract"
                            }
                          ]
                        }
                      ]
                    },
                    {
                      "$type": "RPG.GameCore.PropStateExecute",
                      "TargetType": {
                        "$type": "RPG.GameCore.TargetFetchAdvPropEx"
                      },
                      "State": "Locked",
                      "Execute": [
                        {
                          "$type": "RPG.GameCore.ToastPile",
                          "DescTextID": {
                            "Hash": 1627843584
                          }
                        }
                      ]
                    }
                  ]
                }
              ]
            }
          ],
          "TargetType": {
            "$type": "RPG.GameCore.TargetFetchAdvPropEx"
          }
        }
      ]
    },
    {
      "IsLoop": true,
      "Order": 1,
      "TaskList": [
        {
          "$type": "RPG.GameCore.WaitCustomString",
          "CustomString": {
            "Value": "Maze_Chap01_Bridge_Rotate_Turn_Counter_Clockwise"
          },
          "WaitOwnerOnly": true
        },
        {
          "$type": "RPG.GameCore.PredicateTaskList",
          "Predicate": {
            "$type": "RPG.GameCore.PropPredicateWithEntity",
            "LayerMask": [
              "NPC",
              "NPCMonster"
            ],
            "TargetType": {
              "$type": "RPG.GameCore.TargetFetchAdvPropEx",
              "FetchType": "SinglePropByPropKey",
              "SinglePropKey": {
                "Custom": true,
                "Key": "Maze_Chap01_RotateBridge_Part01"
              }
            }
          },
          "SuccessTaskList": [
            {
              "$type": "RPG.GameCore.ToastPile",
              "DescTextID": {
                "Hash": 732398138
              }
            },
            {
              "$type": "RPG.GameCore.TriggerCustomString",
              "CustomString": {
                "Value": "Maze_Chap01_Bridge_EndInteract"
              }
            }
          ],
          "FailedTaskList": [
            {
              "$type": "RPG.GameCore.SelectorConfig",
              "TaskList": [
                {
                  "$type": "RPG.GameCore.PropStateExecute",
                  "TargetType": {
                    "$type": "RPG.GameCore.TargetFetchAdvPropEx",
                    "FetchType": "SinglePropByPropKey",
                    "SinglePropKey": {
                      "Custom": true,
                      "Key": "Maze_Chap01_RotateBridge_Part01"
                    }
                  },
                  "State": "BridgeState1",
                  "Execute": [
                    {
                      "$type": "RPG.GameCore.PropReqInteract",
                      "TargetType": {
                        "$type": "RPG.GameCore.TargetFetchAdvPropEx",
                        "FetchType": "SinglePropByPropKey",
                        "SinglePropKey": {
                          "Custom": true,
                          "Key": "Maze_Chap01_RotateBridge_Part01"
                        }
                      },
                      "InteractID": {
                        "IsDynamic": false,
                        "FixedValue": {
                          "Value": 1360
                        }
                      }
                    }
                  ]
                },
                {
                  "$type": "RPG.GameCore.PropStateExecute",
                  "TargetType": {
                    "$type": "RPG.GameCore.TargetFetchAdvPropEx",
                    "FetchType": "SinglePropByPropKey",
                    "SinglePropKey": {
                      "Custom": true,
                      "Key": "Maze_Chap01_RotateBridge_Part01"
                    }
                  },
                  "State": "BridgeState2",
                  "Execute": [
                    {
                      "$type": "RPG.GameCore.PropReqInteract",
                      "TargetType": {
                        "$type": "RPG.GameCore.TargetFetchAdvPropEx",
                        "FetchType": "SinglePropByPropKey",
                        "SinglePropKey": {
                          "Custom": true,
                          "Key": "Maze_Chap01_RotateBridge_Part01"
                        }
                      },
                      "InteractID": {
                        "IsDynamic": false,
                        "FixedValue": {
                          "Value": 1430
                        }
                      }
                    }
                  ]
                },
                {
                  "$type": "RPG.GameCore.PropStateExecute",
                  "TargetType": {
                    "$type": "RPG.GameCore.TargetFetchAdvPropEx",
                    "FetchType": "SinglePropByPropKey",
                    "SinglePropKey": {
                      "Custom": true,
                      "Key": "Maze_Chap01_RotateBridge_Part01"
                    }
                  },
                  "State": "BridgeState3",
                  "Execute": [
                    {
                      "$type": "RPG.GameCore.PropReqInteract",
                      "TargetType": {
                        "$type": "RPG.GameCore.TargetFetchAdvPropEx",
                        "FetchType": "SinglePropByPropKey",
                        "SinglePropKey": {
                          "Custom": true,
                          "Key": "Maze_Chap01_RotateBridge_Part01"
                        }
                      },
                      "InteractID": {
                        "IsDynamic": false,
                        "FixedValue": {
                          "Value": 1540
                        }
                      }
                    }
                  ]
                },
                {
                  "$type": "RPG.GameCore.PropStateExecute",
                  "TargetType": {
                    "$type": "RPG.GameCore.TargetFetchAdvPropEx",
                    "FetchType": "SinglePropByPropKey",
                    "SinglePropKey": {
                      "Custom": true,
                      "Key": "Maze_Chap01_RotateBridge_Part01"
                    }
                  },
                  "State": "BridgeState4",
                  "Execute": [
                    {
                      "$type": "RPG.GameCore.PropReqInteract",
                      "TargetType": {
                        "$type": "RPG.GameCore.TargetFetchAdvPropEx",
                        "FetchType": "SinglePropByPropKey",
                        "SinglePropKey": {
                          "Custom": true,
                          "Key": "Maze_Chap01_RotateBridge_Part01"
                        }
                      },
                      "InteractID": {
                        "IsDynamic": false,
                        "FixedValue": {
                          "Value": 1650
                        }
                      }
                    }
                  ]
                }
              ]
            }
          ]
        }
      ]
    },
    {
      "IsLoop": true,
      "Order": 1,
      "TaskList": [
        {
          "$type": "RPG.GameCore.WaitCustomString",
          "CustomString": {
            "Value": "Maze_Chap01_Bridge_Rotate_Turn_Clockwise"
          },
          "WaitOwnerOnly": true
        },
        {
          "$type": "RPG.GameCore.PredicateTaskList",
          "Predicate": {
            "$type": "RPG.GameCore.PropPredicateWithEntity",
            "LayerMask": [
              "NPC",
              "NPCMonster"
            ],
            "TargetType": {
              "$type": "RPG.GameCore.TargetFetchAdvPropEx",
              "FetchType": "SinglePropByPropKey",
              "SinglePropKey": {
                "Custom": true,
                "Key": "Maze_Chap01_RotateBridge_Part01"
              }
            }
          },
          "SuccessTaskList": [
            {
              "$type": "RPG.GameCore.ToastPile",
              "DescTextID": {
                "Hash": 732398138
              }
            },
            {
              "$type": "RPG.GameCore.TriggerCustomString",
              "CustomString": {
                "Value": "Maze_Chap01_Bridge_EndInteract"
              }
            }
          ],
          "FailedTaskList": [
            {
              "$type": "RPG.GameCore.SelectorConfig",
              "TaskList": [
                {
                  "$type": "RPG.GameCore.PropStateExecute",
                  "TargetType": {
                    "$type": "RPG.GameCore.TargetFetchAdvPropEx",
                    "FetchType": "SinglePropByPropKey",
                    "SinglePropKey": {
                      "Custom": true,
                      "Key": "Maze_Chap01_RotateBridge_Part01"
                    }
                  },
                  "State": "BridgeState1",
                  "Execute": [
                    {
                      "$type": "RPG.GameCore.PropReqInteract",
                      "TargetType": {
                        "$type": "RPG.GameCore.TargetFetchAdvPropEx",
                        "FetchType": "SinglePropByPropKey",
                        "SinglePropKey": {
                          "Custom": true,
                          "Key": "Maze_Chap01_RotateBridge_Part01"
                        }
                      },
                      "InteractID": {
                        "IsDynamic": false,
                        "FixedValue": {
                          "Value": 1340
                        }
                      }
                    }
                  ]
                },
                {
                  "$type": "RPG.GameCore.PropStateExecute",
                  "TargetType": {
                    "$type": "RPG.GameCore.TargetFetchAdvPropEx",
                    "FetchType": "SinglePropByPropKey",
                    "SinglePropKey": {
                      "Custom": true,
                      "Key": "Maze_Chap01_RotateBridge_Part01"
                    }
                  },
                  "State": "BridgeState2",
                  "Execute": [
                    {
                      "$type": "RPG.GameCore.PropReqInteract",
                      "TargetType": {
                        "$type": "RPG.GameCore.TargetFetchAdvPropEx",
                        "FetchType": "SinglePropByPropKey",
                        "SinglePropKey": {
                          "Custom": true,
                          "Key": "Maze_Chap01_RotateBridge_Part01"
                        }
                      },
                      "InteractID": {
                        "IsDynamic": false,
                        "FixedValue": {
                          "Value": 1450
                        }
                      }
                    }
                  ]
                },
                {
                  "$type": "RPG.GameCore.PropStateExecute",
                  "TargetType": {
                    "$type": "RPG.GameCore.TargetFetchAdvPropEx",
                    "FetchType": "SinglePropByPropKey",
                    "SinglePropKey": {
                      "Custom": true,
                      "Key": "Maze_Chap01_RotateBridge_Part01"
                    }
                  },
                  "State": "BridgeState3",
                  "Execute": [
                    {
                      "$type": "RPG.GameCore.PropReqInteract",
                      "TargetType": {
                        "$type": "RPG.GameCore.TargetFetchAdvPropEx",
                        "FetchType": "SinglePropByPropKey",
                        "SinglePropKey": {
                          "Custom": true,
                          "Key": "Maze_Chap01_RotateBridge_Part01"
                        }
                      },
                      "InteractID": {
                        "IsDynamic": false,
                        "FixedValue": {
                          "Value": 1560
                        }
                      }
                    }
                  ]
                },
                {
                  "$type": "RPG.GameCore.PropStateExecute",
                  "TargetType": {
                    "$type": "RPG.GameCore.TargetFetchAdvPropEx",
                    "FetchType": "SinglePropByPropKey",
                    "SinglePropKey": {
                      "Custom": true,
                      "Key": "Maze_Chap01_RotateBridge_Part01"
                    }
                  },
                  "State": "BridgeState4",
                  "Execute": [
                    {
                      "$type": "RPG.GameCore.PropReqInteract",
                      "TargetType": {
                        "$type": "RPG.GameCore.TargetFetchAdvPropEx",
                        "FetchType": "SinglePropByPropKey",
                        "SinglePropKey": {
                          "Custom": true,
                          "Key": "Maze_Chap01_RotateBridge_Part01"
                        }
                      },
                      "InteractID": {
                        "IsDynamic": false,
                        "FixedValue": {
                          "Value": 1630
                        }
                      }
                    }
                  ]
                }
              ]
            }
          ]
        }
      ]
    },
    {
      "IsLoop": true,
      "Order": 1,
      "TaskList": [
        {
          "$type": "RPG.GameCore.WaitCustomString",
          "CustomString": {
            "Value": "Maze_Chap01_Bridge_EndInteract"
          },
          "WaitOwnerOnly": true
        },
        {
          "$type": "RPG.GameCore.PropTriggerAnimState",
          "AnimStateName": "TriggerSelectEnd",
          "TransitionDuration": 0,
          "TargetType": {
            "$type": "RPG.GameCore.TargetFetchAdvPropEx"
          }
        },
        {
          "$type": "RPG.GameCore.PlayScreenTransfer",
          "Mode": "SwitchOut",
          "CustomTime": 0.5
        },
        {
          "$type": "RPG.GameCore.ActiveVirtualCamera",
          "LevelAreaCameraKey": {
            "Custom": true,
            "Key": "Maze_Chap01_RotateBridge_CamAnchor"
          },
          "IsActive": false,
          "BlendConfig": {
            "ExportToJson": true,
            "BlendType": "Cut"
          }
        },
        {
          "$type": "RPG.GameCore.WaitSecond"
        },
        {
          "$type": "RPG.GameCore.PlayScreenTransfer",
          "CustomTime": 0.5
        },
        {
          "$type": "RPG.GameCore.ShowTalkUI",
          "ShowDialogControlUI": false
        },
        {
          "$type": "RPG.GameCore.EndPropInteract"
        }
      ]
    }
  ],
  "ValueSource": {
    "Values": [
      {
        "$type": "RPG.GameCore.SharedString",
        "Key": "Maze_Chap01_RotateBridge_CamAnchor"
      },
      {
        "$type": "RPG.GameCore.SharedString",
        "Key": "Maze_Chap01_RotateBridge_Part01"
      }
    ]
  }
}