{
  "ConfigList": {
    "EnterBattlePriority": {
      "PriorityKeys": {
        "LevelBuff": 10,
        "CharacterBuff": 20,
        "CharacterLateBuff": 21,
        "StanceBreak": 30,
        "AvatarInsertAbility": 40,
        "MonsterInsertAbility": 50,
        "PROG_Default": 10000,
        "AvatarLateExcute": 10001,
        "AfterAllEnterBattle": 999999
      }
    },
    "ModifierUIPriority": {
      "PriorityKeys": {
        "HardControl": 0,
        "DealDamageBlackSwan": 9,
        "DealDamage": 10,
        "SoftControl": 20,
        "Debuff": 30,
        "Buff": 40,
        "Counter": 50,
        "Marker": 60,
        "PROG_Default": 999999
      }
    },
    "InsertAbilityPriority": {
      "PriorityKeys": {
        "LevelPerformAvatar": 15,
        "LevelPerformMonster": 25,
        "MonsterForceKill": 34,
        "MonsterChangePhase": 35,
        "AvatarReviveSelf": 45,
        "AvatarHealSelf": 48,
        "AvatarReviveOthers": 55,
        "AvatarHealOthers": 58,
        "MonsterBattleCry": 60,
        "MonsterChangeState": 62,
        "AvatarBuffSelf": 65,
        "AvatarInsertAttackSelf": 75,
        "AvatarInsertAttackSelfResolve": 76,
        "AvatarBuffOthers": 105,
        "AvatarInsertAttackOthers": 115,
        "AvatarInsertAttackOthersResolve": 116,
        "PROG_AvatarLowest": 125,
        "MonsterReviveSelf": 145,
        "MonsterHealSelf": 148,
        "MonsterReviveOthers": 155,
        "MonsterHealOthers": 158,
        "MonsterBuffSelf": 165,
        "MonsterInsertAttackSelf": 175,
        "MonsterInsertAttackSelfResolve": 176,
        "MonsterBuffOthers": 205,
        "MonsterInsertAttackOthers": 215,
        "MonsterInsertAttackOthersResolve": 216,
        "MonsterDeathRattleByLevel": 224,
        "MonsterDeathRattle": 225,
        "PROG_MonsterLowest": 226,
        "PROG_DynamicLowest": 999999,
        "PROG_Default": 999999
      }
    },
    "ModifierBehaviorVisualPriority": {
      "PriorityKeys": {
        "Frozen": 0,
        "Confine": 10,
        "Stun": 20,
        "AvatarStanceBreak": 30,
        "ChangePhase": 40,
        "MonsterStanceBreak": 50,
        "PROG_Default": 999999
      }
    },
    "ModifierOverrideOnHitEffectPriority": {
      "PriorityKeys": {
        "ModifySelf": 0,
        "ModifyOthers": 1,
        "PROG_Default": 0
      }
    },
    "SpecialBpPriority": {
      "PriorityKeys": {
        "High": 0,
        "Middle": 10,
        "Low": 20,
        "PROG_Default": 21
      }
    },
    "LimboWaitHealPriority": {
      "PriorityKeys": {
        "BloodLink": 0,
        "ChangePhase": 10,
        "RemoveSpecialMod": 11,
        "AvatarReviveSelf": 20,
        "AvatarReviveOthers": 30,
        "RogueBuff": 40,
        "MonsterReviveSelf": 50,
        "MonsterReviveOthers": 60,
        "PROG_Default": 999999
      }
    },
    "AIUltraSkillPriority": {
      "PriorityKeys": {
        "PROG_Default": 0,
        "OnlyBuff": 10,
        "DamageAndBuff": 20,
        "DamageBeforeHeal": 30,
        "AddHP": 40,
        "DamageAfterHeal": 50,
        "AddSP": 60
      }
    },
    "Phase1Priority": {
      "PriorityKeys": {
        "TurnLimitCheck": 0,
        "Phase1StartMark": 1,
        "AvatarPassiveBeforeDamage": 9,
        "PROG_Default": 10,
        "XP_Elite01_02_Passive": 80,
        "BlackSwanPassive": 90,
        "AvatarPassiveAfterDamage": 100,
        "AvatarBuffLifeStepMoment": 200
      }
    },
    "Phase2Priority": {
      "PriorityKeys": {
        "PROG_Default": 0
      }
    }
  }
}