{
  "OperationDict": {
    "GetAllTeamMember": {
      "$type": "RPG.GameCore.TargetMapAllTeamMember",
      "RemoveUnselectable": false
    },
    "RemoveUnselectable": {
      "$type": "RPG.GameCore.TargetRemoveUnselectable"
    },
    "GetUnselectable": {
      "$type": "RPG.GameCore.TargetFilter",
      "Predicate": {
        "$type": "RPG.GameCore.ByIsTargetUnselectable",
        "TargetType": {
          "$type": "RPG.GameCore.TargetAlias",
          "Alias": "ParamEntity"
        }
      }
    },
    "GetLightTeam": {
      "$type": "RPG.GameCore.TargetFilter",
      "Predicate": {
        "$type": "RPG.GameCore.ByTargetTeam",
        "TargetType": {
          "$type": "RPG.GameCore.TargetAlias",
          "Alias": "ParamEntity"
        },
        "Team": "TeamLight"
      }
    },
    "GetDarkTeam": {
      "$type": "RPG.GameCore.TargetFilter",
      "Predicate": {
        "$type": "RPG.GameCore.ByTargetTeam",
        "TargetType": {
          "$type": "RPG.GameCore.TargetAlias",
          "Alias": "ParamEntity"
        },
        "Team": "TeamDark"
      }
    },
    "GetAliveOnly": {
      "$type": "RPG.GameCore.TargetFilter",
      "Predicate": {
        "$type": "RPG.GameCore.ByTargetAliveState",
        "TargetType": {
          "$type": "RPG.GameCore.TargetAlias",
          "Alias": "ParamEntity"
        },
        "AliveStateMask": "Mask_AliveOnly"
      }
    },
    "GetAliveOrLimbo": {
      "$type": "RPG.GameCore.TargetFilter",
      "Predicate": {
        "$type": "RPG.GameCore.ByTargetAliveState",
        "TargetType": {
          "$type": "RPG.GameCore.TargetAlias",
          "Alias": "ParamEntity"
        },
        "AliveStateMask": "Mask_AliveOrLimbo"
      }
    },
    "Take1": {
      "$type": "RPG.GameCore.TargetTake",
      "Count": 1
    },
    "GetBattleEvent": {
      "$type": "RPG.GameCore.TargetMapCreatedBattleEvent"
    },
    "GetAdjoinEntity": {
      "$type": "RPG.GameCore.TargetMapAdjoinEntity"
    },
    "GetSummoner": {
      "$type": "RPG.GameCore.TargetMapSummoner"
    },
    "GetSummonUnit": {
      "$type": "RPG.GameCore.TargetMapSummonedMinions"
    }
  }
}