{
  "OnInitSequece": [],
  "OnStartSequece": [
    {
      "TaskList": [
        {
          "$type": "RPG.GameCore.LevelPerformanceInitialize",
          "PerformanceType": "D"
        },
        {
          "$type": "RPG.GameCore.PerformanceTransition",
          "CreateNpcList": [],
          "CaptureNpcList": [],
          "DestroyNpcList": [],
          "CreateProp": {
            "TaskEnabled": false
          },
          "DestroyProp": {
            "TargetType": {
              "$type": "RPG.GameCore.TargetFetchAdvPropEx"
            },
            "TaskEnabled": false
          },
          "AdvCreateGroupEntity": {
            "TaskEnabled": false
          },
          "AdvDestroyGroupEntity": {
            "TaskEnabled": false
          },
          "ActiveVirtualCamera": {
            "AreaName": "LevelArea_P43001_F43001001_G2",
            "AnchorName": "Anchor2"
          },
          "ActiveTemplateVirtualCamera": {
            "TaskEnabled": false
          },
          "SwitchCharacterAnchor": {
            "IsLocalPlayer": true,
            "CharacterUniqueName": "LocalPlayer",
            "AreaName": {
              "Value": "LevelArea_P43001_F43001001_G2"
            },
            "AnchorName": {
              "Value": "Anchor1"
            }
          },
          "AdvNpcFaceToPlayer": {}
        },
        {
          "$type": "RPG.GameCore.CaptureNPCToCharacter",
          "CharacterUniqueName": {
            "Value": "vylet"
          },
          "TargetType": {
            "$type": "RPG.GameCore.TargetFetchAdvNpcEx",
            "FetchType": "SingleNpcByNpcID",
            "SingleNpcID": {
              "GroupID": {
                "IsDynamic": false,
                "FixedValue": {
                  "Value": 2
                }
              },
              "GroupNpcID": {
                "IsDynamic": false,
                "FixedValue": {
                  "Value": 400002
                }
              }
            }
          }
        },
        {
          "$type": "RPG.GameCore.CaptureNPCToCharacter",
          "CharacterUniqueName": {
            "Value": "pompom"
          },
          "TargetType": {
            "$type": "RPG.GameCore.TargetFetchAdvNpcEx",
            "FetchType": "SingleNpcByNpcID",
            "SingleNpcID": {
              "GroupID": {
                "IsDynamic": false,
                "FixedValue": {
                  "Value": 2
                }
              },
              "GroupNpcID": {
                "IsDynamic": false,
                "FixedValue": {
                  "Value": 400003
                }
              }
            }
          }
        },
        {
          "$type": "RPG.GameCore.PlayAndWaitSimpleTalk",
          "UseTargetBehavior": true,
          "TargetBehaviors": [
            {
              "UniqueName": "vylet",
              "UseMouthTalk": true
            },
            {
              "UniqueName": "vylet",
              "UseMouthTalk": true
            },
            {
              "UniqueName": "vylet",
              "UseMouthTalk": true
            }
          ],
          "SimpleTalkList": [
            {
              "TextSpeed": 0,
              "TalkSentenceID": 200080401,
              "ProtectTime": 0
            },
            {
              "TextSpeed": 0,
              "TalkSentenceID": 200080402,
              "ProtectTime": 0
            },
            {
              "TextSpeed": 0,
              "TalkSentenceID": 200080403,
              "ProtectTime": 0
            }
          ]
        },
        {
          "$type": "RPG.GameCore.PlayOptionTalk",
          "OptionList": [
            {
              "TalkSentenceID": 200080404,
              "OptionIconType": "ChatContinueIcon",
              "TriggerCustomString": "TalkSentence_200080405"
            }
          ]
        }
      ]
    },
    {
      "TaskList": [
        {
          "$type": "RPG.GameCore.WaitCustomString",
          "CustomString": {
            "Value": "TalkSentence_200080405"
          }
        },
        {
          "$type": "RPG.GameCore.CharacterTriggerFreeStyle",
          "CharacterUniqueName": "LocalPlayer",
          "TargetAlias": {
            "$type": "RPG.GameCore.TargetFetchAdvLocalPlayer"
          },
          "StoryAvatarID": "NPC_Player",
          "StoryMotionID": 201
        },
        {
          "$type": "RPG.GameCore.PlayAndWaitSimpleTalk",
          "UseTargetBehavior": true,
          "TargetBehaviors": [
            {
              "UniqueName": "vylet",
              "UseMouthTalk": true
            }
          ],
          "SimpleTalkList": [
            {
              "TextSpeed": 0,
              "TalkSentenceID": 200080405,
              "ProtectTime": 0
            }
          ]
        },
        {
          "$type": "RPG.GameCore.CharacterTriggerFreeStyle",
          "TargetAlias": {
            "$type": "RPG.GameCore.TargetFetchAdvNpcEx",
            "FetchType": "SingleNpcByNpcID",
            "SingleNpcID": {
              "GroupID": {
                "IsDynamic": false,
                "FixedValue": {
                  "Value": 2
                }
              },
              "GroupNpcID": {
                "IsDynamic": false,
                "FixedValue": {
                  "Value": 400002
                }
              }
            }
          },
          "StoryAvatarID": "NPC_Male",
          "StoryMotionID": 100010200
        },
        {
          "$type": "RPG.GameCore.PlayAndWaitSimpleTalk",
          "UseTargetBehavior": true,
          "TargetBehaviors": [
            {
              "UniqueName": "vylet",
              "UseMouthTalk": true
            }
          ],
          "SimpleTalkList": [
            {
              "TextSpeed": 0,
              "TalkSentenceID": 200080406,
              "ProtectTime": 0
            }
          ]
        },
        {
          "$type": "RPG.GameCore.CharacterTriggerFreeStyle",
          "TargetAlias": {
            "$type": "RPG.GameCore.TargetFetchAdvNpcEx",
            "FetchType": "SingleNpcByNpcID",
            "SingleNpcID": {
              "GroupID": {
                "IsDynamic": false,
                "FixedValue": {
                  "Value": 2
                }
              },
              "GroupNpcID": {
                "IsDynamic": false,
                "FixedValue": {
                  "Value": 400002
                }
              }
            }
          },
          "StoryAvatarID": "NPC_Male",
          "StoryMotionID": 100010230
        },
        {
          "$type": "RPG.GameCore.PlayAndWaitSimpleTalk",
          "UseTargetBehavior": true,
          "TargetBehaviors": [
            {
              "UniqueName": "vylet",
              "UseMouthTalk": true
            },
            {
              "UniqueName": "vylet",
              "UseMouthTalk": true
            },
            {
              "UniqueName": "vylet",
              "UseMouthTalk": true
            },
            {
              "UniqueName": "vylet",
              "UseMouthTalk": true
            }
          ],
          "SimpleTalkList": [
            {
              "TextSpeed": 0,
              "TalkSentenceID": 200080407,
              "ProtectTime": 0
            },
            {
              "TextSpeed": 0,
              "TalkSentenceID": 200080408,
              "ProtectTime": 0
            },
            {
              "TextSpeed": 0,
              "TalkSentenceID": 200080409,
              "ProtectTime": 0
            },
            {
              "TalkSentenceID": 200080410
            }
          ]
        },
        {
          "$type": "RPG.GameCore.CharacterTriggerFreeStyle",
          "TargetAlias": {
            "$type": "RPG.GameCore.TargetFetchAdvNpcEx",
            "FetchType": "SingleNpcByNpcID",
            "SingleNpcID": {
              "GroupID": {
                "IsDynamic": false,
                "FixedValue": {
                  "Value": 2
                }
              },
              "GroupNpcID": {
                "IsDynamic": false,
                "FixedValue": {
                  "Value": 400002
                }
              }
            }
          },
          "StoryAvatarID": "NPC_Male",
          "StoryMotionID": 100010232
        },
        {
          "$type": "RPG.GameCore.PlayAndWaitSimpleTalk",
          "UseTargetBehavior": true,
          "TargetBehaviors": [
            {
              "UniqueName": "vylet",
              "UseMouthTalk": true
            },
            {
              "UniqueName": "vylet",
              "UseMouthTalk": true
            }
          ],
          "SimpleTalkList": [
            {
              "TextSpeed": 0,
              "TalkSentenceID": 200080411,
              "ProtectTime": 0
            },
            {
              "TalkSentenceID": 200080412
            }
          ]
        },
        {
          "$type": "RPG.GameCore.CharacterTriggerFreeStyle",
          "TargetAlias": {
            "$type": "RPG.GameCore.TargetFetchAdvNpcEx",
            "FetchType": "SingleNpcByNpcID",
            "SingleNpcID": {
              "GroupID": {
                "IsDynamic": false,
                "FixedValue": {
                  "Value": 2
                }
              },
              "GroupNpcID": {
                "IsDynamic": false,
                "FixedValue": {
                  "Value": 400002
                }
              }
            }
          },
          "StoryAvatarID": "NPC_Male",
          "StoryMotionID": 100010202
        },
        {
          "$type": "RPG.GameCore.PlayAndWaitSimpleTalk",
          "UseTargetBehavior": true,
          "TargetBehaviors": [
            {
              "UniqueName": "vylet",
              "UseMouthTalk": true
            }
          ],
          "SimpleTalkList": [
            {
              "TalkSentenceID": 200080413
            }
          ]
        },
        {
          "$type": "RPG.GameCore.PlayOptionTalk",
          "OptionList": [
            {
              "TalkSentenceID": 200080414,
              "OptionIconType": "ChatContinueIcon",
              "TriggerCustomString": "TalkSentence_200080415"
            }
          ]
        }
      ]
    },
    {
      "TaskList": [
        {
          "$type": "RPG.GameCore.WaitCustomString",
          "CustomString": {
            "Value": "TalkSentence_200080415"
          }
        },
        {
          "$type": "RPG.GameCore.CharacterTriggerFreeStyle",
          "CharacterUniqueName": "LocalPlayer",
          "TargetAlias": {
            "$type": "RPG.GameCore.TargetFetchAdvLocalPlayer"
          },
          "StoryAvatarID": "NPC_Player",
          "StoryMotionID": 230
        },
        {
          "$type": "RPG.GameCore.PlayAndWaitSimpleTalk",
          "UseTargetBehavior": true,
          "TargetBehaviors": [
            {
              "UniqueName": "vylet",
              "UseMouthTalk": true
            },
            {
              "UniqueName": "vylet",
              "UseMouthTalk": true
            }
          ],
          "SimpleTalkList": [
            {
              "TextSpeed": 0,
              "TalkSentenceID": 200080415,
              "ProtectTime": 0
            },
            {
              "TextSpeed": 0,
              "TalkSentenceID": 200080416,
              "ProtectTime": 0
            }
          ]
        },
        {
          "$type": "RPG.GameCore.PlayOptionTalk",
          "OptionList": [
            {
              "TalkSentenceID": 200080417,
              "OptionIconType": "ChatContinueIcon",
              "TriggerCustomString": "TalkSentence_200080418"
            },
            {
              "TalkSentenceID": 200080419,
              "OptionIconType": "ChatContinueIcon",
              "TriggerCustomString": "TalkSentence_200080420"
            }
          ]
        }
      ]
    },
    {
      "TaskList": [
        {
          "$type": "RPG.GameCore.WaitCustomString",
          "CustomString": {
            "Value": "TalkSentence_200080418"
          }
        },
        {
          "$type": "RPG.GameCore.CharacterTriggerFreeStyle",
          "CharacterUniqueName": "LocalPlayer",
          "TargetAlias": {
            "$type": "RPG.GameCore.TargetFetchAdvLocalPlayer"
          },
          "StoryAvatarID": "NPC_Player",
          "StoryMotionID": 233
        },
        {
          "$type": "RPG.GameCore.PlayAndWaitSimpleTalk",
          "UseTargetBehavior": true,
          "TargetBehaviors": [
            {
              "UniqueName": "vylet",
              "UseMouthTalk": true
            }
          ],
          "SimpleTalkList": [
            {
              "TextSpeed": 0,
              "TalkSentenceID": 200080418,
              "ProtectTime": 0
            }
          ]
        },
        {
          "$type": "RPG.GameCore.CharacterTriggerFreeStyle",
          "CharacterUniqueName": "LocalPlayer",
          "TargetAlias": {
            "$type": "RPG.GameCore.TargetFetchAdvLocalPlayer"
          },
          "StoryAvatarID": "NPC_Player",
          "StoryMotionID": 235
        },
        {
          "$type": "RPG.GameCore.TriggerCustomString",
          "CustomString": {
            "Value": "TalkSentence_200080421"
          }
        }
      ]
    },
    {
      "TaskList": [
        {
          "$type": "RPG.GameCore.WaitCustomString",
          "CustomString": {
            "Value": "TalkSentence_200080420"
          }
        },
        {
          "$type": "RPG.GameCore.CharacterTriggerFreeStyle",
          "CharacterUniqueName": "LocalPlayer",
          "TargetAlias": {
            "$type": "RPG.GameCore.TargetFetchAdvLocalPlayer"
          },
          "StoryAvatarID": "NPC_Player",
          "StoryMotionID": 233
        },
        {
          "$type": "RPG.GameCore.PlayAndWaitSimpleTalk",
          "UseTargetBehavior": true,
          "TargetBehaviors": [
            {
              "UniqueName": "vylet",
              "UseMouthTalk": true
            }
          ],
          "SimpleTalkList": [
            {
              "TextSpeed": 0,
              "TalkSentenceID": 200080420,
              "ProtectTime": 0
            }
          ]
        },
        {
          "$type": "RPG.GameCore.CharacterTriggerFreeStyle",
          "CharacterUniqueName": "LocalPlayer",
          "TargetAlias": {
            "$type": "RPG.GameCore.TargetFetchAdvLocalPlayer"
          },
          "StoryAvatarID": "NPC_Player",
          "StoryMotionID": 235
        },
        {
          "$type": "RPG.GameCore.TriggerCustomString",
          "CustomString": {
            "Value": "TalkSentence_200080421"
          }
        }
      ]
    },
    {
      "TaskList": [
        {
          "$type": "RPG.GameCore.WaitCustomString",
          "CustomString": {
            "Value": "TalkSentence_200080421"
          }
        },
        {
          "$type": "RPG.GameCore.PlayAndWaitSimpleTalk",
          "UseTargetBehavior": true,
          "TargetBehaviors": [
            {
              "UniqueName": "vylet",
              "UseMouthTalk": true
            }
          ],
          "SimpleTalkList": [
            {
              "TextSpeed": 0,
              "TalkSentenceID": 200080421,
              "ProtectTime": 0
            }
          ]
        },
        {
          "$type": "RPG.GameCore.CharacterTriggerFreeStyle",
          "TargetAlias": {
            "$type": "RPG.GameCore.TargetFetchAdvNpcEx",
            "FetchType": "SingleNpcByNpcID",
            "SingleNpcID": {
              "GroupID": {
                "IsDynamic": false,
                "FixedValue": {
                  "Value": 2
                }
              },
              "GroupNpcID": {
                "IsDynamic": false,
                "FixedValue": {
                  "Value": 400002
                }
              }
            }
          },
          "StoryAvatarID": "NPC_Male",
          "StoryMotionID": 100010221
        },
        {
          "$type": "RPG.GameCore.PlayAndWaitSimpleTalk",
          "UseTargetBehavior": true,
          "TargetBehaviors": [
            {
              "UniqueName": "vylet",
              "UseMouthTalk": true
            },
            {
              "UniqueName": "vylet",
              "UseMouthTalk": true
            },
            {
              "UniqueName": "vylet",
              "UseMouthTalk": true
            },
            {
              "UniqueName": "vylet",
              "UseMouthTalk": true
            }
          ],
          "SimpleTalkList": [
            {
              "TextSpeed": 0,
              "TalkSentenceID": 200080422,
              "ProtectTime": 0
            },
            {
              "TextSpeed": 0,
              "TalkSentenceID": 200080423,
              "ProtectTime": 0
            },
            {
              "TextSpeed": 0,
              "TalkSentenceID": 200080424,
              "ProtectTime": 0
            },
            {
              "TextSpeed": 0,
              "TalkSentenceID": 200080425,
              "ProtectTime": 0
            }
          ]
        },
        {
          "$type": "RPG.GameCore.PlayOptionTalk",
          "OptionList": [
            {
              "TalkSentenceID": 200080426,
              "OptionIconType": "ChatContinueIcon",
              "TriggerCustomString": "TalkSentence_200080427"
            },
            {
              "TalkSentenceID": 200080428,
              "OptionIconType": "ChatContinueIcon",
              "TriggerCustomString": "TalkSentence_200080429"
            },
            {
              "TalkSentenceID": 200080430,
              "OptionIconType": "ChatContinueIcon",
              "TriggerCustomString": "TalkSentence_200080431"
            }
          ]
        }
      ]
    },
    {
      "TaskList": [
        {
          "$type": "RPG.GameCore.WaitCustomString",
          "CustomString": {
            "Value": "TalkSentence_200080427"
          }
        },
        {
          "$type": "RPG.GameCore.PlayAndWaitSimpleTalk",
          "UseTargetBehavior": true,
          "TargetBehaviors": [
            {
              "UniqueName": "vylet",
              "UseMouthTalk": true
            }
          ],
          "SimpleTalkList": [
            {
              "TextSpeed": 0,
              "TalkSentenceID": 200080427,
              "ProtectTime": 0
            }
          ]
        },
        {
          "$type": "RPG.GameCore.TriggerCustomString",
          "CustomString": {
            "Value": "TalkSentence_200080432"
          }
        }
      ]
    },
    {
      "TaskList": [
        {
          "$type": "RPG.GameCore.WaitCustomString",
          "CustomString": {
            "Value": "TalkSentence_200080429"
          }
        },
        {
          "$type": "RPG.GameCore.PlayAndWaitSimpleTalk",
          "UseTargetBehavior": true,
          "TargetBehaviors": [
            {
              "UniqueName": "vylet",
              "UseMouthTalk": true
            }
          ],
          "SimpleTalkList": [
            {
              "TextSpeed": 0,
              "TalkSentenceID": 200080429,
              "ProtectTime": 0
            }
          ]
        },
        {
          "$type": "RPG.GameCore.TriggerCustomString",
          "CustomString": {
            "Value": "TalkSentence_200080432"
          }
        }
      ]
    },
    {
      "TaskList": [
        {
          "$type": "RPG.GameCore.WaitCustomString",
          "CustomString": {
            "Value": "TalkSentence_200080431"
          }
        },
        {
          "$type": "RPG.GameCore.PlayAndWaitSimpleTalk",
          "UseTargetBehavior": true,
          "TargetBehaviors": [
            {
              "UniqueName": "vylet",
              "UseMouthTalk": true
            }
          ],
          "SimpleTalkList": [
            {
              "TextSpeed": 0,
              "TalkSentenceID": 200080431,
              "ProtectTime": 0
            }
          ]
        },
        {
          "$type": "RPG.GameCore.TriggerCustomString",
          "CustomString": {
            "Value": "TalkSentence_200080432"
          }
        }
      ]
    },
    {
      "TaskList": [
        {
          "$type": "RPG.GameCore.WaitCustomString",
          "CustomString": {
            "Value": "TalkSentence_200080432"
          }
        },
        {
          "$type": "RPG.GameCore.CharacterTriggerFreeStyle",
          "TargetAlias": {
            "$type": "RPG.GameCore.TargetFetchAdvNpcEx",
            "FetchType": "SingleNpcByNpcID",
            "SingleNpcID": {
              "GroupID": {
                "IsDynamic": false,
                "FixedValue": {
                  "Value": 2
                }
              },
              "GroupNpcID": {
                "IsDynamic": false,
                "FixedValue": {
                  "Value": 400002
                }
              }
            }
          },
          "StoryAvatarID": "NPC_Male",
          "StoryMotionID": 100010223
        },
        {
          "$type": "RPG.GameCore.PlayAndWaitSimpleTalk",
          "UseTargetBehavior": true,
          "TargetBehaviors": [
            {
              "UniqueName": "vylet",
              "UseMouthTalk": true
            }
          ],
          "SimpleTalkList": [
            {
              "TextSpeed": 0,
              "TalkSentenceID": 200080432,
              "ProtectTime": 0
            }
          ]
        },
        {
          "$type": "RPG.GameCore.PlayOptionTalk",
          "OptionList": [
            {
              "TalkSentenceID": 200080433,
              "OptionIconType": "ChatContinueIcon",
              "TriggerCustomString": "TalkSentence_200080434"
            },
            {
              "TalkSentenceID": 200080436,
              "OptionIconType": "ChatContinueIcon",
              "TriggerCustomString": "TalkSentence_200080437"
            }
          ]
        }
      ]
    },
    {
      "TaskList": [
        {
          "$type": "RPG.GameCore.WaitCustomString",
          "CustomString": {
            "Value": "TalkSentence_200080434"
          }
        },
        {
          "$type": "RPG.GameCore.PlayAndWaitSimpleTalk",
          "UseTargetBehavior": true,
          "TargetBehaviors": [
            {
              "UniqueName": "vylet",
              "UseMouthTalk": true
            },
            {
              "UniqueName": "vylet",
              "UseMouthTalk": true
            }
          ],
          "SimpleTalkList": [
            {
              "TextSpeed": 0,
              "TalkSentenceID": 200080434,
              "ProtectTime": 0
            },
            {
              "TextSpeed": 0,
              "TalkSentenceID": 200080435,
              "ProtectTime": 0
            }
          ]
        },
        {
          "$type": "RPG.GameCore.TriggerCustomString",
          "CustomString": {
            "Value": "TalkSentence_200080439"
          }
        }
      ]
    },
    {
      "TaskList": [
        {
          "$type": "RPG.GameCore.WaitCustomString",
          "CustomString": {
            "Value": "TalkSentence_200080437"
          }
        },
        {
          "$type": "RPG.GameCore.PlayAndWaitSimpleTalk",
          "UseTargetBehavior": true,
          "TargetBehaviors": [
            {
              "UniqueName": "vylet",
              "UseMouthTalk": true
            },
            {
              "UniqueName": "vylet",
              "UseMouthTalk": true
            }
          ],
          "SimpleTalkList": [
            {
              "TextSpeed": 0,
              "TalkSentenceID": 200080437,
              "ProtectTime": 0
            },
            {
              "TextSpeed": 0,
              "TalkSentenceID": 200080438,
              "ProtectTime": 0
            }
          ]
        },
        {
          "$type": "RPG.GameCore.TriggerCustomString",
          "CustomString": {
            "Value": "TalkSentence_200080439"
          }
        }
      ]
    },
    {
      "TaskList": [
        {
          "$type": "RPG.GameCore.WaitCustomString",
          "CustomString": {
            "Value": "TalkSentence_200080439"
          }
        },
        {
          "$type": "RPG.GameCore.TriggerSound",
          "SoundName": {
            "Value": "Ev_sfx_spaceship_insideworm_twist"
          },
          "EmitterType": "NPC",
          "GroupID": 2,
          "ID": 400002
        },
        {
          "$type": "RPG.GameCore.WaitSecond",
          "WaitTime": {
            "IsDynamic": false,
            "FixedValue": {
              "Value": 0.2
            }
          }
        },
        {
          "$type": "RPG.GameCore.CharacterTriggerFreeStyle",
          "TargetAlias": {
            "$type": "RPG.GameCore.TargetFetchAdvNpcEx",
            "FetchType": "SingleNpcByNpcID",
            "SingleNpcID": {
              "GroupID": {
                "IsDynamic": false,
                "FixedValue": {
                  "Value": 2
                }
              },
              "GroupNpcID": {
                "IsDynamic": false,
                "FixedValue": {
                  "Value": 400002
                }
              }
            }
          },
          "StoryAvatarID": "NPC_Male",
          "StoryMotionID": 100010242
        },
        {
          "$type": "RPG.GameCore.CharacterTriggerFreeStyle",
          "TargetAlias": {
            "$type": "RPG.GameCore.TargetFetchAdvNpcEx",
            "FetchType": "SingleNpcByNpcID",
            "SingleNpcID": {
              "GroupID": {
                "IsDynamic": false,
                "FixedValue": {
                  "Value": 2
                }
              },
              "GroupNpcID": {
                "IsDynamic": false,
                "FixedValue": {
                  "Value": 400003
                }
              }
            }
          },
          "StoryAvatarID": "NPC_Special_Pam_00",
          "StoryMotionID": 900010227
        },
        {
          "$type": "RPG.GameCore.CharacterTriggerFreeStyle",
          "CharacterUniqueName": "LocalPlayer",
          "TargetAlias": {
            "$type": "RPG.GameCore.TargetFetchAdvLocalPlayer"
          },
          "StoryAvatarID": "NPC_Player",
          "StoryMotionID": 232
        },
        {
          "$type": "RPG.GameCore.SetAudioEmotionState",
          "StateName": "State_Tense"
        },
        {
          "$type": "RPG.GameCore.PlayAndWaitSimpleTalk",
          "UseTargetBehavior": true,
          "TargetBehaviors": [
            {
              "UniqueName": "pompom",
              "UseMouthTalk": true
            }
          ],
          "SimpleTalkList": [
            {
              "TextSpeed": 0,
              "TalkSentenceID": 200080439,
              "ProtectTime": 0
            }
          ]
        },
        {
          "$type": "RPG.GameCore.PlayAndWaitSimpleTalk",
          "UseTargetBehavior": true,
          "TargetBehaviors": [
            {
              "UniqueName": "vylet",
              "UseMouthTalk": true
            }
          ],
          "SimpleTalkList": [
            {
              "TextSpeed": 0,
              "TalkSentenceID": 200080440,
              "ProtectTime": 0
            }
          ]
        },
        {
          "$type": "RPG.GameCore.PerformanceTransition",
          "CreateNpcList": [],
          "CaptureNpcList": [],
          "DestroyNpcList": [
            {
              "GroupID": 2,
              "GroupNpcID": 400002,
              "DestroyList": []
            }
          ],
          "CreateProp": {
            "TaskEnabled": false
          },
          "DestroyProp": {
            "TargetType": {
              "$type": "RPG.GameCore.TargetFetchAdvPropEx"
            },
            "TaskEnabled": false
          },
          "AdvCreateGroupEntity": {
            "TaskEnabled": false
          },
          "AdvDestroyGroupEntity": {
            "TaskEnabled": false
          },
          "ActiveVirtualCamera": {
            "AreaName": "LevelArea_P43001_F43001001_G2",
            "AnchorName": "Anchor3",
            "IsActive": false,
            "TaskEnabled": false
          },
          "ActiveTemplateVirtualCamera": {
            "TaskEnabled": false
          },
          "SwitchCharacterAnchor": {
            "TaskEnabled": false
          },
          "AdvNpcFaceToPlayer": {
            "TaskEnabled": false
          }
        },
        {
          "$type": "RPG.GameCore.EndPerformance"
        }
      ]
    },
    {
      "TaskList": [
        {
          "$type": "RPG.GameCore.WaitPerformanceEnd"
        },
        {
          "$type": "RPG.GameCore.FinishLevelGraph"
        }
      ]
    }
  ]
}