{
  "OnInitSequece": [],
  "OnStartSequece": [
    {
      "TaskList": [
        {
          "$type": "RPG.GameCore.LevelPerformanceInitialize",
          "PerformanceType": "D"
        },
        {
          "$type": "RPG.GameCore.PerformanceTransition",
          "CreateNpcList": [],
          "CaptureNpcList": [],
          "DestroyNpcList": [],
          "CreateProp": {
            "TaskEnabled": false
          },
          "DestroyProp": {
            "TargetType": {
              "$type": "RPG.GameCore.TargetFetchAdvPropEx"
            },
            "TaskEnabled": false
          },
          "AdvCreateGroupEntity": {
            "TaskEnabled": false
          },
          "AdvDestroyGroupEntity": {
            "TaskEnabled": false
          },
          "ActiveVirtualCamera": {
            "AreaName": "LevelArea_P43001_F43001001_G4",
            "AnchorName": "Anchor4"
          },
          "ActiveTemplateVirtualCamera": {
            "TaskEnabled": false
          },
          "SwitchCharacterAnchor": {
            "IsLocalPlayer": true,
            "CharacterUniqueName": "LocalPlayer",
            "AreaName": {
              "Value": "LevelArea_P43001_F43001001_G4"
            },
            "AnchorName": {
              "Value": "Anchor3"
            }
          },
          "AdvNpcFaceToPlayer": {
            "TaskEnabled": false
          }
        },
        {
          "$type": "RPG.GameCore.CaptureNPCToCharacter",
          "CharacterUniqueName": {
            "Value": "vylet"
          },
          "TargetType": {
            "$type": "RPG.GameCore.TargetFetchAdvNpcEx",
            "FetchType": "SingleNpcByNpcID",
            "SingleNpcID": {
              "GroupID": {
                "IsDynamic": false,
                "FixedValue": {
                  "Value": 4
                }
              },
              "GroupNpcID": {
                "IsDynamic": false,
                "FixedValue": {
                  "Value": 400005
                }
              }
            }
          }
        },
        {
          "$type": "RPG.GameCore.CaptureNPCToCharacter",
          "CharacterUniqueName": {
            "Value": "pompom"
          },
          "TargetType": {
            "$type": "RPG.GameCore.TargetFetchAdvNpcEx",
            "FetchType": "SingleNpcByNpcID",
            "SingleNpcID": {
              "GroupID": {
                "IsDynamic": false,
                "FixedValue": {
                  "Value": 4
                }
              },
              "GroupNpcID": {
                "IsDynamic": false,
                "FixedValue": {
                  "Value": 400002
                }
              }
            }
          }
        },
        {
          "$type": "RPG.GameCore.AdvEntityFaceTo",
          "SourceType": {
            "$type": "RPG.GameCore.TargetFetchAdvLocalPlayer"
          },
          "TargetType": {
            "$type": "RPG.GameCore.TargetFetchAdvNpcEx",
            "FetchType": "SingleNpcByNpcID",
            "SingleNpcID": {
              "GroupID": {
                "IsDynamic": false,
                "FixedValue": {
                  "Value": 4
                }
              },
              "GroupNpcID": {
                "IsDynamic": false,
                "FixedValue": {
                  "Value": 400002
                }
              }
            }
          },
          "SteerImmediately": true,
          "ForceToStandBy": true
        },
        {
          "$type": "RPG.GameCore.CharacterTriggerFreeStyle",
          "TargetAlias": {
            "$type": "RPG.GameCore.TargetFetchAdvNpcEx",
            "FetchType": "SingleNpcByNpcID",
            "SingleNpcID": {
              "GroupID": {
                "IsDynamic": false,
                "FixedValue": {
                  "Value": 4
                }
              },
              "GroupNpcID": {
                "IsDynamic": false,
                "FixedValue": {
                  "Value": 400005
                }
              }
            }
          },
          "StoryAvatarID": "NPC_Male",
          "StoryMotionID": 100010242
        },
        {
          "$type": "RPG.GameCore.PlayAndWaitSimpleTalk",
          "UseTargetBehavior": true,
          "TargetBehaviors": [
            {
              "UniqueName": "vylet",
              "UseMouthTalk": true
            },
            {
              "UniqueName": "pompom",
              "UseMouthTalk": true
            }
          ],
          "SimpleTalkList": [
            {
              "TextSpeed": 0,
              "TalkSentenceID": 200081501,
              "ProtectTime": 0
            },
            {
              "TextSpeed": 0,
              "TalkSentenceID": 200081502,
              "ProtectTime": 0
            }
          ]
        },
        {
          "$type": "RPG.GameCore.CharacterTriggerFreeStyle",
          "TargetAlias": {
            "$type": "RPG.GameCore.TargetFetchAdvNpcEx",
            "FetchType": "SingleNpcByNpcID",
            "SingleNpcID": {
              "GroupID": {
                "IsDynamic": false,
                "FixedValue": {
                  "Value": 4
                }
              },
              "GroupNpcID": {
                "IsDynamic": false,
                "FixedValue": {
                  "Value": 400005
                }
              }
            }
          },
          "StoryAvatarID": "NPC_Male",
          "StoryMotionID": 100010244
        },
        {
          "$type": "RPG.GameCore.PlayAndWaitSimpleTalk",
          "UseTargetBehavior": true,
          "TargetBehaviors": [
            {
              "UniqueName": "vylet",
              "UseMouthTalk": true
            }
          ],
          "SimpleTalkList": [
            {
              "TextSpeed": 0,
              "TalkSentenceID": 200081503,
              "ProtectTime": 0
            }
          ]
        },
        {
          "$type": "RPG.GameCore.CharacterTriggerFreeStyle",
          "TargetAlias": {
            "$type": "RPG.GameCore.TargetFetchAdvNpcEx",
            "FetchType": "SingleNpcByNpcID",
            "SingleNpcID": {
              "GroupID": {
                "IsDynamic": false,
                "FixedValue": {
                  "Value": 4
                }
              },
              "GroupNpcID": {
                "IsDynamic": false,
                "FixedValue": {
                  "Value": 400002
                }
              }
            }
          },
          "StoryAvatarID": "NPC_Special_Pam_00",
          "StoryMotionID": 900010234
        },
        {
          "$type": "RPG.GameCore.PlayAndWaitSimpleTalk",
          "UseTargetBehavior": true,
          "TargetBehaviors": [
            {
              "UniqueName": "pompom",
              "UseMouthTalk": true
            }
          ],
          "SimpleTalkList": [
            {
              "TextSpeed": 0,
              "TalkSentenceID": 200081504,
              "ProtectTime": 0
            }
          ]
        },
        {
          "$type": "RPG.GameCore.PlayAndWaitSimpleTalk",
          "UseTargetBehavior": true,
          "TargetBehaviors": [
            {
              "UniqueName": "vylet",
              "UseMouthTalk": true
            }
          ],
          "SimpleTalkList": [
            {
              "TextSpeed": 0,
              "TalkSentenceID": 200081505,
              "ProtectTime": 0
            }
          ]
        },
        {
          "$type": "RPG.GameCore.CharacterTriggerFreeStyle",
          "TargetAlias": {
            "$type": "RPG.GameCore.TargetFetchAdvNpcEx",
            "FetchType": "SingleNpcByNpcID",
            "SingleNpcID": {
              "GroupID": {
                "IsDynamic": false,
                "FixedValue": {
                  "Value": 4
                }
              },
              "GroupNpcID": {
                "IsDynamic": false,
                "FixedValue": {
                  "Value": 400002
                }
              }
            }
          },
          "StoryAvatarID": "NPC_Special_Pam_00",
          "StoryMotionID": 900010236
        },
        {
          "$type": "RPG.GameCore.PlayAndWaitSimpleTalk",
          "UseTargetBehavior": true,
          "TargetBehaviors": [
            {
              "UniqueName": "pompom",
              "UseMouthTalk": true
            }
          ],
          "SimpleTalkList": [
            {
              "TextSpeed": 0,
              "TalkSentenceID": 200081506,
              "ProtectTime": 0
            }
          ]
        },
        {
          "$type": "RPG.GameCore.CharacterTriggerFreeStyle",
          "TargetAlias": {
            "$type": "RPG.GameCore.TargetFetchAdvNpcEx",
            "FetchType": "SingleNpcByNpcID",
            "SingleNpcID": {
              "GroupID": {
                "IsDynamic": false,
                "FixedValue": {
                  "Value": 4
                }
              },
              "GroupNpcID": {
                "IsDynamic": false,
                "FixedValue": {
                  "Value": 400002
                }
              }
            }
          },
          "StoryAvatarID": "NPC_Special_Pam_00",
          "StoryMotionID": 900010200
        },
        {
          "$type": "RPG.GameCore.PlayAndWaitSimpleTalk",
          "UseTargetBehavior": true,
          "TargetBehaviors": [
            {
              "UniqueName": "pompom",
              "UseMouthTalk": true
            },
            {
              "UniqueName": "pompom",
              "UseMouthTalk": true
            },
            {
              "UniqueName": "pompom",
              "UseMouthTalk": true
            }
          ],
          "SimpleTalkList": [
            {
              "TextSpeed": 0,
              "TalkSentenceID": 200081507,
              "ProtectTime": 0
            },
            {
              "TextSpeed": 0,
              "TalkSentenceID": 200081508,
              "ProtectTime": 0
            },
            {
              "TextSpeed": 0,
              "TalkSentenceID": 200081509,
              "ProtectTime": 0
            }
          ]
        },
        {
          "$type": "RPG.GameCore.AdvEntityFaceTo",
          "SourceType": {
            "$type": "RPG.GameCore.TargetFetchAdvNpcEx",
            "FetchType": "SingleNpcByNpcID",
            "SingleNpcID": {
              "GroupID": {
                "IsDynamic": false,
                "FixedValue": {
                  "Value": 4
                }
              },
              "GroupNpcID": {
                "IsDynamic": false,
                "FixedValue": {
                  "Value": 400002
                }
              }
            }
          },
          "TargetType": {
            "$type": "RPG.GameCore.TargetFetchAnchor",
            "GroupID": 4,
            "GroupInstanceID": 5
          },
          "EnableSteer": true,
          "ForceToStandBy": true
        },
        {
          "$type": "RPG.GameCore.WaitSecond",
          "WaitTime": {
            "IsDynamic": false,
            "FixedValue": {
              "Value": 0.2
            }
          }
        },
        {
          "$type": "RPG.GameCore.AdvEntityFaceTo",
          "SourceType": {
            "$type": "RPG.GameCore.TargetFetchAdvNpcEx",
            "FetchType": "SingleNpcByNpcID",
            "SingleNpcID": {
              "GroupID": {
                "IsDynamic": false,
                "FixedValue": {
                  "Value": 4
                }
              },
              "GroupNpcID": {
                "IsDynamic": false,
                "FixedValue": {
                  "Value": 400005
                }
              }
            }
          },
          "TargetType": {
            "$type": "RPG.GameCore.TargetFetchAnchor",
            "GroupID": 4,
            "GroupInstanceID": 5
          },
          "ForceToStandBy": true
        },
        {
          "$type": "RPG.GameCore.WaitSecond",
          "WaitTime": {
            "IsDynamic": false,
            "FixedValue": {
              "Value": 0.2
            }
          }
        },
        {
          "$type": "RPG.GameCore.AdvEntityFaceTo",
          "SourceType": {
            "$type": "RPG.GameCore.TargetFetchAdvNpcEx",
            "FetchType": "SingleNpcByNpcID",
            "SingleNpcID": {
              "GroupID": {
                "IsDynamic": false,
                "FixedValue": {
                  "Value": 4
                }
              },
              "GroupNpcID": {
                "IsDynamic": false,
                "FixedValue": {
                  "Value": 400006
                }
              }
            }
          },
          "TargetType": {
            "$type": "RPG.GameCore.TargetFetchAnchor",
            "GroupID": 4,
            "GroupInstanceID": 5
          },
          "ForceToStandBy": true
        },
        {
          "$type": "RPG.GameCore.PlayAndWaitSimpleTalk",
          "UseTargetBehavior": true,
          "TargetBehaviors": [
            {
              "UniqueName": "pompom",
              "UseMouthTalk": true
            }
          ],
          "SimpleTalkList": [
            {
              "TextSpeed": 0,
              "TalkSentenceID": 200081510,
              "ProtectTime": 0
            }
          ]
        },
        {
          "$type": "RPG.GameCore.TriggerCustomString",
          "CustomString": {
            "Value": "Wait_Option_200080232_288"
          }
        },
        {
          "$type": "RPG.GameCore.TriggerSound",
          "SoundName": {
            "Value": "Ev_sfx_spacetrain_cleanemachine_poweron"
          },
          "EmitterType": "NPC",
          "GroupID": 4,
          "ID": 400002
        }
      ]
    },
    {
      "IsLoop": true,
      "TaskList": [
        {
          "$type": "RPG.GameCore.WaitCustomString",
          "CustomString": {
            "Value": "Wait_Option_200080232_288"
          }
        },
        {
          "$type": "RPG.GameCore.PlayOptionTalk",
          "OptionList": [
            {
              "TalkSentenceID": 200081511,
              "OptionIconType": "ChatLoopIcon",
              "TriggerCustomString": "TalkSentence_200081512"
            },
            {
              "TalkSentenceID": 200081515,
              "OptionIconType": "ChatLoopIcon",
              "TriggerCustomString": "TalkSentence_200081516"
            },
            {
              "TalkSentenceID": 200081520,
              "OptionIconType": "ChatLoopIcon",
              "TriggerCustomString": "TalkSentence_200081521"
            }
          ],
          "HideSelected": true,
          "TriggerStringWhenAllSelected": true,
          "TriggerString": "TalkSentence_200081525"
        }
      ]
    },
    {
      "IsLoop": true,
      "TaskList": [
        {
          "$type": "RPG.GameCore.WaitCustomString",
          "CustomString": {
            "Value": "TalkSentence_200081512"
          }
        },
        {
          "$type": "RPG.GameCore.TriggerSound",
          "SoundName": {
            "Value": "Ev_sfx_spacetrain_cleanemachine_switch"
          },
          "EmitterType": "NPC",
          "GroupID": 4,
          "ID": 400005
        },
        {
          "$type": "RPG.GameCore.PlayAndWaitSimpleTalk",
          "UseBackground": true,
          "Backgrounds": [
            {
              "ImagePath": "SpriteOutput/PicTalkCG/Common/PicSubMission200080205.png"
            },
            {
              "ImagePath": "SpriteOutput/PicTalkCG/Common/PicSubMission200080205.png"
            },
            {
              "ImagePath": "SpriteOutput/PicTalkCG/Common/PicSubMission200080205.png"
            }
          ],
          "UseTargetBehavior": true,
          "TargetBehaviors": [
            {},
            {},
            {
              "UniqueName": "pompom",
              "UseMouthTalk": true
            }
          ],
          "SimpleTalkList": [
            {
              "TextSpeed": 0,
              "TalkSentenceID": 200081512,
              "ProtectTime": 0
            },
            {
              "TextSpeed": 0,
              "TalkSentenceID": 200081513,
              "ProtectTime": 0
            },
            {
              "TextSpeed": 0,
              "TalkSentenceID": 200081514,
              "ProtectTime": 0
            }
          ]
        },
        {
          "$type": "RPG.GameCore.TriggerCustomString",
          "CustomString": {
            "Value": "Wait_Option_200080232_288"
          }
        }
      ]
    },
    {
      "IsLoop": true,
      "TaskList": [
        {
          "$type": "RPG.GameCore.WaitCustomString",
          "CustomString": {
            "Value": "TalkSentence_200081516"
          }
        },
        {
          "$type": "RPG.GameCore.TriggerSound",
          "SoundName": {
            "Value": "Ev_sfx_spacetrain_cleanemachine_switch"
          },
          "EmitterType": "NPC",
          "GroupID": 4,
          "ID": 400005
        },
        {
          "$type": "RPG.GameCore.PlayAndWaitSimpleTalk",
          "UseBackground": true,
          "Backgrounds": [
            {
              "ImagePath": "SpriteOutput/PicTalkCG/Common/PicSubMission200080202.png"
            },
            {
              "ImagePath": "SpriteOutput/PicTalkCG/Common/PicSubMission200080202.png"
            },
            {
              "ImagePath": "SpriteOutput/PicTalkCG/Common/PicSubMission200080202.png"
            },
            {
              "ImagePath": "SpriteOutput/PicTalkCG/Common/PicSubMission200080202.png"
            }
          ],
          "UseTargetBehavior": true,
          "TargetBehaviors": [
            {},
            {},
            {
              "UniqueName": "pompom",
              "UseMouthTalk": true
            },
            {}
          ],
          "SimpleTalkList": [
            {
              "TextSpeed": 0,
              "TalkSentenceID": 200081516,
              "ProtectTime": 0
            },
            {
              "TextSpeed": 0,
              "TalkSentenceID": 200081517,
              "ProtectTime": 0
            },
            {
              "TextSpeed": 0,
              "TalkSentenceID": 200081518,
              "ProtectTime": 0
            },
            {
              "TextSpeed": 0,
              "TalkSentenceID": 200081519,
              "ProtectTime": 0
            }
          ]
        },
        {
          "$type": "RPG.GameCore.TriggerCustomString",
          "CustomString": {
            "Value": "Wait_Option_200080232_288"
          }
        }
      ]
    },
    {
      "IsLoop": true,
      "TaskList": [
        {
          "$type": "RPG.GameCore.WaitCustomString",
          "CustomString": {
            "Value": "TalkSentence_200081521"
          }
        },
        {
          "$type": "RPG.GameCore.TriggerSound",
          "SoundName": {
            "Value": "Ev_sfx_spacetrain_cleanemachine_switch"
          },
          "EmitterType": "NPC",
          "GroupID": 4,
          "ID": 400005
        },
        {
          "$type": "RPG.GameCore.PlayAndWaitSimpleTalk",
          "UseBackground": true,
          "Backgrounds": [
            {
              "ImagePath": "SpriteOutput/PicTalkCG/Common/PicSubMission200080203.png"
            },
            {
              "ImagePath": "SpriteOutput/PicTalkCG/Common/PicSubMission200080203.png"
            },
            {
              "ImagePath": "SpriteOutput/PicTalkCG/Common/PicSubMission200080203.png"
            },
            {
              "ImagePath": "SpriteOutput/PicTalkCG/Common/PicSubMission200080203.png"
            }
          ],
          "UseTargetBehavior": true,
          "TargetBehaviors": [
            {},
            {},
            {},
            {
              "UniqueName": "pompom",
              "UseMouthTalk": true
            }
          ],
          "SimpleTalkList": [
            {
              "TextSpeed": 0,
              "TalkSentenceID": 200081521,
              "ProtectTime": 0
            },
            {
              "TextSpeed": 0,
              "TalkSentenceID": 200081522,
              "ProtectTime": 0
            },
            {
              "TextSpeed": 0,
              "TalkSentenceID": 200081523,
              "ProtectTime": 0
            },
            {
              "TextSpeed": 0,
              "TalkSentenceID": 200081524,
              "ProtectTime": 0
            }
          ]
        },
        {
          "$type": "RPG.GameCore.TriggerCustomString",
          "CustomString": {
            "Value": "Wait_Option_200080232_288"
          }
        }
      ]
    },
    {
      "TaskList": [
        {
          "$type": "RPG.GameCore.WaitCustomString",
          "CustomString": {
            "Value": "TalkSentence_200081525"
          }
        },
        {
          "$type": "RPG.GameCore.PlayAndWaitSimpleTalk",
          "Backgrounds": [],
          "UseTargetBehavior": true,
          "TargetBehaviors": [
            {
              "UniqueName": "pompom",
              "UseMouthTalk": true
            },
            {
              "UniqueName": "pompom",
              "UseMouthTalk": true
            },
            {
              "UniqueName": "vylet",
              "UseMouthTalk": true
            }
          ],
          "SimpleTalkList": [
            {
              "TextSpeed": 0,
              "TalkSentenceID": 200081525,
              "ProtectTime": 0
            },
            {
              "TextSpeed": 0,
              "TalkSentenceID": 200081526,
              "ProtectTime": 0
            },
            {
              "TextSpeed": 0,
              "TalkSentenceID": 200081527,
              "ProtectTime": 0
            }
          ]
        },
        {
          "$type": "RPG.GameCore.TriggerCustomString",
          "CustomString": {
            "Value": "Wait_Option_200080232_307"
          }
        }
      ]
    },
    {
      "IsLoop": true,
      "TaskList": [
        {
          "$type": "RPG.GameCore.WaitCustomString",
          "CustomString": {
            "Value": "Wait_Option_200080232_307"
          }
        },
        {
          "$type": "RPG.GameCore.PlayOptionTalk",
          "OptionList": [
            {
              "TalkSentenceID": 200081528,
              "OptionIconType": "ChatLoopIcon",
              "TriggerCustomString": "TalkSentence_200081529"
            },
            {
              "TalkSentenceID": 200081532,
              "OptionIconType": "ChatLoopIcon",
              "TriggerCustomString": "TalkSentence_200081533"
            }
          ],
          "HideSelected": true
        },
        {
          "$type": "RPG.GameCore.TriggerSound",
          "SoundName": {
            "Value": "Ev_sfx_spacetrain_cleanemachine_switch"
          },
          "EmitterType": "NPC",
          "GroupID": 4,
          "ID": 400005
        }
      ]
    },
    {
      "IsLoop": true,
      "TaskList": [
        {
          "$type": "RPG.GameCore.WaitCustomString",
          "CustomString": {
            "Value": "TalkSentence_200081529"
          }
        },
        {
          "$type": "RPG.GameCore.PlayAndWaitSimpleTalk",
          "UseBackground": true,
          "Backgrounds": [
            {
              "ImagePath": "SpriteOutput/PicTalkCG/Common/PicSubMission200080204.png"
            },
            {
              "ImagePath": "SpriteOutput/PicTalkCG/Common/PicSubMission200080204.png"
            },
            {
              "ImagePath": "SpriteOutput/PicTalkCG/Common/PicSubMission200080204.png"
            }
          ],
          "UseTargetBehavior": true,
          "TargetBehaviors": [
            {},
            {},
            {
              "UniqueName": "pompom",
              "UseMouthTalk": true
            }
          ],
          "SimpleTalkList": [
            {
              "TextSpeed": 0,
              "TalkSentenceID": 200081529,
              "ProtectTime": 0
            },
            {
              "TextSpeed": 0,
              "TalkSentenceID": 200081530,
              "ProtectTime": 0
            },
            {
              "TextSpeed": 0,
              "TalkSentenceID": 200081531,
              "ProtectTime": 0
            }
          ]
        },
        {
          "$type": "RPG.GameCore.TriggerCustomString",
          "CustomString": {
            "Value": "Wait_Option_200080232_307"
          }
        }
      ]
    },
    {
      "IsLoop": true,
      "TaskList": [
        {
          "$type": "RPG.GameCore.WaitCustomString",
          "CustomString": {
            "Value": "TalkSentence_200081533"
          }
        },
        {
          "$type": "RPG.GameCore.PlayAndWaitSimpleTalk",
          "UseBackground": true,
          "Backgrounds": [
            {
              "ImagePath": "SpriteOutput/PicTalkCG/Common/PicSubMission200080201.png"
            },
            {
              "ImagePath": "SpriteOutput/PicTalkCG/Common/PicSubMission200080201.png"
            }
          ],
          "UseTargetBehavior": true,
          "TargetBehaviors": [
            {},
            {}
          ],
          "SimpleTalkList": [
            {
              "TextSpeed": 0,
              "TalkSentenceID": 200081533,
              "ProtectTime": 0
            },
            {
              "TextSpeed": 0,
              "TalkSentenceID": 200081534,
              "ProtectTime": 0
            }
          ]
        },
        {
          "$type": "RPG.GameCore.TriggerSound",
          "SoundName": {
            "Value": "Ev_sfx_spacetrain_cleanemachine_poweroff"
          },
          "EmitterType": "NPC",
          "GroupID": 4,
          "ID": 400002
        },
        {
          "$type": "RPG.GameCore.PerformanceTransition",
          "SwitchOutTime": -1,
          "CreateNpcList": [],
          "CaptureNpcList": [],
          "DestroyNpcList": [
            {
              "GroupID": 4,
              "GroupNpcID": 400002,
              "DestroyList": []
            }
          ],
          "CreateProp": {
            "TaskEnabled": false
          },
          "DestroyProp": {
            "TargetType": {
              "$type": "RPG.GameCore.TargetFetchAdvPropEx"
            },
            "TaskEnabled": false
          },
          "AdvCreateGroupEntity": {
            "TaskEnabled": false
          },
          "AdvDestroyGroupEntity": {
            "TaskEnabled": false
          },
          "ActiveVirtualCamera": {
            "TaskEnabled": false
          },
          "ActiveTemplateVirtualCamera": {
            "TaskEnabled": false
          },
          "SwitchCharacterAnchor": {
            "TaskEnabled": false
          },
          "AdvNpcFaceToPlayer": {
            "SteerImmediately": true,
            "FinishImmadiate": true,
            "TaskEnabled": false
          }
        },
        {
          "$type": "RPG.GameCore.EndPerformance"
        }
      ]
    },
    {
      "TaskList": [
        {
          "$type": "RPG.GameCore.WaitPerformanceEnd"
        },
        {
          "$type": "RPG.GameCore.FinishLevelGraph"
        }
      ]
    }
  ]
}