{
  "10001": {
    "QuestTabID": 10001,
    "QuestTabName": {
      "Hash": -1674894328
    },
    "QuestList": [
      6017201,
      6017202,
      6017209,
      6017210,
      6017211,
      6017212,
      6017221
    ],
    "ActivityModuleID": 5000701,
    "QuestTabIcon": "SpriteOutput/Quest/Heliobus/HeliobusIcon/HeliobusTabIconMain.png"
  },
  "10002": {
    "QuestTabID": 10002,
    "QuestTabName": {
      "Hash": -108810387
    },
    "QuestList": [
      6017203,
      6017204,
      6017222,
      6017223,
      6017224,
      6017225,
      6017226
    ],
    "ActivityModuleID": 5000701,
    "QuestTabIcon": "SpriteOutput/Quest/Heliobus/HeliobusIcon/HeliobusTabIconMission.png"
  },
  "10003": {
    "QuestTabID": 10003,
    "QuestTabName": {
      "Hash": 1457273554
    },
    "QuestList": [
      6017205,
      6017206,
      6017227,
      6017228
    ],
    "ActivityModuleID": 5000701,
    "QuestTabIcon": "SpriteOutput/Quest/Heliobus/HeliobusIcon/HeliobusTabIconMain.png"
  },
  "10004": {
    "QuestTabID": 10004,
    "QuestTabName": {
      "Hash": -915379441
    },
    "QuestList": [
      6017207,
      6017208,
      6017229,
      6017230
    ],
    "ActivityModuleID": 5000701,
    "QuestTabIcon": "SpriteOutput/Quest/Heliobus/HeliobusIcon/HeliobusTabIconMission.png"
  },
  "10011": {
    "QuestTabID": 10011,
    "QuestTabName": {
      "Hash": -1674894329
    },
    "QuestList": [
      6018103,
      6018104,
      6018105
    ],
    "ActivityModuleID": 5000901,
    "QuestTabIcon": "SpriteOutput/UI/Quest/DrinkMaker/DMLimitedRewardPageTabPanelPattern.png"
  },
  "10012": {
    "QuestTabID": 10012,
    "QuestTabName": {
      "Hash": -108810388
    },
    "QuestList": [
      6018106,
      6018107,
      6018108
    ],
    "ActivityModuleID": 5000901,
    "QuestTabIcon": "SpriteOutput/UI/Quest/DrinkMaker/DMLimitedRewardPageTabPanelPattern.png"
  },
  "10013": {
    "QuestTabID": 10013,
    "QuestTabName": {
      "Hash": 1457273553
    },
    "QuestList": [
      6018109,
      6018110,
      6018111,
      6018121
    ],
    "ActivityModuleID": 5000901,
    "QuestTabIcon": "SpriteOutput/UI/Quest/DrinkMaker/DMLimitedRewardPageTabPanelPattern.png"
  },
  "10014": {
    "QuestTabID": 10014,
    "QuestTabName": {
      "Hash": -915379442
    },
    "QuestList": [
      6018112,
      6018113,
      6018114
    ],
    "ActivityModuleID": 5000901,
    "QuestTabIcon": "SpriteOutput/UI/Quest/DrinkMaker/DMLimitedRewardPageTabPanelPattern.png"
  },
  "10031": {
    "QuestTabID": 10031,
    "QuestTabName": {
      "Hash": -1674894331
    },
    "QuestList": [
      6022106,
      6022107,
      6022108,
      6022109,
      6022110,
      6022112
    ],
    "ActivityModuleID": 5001201,
    "QuestTabIcon": "SpriteOutput/Quest/Heliobus/HeliobusIcon/HeliobusTabIconMission.png"
  },
  "10032": {
    "QuestTabID": 10032,
    "QuestTabName": {
      "Hash": -108810390
    },
    "QuestList": [
      6022112,
      6022113,
      6022114,
      6022115,
      6022116
    ],
    "ActivityModuleID": 5001201,
    "QuestTabIcon": "SpriteOutput/Quest/Heliobus/HeliobusIcon/HeliobusTabIconMission.png"
  },
  "10033": {
    "QuestTabID": 10033,
    "QuestTabName": {
      "Hash": 1457273551
    },
    "QuestList": [
      6022117,
      6022118,
      6022119
    ],
    "ActivityModuleID": 5001201,
    "QuestTabIcon": "SpriteOutput/Quest/Heliobus/HeliobusIcon/HeliobusTabIconMission.png"
  },
  "10034": {
    "QuestTabID": 10034,
    "QuestTabName": {
      "Hash": -915379444
    },
    "QuestList": [
      6022123,
      6022124,
      6022125
    ],
    "ActivityModuleID": 5001201,
    "QuestTabIcon": "SpriteOutput/Quest/Heliobus/HeliobusIcon/HeliobusTabIconMission.png"
  },
  "10051": {
    "QuestTabID": 10051,
    "QuestTabName": {
      "Hash": -1674894333
    },
    "QuestList": [
      6020117,
      6020124,
      6020131
    ],
    "ActivityModuleID": 5001101,
    "QuestTabIcon": "SpriteOutput/Quest/Heliobus/HeliobusIcon/HeliobusTabIconMission.png"
  },
  "10052": {
    "QuestTabID": 10052,
    "QuestTabName": {
      "Hash": -108810392
    },
    "QuestList": [
      6020118,
      6020125,
      6020132
    ],
    "ActivityModuleID": 5001101,
    "QuestTabIcon": "SpriteOutput/Quest/Heliobus/HeliobusIcon/HeliobusTabIconMission.png"
  },
  "10053": {
    "QuestTabID": 10053,
    "QuestTabName": {
      "Hash": 1457273549
    },
    "QuestList": [
      6020119,
      6020126,
      6020133
    ],
    "ActivityModuleID": 5001101,
    "QuestTabIcon": "SpriteOutput/Quest/Heliobus/HeliobusIcon/HeliobusTabIconMission.png"
  },
  "10054": {
    "QuestTabID": 10054,
    "QuestTabName": {
      "Hash": -915379446
    },
    "QuestList": [
      6020120,
      6020127,
      6020134
    ],
    "ActivityModuleID": 5001101,
    "QuestTabIcon": "SpriteOutput/Quest/Heliobus/HeliobusIcon/HeliobusTabIconMission.png"
  },
  "10056": {
    "QuestTabID": 10056,
    "QuestTabName": {
      "Hash": -2078178860
    },
    "QuestList": [
      6020122,
      6020129,
      6020136
    ],
    "ActivityModuleID": 5001101,
    "QuestTabIcon": "SpriteOutput/Quest/Heliobus/HeliobusIcon/HeliobusTabIconMission.png"
  },
  "10057": {
    "QuestTabID": 10057,
    "QuestTabName": {
      "Hash": -512094919
    },
    "QuestList": [
      6020123,
      6020130,
      6020137
    ],
    "ActivityModuleID": 5001101,
    "QuestTabIcon": "SpriteOutput/Quest/Heliobus/HeliobusIcon/HeliobusTabIconMission.png"
  }
}