{
  "101": {
    "GradeID": 101,
    "MapID": 1,
    "MapConfig": "Config/Gameplays/Alley/AlleyLogistics/AlleyGridLevel_Tutorial.json",
    "GradeConditions": []
  },
  "102": {
    "GradeID": 102,
    "MapID": 1,
    "MapConfig": "Config/Gameplays/Alley/AlleyLogistics/AlleyGridLevel_0.json",
    "GradeConditions": [
      {
        "IPNHJOOMHDM": "FinishMainMission",
        "JNFBEOILKBO": 8003202
      }
    ]
  },
  "201": {
    "GradeID": 201,
    "MapID": 2,
    "MapConfig": "Config/Gameplays/Alley/AlleyLogistics/AlleyGridLevel_1.json",
    "GradeConditions": []
  },
  "301": {
    "GradeID": 301,
    "MapID": 3,
    "MapConfig": "Config/Gameplays/Alley/AlleyLogistics/AlleyGridLevel_2.json",
    "GradeConditions": []
  },
  "401": {
    "GradeID": 401,
    "MapID": 4,
    "MapConfig": "Config/Gameplays/Alley/AlleyLogistics/AlleyGridLevel_3.json",
    "GradeConditions": []
  }
}