{
  "1": {
    "EventID": 1,
    "EventTitle": {
      "Hash": 913696968
    },
    "EventFinishTitle": {
      "Hash": 371857150
    },
    "EventShopTitle": {
      "Hash": 371857150
    },
    "EventShopOrder": {
      "Hash": 371857150
    },
    "EventShopFinish": {
      "Hash": 371857150
    },
    "EventNewOrderTips": {
      "Hash": 371857150
    },
    "EventShopContent": {
      "Hash": -1319313163
    },
    "StartMissionIDList": [
      8003201
    ],
    "EventType": "Main",
    "EventPic": "",
    "EventIcon": "",
    "EventPriority": 1,
    "UnlockConditions": []
  },
  "2": {
    "EventID": 2,
    "EventTitle": {
      "Hash": 913696967
    },
    "EventFinishTitle": {
      "Hash": 371857150
    },
    "EventShopTitle": {
      "Hash": 371857150
    },
    "EventShopOrder": {
      "Hash": 371857150
    },
    "EventShopFinish": {
      "Hash": 371857150
    },
    "EventNewOrderTips": {
      "Hash": 371857150
    },
    "EventShopContent": {
      "Hash": -1319313166
    },
    "StartMissionIDList": [
      8003217
    ],
    "EventType": "Main",
    "EventPic": "",
    "EventIcon": "",
    "EventPriority": 2,
    "UnlockConditions": []
  },
  "3": {
    "EventID": 3,
    "EventTitle": {
      "Hash": 913696966
    },
    "EventFinishTitle": {
      "Hash": 371857150
    },
    "EventShopTitle": {
      "Hash": 371857150
    },
    "EventShopOrder": {
      "Hash": 371857150
    },
    "EventShopFinish": {
      "Hash": 371857150
    },
    "EventNewOrderTips": {
      "Hash": 371857150
    },
    "EventShopContent": {
      "Hash": -1319313165
    },
    "StartMissionIDList": [
      8003218
    ],
    "EventType": "Main",
    "EventPic": "",
    "EventIcon": "",
    "EventPriority": 3,
    "UnlockConditions": []
  },
  "4": {
    "EventID": 4,
    "EventTitle": {
      "Hash": 913696973
    },
    "EventFinishTitle": {
      "Hash": 371857150
    },
    "EventShopTitle": {
      "Hash": 371857150
    },
    "EventShopOrder": {
      "Hash": 371857150
    },
    "EventShopFinish": {
      "Hash": 371857150
    },
    "EventNewOrderTips": {
      "Hash": 371857150
    },
    "EventShopContent": {
      "Hash": -1319313168
    },
    "StartMissionIDList": [
      8003219
    ],
    "EventType": "Main",
    "EventPic": "",
    "EventIcon": "",
    "EventPriority": 4,
    "UnlockConditions": []
  },
  "101": {
    "EventID": 101,
    "EventTitle": {
      "Hash": -625231831
    },
    "EventFinishTitle": {
      "Hash": -630255562
    },
    "EventShopTitle": {
      "Hash": 75971821
    },
    "EventShopOrder": {
      "Hash": 291353575
    },
    "EventShopFinish": {
      "Hash": -53147918
    },
    "EventNewOrderTips": {
      "Hash": -915215747
    },
    "EventShopContent": {
      "Hash": -1300122188
    },
    "StartMissionIDList": [
      8003281
    ],
    "EventType": "MainShop",
    "EventPic": "SpriteOutput/Quest/Alley/AlleyMissionImg/AlleyShopBuildingPic_101.png",
    "EventIcon": "SpriteOutput/Quest/Alley/AlleyMapIcon/AlleyMiniShopIcon_101.png",
    "RewardID": 8002001,
    "EventPriority": 1000,
    "UnlockConditions": []
  },
  "102": {
    "EventID": 102,
    "EventTitle": {
      "Hash": -625231834
    },
    "EventFinishTitle": {
      "Hash": -630255559
    },
    "EventShopTitle": {
      "Hash": 75971818
    },
    "EventShopOrder": {
      "Hash": 291353572
    },
    "EventShopFinish": {
      "Hash": 350136609
    },
    "EventNewOrderTips": {
      "Hash": 1813667608
    },
    "EventShopContent": {
      "Hash": -1300122189
    },
    "StartMissionIDList": [
      8003282
    ],
    "EventType": "MainShop",
    "EventPic": "SpriteOutput/Quest/Alley/AlleyMissionImg/AlleyShopBuildingPic_102.png",
    "EventIcon": "SpriteOutput/Quest/Alley/AlleyMapIcon/AlleyMiniShopIcon_102.png",
    "RewardID": 8002001,
    "EventPriority": 900,
    "UnlockConditions": []
  },
  "103": {
    "EventID": 103,
    "EventTitle": {
      "Hash": -625231833
    },
    "EventFinishTitle": {
      "Hash": -630255560
    },
    "EventShopTitle": {
      "Hash": 75971819
    },
    "EventShopOrder": {
      "Hash": 291353573
    },
    "EventShopFinish": {
      "Hash": -1215947332
    },
    "EventNewOrderTips": {
      "Hash": 247583667
    },
    "EventShopContent": {
      "Hash": -1300122190
    },
    "StartMissionIDList": [
      8003246
    ],
    "EventType": "Shop",
    "EventPic": "SpriteOutput/Quest/Alley/AlleyMissionImg/AlleyShopBuildingPic_103.png",
    "EventIcon": "SpriteOutput/Quest/Alley/AlleyMapIcon/AlleyMiniShopIcon_103.png",
    "RewardID": 8002001,
    "EventPriority": 800,
    "UnlockConditions": [
      {
        "IPNHJOOMHDM": "AlleyOrderFinish",
        "JNFBEOILKBO": 104
      },
      {
        "IPNHJOOMHDM": "TriggerTiming",
        "JNFBEOILKBO": 2
      }
    ]
  },
  "104": {
    "EventID": 104,
    "EventTitle": {
      "Hash": -625231828
    },
    "EventFinishTitle": {
      "Hash": -630255557
    },
    "EventShopTitle": {
      "Hash": 75971816
    },
    "EventShopOrder": {
      "Hash": 291353578
    },
    "EventShopFinish": {
      "Hash": -456432445
    },
    "EventNewOrderTips": {
      "Hash": -1674730634
    },
    "EventShopContent": {
      "Hash": -1300122191
    },
    "StartMissionIDList": [
      8003283
    ],
    "EventType": "MainShop",
    "EventPic": "SpriteOutput/Quest/Alley/AlleyMissionImg/AlleyShopBuildingPic_104.png",
    "EventIcon": "SpriteOutput/Quest/Alley/AlleyMapIcon/AlleyMiniShopIcon_104.png",
    "RewardID": 8002001,
    "EventPriority": 700,
    "UnlockConditions": []
  },
  "105": {
    "EventID": 105,
    "EventTitle": {
      "Hash": -625231827
    },
    "EventFinishTitle": {
      "Hash": -630255558
    },
    "EventShopTitle": {
      "Hash": 75971817
    },
    "EventShopOrder": {
      "Hash": 291353579
    },
    "EventShopFinish": {
      "Hash": -2022516386
    },
    "EventNewOrderTips": {
      "Hash": 1054152721
    },
    "EventShopContent": {
      "Hash": -1300122192
    },
    "StartMissionIDList": [
      8003244
    ],
    "EventType": "Shop",
    "EventPic": "SpriteOutput/Quest/Alley/AlleyMissionImg/AlleyShopBuildingPic_105.png",
    "EventIcon": "SpriteOutput/Quest/Alley/AlleyMapIcon/AlleyMiniShopIcon_105.png",
    "RewardID": 8002001,
    "EventPriority": 600,
    "UnlockConditions": [
      {
        "IPNHJOOMHDM": "AlleyOrderFinish",
        "JNFBEOILKBO": 204
      },
      {
        "IPNHJOOMHDM": "TriggerTiming",
        "JNFBEOILKBO": 2
      }
    ]
  },
  "106": {
    "EventID": 106,
    "EventTitle": {
      "Hash": -625231830
    },
    "EventFinishTitle": {
      "Hash": -630255555
    },
    "EventShopTitle": {
      "Hash": 75971814
    },
    "EventShopOrder": {
      "Hash": 291353576
    },
    "EventShopFinish": {
      "Hash": -1619231859
    },
    "EventNewOrderTips": {
      "Hash": -511931220
    },
    "EventShopContent": {
      "Hash": -1300122193
    },
    "StartMissionIDList": [
      8003242
    ],
    "EventType": "Shop",
    "EventPic": "SpriteOutput/Quest/Alley/AlleyMissionImg/AlleyShopBuildingPic_106.png",
    "EventIcon": "SpriteOutput/Quest/Alley/AlleyMapIcon/AlleyMiniShopIcon_106.png",
    "RewardID": 8002001,
    "EventPriority": 500,
    "UnlockConditions": [
      {
        "IPNHJOOMHDM": "AlleyOrderFinish",
        "JNFBEOILKBO": 206
      },
      {
        "IPNHJOOMHDM": "TriggerTiming",
        "JNFBEOILKBO": 2
      }
    ]
  },
  "107": {
    "EventID": 107,
    "EventTitle": {
      "Hash": -625231829
    },
    "EventFinishTitle": {
      "Hash": -630255556
    },
    "EventShopTitle": {
      "Hash": 75971815
    },
    "EventShopOrder": {
      "Hash": 291353577
    },
    "EventShopFinish": {
      "Hash": 1109651496
    },
    "EventNewOrderTips": {
      "Hash": -2078015161
    },
    "EventShopContent": {
      "Hash": -1300122194
    },
    "StartMissionIDList": [
      8003284
    ],
    "EventType": "MainShop",
    "EventPic": "SpriteOutput/Quest/Alley/AlleyMissionImg/AlleyShopBuildingPic_107.png",
    "EventIcon": "SpriteOutput/Quest/Alley/AlleyMapIcon/AlleyMiniShopIcon_107.png",
    "RewardID": 8002001,
    "EventPriority": 400,
    "UnlockConditions": []
  },
  "108": {
    "EventID": 108,
    "EventTitle": {
      "Hash": -625231840
    },
    "EventFinishTitle": {
      "Hash": -630255553
    },
    "EventShopTitle": {
      "Hash": 75971828
    },
    "EventShopOrder": {
      "Hash": 291353566
    },
    "EventShopFinish": {
      "Hash": 1869166383
    },
    "EventNewOrderTips": {
      "Hash": 1007098554
    },
    "EventShopContent": {
      "Hash": -1300122195
    },
    "StartMissionIDList": [
      8003250
    ],
    "EventType": "Shop",
    "EventPic": "SpriteOutput/Quest/Alley/AlleyMissionImg/AlleyShopBuildingPic_108.png",
    "EventIcon": "SpriteOutput/Quest/Alley/AlleyMapIcon/AlleyMiniShopIcon_108.png",
    "RewardID": 8002001,
    "EventPriority": 300,
    "UnlockConditions": [
      {
        "IPNHJOOMHDM": "AlleyOrderFinish",
        "JNFBEOILKBO": 304
      },
      {
        "IPNHJOOMHDM": "TriggerTiming",
        "JNFBEOILKBO": 2
      }
    ]
  },
  "109": {
    "EventID": 109,
    "EventTitle": {
      "Hash": -625231839
    },
    "EventFinishTitle": {
      "Hash": -630255554
    },
    "EventShopTitle": {
      "Hash": 75971829
    },
    "EventShopOrder": {
      "Hash": 291353567
    },
    "EventShopFinish": {
      "Hash": 303082442
    },
    "EventNewOrderTips": {
      "Hash": -558985387
    },
    "EventShopContent": {
      "Hash": -1300122196
    },
    "StartMissionIDList": [
      8003248
    ],
    "EventType": "Shop",
    "EventPic": "SpriteOutput/Quest/Alley/AlleyMissionImg/AlleyShopBuildingPic_109.png",
    "EventIcon": "SpriteOutput/Quest/Alley/AlleyMapIcon/AlleyMiniShopIcon_109.png",
    "RewardID": 8002001,
    "EventPriority": 200,
    "UnlockConditions": [
      {
        "IPNHJOOMHDM": "AlleyOrderFinish",
        "JNFBEOILKBO": 306
      },
      {
        "IPNHJOOMHDM": "TriggerTiming",
        "JNFBEOILKBO": 2
      }
    ]
  },
  "110": {
    "EventID": 110,
    "EventTitle": {
      "Hash": 940852109
    },
    "EventFinishTitle": {
      "Hash": 935828380
    },
    "EventShopTitle": {
      "Hash": 1642055761
    },
    "EventShopOrder": {
      "Hash": 1857437515
    },
    "EventShopFinish": {
      "Hash": 1512936024
    },
    "EventNewOrderTips": {
      "Hash": 650868193
    },
    "EventShopContent": {
      "Hash": 265961754
    },
    "StartMissionIDList": [
      8003240
    ],
    "EventType": "Shop",
    "EventPic": "SpriteOutput/Quest/Alley/AlleyMissionImg/AlleyShopBuildingPic_110.png",
    "EventIcon": "SpriteOutput/Quest/Alley/AlleyMapIcon/AlleyMiniShopIcon_110.png",
    "RewardID": 8002001,
    "EventPriority": 100,
    "UnlockConditions": [
      {
        "IPNHJOOMHDM": "AlleyOrderFinish",
        "JNFBEOILKBO": 1001
      },
      {
        "IPNHJOOMHDM": "TriggerTiming",
        "JNFBEOILKBO": 2
      }
    ]
  },
  "301": {
    "EventID": 301,
    "EventTitle": {
      "Hash": -625231897
    },
    "EventFinishTitle": {
      "Hash": 371857150
    },
    "EventShopTitle": {
      "Hash": 371857150
    },
    "EventShopOrder": {
      "Hash": 371857150
    },
    "EventShopFinish": {
      "Hash": 371857150
    },
    "EventNewOrderTips": {
      "Hash": 371857150
    },
    "EventShopContent": {
      "Hash": 371857150
    },
    "StartMissionIDList": [
      8003260
    ],
    "EventType": "Daily",
    "EventPic": "",
    "EventIcon": "",
    "EventPriority": 90,
    "UnlockConditions": [],
    "MapEntranceID": 1020204,
    "MappingInfoID": 2326
  },
  "302": {
    "EventID": 302,
    "EventTitle": {
      "Hash": -625231896
    },
    "EventFinishTitle": {
      "Hash": 371857150
    },
    "EventShopTitle": {
      "Hash": 371857150
    },
    "EventShopOrder": {
      "Hash": 371857150
    },
    "EventShopFinish": {
      "Hash": 371857150
    },
    "EventNewOrderTips": {
      "Hash": 371857150
    },
    "EventShopContent": {
      "Hash": 371857150
    },
    "StartMissionIDList": [
      8003261
    ],
    "EventType": "Daily",
    "EventPic": "",
    "EventIcon": "",
    "EventPriority": 80,
    "UnlockConditions": [],
    "MapEntranceID": 1020204,
    "MappingInfoID": 2327
  },
  "303": {
    "EventID": 303,
    "EventTitle": {
      "Hash": -625231895
    },
    "EventFinishTitle": {
      "Hash": 371857150
    },
    "EventShopTitle": {
      "Hash": 371857150
    },
    "EventShopOrder": {
      "Hash": 371857150
    },
    "EventShopFinish": {
      "Hash": 371857150
    },
    "EventNewOrderTips": {
      "Hash": 371857150
    },
    "EventShopContent": {
      "Hash": 371857150
    },
    "StartMissionIDList": [
      8003262
    ],
    "EventType": "Daily",
    "EventPic": "",
    "EventIcon": "",
    "EventPriority": 70,
    "UnlockConditions": [],
    "MapEntranceID": 1020204,
    "MappingInfoID": 2328
  },
  "304": {
    "EventID": 304,
    "EventTitle": {
      "Hash": -625231894
    },
    "EventFinishTitle": {
      "Hash": 371857150
    },
    "EventShopTitle": {
      "Hash": 371857150
    },
    "EventShopOrder": {
      "Hash": 371857150
    },
    "EventShopFinish": {
      "Hash": 371857150
    },
    "EventNewOrderTips": {
      "Hash": 371857150
    },
    "EventShopContent": {
      "Hash": 371857150
    },
    "StartMissionIDList": [
      8003263
    ],
    "EventType": "Daily",
    "EventPic": "",
    "EventIcon": "",
    "EventPriority": 60,
    "UnlockConditions": [],
    "MapEntranceID": 1020204,
    "MappingInfoID": 2329
  },
  "305": {
    "EventID": 305,
    "EventTitle": {
      "Hash": -625231893
    },
    "EventFinishTitle": {
      "Hash": 371857150
    },
    "EventShopTitle": {
      "Hash": 371857150
    },
    "EventShopOrder": {
      "Hash": 371857150
    },
    "EventShopFinish": {
      "Hash": 371857150
    },
    "EventNewOrderTips": {
      "Hash": 371857150
    },
    "EventShopContent": {
      "Hash": 371857150
    },
    "StartMissionIDList": [
      8003264
    ],
    "EventType": "Daily",
    "EventPic": "",
    "EventIcon": "",
    "EventPriority": 50,
    "UnlockConditions": [],
    "MapEntranceID": 1020204,
    "MappingInfoID": 2330
  },
  "306": {
    "EventID": 306,
    "EventTitle": {
      "Hash": -625231892
    },
    "EventFinishTitle": {
      "Hash": 371857150
    },
    "EventShopTitle": {
      "Hash": 371857150
    },
    "EventShopOrder": {
      "Hash": 371857150
    },
    "EventShopFinish": {
      "Hash": 371857150
    },
    "EventNewOrderTips": {
      "Hash": 371857150
    },
    "EventShopContent": {
      "Hash": 371857150
    },
    "StartMissionIDList": [
      8003265
    ],
    "EventType": "Daily",
    "EventPic": "",
    "EventIcon": "",
    "EventPriority": 40,
    "UnlockConditions": [],
    "MapEntranceID": 1020204,
    "MappingInfoID": 2331
  },
  "307": {
    "EventID": 307,
    "EventTitle": {
      "Hash": -625231891
    },
    "EventFinishTitle": {
      "Hash": 371857150
    },
    "EventShopTitle": {
      "Hash": 371857150
    },
    "EventShopOrder": {
      "Hash": 371857150
    },
    "EventShopFinish": {
      "Hash": 371857150
    },
    "EventNewOrderTips": {
      "Hash": 371857150
    },
    "EventShopContent": {
      "Hash": 371857150
    },
    "StartMissionIDList": [
      8003266
    ],
    "EventType": "Daily",
    "EventPic": "",
    "EventIcon": "",
    "EventPriority": 30,
    "UnlockConditions": [],
    "MapEntranceID": 1020204,
    "MappingInfoID": 2332
  },
  "308": {
    "EventID": 308,
    "EventTitle": {
      "Hash": -625231906
    },
    "EventFinishTitle": {
      "Hash": 371857150
    },
    "EventShopTitle": {
      "Hash": 371857150
    },
    "EventShopOrder": {
      "Hash": 371857150
    },
    "EventShopFinish": {
      "Hash": 371857150
    },
    "EventNewOrderTips": {
      "Hash": 371857150
    },
    "EventShopContent": {
      "Hash": 371857150
    },
    "StartMissionIDList": [
      8003267
    ],
    "EventType": "Daily",
    "EventPic": "",
    "EventIcon": "",
    "EventPriority": 20,
    "UnlockConditions": [],
    "MapEntranceID": 1020204,
    "MappingInfoID": 2333
  },
  "309": {
    "EventID": 309,
    "EventTitle": {
      "Hash": -625231905
    },
    "EventFinishTitle": {
      "Hash": 371857150
    },
    "EventShopTitle": {
      "Hash": 371857150
    },
    "EventShopOrder": {
      "Hash": 371857150
    },
    "EventShopFinish": {
      "Hash": 371857150
    },
    "EventNewOrderTips": {
      "Hash": 371857150
    },
    "EventShopContent": {
      "Hash": 371857150
    },
    "StartMissionIDList": [
      8003269
    ],
    "EventType": "Daily",
    "EventPic": "",
    "EventIcon": "",
    "EventPriority": 10,
    "UnlockConditions": [],
    "MapEntranceID": 1020204,
    "MappingInfoID": 2334
  },
  "311": {
    "EventID": 311,
    "EventTitle": {
      "Hash": 940852044
    },
    "EventFinishTitle": {
      "Hash": 371857150
    },
    "EventShopTitle": {
      "Hash": 371857150
    },
    "EventShopOrder": {
      "Hash": 371857150
    },
    "EventShopFinish": {
      "Hash": 371857150
    },
    "EventNewOrderTips": {
      "Hash": 371857150
    },
    "EventShopContent": {
      "Hash": 265961687
    },
    "StartMissionIDList": [
      8003280
    ],
    "EventType": "Shop",
    "EventPic": "",
    "EventIcon": "",
    "EventPriority": 750,
    "UnlockConditions": [
      {
        "IPNHJOOMHDM": "AlleyOrderFinish",
        "JNFBEOILKBO": 106
      },
      {
        "IPNHJOOMHDM": "TriggerTiming",
        "JNFBEOILKBO": 2
      }
    ]
  }
}