{
  "70001": {
    "UnlockID": 70001,
    "Conditions": [
      {
        "Type": "FinishMainMission",
        "Param": "1011403"
      }
    ],
    "ShowCondition": []
  },
  "70002": {
    "UnlockID": 70002,
    "Conditions": [
      {
        "Type": "FinishMainMission",
        "Param": "1021501"
      }
    ],
    "ShowCondition": []
  },
  "70003": {
    "UnlockID": 70003,
    "Conditions": [
      {
        "Type": "FinishMainMission",
        "Param": "1011403"
      }
    ],
    "ShowCondition": []
  },
  "70004": {
    "UnlockID": 70004,
    "Conditions": [
      {
        "Type": "FinishMainMission",
        "Param": "1011503"
      }
    ],
    "ShowCondition": []
  },
  "70005": {
    "UnlockID": 70005,
    "Conditions": [
      {
        "Type": "FinishMainMission",
        "Param": "4050005"
      }
    ],
    "ShowCondition": []
  },
  "70006": {
    "UnlockID": 70006,
    "Conditions": [
      {
        "Type": "FinishMainMission",
        "Param": "1000503"
      }
    ],
    "ShowCondition": []
  },
  "70007": {
    "UnlockID": 70007,
    "Conditions": [
      {
        "Type": "FinishMainMission",
        "Param": "2000704"
      }
    ],
    "ShowCondition": []
  },
  "70008": {
    "UnlockID": 70008,
    "Conditions": [
      {
        "Type": "FinishMainMission",
        "Param": "2000202"
      }
    ],
    "ShowCondition": []
  },
  "70009": {
    "UnlockID": 70009,
    "Conditions": [
      {
        "Type": "FinishMainMission",
        "Param": "2010203"
      }
    ],
    "ShowCondition": []
  },
  "70010": {
    "UnlockID": 70010,
    "Conditions": [
      {
        "Type": "FinishMainMission",
        "Param": "1021702"
      }
    ],
    "ShowCondition": []
  },
  "79900": {
    "UnlockID": 79900,
    "Conditions": [
      {
        "Type": "FinishMainMission",
        "Param": "8015104"
      }
    ],
    "ShowCondition": []
  },
  "79901": {
    "UnlockID": 79901,
    "Conditions": [
      {
        "Type": "FinishMainMission",
        "Param": "2021001"
      }
    ],
    "ShowCondition": []
  },
  "79902": {
    "UnlockID": 79902,
    "Conditions": [
      {
        "Type": "FinishMainMission",
        "Param": "6020101"
      }
    ],
    "ShowCondition": []
  },
  "79903": {
    "UnlockID": 79903,
    "Conditions": [
      {
        "Type": "FinishMainMission",
        "Param": "2020501"
      }
    ],
    "ShowCondition": []
  },
  "79904": {
    "UnlockID": 79904,
    "Conditions": [
      {
        "Type": "FinishMainMission",
        "Param": "2000801"
      }
    ],
    "ShowCondition": []
  },
  "70011": {
    "UnlockID": 70011,
    "Conditions": [
      {
        "Type": "AvatarLevel",
        "Param": "20"
      }
    ],
    "ShowCondition": []
  },
  "70012": {
    "UnlockID": 70012,
    "Conditions": [
      {
        "Type": "AvatarLevel",
        "Param": "40"
      }
    ],
    "ShowCondition": []
  },
  "70013": {
    "UnlockID": 70013,
    "Conditions": [
      {
        "Type": "AvatarLevel",
        "Param": "60"
      }
    ],
    "ShowCondition": []
  },
  "70014": {
    "UnlockID": 70014,
    "Conditions": [
      {
        "Type": "AvatarLevel",
        "Param": "80"
      }
    ],
    "ShowCondition": []
  },
  "70015": {
    "UnlockID": 70015,
    "Conditions": [
      {
        "Type": "FinishMainMission",
        "Param": "1032101"
      }
    ],
    "ShowCondition": []
  },
  "70016": {
    "UnlockID": 70016,
    "Conditions": [
      {
        "Type": "FinishMainMission",
        "Param": "1033101"
      }
    ],
    "ShowCondition": []
  },
  "70017": {
    "UnlockID": 70017,
    "Conditions": [
      {
        "Type": "FinishSubMission",
        "Param": "103280102"
      }
    ],
    "ShowCondition": []
  }
}