{
  "mar7th": {
    "VOTag": "mar7th",
    "ActionBegin": 100,
    "ActionBeginAdvantage": 100,
    "ActionBeginHighThreat": 100,
    "ReceiveHealing": 100,
    "Revived": 100,
    "UltraReady": 100,
    "LightHit": 100,
    "StandBy": 100
  },
  "danheng": {
    "VOTag": "danheng",
    "ActionBegin": 100,
    "ActionBeginAdvantage": 100,
    "ActionBeginHighThreat": 100,
    "ReceiveHealing": 100,
    "Revived": 100,
    "UltraReady": 100,
    "LightHit": 100,
    "StandBy": 100
  },
  "himeko": {
    "VOTag": "himeko",
    "ActionBegin": 100,
    "ActionBeginAdvantage": 100,
    "ActionBeginHighThreat": 100,
    "ReceiveHealing": 100,
    "Revived": 100,
    "UltraReady": 100,
    "LightHit": 100,
    "StandBy": 100
  },
  "welt": {
    "VOTag": "welt",
    "ActionBegin": 100,
    "ActionBeginAdvantage": 100,
    "ActionBeginHighThreat": 100,
    "ReceiveHealing": 100,
    "Revived": 100,
    "UltraReady": 100,
    "LightHit": 100,
    "StandBy": 100
  },
  "asta": {
    "VOTag": "asta",
    "ActionBegin": 100,
    "ActionBeginAdvantage": 100,
    "ActionBeginHighThreat": 100,
    "ReceiveHealing": 100,
    "Revived": 100,
    "UltraReady": 100,
    "LightHit": 100,
    "StandBy": 100
  },
  "bronya": {
    "VOTag": "bronya",
    "ActionBegin": 100,
    "ActionBeginAdvantage": 100,
    "ActionBeginHighThreat": 100,
    "ReceiveHealing": 100,
    "Revived": 100,
    "UltraReady": 100,
    "LightHit": 100,
    "StandBy": 100
  },
  "seele": {
    "VOTag": "seele",
    "ActionBegin": 100,
    "ActionBeginAdvantage": 100,
    "ActionBeginHighThreat": 100,
    "ReceiveHealing": 100,
    "Revived": 100,
    "UltraReady": 100,
    "LightHit": 100,
    "StandBy": 100
  },
  "gepard": {
    "VOTag": "gepard",
    "ActionBegin": 100,
    "ActionBeginAdvantage": 100,
    "ActionBeginHighThreat": 100,
    "ReceiveHealing": 100,
    "Revived": 100,
    "UltraReady": 100,
    "LightHit": 100,
    "StandBy": 100
  },
  "natasha": {
    "VOTag": "natasha",
    "ActionBegin": 100,
    "ActionBeginAdvantage": 100,
    "ActionBeginHighThreat": 100,
    "ReceiveHealing": 100,
    "Revived": 100,
    "UltraReady": 100,
    "LightHit": 100,
    "StandBy": 100
  },
  "pela": {
    "VOTag": "pela",
    "ActionBegin": 100,
    "ActionBeginAdvantage": 100,
    "ActionBeginHighThreat": 100,
    "ReceiveHealing": 100,
    "Revived": 100,
    "UltraReady": 100,
    "LightHit": 100,
    "StandBy": 100
  },
  "clara": {
    "VOTag": "clara",
    "ActionBegin": 100,
    "ActionBeginAdvantage": 100,
    "ActionBeginHighThreat": 100,
    "ReceiveHealing": 100,
    "Revived": 100,
    "UltraReady": 100,
    "LightHit": 100,
    "StandBy": 100
  },
  "sampo": {
    "VOTag": "sampo",
    "ActionBegin": 100,
    "ActionBeginAdvantage": 100,
    "ActionBeginHighThreat": 100,
    "ReceiveHealing": 100,
    "Revived": 100,
    "UltraReady": 100,
    "LightHit": 100,
    "StandBy": 100
  },
  "hook": {
    "VOTag": "hook",
    "ActionBegin": 100,
    "ActionBeginAdvantage": 100,
    "ActionBeginHighThreat": 100,
    "ReceiveHealing": 100,
    "Revived": 100,
    "UltraReady": 100,
    "LightHit": 100,
    "StandBy": 100
  },
  "serval": {
    "VOTag": "serval",
    "ActionBegin": 100,
    "ActionBeginAdvantage": 100,
    "ActionBeginHighThreat": 100,
    "ReceiveHealing": 100,
    "Revived": 100,
    "UltraReady": 100,
    "LightHit": 100,
    "StandBy": 100
  },
  "kafka": {
    "VOTag": "kafka",
    "ActionBegin": 100,
    "ActionBeginAdvantage": 100,
    "ActionBeginHighThreat": 100,
    "ReceiveHealing": 100,
    "Revived": 100,
    "UltraReady": 100,
    "LightHit": 100,
    "StandBy": 100
  },
  "silverwolf": {
    "VOTag": "silverwolf",
    "ActionBegin": 100,
    "ActionBeginAdvantage": 100,
    "ActionBeginHighThreat": 100,
    "ReceiveHealing": 100,
    "Revived": 100,
    "UltraReady": 100,
    "LightHit": 100,
    "StandBy": 100
  },
  "arlan": {
    "VOTag": "arlan",
    "ActionBegin": 100,
    "ActionBeginAdvantage": 100,
    "ActionBeginHighThreat": 100,
    "ReceiveHealing": 100,
    "Revived": 100,
    "UltraReady": 100,
    "LightHit": 100,
    "StandBy": 100
  },
  "herta": {
    "VOTag": "herta",
    "ActionBegin": 100,
    "ActionBeginAdvantage": 100,
    "ActionBeginHighThreat": 100,
    "ReceiveHealing": 100,
    "Revived": 100,
    "UltraReady": 100,
    "LightHit": 100,
    "StandBy": 100
  },
  "playerboy": {
    "VOTag": "playerboy",
    "ActionBegin": 100,
    "ActionBeginAdvantage": 100,
    "ActionBeginHighThreat": 100,
    "ReceiveHealing": 100,
    "Revived": 100,
    "LightHit": 100,
    "StandBy": 100
  },
  "playergirl": {
    "VOTag": "playergirl",
    "ActionBegin": 100,
    "ActionBeginAdvantage": 100,
    "ActionBeginHighThreat": 100,
    "ReceiveHealing": 100,
    "Revived": 100,
    "LightHit": 100,
    "StandBy": 100
  },
  "playerboy2": {
    "VOTag": "playerboy2",
    "ActionBegin": 100,
    "ActionBeginAdvantage": 100,
    "ActionBeginHighThreat": 100,
    "ReceiveHealing": 100,
    "Revived": 100,
    "UltraReady": 100,
    "LightHit": 100,
    "StandBy": 100
  },
  "playergirl2": {
    "VOTag": "playergirl2",
    "ActionBegin": 100,
    "ActionBeginAdvantage": 100,
    "ActionBeginHighThreat": 100,
    "ReceiveHealing": 100,
    "Revived": 100,
    "UltraReady": 100,
    "LightHit": 100,
    "StandBy": 100
  },
  "luocha": {
    "VOTag": "luocha",
    "ActionBegin": 100,
    "ActionBeginAdvantage": 100,
    "ActionBeginHighThreat": 100,
    "ReceiveHealing": 100,
    "Revived": 100,
    "UltraReady": 100,
    "LightHit": 100,
    "StandBy": 100
  },
  "jingyuan": {
    "VOTag": "jingyuan",
    "ActionBegin": 100,
    "ActionBeginAdvantage": 100,
    "ActionBeginHighThreat": 100,
    "ReceiveHealing": 100,
    "Revived": 100,
    "UltraReady": 100,
    "LightHit": 100,
    "StandBy": 100
  },
  "blade": {
    "VOTag": "blade",
    "ActionBegin": 100,
    "ActionBeginAdvantage": 100,
    "ActionBeginHighThreat": 100,
    "ReceiveHealing": 100,
    "Revived": 100,
    "UltraReady": 100,
    "LightHit": 100,
    "StandBy": 100
  },
  "sushang": {
    "VOTag": "sushang",
    "ActionBegin": 100,
    "ActionBeginAdvantage": 100,
    "ActionBeginHighThreat": 100,
    "ReceiveHealing": 100,
    "Revived": 100,
    "UltraReady": 100,
    "LightHit": 100,
    "StandBy": 100
  },
  "fuxuan": {
    "VOTag": "fuxuan",
    "ActionBegin": 100,
    "ActionBeginAdvantage": 100,
    "ActionBeginHighThreat": 100,
    "ReceiveHealing": 100,
    "Revived": 100,
    "UltraReady": 100,
    "LightHit": 100,
    "StandBy": 100
  },
  "tingyun": {
    "VOTag": "tingyun",
    "ActionBegin": 100,
    "ActionBeginAdvantage": 100,
    "ActionBeginHighThreat": 100,
    "ReceiveHealing": 100,
    "Revived": 100,
    "UltraReady": 100,
    "LightHit": 100,
    "StandBy": 100
  },
  "qingque": {
    "VOTag": "qingque",
    "ActionBegin": 100,
    "ActionBeginAdvantage": 100,
    "ActionBeginHighThreat": 100,
    "ReceiveHealing": 100,
    "Revived": 100,
    "UltraReady": 100,
    "LightHit": 100,
    "StandBy": 100
  },
  "yanqing": {
    "VOTag": "yanqing",
    "ActionBegin": 100,
    "ActionBeginAdvantage": 100,
    "ActionBeginHighThreat": 100,
    "ReceiveHealing": 100,
    "Revived": 100,
    "UltraReady": 100,
    "LightHit": 100,
    "StandBy": 100
  },
  "yukong": {
    "VOTag": "yukong",
    "ActionBegin": 100,
    "ActionBeginAdvantage": 100,
    "ActionBeginHighThreat": 100,
    "ReceiveHealing": 100,
    "Revived": 100,
    "UltraReady": 100,
    "LightHit": 100,
    "StandBy": 100
  },
  "bailu": {
    "VOTag": "bailu",
    "ActionBegin": 100,
    "ActionBeginAdvantage": 100,
    "ActionBeginHighThreat": 100,
    "ReceiveHealing": 100,
    "Revived": 100,
    "UltraReady": 100,
    "LightHit": 100,
    "StandBy": 100
  },
  "xueyi": {
    "VOTag": "xueyi",
    "ActionBegin": 100,
    "ActionBeginAdvantage": 100,
    "ActionBeginHighThreat": 100,
    "ReceiveHealing": 100,
    "Revived": 100,
    "UltraReady": 100,
    "LightHit": 100,
    "StandBy": 100
  },
  "lynx": {
    "VOTag": "lynx",
    "ActionBegin": 100,
    "ActionBeginAdvantage": 100,
    "ActionBeginHighThreat": 100,
    "ReceiveHealing": 100,
    "Revived": 100,
    "UltraReady": 100,
    "LightHit": 100,
    "StandBy": 100
  },
  "jingliu": {
    "VOTag": "jingliu",
    "ActionBegin": 100,
    "ActionBeginAdvantage": 100,
    "ActionBeginHighThreat": 100,
    "ReceiveHealing": 100,
    "Revived": 100,
    "UltraReady": 100,
    "LightHit": 100,
    "StandBy": 100
  },
  "argenti": {
    "VOTag": "argenti",
    "ActionBegin": 100,
    "ActionBeginAdvantage": 100,
    "ActionBeginHighThreat": 100,
    "ReceiveHealing": 100,
    "Revived": 100,
    "UltraReady": 100,
    "LightHit": 100,
    "StandBy": 100
  },
  "danhengil": {
    "VOTag": "danhengil",
    "ActionBegin": 100,
    "ActionBeginAdvantage": 100,
    "ActionBeginHighThreat": 100,
    "ReceiveHealing": 100,
    "Revived": 100,
    "UltraReady": 100,
    "LightHit": 100,
    "StandBy": 100
  },
  "luka": {
    "VOTag": "luka",
    "ActionBegin": 100,
    "ActionBeginAdvantage": 100,
    "ActionBeginHighThreat": 100,
    "ReceiveHealing": 100,
    "Revived": 100,
    "UltraReady": 100,
    "LightHit": 100,
    "StandBy": 100
  },
  "topaz": {
    "VOTag": "topaz",
    "ActionBegin": 100,
    "ActionBeginAdvantage": 100,
    "ActionBeginHighThreat": 100,
    "ReceiveHealing": 100,
    "Revived": 100,
    "UltraReady": 100,
    "LightHit": 100,
    "StandBy": 100
  },
  "huohuo": {
    "VOTag": "huohuo",
    "ActionBegin": 100,
    "ActionBeginAdvantage": 100,
    "ActionBeginHighThreat": 100,
    "ReceiveHealing": 100,
    "Revived": 100,
    "UltraReady": 100,
    "LightHit": 100,
    "StandBy": 100
  },
  "guinaifen": {
    "VOTag": "guinaifen",
    "ActionBegin": 100,
    "ActionBeginAdvantage": 100,
    "ActionBeginHighThreat": 100,
    "ReceiveHealing": 100,
    "Revived": 100,
    "UltraReady": 100,
    "LightHit": 100,
    "StandBy": 100
  },
  "drratio": {
    "VOTag": "drratio",
    "ActionBegin": 100,
    "ActionBeginAdvantage": 100,
    "ActionBeginHighThreat": 100,
    "ReceiveHealing": 100,
    "Revived": 100,
    "UltraReady": 100,
    "LightHit": 100,
    "StandBy": 100
  },
  "acheron": {
    "VOTag": "acheron",
    "ActionBegin": 100,
    "ActionBeginAdvantage": 100,
    "ActionBeginHighThreat": 100,
    "ReceiveHealing": 100,
    "Revived": 100,
    "LightHit": 100,
    "StandBy": 100
  },
  "hanya": {
    "VOTag": "hanya",
    "ActionBegin": 100,
    "ActionBeginAdvantage": 100,
    "ActionBeginHighThreat": 100,
    "ReceiveHealing": 100,
    "Revived": 100,
    "UltraReady": 100,
    "LightHit": 100,
    "StandBy": 100
  },
  "test": {
    "VOTag": "test"
  },
  "ruanmei": {
    "VOTag": "ruanmei",
    "ActionBegin": 100,
    "ActionBeginAdvantage": 100,
    "ActionBeginHighThreat": 100,
    "ReceiveHealing": 100,
    "Revived": 100,
    "UltraReady": 100,
    "LightHit": 100,
    "StandBy": 100
  },
  "sparkle": {
    "VOTag": "sparkle",
    "ActionBegin": 100,
    "ActionBeginAdvantage": 100,
    "ActionBeginHighThreat": 100,
    "ReceiveHealing": 100,
    "Revived": 100,
    "UltraReady": 100,
    "LightHit": 100,
    "StandBy": 100
  },
  "blackswan": {
    "VOTag": "blackswan",
    "ActionBegin": 100,
    "ActionBeginAdvantage": 100,
    "ActionBeginHighThreat": 100,
    "ReceiveHealing": 100,
    "Revived": 100,
    "UltraReady": 100,
    "LightHit": 100,
    "StandBy": 100
  },
  "misha": {
    "VOTag": "misha",
    "ActionBegin": 100,
    "ActionBeginAdvantage": 100,
    "ActionBeginHighThreat": 100,
    "ReceiveHealing": 100,
    "Revived": 100,
    "UltraReady": 100,
    "LightHit": 100,
    "StandBy": 100
  },
  "aventurine": {
    "VOTag": "aventurine",
    "ActionBegin": 100,
    "ActionBeginAdvantage": 100,
    "ActionBeginHighThreat": 100,
    "ReceiveHealing": 100,
    "Revived": 100,
    "UltraReady": 100,
    "LightHit": 100,
    "StandBy": 100
  },
  "gallagher": {
    "VOTag": "gallagher",
    "ActionBegin": 100,
    "ActionBeginAdvantage": 100,
    "ActionBeginHighThreat": 100,
    "ReceiveHealing": 100,
    "Revived": 100,
    "UltraReady": 100,
    "LightHit": 100,
    "StandBy": 100
  },
  "boothill": {
    "VOTag": "boothill",
    "ActionBegin": 100,
    "ActionBeginAdvantage": 100,
    "ActionBeginHighThreat": 100,
    "ReceiveHealing": 100,
    "Revived": 100,
    "UltraReady": 100,
    "LightHit": 100,
    "StandBy": 100
  },
  "playerboy3": {
    "VOTag": "playerboy3",
    "ActionBegin": 100,
    "ActionBeginAdvantage": 100,
    "ActionBeginHighThreat": 100,
    "ReceiveHealing": 100,
    "Revived": 100,
    "UltraReady": 100,
    "LightHit": 100,
    "StandBy": 100
  },
  "playergirl3": {
    "VOTag": "playergirl3",
    "ActionBegin": 100,
    "ActionBeginAdvantage": 100,
    "ActionBeginHighThreat": 100,
    "ReceiveHealing": 100,
    "Revived": 100,
    "UltraReady": 100,
    "LightHit": 100,
    "StandBy": 100
  },
  "robin": {
    "VOTag": "robin",
    "ActionBegin": 100,
    "ActionBeginAdvantage": 100,
    "ActionBeginHighThreat": 100,
    "ReceiveHealing": 100,
    "Revived": 100,
    "UltraReady": 100,
    "LightHit": 100,
    "StandBy": 100
  }
}