{
  "311020": {
    "0": {
      "StageID": 311020,
      "Index": 0,
      "AvatarDemoIntroduction": {
        "Hash": 1453245220
      }
    },
    "1": {
      "StageID": 311020,
      "Index": 1,
      "AvatarDemoIntroduction": {
        "Hash": 1453245221
      }
    }
  },
  "311050": {
    "0": {
      "StageID": 311050,
      "Index": 0,
      "AvatarDemoIntroduction": {
        "Hash": 915446407
      }
    },
    "1": {
      "StageID": 311050,
      "Index": 1,
      "AvatarDemoIntroduction": {
        "Hash": 915446408
      }
    }
  },
  "311060": {
    "0": {
      "StageID": 311060,
      "Index": 0,
      "AvatarDemoIntroduction": {
        "Hash": 532364856
      }
    },
    "1": {
      "StageID": 311060,
      "Index": 1,
      "AvatarDemoIntroduction": {
        "Hash": 532364857
      }
    },
    "2": {
      "StageID": 311060,
      "Type": 1,
      "Index": 2,
      "AvatarDemoIntroduction": {
        "Hash": 532364858
      }
    }
  },
  "311061": {
    "0": {
      "StageID": 311061,
      "Index": 0,
      "AvatarDemoIntroduction": {
        "Hash": 532364825
      }
    },
    "1": {
      "StageID": 311061,
      "Index": 1,
      "AvatarDemoIntroduction": {
        "Hash": 532364824
      }
    }
  },
  "311090": {
    "0": {
      "StageID": 311090,
      "Index": 0,
      "AvatarDemoIntroduction": {
        "Hash": -616879797
      }
    },
    "1": {
      "StageID": 311090,
      "Index": 1,
      "AvatarDemoIntroduction": {
        "Hash": -616879796
      }
    }
  },
  "312040": {
    "0": {
      "StageID": 312040,
      "Index": 0,
      "AvatarDemoIntroduction": {
        "Hash": 410888669
      }
    },
    "1": {
      "StageID": 312040,
      "Index": 1,
      "AvatarDemoIntroduction": {
        "Hash": 410888670
      }
    }
  },
  "311030": {
    "0": {
      "StageID": 311030,
      "Index": 0,
      "AvatarDemoIntroduction": {
        "Hash": 1554001769
      }
    },
    "1": {
      "StageID": 311030,
      "Index": 1,
      "AvatarDemoIntroduction": {
        "Hash": 1554001770
      }
    }
  },
  "311031": {
    "0": {
      "StageID": 311031,
      "Index": 0,
      "AvatarDemoIntroduction": {
        "Hash": 1554001738
      }
    },
    "1": {
      "StageID": 311031,
      "Index": 1,
      "AvatarDemoIntroduction": {
        "Hash": 1554001737
      }
    }
  },
  "312020": {
    "0": {
      "StageID": 312020,
      "Index": 0,
      "AvatarDemoIntroduction": {
        "Hash": 1614094035
      }
    },
    "1": {
      "StageID": 312020,
      "Index": 1,
      "AvatarDemoIntroduction": {
        "Hash": 1614094036
      }
    }
  },
  "312060": {
    "0": {
      "StageID": 312060,
      "Index": 0,
      "AvatarDemoIntroduction": {
        "Hash": 693213671
      }
    }
  },
  "310010": {
    "0": {
      "StageID": 310010,
      "Index": 0,
      "AvatarDemoIntroduction": {
        "Hash": -416658354
      }
    },
    "1": {
      "StageID": 310010,
      "Index": 1,
      "AvatarDemoIntroduction": {
        "Hash": -416658353
      }
    }
  },
  "310060": {
    "0": {
      "StageID": 310060,
      "Index": 0,
      "AvatarDemoIntroduction": {
        "Hash": -1438295267
      }
    },
    "1": {
      "StageID": 310060,
      "Index": 1,
      "AvatarDemoIntroduction": {
        "Hash": -1438295266
      }
    },
    "2": {
      "StageID": 310060,
      "Index": 2,
      "AvatarDemoIntroduction": {
        "Hash": -1438295265
      }
    }
  },
  "312030": {
    "0": {
      "StageID": 312030,
      "Index": 0,
      "AvatarDemoIntroduction": {
        "Hash": -1376911346
      }
    },
    "1": {
      "StageID": 312030,
      "Index": 1,
      "AvatarDemoIntroduction": {
        "Hash": -1376911345
      }
    },
    "2": {
      "StageID": 312030,
      "Index": 2,
      "AvatarDemoIntroduction": {
        "Hash": -1376911344
      }
    }
  },
  "312070": {
    "0": {
      "StageID": 312070,
      "Index": 0,
      "AvatarDemoIntroduction": {
        "Hash": 1997175586
      }
    },
    "1": {
      "StageID": 312070,
      "Index": 1,
      "AvatarDemoIntroduction": {
        "Hash": 1997175587
      }
    }
  },
  "310091": {
    "0": {
      "StageID": 310091,
      "Index": 0,
      "AvatarDemoIntroduction": {
        "Hash": 1425102343
      }
    },
    "1": {
      "StageID": 310091,
      "Index": 1,
      "AvatarDemoIntroduction": {
        "Hash": 1425102342
      }
    }
  },
  "310020": {
    "0": {
      "StageID": 310020,
      "Index": 0,
      "AvatarDemoIntroduction": {
        "Hash": -517414903
      }
    },
    "1": {
      "StageID": 310020,
      "Index": 1,
      "AvatarDemoIntroduction": {
        "Hash": -517414902
      }
    }
  },
  "312010": {
    "0": {
      "StageID": 312010,
      "Index": 0,
      "AvatarDemoIntroduction": {
        "Hash": -1659236348
      }
    },
    "1": {
      "StageID": 312010,
      "Index": 1,
      "AvatarDemoIntroduction": {
        "Hash": -1659236347
      }
    }
  },
  "312050": {
    "0": {
      "StageID": 312050,
      "Index": 0,
      "AvatarDemoIntroduction": {
        "Hash": 1714850584
      }
    },
    "1": {
      "StageID": 312050,
      "Index": 1,
      "AvatarDemoIntroduction": {
        "Hash": 1714850585
      }
    }
  },
  "310080": {
    "0": {
      "StageID": 310080,
      "Index": 0,
      "AvatarDemoIntroduction": {
        "Hash": 121140459
      }
    },
    "1": {
      "StageID": 310080,
      "Index": 1,
      "AvatarDemoIntroduction": {
        "Hash": 121140460
      }
    }
  },
  "311052": {
    "0": {
      "StageID": 311052,
      "Index": 0,
      "AvatarDemoIntroduction": {
        "Hash": 915446473
      }
    },
    "1": {
      "StageID": 311052,
      "Index": 1,
      "AvatarDemoIntroduction": {
        "Hash": 915446474
      }
    }
  },
  "312061": {
    "0": {
      "StageID": 312061,
      "Index": 0,
      "AvatarDemoIntroduction": {
        "Hash": 693213640
      }
    },
    "1": {
      "StageID": 312061,
      "Index": 1,
      "AvatarDemoIntroduction": {
        "Hash": 693213639
      }
    }
  },
  "310050": {
    "0": {
      "StageID": 310050,
      "Index": 0,
      "AvatarDemoIntroduction": {
        "Hash": -1337538718
      }
    },
    "1": {
      "StageID": 310050,
      "Index": 1,
      "AvatarDemoIntroduction": {
        "Hash": -1337538717
      }
    }
  },
  "311110": {
    "0": {
      "StageID": 311110,
      "Index": 0,
      "AvatarDemoIntroduction": {
        "Hash": 1836329972
      }
    },
    "1": {
      "StageID": 311110,
      "Index": 1,
      "AvatarDemoIntroduction": {
        "Hash": 1836329971
      }
    }
  },
  "311080": {
    "0": {
      "StageID": 311080,
      "Index": 0,
      "AvatarDemoIntroduction": {
        "Hash": 2091800582
      }
    },
    "1": {
      "StageID": 311080,
      "Index": 1,
      "AvatarDemoIntroduction": {
        "Hash": 2091800583
      }
    }
  },
  "310030": {
    "0": {
      "StageID": 310030,
      "Index": 0,
      "AvatarDemoIntroduction": {
        "Hash": 786547012
      }
    },
    "1": {
      "StageID": 310030,
      "Index": 1,
      "AvatarDemoIntroduction": {
        "Hash": 786547013
      }
    }
  },
  "310040": {
    "0": {
      "StageID": 310040,
      "Index": 0,
      "AvatarDemoIntroduction": {
        "Hash": 1653466663
      }
    },
    "1": {
      "StageID": 310040,
      "Index": 1,
      "AvatarDemoIntroduction": {
        "Hash": 1653466664
      }
    },
    "2": {
      "StageID": 310040,
      "Index": 2,
      "AvatarDemoIntroduction": {
        "Hash": 1653466665
      }
    }
  },
  "311010": {
    "0": {
      "StageID": 311010,
      "Index": 0,
      "AvatarDemoIntroduction": {
        "Hash": 1836326771
      }
    },
    "1": {
      "StageID": 311010,
      "Index": 1,
      "AvatarDemoIntroduction": {
        "Hash": 1836326772
      }
    },
    "2": {
      "StageID": 311010,
      "Index": 2,
      "AvatarDemoIntroduction": {
        "Hash": 1836326773
      }
    }
  },
  "311040": {
    "0": {
      "StageID": 311040,
      "Index": 0,
      "AvatarDemoIntroduction": {
        "Hash": -670840510
      }
    },
    "1": {
      "StageID": 311040,
      "Index": 1,
      "AvatarDemoIntroduction": {
        "Hash": -670840509
      }
    },
    "2": {
      "StageID": 311040,
      "Index": 2,
      "AvatarDemoIntroduction": {
        "Hash": -670840508
      }
    }
  },
  "311070": {
    "0": {
      "StageID": 311070,
      "Index": 0,
      "AvatarDemoIntroduction": {
        "Hash": 633121405
      }
    },
    "1": {
      "StageID": 311070,
      "Index": 1,
      "AvatarDemoIntroduction": {
        "Hash": 633121406
      }
    },
    "2": {
      "StageID": 311070,
      "Index": 2,
      "AvatarDemoIntroduction": {
        "Hash": 633121407
      }
    }
  },
  "312090": {
    "0": {
      "StageID": 312090,
      "Index": 0,
      "AvatarDemoIntroduction": {
        "Hash": 182524380
      }
    },
    "1": {
      "StageID": 312090,
      "Index": 1,
      "AvatarDemoIntroduction": {
        "Hash": 182524381
      }
    }
  },
  "312110": {
    "0": {
      "StageID": 312110,
      "Index": 0,
      "AvatarDemoIntroduction": {
        "Hash": -1659233147
      }
    },
    "1": {
      "StageID": 312110,
      "Index": 1,
      "AvatarDemoIntroduction": {
        "Hash": -1659233148
      }
    }
  },
  "310011": {
    "0": {
      "StageID": 310011,
      "Index": 0,
      "AvatarDemoIntroduction": {
        "Hash": -416658385
      }
    },
    "1": {
      "StageID": 310011,
      "Index": 1,
      "AvatarDemoIntroduction": {
        "Hash": -416658386
      }
    },
    "2": {
      "StageID": 310011,
      "Index": 2,
      "AvatarDemoIntroduction": {
        "Hash": -416658383
      }
    }
  },
  "311091": {
    "0": {
      "StageID": 311091,
      "Index": 0,
      "AvatarDemoIntroduction": {
        "Hash": -616879828
      }
    },
    "1": {
      "StageID": 311091,
      "Index": 1,
      "AvatarDemoIntroduction": {
        "Hash": -616879829
      }
    }
  },
  "312130": {
    "0": {
      "StageID": 312130,
      "Index": 0,
      "AvatarDemoIntroduction": {
        "Hash": -1376908145
      }
    },
    "1": {
      "StageID": 312130,
      "Index": 1,
      "AvatarDemoIntroduction": {
        "Hash": -1376908146
      }
    },
    "2": {
      "StageID": 312130,
      "Index": 2,
      "AvatarDemoIntroduction": {
        "Hash": -1376908143
      }
    }
  },
  "312080": {
    "0": {
      "StageID": 312080,
      "Index": 0,
      "AvatarDemoIntroduction": {
        "Hash": -1121437535
      }
    },
    "1": {
      "StageID": 312080,
      "Index": 1,
      "AvatarDemoIntroduction": {
        "Hash": -1121437534
      }
    },
    "2": {
      "StageID": 312080,
      "Index": 2,
      "AvatarDemoIntroduction": {
        "Hash": -1121437533
      }
    }
  },
  "311100": {
    "0": {
      "StageID": 311100,
      "Index": 0,
      "AvatarDemoIntroduction": {
        "Hash": 250043055
      }
    },
    "1": {
      "StageID": 311100,
      "Index": 1,
      "AvatarDemoIntroduction": {
        "Hash": 250043054
      }
    }
  },
  "312100": {
    "0": {
      "StageID": 312100,
      "Index": 0,
      "AvatarDemoIntroduction": {
        "Hash": 1331772234
      }
    },
    "1": {
      "StageID": 312100,
      "Index": 1,
      "AvatarDemoIntroduction": {
        "Hash": 1331772233
      }
    }
  },
  "312120": {
    "0": {
      "StageID": 312120,
      "Index": 0,
      "AvatarDemoIntroduction": {
        "Hash": 1614097236
      }
    },
    "1": {
      "StageID": 312120,
      "Index": 1,
      "AvatarDemoIntroduction": {
        "Hash": 1614097235
      }
    }
  },
  "311120": {
    "0": {
      "StageID": 311120,
      "Index": 0,
      "AvatarDemoIntroduction": {
        "Hash": 1453248421
      }
    },
    "1": {
      "StageID": 311120,
      "Index": 1,
      "AvatarDemoIntroduction": {
        "Hash": 1453248420
      }
    },
    "2": {
      "StageID": 311120,
      "Index": 2,
      "AvatarDemoIntroduction": {
        "Hash": 1453248423
      }
    }
  },
  "311024": {
    "0": {
      "StageID": 311024,
      "Index": 0,
      "AvatarDemoIntroduction": {
        "Hash": 1453245088
      }
    },
    "1": {
      "StageID": 311024,
      "Index": 1,
      "AvatarDemoIntroduction": {
        "Hash": 1453245089
      }
    },
    "2": {
      "StageID": 311024,
      "Index": 2,
      "AvatarDemoIntroduction": {
        "Hash": 1453245090
      }
    }
  },
  "312170": {
    "0": {
      "StageID": 312170,
      "Index": 0,
      "AvatarDemoIntroduction": {
        "Hash": 1997178787
      }
    },
    "1": {
      "StageID": 312170,
      "Index": 1,
      "AvatarDemoIntroduction": {
        "Hash": 1997178786
      }
    },
    "2": {
      "StageID": 312170,
      "Index": 2,
      "AvatarDemoIntroduction": {
        "Hash": 1997178789
      }
    }
  },
  "313020": {
    "0": {
      "StageID": 313020,
      "Index": 0,
      "AvatarDemoIntroduction": {
        "Hash": -710213138
      }
    },
    "1": {
      "StageID": 313020,
      "Index": 1,
      "AvatarDemoIntroduction": {
        "Hash": -710213137
      }
    }
  },
  "312150": {
    "0": {
      "StageID": 312150,
      "Index": 0,
      "AvatarDemoIntroduction": {
        "Hash": 1714853785
      }
    },
    "1": {
      "StageID": 312150,
      "Index": 1,
      "AvatarDemoIntroduction": {
        "Hash": 1714853784
      }
    }
  },
  "313030": {
    "0": {
      "StageID": 313030,
      "Index": 0,
      "AvatarDemoIntroduction": {
        "Hash": -609456589
      }
    },
    "1": {
      "StageID": 313030,
      "Index": 1,
      "AvatarDemoIntroduction": {
        "Hash": -609456588
      }
    },
    "2": {
      "StageID": 313030,
      "Index": 2,
      "AvatarDemoIntroduction": {
        "Hash": -609456587
      }
    }
  },
  "313050": {
    "0": {
      "StageID": 313050,
      "Index": 0,
      "AvatarDemoIntroduction": {
        "Hash": -327131587
      }
    },
    "1": {
      "StageID": 313050,
      "Index": 1,
      "AvatarDemoIntroduction": {
        "Hash": -327131586
      }
    }
  },
  "312140": {
    "0": {
      "StageID": 312140,
      "Index": 0,
      "AvatarDemoIntroduction": {
        "Hash": 410891870
      }
    },
    "1": {
      "StageID": 312140,
      "Index": 1,
      "AvatarDemoIntroduction": {
        "Hash": 410891869
      }
    }
  },
  "313070": {
    "0": {
      "StageID": 313070,
      "Index": 0,
      "AvatarDemoIntroduction": {
        "Hash": -1530336953
      }
    },
    "1": {
      "StageID": 313070,
      "Index": 1,
      "AvatarDemoIntroduction": {
        "Hash": -1530336952
      }
    }
  },
  "313120": {
    "0": {
      "StageID": 313120,
      "Index": 0,
      "AvatarDemoIntroduction": {
        "Hash": -710209937
      }
    },
    "1": {
      "StageID": 313120,
      "Index": 1,
      "AvatarDemoIntroduction": {
        "Hash": -710209938
      }
    }
  },
  "313060": {
    "0": {
      "StageID": 313060,
      "Index": 0,
      "AvatarDemoIntroduction": {
        "Hash": -1631093502
      }
    },
    "1": {
      "StageID": 313060,
      "Index": 1,
      "AvatarDemoIntroduction": {
        "Hash": -1631093501
      }
    },
    "2": {
      "StageID": 313060,
      "Index": 2,
      "AvatarDemoIntroduction": {
        "Hash": -1631093500
      }
    }
  },
  "312044": {
    "0": {
      "StageID": 312044,
      "Index": 0,
      "AvatarDemoIntroduction": {
        "Hash": 410888537
      }
    },
    "1": {
      "StageID": 312044,
      "Index": 1,
      "AvatarDemoIntroduction": {
        "Hash": 410888538
      }
    }
  },
  "313080": {
    "0": {
      "StageID": 313080,
      "Index": 0,
      "AvatarDemoIntroduction": {
        "Hash": 849222588
      }
    },
    "1": {
      "StageID": 313080,
      "Index": 1,
      "AvatarDemoIntroduction": {
        "Hash": 849222589
      }
    },
    "2": {
      "StageID": 313080,
      "Index": 2,
      "AvatarDemoIntroduction": {
        "Hash": 849222590
      }
    }
  },
  "313040": {
    "0": {
      "StageID": 313040,
      "Index": 0,
      "AvatarDemoIntroduction": {
        "Hash": -1913418504
      }
    },
    "1": {
      "StageID": 313040,
      "Index": 1,
      "AvatarDemoIntroduction": {
        "Hash": -1913418503
      }
    },
    "2": {
      "StageID": 313040,
      "Index": 2,
      "AvatarDemoIntroduction": {
        "Hash": -1913418502
      }
    }
  },
  "313010": {
    "0": {
      "StageID": 313010,
      "Index": 0,
      "AvatarDemoIntroduction": {
        "Hash": 593748777
      }
    },
    "1": {
      "StageID": 313010,
      "Index": 1,
      "AvatarDemoIntroduction": {
        "Hash": 593748778
      }
    }
  },
  "313090": {
    "0": {
      "StageID": 313090,
      "Index": 0,
      "AvatarDemoIntroduction": {
        "Hash": -1859457791
      }
    },
    "1": {
      "StageID": 313090,
      "Index": 1,
      "AvatarDemoIntroduction": {
        "Hash": -1859457790
      }
    },
    "2": {
      "StageID": 313090,
      "Index": 2,
      "AvatarDemoIntroduction": {
        "Hash": -1859457789
      }
    }
  },
  "313150": {
    "0": {
      "StageID": 313150,
      "Index": 0,
      "AvatarDemoIntroduction": {
        "Hash": -327128386
      }
    },
    "1": {
      "StageID": 313150,
      "Index": 1,
      "AvatarDemoIntroduction": {
        "Hash": -327128387
      }
    },
    "2": {
      "StageID": 313150,
      "Index": 2,
      "AvatarDemoIntroduction": {
        "Hash": -327128384
      }
    }
  },
  "380050": {
    "0": {
      "StageID": 380050,
      "Index": 0,
      "AvatarDemoIntroduction": {
        "Hash": -1337860037
      }
    },
    "1": {
      "StageID": 380050,
      "Index": 1,
      "AvatarDemoIntroduction": {
        "Hash": -1337860038
      }
    }
  },
  "380060": {
    "0": {
      "StageID": 380060,
      "Index": 0,
      "AvatarDemoIntroduction": {
        "Hash": -1438616586
      }
    },
    "1": {
      "StageID": 380060,
      "Index": 1,
      "AvatarDemoIntroduction": {
        "Hash": -1438616587
      }
    }
  }
}