{
  "11203": {
    "BattleEventID": 11203,
    "Config": "",
    "Prefab": "",
    "LevelAreaPrefab": "",
    "BEActionBarPrefab": "",
    "BasePoint": "",
    "SkillIDList": []
  },
  "11207": {
    "BattleEventID": 11207,
    "Config": "",
    "Prefab": "",
    "LevelAreaPrefab": "",
    "BEActionBarPrefab": "",
    "BasePoint": "",
    "SkillIDList": []
  },
  "20001": {
    "BattleEventID": 20001,
    "Config": "",
    "Prefab": "",
    "LevelAreaPrefab": "",
    "BEActionBarPrefab": "",
    "BasePoint": "",
    "SkillIDList": []
  },
  "20002": {
    "BattleEventID": 20002,
    "Config": "",
    "Prefab": "",
    "LevelAreaPrefab": "",
    "BEActionBarPrefab": "",
    "BasePoint": "",
    "SkillIDList": []
  },
  "30001": {
    "BattleEventID": 30001,
    "Config": "",
    "Prefab": "",
    "LevelAreaPrefab": "",
    "BEActionBarPrefab": "",
    "BasePoint": "",
    "SkillIDList": []
  },
  "30002": {
    "BattleEventID": 30002,
    "Config": "",
    "Prefab": "",
    "LevelAreaPrefab": "",
    "BEActionBarPrefab": "",
    "BasePoint": "",
    "SkillIDList": []
  },
  "30003": {
    "BattleEventID": 30003,
    "Config": "",
    "Prefab": "",
    "LevelAreaPrefab": "",
    "BEActionBarPrefab": "",
    "BasePoint": "",
    "SkillIDList": []
  },
  "30004": {
    "BattleEventID": 30004,
    "Config": "",
    "Prefab": "",
    "LevelAreaPrefab": "",
    "BEActionBarPrefab": "",
    "BasePoint": "",
    "SkillIDList": []
  },
  "30005": {
    "BattleEventID": 30005,
    "Config": "",
    "Prefab": "",
    "LevelAreaPrefab": "",
    "BEActionBarPrefab": "",
    "BasePoint": "",
    "SkillIDList": []
  },
  "30011": {
    "BattleEventID": 30011,
    "Config": "",
    "Prefab": "",
    "LevelAreaPrefab": "",
    "BEActionBarPrefab": "",
    "BasePoint": "",
    "SkillIDList": []
  },
  "30016": {
    "BattleEventID": 30016,
    "Config": "",
    "Prefab": "",
    "LevelAreaPrefab": "",
    "BEActionBarPrefab": "",
    "BasePoint": "",
    "SkillIDList": []
  },
  "30017": {
    "BattleEventID": 30017,
    "Config": "",
    "Prefab": "",
    "LevelAreaPrefab": "",
    "BEActionBarPrefab": "",
    "BasePoint": "",
    "SkillIDList": []
  },
  "30101": {
    "BattleEventID": 30101,
    "Config": "",
    "Prefab": "",
    "LevelAreaPrefab": "",
    "BEActionBarPrefab": "",
    "BasePoint": "",
    "SkillIDList": []
  },
  "30102": {
    "BattleEventID": 30102,
    "Config": "",
    "Prefab": "",
    "LevelAreaPrefab": "",
    "BEActionBarPrefab": "",
    "BasePoint": "",
    "SkillIDList": []
  },
  "30103": {
    "BattleEventID": 30103,
    "Config": "",
    "Prefab": "",
    "LevelAreaPrefab": "",
    "BEActionBarPrefab": "",
    "BasePoint": "",
    "SkillIDList": []
  },
  "30104": {
    "BattleEventID": 30104,
    "Config": "",
    "Prefab": "",
    "LevelAreaPrefab": "",
    "BEActionBarPrefab": "",
    "BasePoint": "",
    "SkillIDList": []
  },
  "30105": {
    "BattleEventID": 30105,
    "Config": "",
    "Prefab": "",
    "LevelAreaPrefab": "",
    "BEActionBarPrefab": "",
    "BasePoint": "",
    "SkillIDList": []
  },
  "30106": {
    "BattleEventID": 30106,
    "Config": "",
    "Prefab": "",
    "LevelAreaPrefab": "",
    "BEActionBarPrefab": "",
    "BasePoint": "",
    "SkillIDList": []
  },
  "30107": {
    "BattleEventID": 30107,
    "Config": "",
    "Prefab": "",
    "LevelAreaPrefab": "",
    "BEActionBarPrefab": "",
    "BasePoint": "",
    "SkillIDList": []
  },
  "30108": {
    "BattleEventID": 30108,
    "Config": "",
    "Prefab": "",
    "LevelAreaPrefab": "",
    "BEActionBarPrefab": "",
    "BasePoint": "",
    "SkillIDList": []
  },
  "30109": {
    "BattleEventID": 30109,
    "Config": "",
    "Prefab": "",
    "LevelAreaPrefab": "",
    "BEActionBarPrefab": "",
    "BasePoint": "",
    "SkillIDList": []
  },
  "30110": {
    "BattleEventID": 30110,
    "Config": "",
    "Prefab": "",
    "LevelAreaPrefab": "",
    "BEActionBarPrefab": "",
    "BasePoint": "",
    "SkillIDList": []
  },
  "30111": {
    "BattleEventID": 30111,
    "Config": "",
    "Prefab": "",
    "LevelAreaPrefab": "",
    "BEActionBarPrefab": "",
    "BasePoint": "",
    "SkillIDList": []
  },
  "30112": {
    "BattleEventID": 30112,
    "Config": "",
    "Prefab": "",
    "LevelAreaPrefab": "",
    "BEActionBarPrefab": "",
    "BasePoint": "",
    "SkillIDList": []
  },
  "40001": {
    "BattleEventID": 40001,
    "Config": "",
    "Prefab": "",
    "LevelAreaPrefab": "",
    "BEActionBarPrefab": "",
    "BasePoint": "",
    "SkillIDList": []
  },
  "40002": {
    "BattleEventID": 40002,
    "Config": "",
    "Prefab": "",
    "LevelAreaPrefab": "",
    "BEActionBarPrefab": "",
    "BasePoint": "",
    "SkillIDList": []
  },
  "40003": {
    "BattleEventID": 40003,
    "Config": "",
    "Prefab": "",
    "LevelAreaPrefab": "",
    "BEActionBarPrefab": "",
    "BasePoint": "",
    "SkillIDList": []
  },
  "40004": {
    "BattleEventID": 40004,
    "Config": "",
    "Prefab": "",
    "LevelAreaPrefab": "",
    "BEActionBarPrefab": "",
    "BasePoint": "",
    "SkillIDList": []
  },
  "40005": {
    "BattleEventID": 40005,
    "Config": "",
    "Prefab": "",
    "LevelAreaPrefab": "",
    "BEActionBarPrefab": "",
    "BasePoint": "",
    "SkillIDList": []
  },
  "40006": {
    "BattleEventID": 40006,
    "Config": "",
    "Prefab": "",
    "LevelAreaPrefab": "",
    "BEActionBarPrefab": "",
    "BasePoint": "",
    "SkillIDList": []
  },
  "40007": {
    "BattleEventID": 40007,
    "Config": "",
    "Prefab": "",
    "LevelAreaPrefab": "",
    "BEActionBarPrefab": "",
    "BasePoint": "",
    "SkillIDList": []
  },
  "41001": {
    "BattleEventID": 41001,
    "Config": "Config/ConfigCharacter/BattleEvent/Avatar_RogueBattleevent120_Config.json",
    "Prefab": "",
    "LevelAreaPrefab": "",
    "BEActionBarPrefab": "",
    "BasePoint": "",
    "SkillIDList": [
      4100101,
      4100102
    ],
    "IsSPReserved": true
  },
  "41002": {
    "BattleEventID": 41002,
    "Config": "Config/ConfigCharacter/BattleEvent/Avatar_RogueBattleevent122_Config.json",
    "Prefab": "",
    "LevelAreaPrefab": "",
    "BEActionBarPrefab": "",
    "BasePoint": "",
    "SkillIDList": [
      4100201,
      4100202
    ],
    "IsSPReserved": true
  },
  "41003": {
    "BattleEventID": 41003,
    "Config": "Config/ConfigCharacter/BattleEvent/Avatar_RogueBattleevent123_Config.json",
    "Prefab": "",
    "LevelAreaPrefab": "",
    "BEActionBarPrefab": "",
    "BasePoint": "",
    "SkillIDList": [
      4100301,
      4100302
    ],
    "IsSPReserved": true
  },
  "41004": {
    "BattleEventID": 41004,
    "Config": "Config/ConfigCharacter/BattleEvent/Avatar_RogueBattleevent124_Config.json",
    "Prefab": "",
    "LevelAreaPrefab": "",
    "BEActionBarPrefab": "",
    "BasePoint": "",
    "SkillIDList": [
      4100401,
      4100402
    ],
    "IsSPReserved": true
  },
  "41005": {
    "BattleEventID": 41005,
    "Config": "Config/ConfigCharacter/BattleEvent/Avatar_RogueBattleevent125_Config.json",
    "Prefab": "",
    "LevelAreaPrefab": "",
    "BEActionBarPrefab": "",
    "BasePoint": "",
    "SkillIDList": [
      4100501,
      4100502
    ],
    "IsSPReserved": true
  },
  "41006": {
    "BattleEventID": 41006,
    "Config": "Config/ConfigCharacter/BattleEvent/Avatar_RogueBattleevent121_Config.json",
    "Prefab": "",
    "LevelAreaPrefab": "",
    "BEActionBarPrefab": "",
    "BasePoint": "",
    "SkillIDList": [
      4100601,
      4100602
    ],
    "IsSPReserved": true
  },
  "41007": {
    "BattleEventID": 41007,
    "Config": "Config/ConfigCharacter/BattleEvent/Avatar_RogueBattleevent126_Config.json",
    "Prefab": "",
    "LevelAreaPrefab": "",
    "BEActionBarPrefab": "",
    "BasePoint": "",
    "SkillIDList": [
      4100701,
      4100702
    ],
    "IsSPReserved": true
  },
  "48001": {
    "BattleEventID": 48001,
    "Config": "",
    "Prefab": "",
    "LevelAreaPrefab": "",
    "BEActionBarPrefab": "",
    "BasePoint": "",
    "SkillIDList": []
  },
  "49001": {
    "BattleEventID": 49001,
    "Config": "",
    "Prefab": "",
    "LevelAreaPrefab": "",
    "BEActionBarPrefab": "",
    "BasePoint": "",
    "SkillIDList": []
  },
  "60001": {
    "BattleEventID": 60001,
    "Config": "Config/ConfigCharacter/Avatar/Avatar_Colossus_00_Config.json",
    "Prefab": "Characters/CharacterPrefabs/Avatar/Colossus_00/Avatar_W1_Colossus_00.prefab",
    "LevelAreaPrefab": "Level/BattleArea/Test_BattleArea_3_3_3.prefab",
    "BEActionBarPrefab": "",
    "BasePoint": "AnchorColossus",
    "SkillIDList": [
      6000101,
      6000102
    ]
  },
  "60002": {
    "BattleEventID": 60002,
    "Config": "",
    "Prefab": "",
    "LevelAreaPrefab": "",
    "BEActionBarPrefab": "",
    "BasePoint": "",
    "SkillIDList": [
      908003,
      908004
    ],
    "IsSPReserved": true
  },
  "60003": {
    "BattleEventID": 60003,
    "Config": "",
    "Prefab": "",
    "LevelAreaPrefab": "",
    "BEActionBarPrefab": "",
    "BasePoint": "",
    "SkillIDList": [
      909003,
      909004
    ],
    "IsSPReserved": true
  },
  "60004": {
    "BattleEventID": 60004,
    "Config": "Config/ConfigCharacter/Avatar/Avatar_Colossus_00_Config.json",
    "Prefab": "Characters/CharacterPrefabs/Avatar/Colossus_00/Avatar_W1_Colossus_00.prefab",
    "LevelAreaPrefab": "Level/BattleArea/Test_BattleArea_3_3_3.prefab",
    "BEActionBarPrefab": "",
    "BasePoint": "AnchorColossus",
    "SkillIDList": [
      6000401,
      6000402
    ]
  },
  "90001": {
    "BattleEventID": 90001,
    "Config": "",
    "Prefab": "Level/Maze/Puzzle/Challenge/ChallengeBattleEvent.prefab",
    "LevelAreaPrefab": "",
    "BEActionBarPrefab": "",
    "BasePoint": "BattleEventAnchor_1",
    "SkillIDList": []
  },
  "90002": {
    "BattleEventID": 90002,
    "Config": "",
    "Prefab": "",
    "LevelAreaPrefab": "",
    "BEActionBarPrefab": "",
    "BasePoint": "",
    "SkillIDList": []
  },
  "90003": {
    "BattleEventID": 90003,
    "Config": "",
    "Prefab": "",
    "LevelAreaPrefab": "",
    "BEActionBarPrefab": "",
    "BasePoint": "",
    "SkillIDList": []
  },
  "90004": {
    "BattleEventID": 90004,
    "Config": "",
    "Prefab": "",
    "LevelAreaPrefab": "",
    "BEActionBarPrefab": "",
    "BasePoint": "",
    "SkillIDList": []
  },
  "90005": {
    "BattleEventID": 90005,
    "Config": "",
    "Prefab": "",
    "LevelAreaPrefab": "",
    "BEActionBarPrefab": "",
    "BasePoint": "",
    "SkillIDList": []
  },
  "95001": {
    "BattleEventID": 95001,
    "Config": "",
    "Prefab": "",
    "LevelAreaPrefab": "",
    "BEActionBarPrefab": "",
    "BasePoint": "",
    "SkillIDList": []
  },
  "95002": {
    "BattleEventID": 95002,
    "Config": "",
    "Prefab": "",
    "LevelAreaPrefab": "",
    "BEActionBarPrefab": "",
    "BasePoint": "",
    "SkillIDList": []
  },
  "95003": {
    "BattleEventID": 95003,
    "Config": "",
    "Prefab": "",
    "LevelAreaPrefab": "",
    "BEActionBarPrefab": "",
    "BasePoint": "",
    "SkillIDList": []
  },
  "95004": {
    "BattleEventID": 95004,
    "Config": "",
    "Prefab": "",
    "LevelAreaPrefab": "",
    "BEActionBarPrefab": "",
    "BasePoint": "",
    "SkillIDList": []
  },
  "95005": {
    "BattleEventID": 95005,
    "Config": "",
    "Prefab": "",
    "LevelAreaPrefab": "",
    "BEActionBarPrefab": "",
    "BasePoint": "",
    "SkillIDList": []
  },
  "96001": {
    "BattleEventID": 96001,
    "Config": "",
    "Prefab": "",
    "LevelAreaPrefab": "",
    "BEActionBarPrefab": "",
    "BasePoint": "",
    "SkillIDList": []
  },
  "96003": {
    "BattleEventID": 96003,
    "Config": "Config/ConfigCharacter/WhiteBox/Avatar/W_Silwolf_BattleEvent_Config.json",
    "Prefab": "Characters/CharacterPrefabs/Avatar/Silwolf_00/Avatar_Silwolf_00.prefab",
    "LevelAreaPrefab": "",
    "BEActionBarPrefab": "",
    "BasePoint": "",
    "SkillIDList": [
      9600301,
      9600302,
      9600303,
      9600304,
      9600305
    ]
  },
  "96004": {
    "BattleEventID": 96004,
    "Config": "Config/ConfigCharacter/WhiteBox/Avatar/W_Activity_SummonMonster_BE_Config.json",
    "Prefab": "Characters/CharacterPrefabs/Avatar/Bronya_00/Avatar_Bronya_00.prefab",
    "LevelAreaPrefab": "",
    "BEActionBarPrefab": "",
    "BasePoint": "",
    "SkillIDList": [
      9600401,
      9600402,
      9600403,
      9600404,
      9600405
    ]
  },
  "98001": {
    "BattleEventID": 98001,
    "Config": "",
    "Prefab": "",
    "LevelAreaPrefab": "",
    "BEActionBarPrefab": "",
    "BasePoint": "",
    "SkillIDList": []
  },
  "90006": {
    "BattleEventID": 90006,
    "Config": "",
    "Prefab": "",
    "LevelAreaPrefab": "",
    "BEActionBarPrefab": "",
    "BasePoint": "",
    "SkillIDList": []
  },
  "90007": {
    "BattleEventID": 90007,
    "Config": "",
    "Prefab": "",
    "LevelAreaPrefab": "",
    "BEActionBarPrefab": "",
    "BasePoint": "",
    "SkillIDList": []
  },
  "96005": {
    "BattleEventID": 96005,
    "Config": "Config/ConfigCharacter/WhiteBox/Avatar/Vanish_BattleEvent_Config.json",
    "Prefab": "",
    "LevelAreaPrefab": "",
    "BEActionBarPrefab": "",
    "BasePoint": "",
    "SkillIDList": [
      9600501,
      9600305
    ]
  },
  "96006": {
    "BattleEventID": 96006,
    "Config": "Config/ConfigCharacter/WhiteBox/BattleEvent/W_AccelerateButton_Config.json",
    "Prefab": "",
    "LevelAreaPrefab": "",
    "BEActionBarPrefab": "",
    "BasePoint": "",
    "SkillIDList": [
      9600604,
      9600605
    ]
  },
  "96007": {
    "BattleEventID": 96007,
    "Config": "Config/ConfigCharacter/WhiteBox/BattleEvent/W_DelayMonsterButton_Config.json",
    "Prefab": "",
    "LevelAreaPrefab": "",
    "BEActionBarPrefab": "",
    "BasePoint": "",
    "SkillIDList": [
      9600704,
      9600705
    ]
  },
  "90009": {
    "BattleEventID": 90009,
    "Config": "",
    "Prefab": "",
    "LevelAreaPrefab": "",
    "BEActionBarPrefab": "",
    "BasePoint": "",
    "SkillIDList": []
  },
  "96010": {
    "BattleEventID": 96010,
    "Config": "Config/ConfigCharacter/WhiteBox/BattleEvent/W_AccelerateButtonByWeakBreak_Config.json",
    "Prefab": "",
    "LevelAreaPrefab": "",
    "BEActionBarPrefab": "",
    "BasePoint": "",
    "SkillIDList": [
      9601004,
      9601005
    ]
  },
  "96011": {
    "BattleEventID": 96011,
    "Config": "Config/ConfigCharacter/WhiteBox/BattleEvent/W_CreateStageBEButton_Config.json",
    "Prefab": "",
    "LevelAreaPrefab": "",
    "BEActionBarPrefab": "",
    "BasePoint": "",
    "SkillIDList": [
      9601104,
      9601105,
      9601106,
      9601107
    ]
  },
  "96012": {
    "BattleEventID": 96012,
    "Config": "Config/ConfigCharacter/WhiteBox/BattleEvent/W_AutoMemberExchange_Config.json",
    "Prefab": "",
    "LevelAreaPrefab": "",
    "BEActionBarPrefab": "",
    "BasePoint": "",
    "SkillIDList": [
      9601201,
      9601205
    ]
  },
  "96013": {
    "BattleEventID": 96013,
    "Config": "Config/ConfigCharacter/WhiteBox/BattleEvent/W_RollBackStateBEButton_Config.json",
    "Prefab": "",
    "LevelAreaPrefab": "",
    "BEActionBarPrefab": "",
    "BasePoint": "",
    "SkillIDList": [
      9601304,
      9601305,
      9601306,
      9601307
    ]
  },
  "96014": {
    "BattleEventID": 96014,
    "Config": "Config/ConfigCharacter/WhiteBox/BattleEvent/W_TimeLockButton_Config.json",
    "Prefab": "",
    "LevelAreaPrefab": "",
    "BEActionBarPrefab": "",
    "BasePoint": "",
    "SkillIDList": [
      9601404,
      9601405
    ]
  },
  "96015": {
    "BattleEventID": 96015,
    "Config": "",
    "Prefab": "",
    "LevelAreaPrefab": "",
    "BEActionBarPrefab": "",
    "BasePoint": "",
    "SkillIDList": []
  },
  "96016": {
    "BattleEventID": 96016,
    "Config": "Config/ConfigCharacter/WhiteBox/Avatar/W_Activity_Summon3Monster_BE_Config.json",
    "Prefab": "Characters/CharacterPrefabs/Avatar/PlayerGirl_00/Avatar_PlayerGirl_00.prefab",
    "LevelAreaPrefab": "",
    "BEActionBarPrefab": "",
    "BasePoint": "",
    "SkillIDList": [
      9601601,
      9601602,
      9601603,
      9601604,
      9601605
    ]
  },
  "96017": {
    "BattleEventID": 96017,
    "Config": "",
    "Prefab": "",
    "LevelAreaPrefab": "",
    "BEActionBarPrefab": "",
    "BasePoint": "",
    "SkillIDList": []
  },
  "96018": {
    "BattleEventID": 96018,
    "Config": "",
    "Prefab": "",
    "LevelAreaPrefab": "",
    "BEActionBarPrefab": "",
    "BasePoint": "",
    "SkillIDList": []
  },
  "96019": {
    "BattleEventID": 96019,
    "Config": "Config/ConfigCharacter/WhiteBox/BattleEvent/W_InBattleItemBE01_Config.json",
    "Prefab": "",
    "LevelAreaPrefab": "",
    "BEActionBarPrefab": "",
    "BasePoint": "",
    "SkillIDList": [
      9601904,
      9601905,
      9601906,
      9601907
    ]
  },
  "96020": {
    "BattleEventID": 96020,
    "Config": "Config/ConfigCharacter/WhiteBox/BattleEvent/W_InBattleItemBE02_Config.json",
    "Prefab": "",
    "LevelAreaPrefab": "",
    "BEActionBarPrefab": "",
    "BasePoint": "",
    "SkillIDList": [
      9602004,
      9602005,
      9602006,
      9602007
    ]
  },
  "96021": {
    "BattleEventID": 96021,
    "Config": "Config/ConfigCharacter/WhiteBox/BattleEvent/W_InBattleItemBE03_Config.json",
    "Prefab": "",
    "LevelAreaPrefab": "",
    "BEActionBarPrefab": "",
    "BasePoint": "",
    "SkillIDList": [
      9602104,
      9602105
    ]
  },
  "96022": {
    "BattleEventID": 96022,
    "Config": "",
    "Prefab": "",
    "LevelAreaPrefab": "",
    "BEActionBarPrefab": "",
    "BasePoint": "",
    "SkillIDList": []
  },
  "98002": {
    "BattleEventID": 98002,
    "Config": "",
    "Prefab": "",
    "LevelAreaPrefab": "",
    "BEActionBarPrefab": "",
    "BasePoint": "",
    "SkillIDList": []
  },
  "30018": {
    "BattleEventID": 30018,
    "Config": "",
    "Prefab": "",
    "LevelAreaPrefab": "",
    "BEActionBarPrefab": "",
    "BasePoint": "",
    "SkillIDList": []
  },
  "30019": {
    "BattleEventID": 30019,
    "Config": "",
    "Prefab": "",
    "LevelAreaPrefab": "",
    "BEActionBarPrefab": "",
    "BasePoint": "",
    "SkillIDList": []
  },
  "30020": {
    "BattleEventID": 30020,
    "Config": "",
    "Prefab": "",
    "LevelAreaPrefab": "",
    "BEActionBarPrefab": "",
    "BasePoint": "",
    "SkillIDList": []
  },
  "30021": {
    "BattleEventID": 30021,
    "Config": "",
    "Prefab": "",
    "LevelAreaPrefab": "",
    "BEActionBarPrefab": "",
    "BasePoint": "",
    "SkillIDList": []
  },
  "30022": {
    "BattleEventID": 30022,
    "Config": "",
    "Prefab": "",
    "LevelAreaPrefab": "",
    "BEActionBarPrefab": "",
    "BasePoint": "",
    "SkillIDList": []
  },
  "30023": {
    "BattleEventID": 30023,
    "Config": "",
    "Prefab": "",
    "LevelAreaPrefab": "",
    "BEActionBarPrefab": "",
    "BasePoint": "",
    "SkillIDList": []
  },
  "30024": {
    "BattleEventID": 30024,
    "Config": "",
    "Prefab": "",
    "LevelAreaPrefab": "",
    "BEActionBarPrefab": "",
    "BasePoint": "",
    "SkillIDList": []
  },
  "60005": {
    "BattleEventID": 60005,
    "Config": "Config/ConfigCharacter/Monster/Monster_BattleEvent_W1_Colossus_00_Config.json",
    "Prefab": "Characters/CharacterPrefabs/Monster/W1_Colossus_00/Monster_W1_Colossus_00.prefab",
    "LevelAreaPrefab": "",
    "BEActionBarPrefab": "",
    "BasePoint": "Cube1",
    "SkillIDList": [
      6000501
    ]
  },
  "96024": {
    "BattleEventID": 96024,
    "Config": "Config/ConfigCharacter/BattleEvent/Activity_TreasureActivity_ExecuteItem.json",
    "Prefab": "",
    "LevelAreaPrefab": "",
    "BEActionBarPrefab": "",
    "BasePoint": "",
    "SkillIDList": [
      9602404,
      9602405
    ]
  },
  "96025": {
    "BattleEventID": 96025,
    "Config": "Config/ConfigCharacter/BattleEvent/Activity_TreasureActivity_SingleBuffItem.json",
    "Prefab": "",
    "LevelAreaPrefab": "",
    "BEActionBarPrefab": "",
    "BasePoint": "",
    "SkillIDList": [
      9602504,
      9602505
    ]
  },
  "96026": {
    "BattleEventID": 96026,
    "Config": "Config/ConfigCharacter/WhiteBox/BattleEvent/W_TreasureActivity_WeakDamageEnhanceItem.json",
    "Prefab": "",
    "LevelAreaPrefab": "",
    "BEActionBarPrefab": "",
    "BasePoint": "",
    "SkillIDList": [
      9602604,
      9602605
    ]
  },
  "96027": {
    "BattleEventID": 96027,
    "Config": "Config/ConfigCharacter/WhiteBox/BattleEvent/W_TreasureActivity_WeakBombItem.json",
    "Prefab": "",
    "LevelAreaPrefab": "",
    "BEActionBarPrefab": "",
    "BasePoint": "",
    "SkillIDList": [
      9602704,
      9602705
    ]
  },
  "96028": {
    "BattleEventID": 96028,
    "Config": "Config/ConfigCharacter/BattleEvent/Activity_TreasureActivity_RecoverSPItem.json",
    "Prefab": "",
    "LevelAreaPrefab": "",
    "BEActionBarPrefab": "",
    "BasePoint": "",
    "SkillIDList": [
      9602804,
      9602805
    ]
  },
  "16007": {
    "BattleEventID": 16007,
    "Config": "Config/ConfigCharacter/Avatar/Avatar_AetherDivide_W2_Beast01_02_Config.json",
    "Prefab": "Characters/CharacterPrefabs/Avatar/Activity/AetherDivide/AetherDivide_W2_Beast01_02/Avatar_AetherDivide_W2_Beast01_02.prefab",
    "LevelAreaPrefab": "",
    "BEActionBarPrefab": "",
    "BasePoint": "",
    "SkillIDList": [],
    "IsSPReserved": true
  },
  "16010": {
    "BattleEventID": 16010,
    "Config": "",
    "Prefab": "",
    "LevelAreaPrefab": "",
    "BEActionBarPrefab": "",
    "BasePoint": "",
    "SkillIDList": []
  },
  "16011": {
    "BattleEventID": 16011,
    "Config": "Config/ConfigCharacter/Avatar/Avatar_AetherDivide_W2_Mecha03_00_BE_Config.json",
    "Prefab": "Characters/CharacterPrefabs/Avatar/Activity/AetherDivide/AetherDivide_W2_Mecha02_00/Avatar_AetherDivide_W2_Mecha02_00.prefab",
    "LevelAreaPrefab": "",
    "BEActionBarPrefab": "",
    "BasePoint": "",
    "SkillIDList": [],
    "IsSPReserved": true
  },
  "41008": {
    "BattleEventID": 41008,
    "Config": "Config/ConfigCharacter/BattleEvent/Avatar_RogueBattleevent127_Config.json",
    "Prefab": "",
    "LevelAreaPrefab": "",
    "BEActionBarPrefab": "",
    "BasePoint": "",
    "SkillIDList": [
      4100801,
      4100802
    ],
    "IsSPReserved": true
  },
  "60006": {
    "BattleEventID": 60006,
    "Config": "Config/ConfigCharacter/BattleEvent/Avatar_MissionBattleEvent60006_Config.json",
    "Prefab": "Characters/CharacterPrefabs/Avatar/DanHengIL_00/Avatar_DanHengIL_00.prefab",
    "LevelAreaPrefab": "",
    "BEActionBarPrefab": "",
    "BasePoint": "",
    "SkillIDList": [
      6000601,
      6000602
    ]
  },
  "96031": {
    "BattleEventID": 96031,
    "Config": "Config/ConfigCharacter/WhiteBox/BattleEvent/W_TreasureActivity_SingleDamageItem.json",
    "Prefab": "",
    "LevelAreaPrefab": "",
    "BEActionBarPrefab": "",
    "BasePoint": "",
    "SkillIDList": [
      9603104,
      9603105
    ]
  },
  "96032": {
    "BattleEventID": 96032,
    "Config": "Config/ConfigCharacter/BattleEvent/Activity_TreasureActivity_BPSkillBoostItem.json",
    "Prefab": "",
    "LevelAreaPrefab": "",
    "BEActionBarPrefab": "",
    "BasePoint": "",
    "SkillIDList": [
      9603204,
      9603205
    ]
  },
  "96033": {
    "BattleEventID": 96033,
    "Config": "Config/ConfigCharacter/BattleEvent/Activity_TreasureActivity_AddWeakPointItem.json",
    "Prefab": "",
    "LevelAreaPrefab": "",
    "BEActionBarPrefab": "",
    "BasePoint": "",
    "SkillIDList": [
      9603304,
      9603305
    ]
  },
  "96034": {
    "BattleEventID": 96034,
    "Config": "Config/ConfigCharacter/WhiteBox/BattleEvent/W_TreasureActivity_NormalSkillBoostItem.json",
    "Prefab": "",
    "LevelAreaPrefab": "",
    "BEActionBarPrefab": "",
    "BasePoint": "",
    "SkillIDList": [
      9603404,
      9603405
    ]
  },
  "96035": {
    "BattleEventID": 96035,
    "Config": "Config/ConfigCharacter/WhiteBox/BattleEvent/W_TreasureActivity_DamageTakenAddItem.json",
    "Prefab": "",
    "LevelAreaPrefab": "",
    "BEActionBarPrefab": "",
    "BasePoint": "",
    "SkillIDList": [
      9603504,
      9603505
    ]
  },
  "96036": {
    "BattleEventID": 96036,
    "Config": "",
    "Prefab": "",
    "LevelAreaPrefab": "",
    "BEActionBarPrefab": "",
    "BasePoint": "",
    "SkillIDList": []
  },
  "30031": {
    "BattleEventID": 30031,
    "Config": "",
    "Prefab": "",
    "LevelAreaPrefab": "",
    "BEActionBarPrefab": "",
    "BasePoint": "",
    "SkillIDList": []
  },
  "30032": {
    "BattleEventID": 30032,
    "Config": "",
    "Prefab": "",
    "LevelAreaPrefab": "",
    "BEActionBarPrefab": "",
    "BasePoint": "",
    "SkillIDList": []
  },
  "30033": {
    "BattleEventID": 30033,
    "Config": "",
    "Prefab": "",
    "LevelAreaPrefab": "",
    "BEActionBarPrefab": "",
    "BasePoint": "",
    "SkillIDList": []
  },
  "30034": {
    "BattleEventID": 30034,
    "Config": "",
    "Prefab": "",
    "LevelAreaPrefab": "",
    "BEActionBarPrefab": "",
    "BasePoint": "",
    "SkillIDList": []
  },
  "30035": {
    "BattleEventID": 30035,
    "Config": "",
    "Prefab": "",
    "LevelAreaPrefab": "",
    "BEActionBarPrefab": "",
    "BasePoint": "",
    "SkillIDList": []
  },
  "60007": {
    "BattleEventID": 60007,
    "Config": "",
    "Prefab": "",
    "LevelAreaPrefab": "",
    "BEActionBarPrefab": "",
    "BasePoint": "",
    "SkillIDList": []
  },
  "30036": {
    "BattleEventID": 30036,
    "Config": "",
    "Prefab": "",
    "LevelAreaPrefab": "",
    "BEActionBarPrefab": "",
    "BasePoint": "",
    "SkillIDList": []
  },
  "96029": {
    "BattleEventID": 96029,
    "Config": "",
    "Prefab": "",
    "LevelAreaPrefab": "",
    "BEActionBarPrefab": "",
    "BasePoint": "",
    "SkillIDList": [
      9602905
    ]
  },
  "11216": {
    "BattleEventID": 11216,
    "Config": "Config/ConfigCharacter/Avatar/Avatar_Topaz_00_BE_Config.json",
    "Prefab": "Characters/CharacterPrefabs/Avatar/Topaz_00/Avatar_Topaz_00_BE.prefab",
    "LevelAreaPrefab": "",
    "BEActionBarPrefab": "",
    "BasePoint": "",
    "SkillIDList": [
      1121604
    ],
    "IsSPReserved": true
  },
  "30113": {
    "BattleEventID": 30113,
    "Config": "",
    "Prefab": "",
    "LevelAreaPrefab": "",
    "BEActionBarPrefab": "",
    "BasePoint": "",
    "SkillIDList": []
  },
  "30114": {
    "BattleEventID": 30114,
    "Config": "",
    "Prefab": "",
    "LevelAreaPrefab": "",
    "BEActionBarPrefab": "",
    "BasePoint": "",
    "SkillIDList": []
  },
  "30115": {
    "BattleEventID": 30115,
    "Config": "",
    "Prefab": "",
    "LevelAreaPrefab": "",
    "BEActionBarPrefab": "",
    "BasePoint": "",
    "SkillIDList": []
  },
  "42001": {
    "BattleEventID": 42001,
    "Config": "",
    "Prefab": "",
    "LevelAreaPrefab": "",
    "BEActionBarPrefab": "",
    "BasePoint": "",
    "SkillIDList": []
  },
  "96038": {
    "BattleEventID": 96038,
    "Config": "",
    "Prefab": "",
    "LevelAreaPrefab": "",
    "BEActionBarPrefab": "",
    "BasePoint": "",
    "SkillIDList": [
      9603801
    ],
    "IsSPReserved": true
  },
  "48002": {
    "BattleEventID": 48002,
    "Config": "",
    "Prefab": "",
    "LevelAreaPrefab": "",
    "BEActionBarPrefab": "",
    "BasePoint": "",
    "SkillIDList": []
  },
  "42002": {
    "BattleEventID": 42002,
    "Config": "Config/ConfigCharacter/BattleEvent/Avatar_RogueDLCBattleevent42002_Config.json",
    "Prefab": "",
    "LevelAreaPrefab": "",
    "BEActionBarPrefab": "",
    "BasePoint": "",
    "SkillIDList": []
  },
  "42003": {
    "BattleEventID": 42003,
    "Config": "Config/ConfigCharacter/BattleEvent/Avatar_RogueDLCBattleevent42003_Config.json",
    "Prefab": "",
    "LevelAreaPrefab": "",
    "BEActionBarPrefab": "",
    "BasePoint": "",
    "SkillIDList": []
  },
  "61001": {
    "BattleEventID": 61001,
    "Config": "Config/ConfigCharacter/BattleEvent/Avatar_HeliobusActionAbilityForceBreak_Config.json",
    "Prefab": "",
    "LevelAreaPrefab": "",
    "BEActionBarPrefab": "",
    "BasePoint": "",
    "SkillIDList": [
      6100101
    ]
  },
  "61002": {
    "BattleEventID": 61002,
    "Config": "Config/ConfigCharacter/BattleEvent/Avatar_HeliobusActionAbilityBPRecover_Config.json",
    "Prefab": "",
    "LevelAreaPrefab": "",
    "BEActionBarPrefab": "",
    "BasePoint": "",
    "SkillIDList": [
      6100201
    ]
  },
  "61003": {
    "BattleEventID": 61003,
    "Config": "Config/ConfigCharacter/BattleEvent/Avatar_HeliobusActionAbilitySPRecover_Config.json",
    "Prefab": "",
    "LevelAreaPrefab": "",
    "BEActionBarPrefab": "",
    "BasePoint": "",
    "SkillIDList": [
      6100301
    ]
  },
  "61004": {
    "BattleEventID": 61004,
    "Config": "Config/ConfigCharacter/BattleEvent/Avatar_HeliobusActionAbilityBoomerang_Config.json",
    "Prefab": "",
    "LevelAreaPrefab": "",
    "BEActionBarPrefab": "",
    "BasePoint": "",
    "SkillIDList": [
      6100401
    ]
  },
  "61005": {
    "BattleEventID": 61005,
    "Config": "Config/ConfigCharacter/BattleEvent/Avatar_HeliobusActionAbilityDelayAction_Config.json",
    "Prefab": "",
    "LevelAreaPrefab": "",
    "BEActionBarPrefab": "",
    "BasePoint": "",
    "SkillIDList": [
      6100501
    ]
  },
  "61006": {
    "BattleEventID": 61006,
    "Config": "Config/ConfigCharacter/BattleEvent/Avatar_HeliobusActionAbilitySetBoom_Config.json",
    "Prefab": "",
    "LevelAreaPrefab": "",
    "BEActionBarPrefab": "",
    "BasePoint": "",
    "SkillIDList": [
      6100601
    ]
  },
  "61007": {
    "BattleEventID": 61007,
    "Config": "Config/ConfigCharacter/BattleEvent/Avatar_HeliobusActionAbilityDamageReflect_Config.json",
    "Prefab": "",
    "LevelAreaPrefab": "",
    "BEActionBarPrefab": "",
    "BasePoint": "",
    "SkillIDList": [
      6100701
    ]
  },
  "61008": {
    "BattleEventID": 61008,
    "Config": "Config/ConfigCharacter/BattleEvent/Avatar_HeliobusActionAbilityFormChange_Config.json",
    "Prefab": "",
    "LevelAreaPrefab": "",
    "BEActionBarPrefab": "",
    "BasePoint": "",
    "SkillIDList": [
      6100801
    ]
  },
  "96039": {
    "BattleEventID": 96039,
    "Config": "",
    "Prefab": "",
    "LevelAreaPrefab": "",
    "BEActionBarPrefab": "",
    "BasePoint": "",
    "SkillIDList": []
  },
  "60008": {
    "BattleEventID": 60008,
    "Config": "Config/ConfigCharacter/BattleEvent/Avatar_MissionBattleEvent60008_Config.json",
    "Prefab": "Characters/CharacterPrefabs/Avatar/Huohuo_00/Avatar_Huohuo_00_NoTail.prefab",
    "LevelAreaPrefab": "",
    "BEActionBarPrefab": "",
    "BasePoint": "",
    "SkillIDList": [
      6000801
    ]
  },
  "30116": {
    "BattleEventID": 30116,
    "Config": "",
    "Prefab": "",
    "LevelAreaPrefab": "",
    "BEActionBarPrefab": "",
    "BasePoint": "",
    "SkillIDList": []
  },
  "30117": {
    "BattleEventID": 30117,
    "Config": "",
    "Prefab": "",
    "LevelAreaPrefab": "",
    "BEActionBarPrefab": "",
    "BasePoint": "",
    "SkillIDList": []
  },
  "48003": {
    "BattleEventID": 48003,
    "Config": "",
    "Prefab": "",
    "LevelAreaPrefab": "",
    "BEActionBarPrefab": "",
    "BasePoint": "",
    "SkillIDList": []
  },
  "30119": {
    "BattleEventID": 30119,
    "Config": "",
    "Prefab": "",
    "LevelAreaPrefab": "",
    "BEActionBarPrefab": "",
    "BasePoint": "",
    "SkillIDList": []
  },
  "30120": {
    "BattleEventID": 30120,
    "Config": "",
    "Prefab": "",
    "LevelAreaPrefab": "",
    "BEActionBarPrefab": "",
    "BasePoint": "",
    "SkillIDList": []
  },
  "30121": {
    "BattleEventID": 30121,
    "Config": "",
    "Prefab": "",
    "LevelAreaPrefab": "",
    "BEActionBarPrefab": "",
    "BasePoint": "",
    "SkillIDList": []
  },
  "61009": {
    "BattleEventID": 61009,
    "Config": "",
    "Prefab": "",
    "LevelAreaPrefab": "",
    "BEActionBarPrefab": "",
    "BasePoint": "",
    "SkillIDList": [
      6100901
    ]
  },
  "61010": {
    "BattleEventID": 61010,
    "Config": "Config/ConfigCharacter/BattleEvent/Avatar_BattleEvent61010_Config.json",
    "Prefab": "",
    "LevelAreaPrefab": "",
    "BEActionBarPrefab": "",
    "BasePoint": "",
    "SkillIDList": [
      6100901
    ]
  },
  "41009": {
    "BattleEventID": 41009,
    "Config": "Config/ConfigCharacter/BattleEvent/Avatar_RogueBattleevent128_Config.json",
    "Prefab": "",
    "LevelAreaPrefab": "",
    "BEActionBarPrefab": "",
    "BasePoint": "",
    "SkillIDList": [
      4100901,
      4100902
    ],
    "IsSPReserved": true
  },
  "40008": {
    "BattleEventID": 40008,
    "Config": "",
    "Prefab": "",
    "LevelAreaPrefab": "",
    "BEActionBarPrefab": "",
    "BasePoint": "",
    "SkillIDList": []
  },
  "62001": {
    "BattleEventID": 62001,
    "Config": "",
    "Prefab": "",
    "LevelAreaPrefab": "",
    "BEActionBarPrefab": "",
    "BasePoint": "",
    "SkillIDList": []
  },
  "62002": {
    "BattleEventID": 62002,
    "Config": "",
    "Prefab": "",
    "LevelAreaPrefab": "",
    "BEActionBarPrefab": "",
    "BasePoint": "",
    "SkillIDList": []
  },
  "31002": {
    "BattleEventID": 31002,
    "Config": "",
    "Prefab": "",
    "LevelAreaPrefab": "",
    "BEActionBarPrefab": "",
    "BasePoint": "",
    "SkillIDList": []
  },
  "30118": {
    "BattleEventID": 30118,
    "Config": "",
    "Prefab": "",
    "LevelAreaPrefab": "",
    "BEActionBarPrefab": "",
    "BasePoint": "",
    "SkillIDList": []
  },
  "42004": {
    "BattleEventID": 42004,
    "Config": "",
    "Prefab": "",
    "LevelAreaPrefab": "",
    "BEActionBarPrefab": "",
    "BasePoint": "",
    "SkillIDList": [],
    "IsSPReserved": true
  },
  "96061": {
    "BattleEventID": 96061,
    "Config": "",
    "Prefab": "",
    "LevelAreaPrefab": "",
    "BEActionBarPrefab": "",
    "BasePoint": "",
    "SkillIDList": [
      9602905
    ]
  },
  "60011": {
    "BattleEventID": 60011,
    "Config": "",
    "Prefab": "",
    "LevelAreaPrefab": "",
    "BEActionBarPrefab": "",
    "BasePoint": "",
    "SkillIDList": [
      6000801
    ]
  },
  "20005": {
    "BattleEventID": 20005,
    "Config": "",
    "Prefab": "",
    "LevelAreaPrefab": "",
    "BEActionBarPrefab": "",
    "BasePoint": "",
    "SkillIDList": []
  },
  "31003": {
    "BattleEventID": 31003,
    "Config": "",
    "Prefab": "",
    "LevelAreaPrefab": "",
    "BEActionBarPrefab": "",
    "BasePoint": "",
    "SkillIDList": []
  },
  "11309": {
    "BattleEventID": 11309,
    "Config": "",
    "Prefab": "",
    "LevelAreaPrefab": "",
    "BEActionBarPrefab": "UI/Battle/TimeLine/TimeLineMiniIcon_1309.prefab",
    "BasePoint": "",
    "SkillIDList": []
  },
  "43001": {
    "BattleEventID": 43001,
    "Config": "",
    "Prefab": "",
    "LevelAreaPrefab": "",
    "BEActionBarPrefab": "",
    "BasePoint": "",
    "SkillIDList": [
      4300101
    ],
    "IsSPReserved": true
  },
  "43002": {
    "BattleEventID": 43002,
    "Config": "",
    "Prefab": "",
    "LevelAreaPrefab": "",
    "BEActionBarPrefab": "",
    "BasePoint": "",
    "SkillIDList": [
      4300201
    ],
    "IsSPReserved": true
  },
  "43003": {
    "BattleEventID": 43003,
    "Config": "",
    "Prefab": "",
    "LevelAreaPrefab": "",
    "BEActionBarPrefab": "",
    "BasePoint": "",
    "SkillIDList": [
      4300301
    ],
    "IsSPReserved": true
  },
  "43004": {
    "BattleEventID": 43004,
    "Config": "",
    "Prefab": "",
    "LevelAreaPrefab": "",
    "BEActionBarPrefab": "",
    "BasePoint": "",
    "SkillIDList": [
      4300401
    ],
    "IsSPReserved": true
  },
  "49002": {
    "BattleEventID": 49002,
    "Config": "",
    "Prefab": "",
    "LevelAreaPrefab": "",
    "BEActionBarPrefab": "",
    "BasePoint": "",
    "SkillIDList": []
  },
  "20006": {
    "BattleEventID": 20006,
    "Config": "",
    "Prefab": "",
    "LevelAreaPrefab": "",
    "BEActionBarPrefab": "",
    "BasePoint": "",
    "SkillIDList": []
  },
  "30123": {
    "BattleEventID": 30123,
    "Config": "",
    "Prefab": "",
    "LevelAreaPrefab": "",
    "BEActionBarPrefab": "",
    "BasePoint": "",
    "SkillIDList": []
  },
  "30124": {
    "BattleEventID": 30124,
    "Config": "",
    "Prefab": "",
    "LevelAreaPrefab": "",
    "BEActionBarPrefab": "",
    "BasePoint": "",
    "SkillIDList": []
  },
  "30125": {
    "BattleEventID": 30125,
    "Config": "",
    "Prefab": "",
    "LevelAreaPrefab": "",
    "BEActionBarPrefab": "",
    "BasePoint": "",
    "SkillIDList": []
  },
  "61011": {
    "BattleEventID": 61011,
    "Config": "",
    "Prefab": "",
    "LevelAreaPrefab": "",
    "BEActionBarPrefab": "",
    "BasePoint": "",
    "SkillIDList": [
      6100901
    ]
  },
  "61012": {
    "BattleEventID": 61012,
    "Config": "Config/ConfigCharacter/BattleEvent/Common_NoActionDelay_Config.json",
    "Prefab": "",
    "LevelAreaPrefab": "",
    "BEActionBarPrefab": "",
    "BasePoint": "",
    "SkillIDList": [
      6100901
    ]
  },
  "60010": {
    "BattleEventID": 60010,
    "Config": "Config/ConfigCharacter/BattleEvent/Avatar_MissionBattleEvent60010_Config.json",
    "Prefab": "",
    "LevelAreaPrefab": "",
    "BEActionBarPrefab": "",
    "BasePoint": "",
    "SkillIDList": [
      6001001,
      6001002
    ],
    "IsSPReserved": true
  },
  "62003": {
    "BattleEventID": 62003,
    "Config": "",
    "Prefab": "",
    "LevelAreaPrefab": "",
    "BEActionBarPrefab": "",
    "BasePoint": "",
    "SkillIDList": []
  },
  "96082": {
    "BattleEventID": 96082,
    "Config": "Config/ConfigCharacter/BattleEvent/Common_NoActionDelay_Config.json",
    "Prefab": "",
    "LevelAreaPrefab": "",
    "BEActionBarPrefab": "",
    "BasePoint": "",
    "SkillIDList": [
      9602905
    ]
  },
  "96083": {
    "BattleEventID": 96083,
    "Config": "Config/ConfigCharacter/WhiteBox/BattleEvent/W_BattleEvent_SummonUnit1_Config.json",
    "Prefab": "Characters/CharacterPrefabs/Avatar/Activity/AetherDivide/AetherDivide_W2_Beast01_01/Avatar_AetherDivide_W2_Beast01_01.prefab",
    "LevelAreaPrefab": "",
    "BEActionBarPrefab": "",
    "BasePoint": "",
    "SkillIDList": [
      9608301,
      9608302,
      9608303
    ],
    "IsSPReserved": true
  },
  "62004": {
    "BattleEventID": 62004,
    "Config": "",
    "Prefab": "",
    "LevelAreaPrefab": "",
    "BEActionBarPrefab": "",
    "BasePoint": "",
    "SkillIDList": []
  },
  "62005": {
    "BattleEventID": 62005,
    "Config": "",
    "Prefab": "",
    "LevelAreaPrefab": "",
    "BEActionBarPrefab": "",
    "BasePoint": "",
    "SkillIDList": []
  },
  "31001": {
    "BattleEventID": 31001,
    "Config": "",
    "Prefab": "",
    "LevelAreaPrefab": "",
    "BEActionBarPrefab": "",
    "BasePoint": "",
    "SkillIDList": []
  },
  "30126": {
    "BattleEventID": 30126,
    "Config": "",
    "Prefab": "",
    "LevelAreaPrefab": "",
    "BEActionBarPrefab": "",
    "BasePoint": "",
    "SkillIDList": []
  },
  "61013": {
    "BattleEventID": 61013,
    "Config": "Config/ConfigCharacter/BattleEvent/Common_NoActionDelay_Config.json",
    "Prefab": "",
    "LevelAreaPrefab": "",
    "BEActionBarPrefab": "",
    "BasePoint": "",
    "SkillIDList": [
      6100901
    ]
  },
  "62101": {
    "BattleEventID": 62101,
    "Config": "",
    "Prefab": "",
    "LevelAreaPrefab": "",
    "BEActionBarPrefab": "",
    "BasePoint": "",
    "SkillIDList": []
  },
  "62102": {
    "BattleEventID": 62102,
    "Config": "",
    "Prefab": "",
    "LevelAreaPrefab": "",
    "BEActionBarPrefab": "",
    "BasePoint": "",
    "SkillIDList": []
  },
  "62103": {
    "BattleEventID": 62103,
    "Config": "",
    "Prefab": "",
    "LevelAreaPrefab": "",
    "BEActionBarPrefab": "",
    "BasePoint": "",
    "SkillIDList": []
  },
  "62104": {
    "BattleEventID": 62104,
    "Config": "",
    "Prefab": "",
    "LevelAreaPrefab": "",
    "BEActionBarPrefab": "",
    "BasePoint": "",
    "SkillIDList": []
  },
  "62105": {
    "BattleEventID": 62105,
    "Config": "",
    "Prefab": "",
    "LevelAreaPrefab": "",
    "BEActionBarPrefab": "",
    "BasePoint": "",
    "SkillIDList": []
  },
  "62106": {
    "BattleEventID": 62106,
    "Config": "",
    "Prefab": "",
    "LevelAreaPrefab": "",
    "BEActionBarPrefab": "",
    "BasePoint": "",
    "SkillIDList": []
  },
  "62107": {
    "BattleEventID": 62107,
    "Config": "",
    "Prefab": "",
    "LevelAreaPrefab": "",
    "BEActionBarPrefab": "",
    "BasePoint": "",
    "SkillIDList": []
  },
  "30127": {
    "BattleEventID": 30127,
    "Config": "",
    "Prefab": "",
    "LevelAreaPrefab": "",
    "BEActionBarPrefab": "",
    "BasePoint": "",
    "SkillIDList": []
  },
  "30128": {
    "BattleEventID": 30128,
    "Config": "",
    "Prefab": "",
    "LevelAreaPrefab": "",
    "BEActionBarPrefab": "",
    "BasePoint": "",
    "SkillIDList": []
  },
  "60012": {
    "BattleEventID": 60012,
    "Config": "Config/ConfigCharacter/BattleEvent/Avatar_MissionBattleEvent60012_Config.json",
    "Prefab": "Characters/CharacterPrefabs/Avatar/PlayerBoy_20/Avatar_PlayerBoy_20.prefab",
    "LevelAreaPrefab": "",
    "BEActionBarPrefab": "",
    "BasePoint": "",
    "SkillIDList": [
      6001201,
      6001202
    ]
  },
  "96085": {
    "BattleEventID": 96085,
    "Config": "",
    "Prefab": "",
    "LevelAreaPrefab": "",
    "BEActionBarPrefab": "",
    "BasePoint": "",
    "SkillIDList": []
  },
  "62111": {
    "BattleEventID": 62111,
    "Config": "Config/ConfigCharacter/BattleEvent/Common_NoActionDelay_Config.json",
    "Prefab": "",
    "LevelAreaPrefab": "",
    "BEActionBarPrefab": "",
    "BasePoint": "",
    "SkillIDList": []
  },
  "48004": {
    "BattleEventID": 48004,
    "Config": "",
    "Prefab": "",
    "LevelAreaPrefab": "",
    "BEActionBarPrefab": "",
    "BasePoint": "",
    "SkillIDList": []
  },
  "60013": {
    "BattleEventID": 60013,
    "Config": "Config/ConfigCharacter/BattleEvent/Avatar_MissionBattleEvent60013_Config.json",
    "Prefab": "Characters/CharacterPrefabs/Avatar/PlayerBoy_20/Avatar_PlayerBoy_20.prefab",
    "LevelAreaPrefab": "",
    "BEActionBarPrefab": "",
    "BasePoint": "",
    "SkillIDList": [
      6001301,
      6001302
    ]
  },
  "96071": {
    "BattleEventID": 96071,
    "Config": "",
    "Prefab": "",
    "LevelAreaPrefab": "",
    "BEActionBarPrefab": "",
    "BasePoint": "",
    "SkillIDList": []
  }
}