{
  "100": {
    "GroupID": 100,
    "GroupName": {
      "Hash": -907509543
    },
    "RewardLineGroupID": 1,
    "PreMissionID": 4010134,
    "MapEntranceID": 1010201,
    "MappingInfoID": 1206,
    "WorldID": 201,
    "BackGroundPath": "UI/UI3D/Abyss/World/Texture/AbyssSenceBg_01.png",
    "TabPicPath": "SpriteOutput/UI/Abyss/Process/TypeIcon/AbyssSwitchW01_Off.png",
    "TabPicSelectPath": "SpriteOutput/UI/Abyss/Process/TypeIcon/AbyssSwitchW01_On.png",
    "ChallengeGroupType": "Memory",
    "ThemePicPath": ""
  },
  "900": {
    "GroupID": 900,
    "GroupName": {
      "Hash": -907509807
    },
    "RewardLineGroupID": 21,
    "PreMissionID": 1021501,
    "MapEntranceID": 1010201,
    "MappingInfoID": 1206,
    "WorldID": 301,
    "BackGroundPath": "UI/UI3D/Abyss/World/Texture/AbyssSenceBg_02.png",
    "TabPicPath": "SpriteOutput/UI/Abyss/Process/TypeIcon/AbyssSwitchW02_Off.png",
    "TabPicSelectPath": "SpriteOutput/UI/Abyss/Process/TypeIcon/AbyssSwitchW02_On.png",
    "ChallengeGroupType": "Memory",
    "ThemePicPath": ""
  },
  "101": {
    "GroupID": 101,
    "GroupName": {
      "Hash": -907509544
    },
    "RewardLineGroupID": 2,
    "PreMissionID": 4010134,
    "ScheduleDataID": 200101,
    "MazeBuffID": 3030104,
    "MapEntranceID": 1010201,
    "MappingInfoID": 1220,
    "BackGroundPath": "",
    "TabPicPath": "SpriteOutput/UI/Abyss/Process/TypeIcon/AbyssSwitchLoop_Off.png",
    "TabPicSelectPath": "SpriteOutput/UI/Abyss/Process/TypeIcon/AbyssSwitchLoop_On.png",
    "ChallengeGroupType": "Memory",
    "ThemePicPath": ""
  },
  "102": {
    "GroupID": 102,
    "GroupName": {
      "Hash": -907509541
    },
    "RewardLineGroupID": 2,
    "PreMissionID": 4010134,
    "ScheduleDataID": 200102,
    "MazeBuffID": 3030104,
    "MapEntranceID": 1010201,
    "MappingInfoID": 1220,
    "BackGroundPath": "",
    "TabPicPath": "SpriteOutput/UI/Abyss/Process/TypeIcon/AbyssSwitchLoop_Off.png",
    "TabPicSelectPath": "SpriteOutput/UI/Abyss/Process/TypeIcon/AbyssSwitchLoop_On.png",
    "ChallengeGroupType": "Memory",
    "ThemePicPath": ""
  },
  "103": {
    "GroupID": 103,
    "GroupName": {
      "Hash": -907509542
    },
    "RewardLineGroupID": 2,
    "PreMissionID": 4010134,
    "ScheduleDataID": 200103,
    "MazeBuffID": 3030104,
    "MapEntranceID": 1010201,
    "MappingInfoID": 1220,
    "BackGroundPath": "",
    "TabPicPath": "SpriteOutput/UI/Abyss/Process/TypeIcon/AbyssSwitchLoop_Off.png",
    "TabPicSelectPath": "SpriteOutput/UI/Abyss/Process/TypeIcon/AbyssSwitchLoop_On.png",
    "ChallengeGroupType": "Memory",
    "ThemePicPath": ""
  },
  "104": {
    "GroupID": 104,
    "GroupName": {
      "Hash": -907509544
    },
    "RewardLineGroupID": 2,
    "PreMissionID": 4010134,
    "ScheduleDataID": 200104,
    "MazeBuffID": 3030104,
    "MapEntranceID": 1010201,
    "MappingInfoID": 1220,
    "BackGroundPath": "",
    "TabPicPath": "SpriteOutput/UI/Abyss/Process/TypeIcon/AbyssSwitchLoop_Off.png",
    "TabPicSelectPath": "SpriteOutput/UI/Abyss/Process/TypeIcon/AbyssSwitchLoop_On.png",
    "ChallengeGroupType": "Memory",
    "ThemePicPath": ""
  },
  "105": {
    "GroupID": 105,
    "GroupName": {
      "Hash": -907509541
    },
    "RewardLineGroupID": 2,
    "PreMissionID": 4010134,
    "ScheduleDataID": 200105,
    "MazeBuffID": 3030104,
    "MapEntranceID": 1010201,
    "MappingInfoID": 1220,
    "BackGroundPath": "",
    "TabPicPath": "SpriteOutput/UI/Abyss/Process/TypeIcon/AbyssSwitchLoop_Off.png",
    "TabPicSelectPath": "SpriteOutput/UI/Abyss/Process/TypeIcon/AbyssSwitchLoop_On.png",
    "ChallengeGroupType": "Memory",
    "ThemePicPath": ""
  },
  "106": {
    "GroupID": 106,
    "GroupName": {
      "Hash": -907509542
    },
    "RewardLineGroupID": 2,
    "PreMissionID": 4010134,
    "ScheduleDataID": 200106,
    "MazeBuffID": 3030104,
    "MapEntranceID": 1010201,
    "MappingInfoID": 1220,
    "BackGroundPath": "",
    "TabPicPath": "SpriteOutput/UI/Abyss/Process/TypeIcon/AbyssSwitchLoop_Off.png",
    "TabPicSelectPath": "SpriteOutput/UI/Abyss/Process/TypeIcon/AbyssSwitchLoop_On.png",
    "ChallengeGroupType": "Memory",
    "ThemePicPath": ""
  },
  "107": {
    "GroupID": 107,
    "GroupName": {
      "Hash": -907509544
    },
    "RewardLineGroupID": 2,
    "PreMissionID": 4010134,
    "ScheduleDataID": 200107,
    "MazeBuffID": 3030104,
    "MapEntranceID": 1010201,
    "MappingInfoID": 1220,
    "BackGroundPath": "",
    "TabPicPath": "SpriteOutput/UI/Abyss/Process/TypeIcon/AbyssSwitchLoop_Off.png",
    "TabPicSelectPath": "SpriteOutput/UI/Abyss/Process/TypeIcon/AbyssSwitchLoop_On.png",
    "ChallengeGroupType": "Memory",
    "ThemePicPath": ""
  },
  "108": {
    "GroupID": 108,
    "GroupName": {
      "Hash": -907509541
    },
    "RewardLineGroupID": 2,
    "PreMissionID": 4010134,
    "ScheduleDataID": 200108,
    "MazeBuffID": 3030104,
    "MapEntranceID": 1010201,
    "MappingInfoID": 1220,
    "BackGroundPath": "",
    "TabPicPath": "SpriteOutput/UI/Abyss/Process/TypeIcon/AbyssSwitchLoop_Off.png",
    "TabPicSelectPath": "SpriteOutput/UI/Abyss/Process/TypeIcon/AbyssSwitchLoop_On.png",
    "ChallengeGroupType": "Memory",
    "ThemePicPath": ""
  },
  "109": {
    "GroupID": 109,
    "GroupName": {
      "Hash": -907509542
    },
    "RewardLineGroupID": 2,
    "PreMissionID": 4010134,
    "ScheduleDataID": 200109,
    "MazeBuffID": 3030104,
    "MapEntranceID": 1010201,
    "MappingInfoID": 1220,
    "BackGroundPath": "",
    "TabPicPath": "SpriteOutput/UI/Abyss/Process/TypeIcon/AbyssSwitchLoop_Off.png",
    "TabPicSelectPath": "SpriteOutput/UI/Abyss/Process/TypeIcon/AbyssSwitchLoop_On.png",
    "ChallengeGroupType": "Memory",
    "ThemePicPath": ""
  },
  "110": {
    "GroupID": 110,
    "GroupName": {
      "Hash": -907509539
    },
    "RewardLineGroupID": 2,
    "PreMissionID": 4010134,
    "ScheduleDataID": 200110,
    "MazeBuffID": 3030107,
    "MapEntranceID": 1010201,
    "MappingInfoID": 1220,
    "BackGroundPath": "",
    "TabPicPath": "SpriteOutput/UI/Abyss/Process/TypeIcon/AbyssSwitchLoop_Off.png",
    "TabPicSelectPath": "SpriteOutput/UI/Abyss/Process/TypeIcon/AbyssSwitchLoop_On.png",
    "ChallengeGroupType": "Memory",
    "ThemePicPath": ""
  },
  "111": {
    "GroupID": 111,
    "GroupName": {
      "Hash": -907509540
    },
    "RewardLineGroupID": 2,
    "PreMissionID": 4010134,
    "ScheduleDataID": 200111,
    "MazeBuffID": 3030108,
    "MapEntranceID": 1010201,
    "MappingInfoID": 1220,
    "BackGroundPath": "",
    "TabPicPath": "SpriteOutput/UI/Abyss/Process/TypeIcon/AbyssSwitchLoop_Off.png",
    "TabPicSelectPath": "SpriteOutput/UI/Abyss/Process/TypeIcon/AbyssSwitchLoop_On.png",
    "ChallengeGroupType": "Memory",
    "ThemePicPath": ""
  },
  "112": {
    "GroupID": 112,
    "GroupName": {
      "Hash": -907509537
    },
    "RewardLineGroupID": 2,
    "PreMissionID": 4010134,
    "ScheduleDataID": 200112,
    "MazeBuffID": 3030109,
    "MapEntranceID": 1010201,
    "MappingInfoID": 1220,
    "BackGroundPath": "",
    "TabPicPath": "SpriteOutput/UI/Abyss/Process/TypeIcon/AbyssSwitchLoop_Off.png",
    "TabPicSelectPath": "SpriteOutput/UI/Abyss/Process/TypeIcon/AbyssSwitchLoop_On.png",
    "ChallengeGroupType": "Memory",
    "ThemePicPath": ""
  },
  "113": {
    "GroupID": 113,
    "GroupName": {
      "Hash": -907509538
    },
    "RewardLineGroupID": 2,
    "PreMissionID": 4010134,
    "ScheduleDataID": 200113,
    "MazeBuffID": 3030110,
    "MapEntranceID": 1010201,
    "MappingInfoID": 1220,
    "BackGroundPath": "",
    "TabPicPath": "SpriteOutput/UI/Abyss/Process/TypeIcon/AbyssSwitchLoop_Off.png",
    "TabPicSelectPath": "SpriteOutput/UI/Abyss/Process/TypeIcon/AbyssSwitchLoop_On.png",
    "ChallengeGroupType": "Memory",
    "ThemePicPath": ""
  },
  "114": {
    "GroupID": 114,
    "GroupName": {
      "Hash": -907509551
    },
    "RewardLineGroupID": 2,
    "PreMissionID": 4010134,
    "ScheduleDataID": 200114,
    "MazeBuffID": 3030111,
    "MapEntranceID": 1010201,
    "MappingInfoID": 1220,
    "BackGroundPath": "",
    "TabPicPath": "SpriteOutput/UI/Abyss/Process/TypeIcon/AbyssSwitchLoop_Off.png",
    "TabPicSelectPath": "SpriteOutput/UI/Abyss/Process/TypeIcon/AbyssSwitchLoop_On.png",
    "ChallengeGroupType": "Memory",
    "ThemePicPath": ""
  },
  "115": {
    "GroupID": 115,
    "GroupName": {
      "Hash": -907509552
    },
    "RewardLineGroupID": 2,
    "PreMissionID": 4010134,
    "ScheduleDataID": 200115,
    "MazeBuffID": 3030112,
    "MapEntranceID": 1010201,
    "MappingInfoID": 1220,
    "BackGroundPath": "",
    "TabPicPath": "SpriteOutput/UI/Abyss/Process/TypeIcon/AbyssSwitchLoop_Off.png",
    "TabPicSelectPath": "SpriteOutput/UI/Abyss/Process/TypeIcon/AbyssSwitchLoop_On.png",
    "ChallengeGroupType": "Memory",
    "ThemePicPath": ""
  },
  "116": {
    "GroupID": 116,
    "GroupName": {
      "Hash": -907509544
    },
    "RewardLineGroupID": 2,
    "PreMissionID": 4010134,
    "ScheduleDataID": 200116,
    "MazeBuffID": 3030104,
    "MapEntranceID": 1010201,
    "MappingInfoID": 1220,
    "BackGroundPath": "",
    "TabPicPath": "SpriteOutput/UI/Abyss/Process/TypeIcon/AbyssSwitchLoop_Off.png",
    "TabPicSelectPath": "SpriteOutput/UI/Abyss/Process/TypeIcon/AbyssSwitchLoop_On.png",
    "ChallengeGroupType": "Memory",
    "ThemePicPath": ""
  },
  "117": {
    "GroupID": 117,
    "GroupName": {
      "Hash": -907509544
    },
    "RewardLineGroupID": 2,
    "PreMissionID": 4010134,
    "ScheduleDataID": 200117,
    "MazeBuffID": 3030104,
    "MapEntranceID": 1010201,
    "MappingInfoID": 1220,
    "BackGroundPath": "",
    "TabPicPath": "SpriteOutput/UI/Abyss/Process/TypeIcon/AbyssSwitchLoop_Off.png",
    "TabPicSelectPath": "SpriteOutput/UI/Abyss/Process/TypeIcon/AbyssSwitchLoop_On.png",
    "ChallengeGroupType": "Memory",
    "ThemePicPath": ""
  },
  "118": {
    "GroupID": 118,
    "GroupName": {
      "Hash": -907509544
    },
    "RewardLineGroupID": 2,
    "PreMissionID": 4010134,
    "ScheduleDataID": 200118,
    "MazeBuffID": 3030104,
    "MapEntranceID": 1010201,
    "MappingInfoID": 1220,
    "BackGroundPath": "",
    "TabPicPath": "SpriteOutput/UI/Abyss/Process/TypeIcon/AbyssSwitchLoop_Off.png",
    "TabPicSelectPath": "SpriteOutput/UI/Abyss/Process/TypeIcon/AbyssSwitchLoop_On.png",
    "ChallengeGroupType": "Memory",
    "ThemePicPath": ""
  },
  "119": {
    "GroupID": 119,
    "GroupName": {
      "Hash": -907509544
    },
    "RewardLineGroupID": 2,
    "PreMissionID": 4010134,
    "ScheduleDataID": 200119,
    "MazeBuffID": 3030104,
    "MapEntranceID": 1010201,
    "MappingInfoID": 1220,
    "BackGroundPath": "",
    "TabPicPath": "SpriteOutput/UI/Abyss/Process/TypeIcon/AbyssSwitchLoop_Off.png",
    "TabPicSelectPath": "SpriteOutput/UI/Abyss/Process/TypeIcon/AbyssSwitchLoop_On.png",
    "ChallengeGroupType": "Memory",
    "ThemePicPath": ""
  },
  "1001": {
    "GroupID": 1001,
    "GroupName": {
      "Hash": 1163575086
    },
    "RewardLineGroupID": 2,
    "PreMissionID": 4010134,
    "ScheduleDataID": 201001,
    "MazeBuffID": 3030113,
    "MapEntranceID": 1010201,
    "MappingInfoID": 1220,
    "BackGroundPath": "",
    "TabPicPath": "SpriteOutput/UI/Abyss/Process/TypeIcon/AbyssSwitchLoop_Off.png",
    "TabPicSelectPath": "SpriteOutput/UI/Abyss/Process/TypeIcon/AbyssSwitchLoop_On.png",
    "ChallengeGroupType": "Memory",
    "ThemePicPath": ""
  },
  "1002": {
    "GroupID": 1002,
    "GroupName": {
      "Hash": -1565308269
    },
    "RewardLineGroupID": 2,
    "PreMissionID": 4010134,
    "ScheduleDataID": 201002,
    "MazeBuffID": 3030114,
    "MapEntranceID": 1010201,
    "MappingInfoID": 1220,
    "BackGroundPath": "",
    "TabPicPath": "SpriteOutput/UI/Abyss/Process/TypeIcon/AbyssSwitchLoop_Off.png",
    "TabPicSelectPath": "SpriteOutput/UI/Abyss/Process/TypeIcon/AbyssSwitchLoop_On.png",
    "ChallengeGroupType": "Memory",
    "ThemePicPath": ""
  },
  "1003": {
    "GroupID": 1003,
    "GroupName": {
      "Hash": 775672
    },
    "RewardLineGroupID": 2,
    "PreMissionID": 4010134,
    "ScheduleDataID": 201003,
    "MazeBuffID": 3030115,
    "MapEntranceID": 1010201,
    "MappingInfoID": 1220,
    "BackGroundPath": "",
    "TabPicPath": "SpriteOutput/UI/Abyss/Process/TypeIcon/AbyssSwitchLoop_Off.png",
    "TabPicSelectPath": "SpriteOutput/UI/Abyss/Process/TypeIcon/AbyssSwitchLoop_On.png",
    "ChallengeGroupType": "Memory",
    "ThemePicPath": ""
  },
  "1004": {
    "GroupID": 1004,
    "GroupName": {
      "Hash": 1566859613
    },
    "RewardLineGroupID": 2,
    "PreMissionID": 4010134,
    "ScheduleDataID": 201004,
    "MazeBuffID": 3030116,
    "MapEntranceID": 1010201,
    "MappingInfoID": 1220,
    "BackGroundPath": "",
    "TabPicPath": "SpriteOutput/UI/Abyss/Process/TypeIcon/AbyssSwitchLoop_Off.png",
    "TabPicSelectPath": "SpriteOutput/UI/Abyss/Process/TypeIcon/AbyssSwitchLoop_On.png",
    "ChallengeGroupType": "Memory",
    "ThemePicPath": ""
  },
  "1005": {
    "GroupID": 1005,
    "GroupName": {
      "Hash": -1162023742
    },
    "RewardLineGroupID": 2,
    "PreMissionID": 4010134,
    "ScheduleDataID": 201005,
    "MazeBuffID": 3030117,
    "MapEntranceID": 1010201,
    "MappingInfoID": 1220,
    "BackGroundPath": "",
    "TabPicPath": "SpriteOutput/UI/Abyss/Process/TypeIcon/AbyssSwitchLoop_Off.png",
    "TabPicSelectPath": "SpriteOutput/UI/Abyss/Process/TypeIcon/AbyssSwitchLoop_On.png",
    "ChallengeGroupType": "Memory",
    "ThemePicPath": ""
  },
  "1006": {
    "GroupID": 1006,
    "GroupName": {
      "Hash": 404060199
    },
    "RewardLineGroupID": 2,
    "PreMissionID": 4010134,
    "ScheduleDataID": 201006,
    "MazeBuffID": 3030120,
    "MapEntranceID": 1010201,
    "MappingInfoID": 1220,
    "BackGroundPath": "",
    "TabPicPath": "SpriteOutput/UI/Abyss/Process/TypeIcon/AbyssSwitchLoop_Off.png",
    "TabPicSelectPath": "SpriteOutput/UI/Abyss/Process/TypeIcon/AbyssSwitchLoop_On.png",
    "ChallengeGroupType": "Memory",
    "ThemePicPath": ""
  },
  "1007": {
    "GroupID": 1007,
    "GroupName": {
      "Hash": 1970144140
    },
    "RewardLineGroupID": 2,
    "PreMissionID": 4010134,
    "ScheduleDataID": 201007,
    "MazeBuffID": 3030119,
    "MapEntranceID": 1010201,
    "MappingInfoID": 1220,
    "BackGroundPath": "",
    "TabPicPath": "SpriteOutput/UI/Abyss/Process/TypeIcon/AbyssSwitchLoop_Off.png",
    "TabPicSelectPath": "SpriteOutput/UI/Abyss/Process/TypeIcon/AbyssSwitchLoop_On.png",
    "ChallengeGroupType": "Memory",
    "ThemePicPath": ""
  },
  "1008": {
    "GroupID": 1008,
    "GroupName": {
      "Hash": -758739215
    },
    "RewardLineGroupID": 2,
    "PreMissionID": 4010134,
    "ScheduleDataID": 201008,
    "MazeBuffID": 3030118,
    "MapEntranceID": 1010201,
    "MappingInfoID": 1220,
    "BackGroundPath": "",
    "TabPicPath": "SpriteOutput/UI/Abyss/Process/TypeIcon/AbyssSwitchLoop_Off.png",
    "TabPicSelectPath": "SpriteOutput/UI/Abyss/Process/TypeIcon/AbyssSwitchLoop_On.png",
    "ChallengeGroupType": "Memory",
    "ThemePicPath": ""
  },
  "1009": {
    "GroupID": 1009,
    "GroupName": {
      "Hash": 807344726
    },
    "RewardLineGroupID": 2,
    "PreMissionID": 4010134,
    "ScheduleDataID": 201009,
    "MazeBuffID": 3030121,
    "MapEntranceID": 1010201,
    "MappingInfoID": 1220,
    "BackGroundPath": "UI/UI3D/Abyss/World/Texture/AbyssSenceBgl_Red_00.png",
    "TabPicPath": "SpriteOutput/UI/Abyss/Process/TypeIcon/AbyssSwitchLoop_Off.png",
    "TabPicSelectPath": "SpriteOutput/UI/Abyss/Process/TypeIcon/AbyssSwitchLoop_On.png",
    "ChallengeGroupType": "Memory",
    "ThemePicPath": "SpriteOutput/DailyMission/Banner/ChallengeAbyssBanner2.png"
  },
  "1010": {
    "GroupID": 1010,
    "GroupName": {
      "Hash": -402508856
    },
    "RewardLineGroupID": 2,
    "PreMissionID": 4010134,
    "ScheduleDataID": 201010,
    "MazeBuffID": 3030123,
    "MapEntranceID": 1010201,
    "MappingInfoID": 1220,
    "BackGroundPath": "UI/UI3D/Abyss/World/Texture/AbyssSenceBgl_Red_01.png",
    "TabPicPath": "SpriteOutput/UI/Abyss/Process/TypeIcon/AbyssSwitchLoop_Off.png",
    "TabPicSelectPath": "SpriteOutput/UI/Abyss/Process/TypeIcon/AbyssSwitchLoop_On.png",
    "ChallengeGroupType": "Memory",
    "ThemePicPath": "SpriteOutput/DailyMission/Banner/ChallengeAbyssBanner2.png"
  },
  "1011": {
    "GroupID": 1011,
    "GroupName": {
      "Hash": 1163575085
    },
    "RewardLineGroupID": 2,
    "PreMissionID": 4010134,
    "ScheduleDataID": 201011,
    "MazeBuffID": 3030124,
    "MapEntranceID": 1010201,
    "MappingInfoID": 1220,
    "BackGroundPath": "UI/UI3D/Abyss/World/Texture/AbyssSenceBgl_Red_03_02.png",
    "TabPicPath": "SpriteOutput/UI/Abyss/Process/TypeIcon/AbyssSwitchLoop_Off.png",
    "TabPicSelectPath": "SpriteOutput/UI/Abyss/Process/TypeIcon/AbyssSwitchLoop_On.png",
    "ChallengeGroupType": "Memory",
    "ThemePicPath": "SpriteOutput/DailyMission/Banner/ChallengeAbyssBanner2.png"
  },
  "1012": {
    "GroupID": 1012,
    "GroupName": {
      "Hash": -1565308270
    },
    "RewardLineGroupID": 2,
    "PreMissionID": 4010134,
    "ScheduleDataID": 201012,
    "MazeBuffID": 3030125,
    "MapEntranceID": 1010201,
    "MappingInfoID": 1220,
    "BackGroundPath": "UI/UI3D/Abyss/World/Texture/AbyssSenceBgl_Red_03_01.png",
    "TabPicPath": "SpriteOutput/UI/Abyss/Process/TypeIcon/AbyssSwitchLoop_Off.png",
    "TabPicSelectPath": "SpriteOutput/UI/Abyss/Process/TypeIcon/AbyssSwitchLoop_On.png",
    "ChallengeGroupType": "Memory",
    "ThemePicPath": "SpriteOutput/DailyMission/Banner/ChallengeAbyssBanner2.png"
  },
  "1013": {
    "GroupID": 1013,
    "GroupName": {
      "Hash": 775671
    },
    "RewardLineGroupID": 2,
    "PreMissionID": 4010134,
    "ScheduleDataID": 201013,
    "MazeBuffID": 3030126,
    "MapEntranceID": 1010201,
    "MappingInfoID": 1220,
    "BackGroundPath": "UI/UI3D/Abyss/World/Texture/AbyssSenceBgl_Red_03_03.png",
    "TabPicPath": "SpriteOutput/UI/Abyss/Process/TypeIcon/AbyssSwitchLoop_Off.png",
    "TabPicSelectPath": "SpriteOutput/UI/Abyss/Process/TypeIcon/AbyssSwitchLoop_On.png",
    "ChallengeGroupType": "Memory",
    "ThemePicPath": "SpriteOutput/DailyMission/Banner/ChallengeAbyssBanner2.png"
  },
  "1014": {
    "GroupID": 1014,
    "GroupName": {
      "Hash": 1566859612
    },
    "RewardLineGroupID": 2,
    "PreMissionID": 4010134,
    "GlobalScheduleID": 291014,
    "ScheduleDataID": 201014,
    "MazeBuffID": 3030127,
    "MapEntranceID": 1010201,
    "MappingInfoID": 1220,
    "BackGroundPath": "UI/UI3D/Abyss/World/Texture/AbyssSenceBgl_Red_03_01.png",
    "TabPicPath": "SpriteOutput/UI/Abyss/Process/TypeIcon/AbyssSwitchLoop_Off.png",
    "TabPicSelectPath": "SpriteOutput/UI/Abyss/Process/TypeIcon/AbyssSwitchLoop_On.png",
    "ChallengeGroupType": "Memory",
    "ThemePicPath": "SpriteOutput/DailyMission/Banner/ChallengeAbyssBanner2.png"
  },
  "1015": {
    "GroupID": 1015,
    "GroupName": {
      "Hash": -1162023743
    },
    "RewardLineGroupID": 2,
    "PreMissionID": 4010134,
    "ScheduleDataID": 201015,
    "MazeBuffID": 3030128,
    "MapEntranceID": 1010201,
    "MappingInfoID": 1220,
    "BackGroundPath": "UI/UI3D/Abyss/World/Texture/AbyssSenceBgl_Red_05.png",
    "TabPicPath": "SpriteOutput/UI/Abyss/Process/TypeIcon/AbyssSwitchLoop_Off.png",
    "TabPicSelectPath": "SpriteOutput/UI/Abyss/Process/TypeIcon/AbyssSwitchLoop_On.png",
    "ChallengeGroupType": "Memory",
    "ThemePicPath": "SpriteOutput/DailyMission/Banner/ChallengeAbyssBanner2.png"
  }
}