{
  "20001": {
    "EmojiID": 20001,
    "Gender": "All",
    "EmojiGroupID": 107,
    "KeyWords": {
      "Hash": 797051339
    },
    "EmojiPath": "SpriteOutput/Emoji/20001.png",
    "SameGroupOrder": 1,
    "IsTrainMembers": true
  },
  "20002": {
    "EmojiID": 20002,
    "Gender": "All",
    "EmojiGroupID": 107,
    "KeyWords": {
      "Hash": -1931832016
    },
    "EmojiPath": "SpriteOutput/Emoji/20002.png",
    "SameGroupOrder": 2,
    "IsTrainMembers": true
  },
  "20003": {
    "EmojiID": 20003,
    "Gender": "All",
    "EmojiGroupID": 107,
    "KeyWords": {
      "Hash": -365748075
    },
    "EmojiPath": "SpriteOutput/Emoji/20003.png",
    "SameGroupOrder": 3,
    "IsTrainMembers": true
  },
  "20004": {
    "EmojiID": 20004,
    "Gender": "All",
    "EmojiGroupID": 107,
    "KeyWords": {
      "Hash": 1200335866
    },
    "EmojiPath": "SpriteOutput/Emoji/20004.png",
    "SameGroupOrder": 4,
    "IsTrainMembers": true
  },
  "20005": {
    "EmojiID": 20005,
    "Gender": "All",
    "EmojiGroupID": 107,
    "KeyWords": {
      "Hash": -1528547489
    },
    "EmojiPath": "SpriteOutput/Emoji/20005.png",
    "SameGroupOrder": 5,
    "IsTrainMembers": true
  },
  "20006": {
    "EmojiID": 20006,
    "Gender": "All",
    "EmojiGroupID": 107,
    "KeyWords": {
      "Hash": 37536452
    },
    "EmojiPath": "SpriteOutput/Emoji/20006.png",
    "SameGroupOrder": 6,
    "IsTrainMembers": true
  },
  "20007": {
    "EmojiID": 20007,
    "Gender": "All",
    "EmojiGroupID": 107,
    "KeyWords": {
      "Hash": 1603620393
    },
    "EmojiPath": "SpriteOutput/Emoji/20007.png",
    "SameGroupOrder": 7,
    "IsTrainMembers": true
  },
  "20008": {
    "EmojiID": 20008,
    "Gender": "All",
    "EmojiGroupID": 107,
    "KeyWords": {
      "Hash": -412802242
    },
    "EmojiPath": "SpriteOutput/Emoji/20008.png",
    "SameGroupOrder": 8,
    "IsTrainMembers": true
  },
  "30001": {
    "EmojiID": 30001,
    "Gender": "All",
    "KeyWords": {
      "Hash": 1878780518
    },
    "EmojiPath": "SpriteOutput/Emoji/30001.png"
  },
  "30002": {
    "EmojiID": 30002,
    "Gender": "All",
    "KeyWords": {
      "Hash": -2012902251
    },
    "EmojiPath": "SpriteOutput/Emoji/30002.png"
  },
  "30003": {
    "EmojiID": 30003,
    "Gender": "All",
    "EmojiGroupID": 101,
    "KeyWords": {
      "Hash": 715981104
    },
    "EmojiPath": "SpriteOutput/Emoji/30003.png",
    "SameGroupOrder": 14,
    "IsTrainMembers": true
  },
  "30004": {
    "EmojiID": 30004,
    "Gender": "All",
    "EmojiGroupID": 101,
    "KeyWords": {
      "Hash": 1119265631
    },
    "EmojiPath": "SpriteOutput/Emoji/30004.png",
    "SameGroupOrder": 8,
    "IsTrainMembers": true
  },
  "30005": {
    "EmojiID": 30005,
    "Gender": "All",
    "EmojiGroupID": 101,
    "KeyWords": {
      "Hash": -446818310
    },
    "EmojiPath": "SpriteOutput/Emoji/30005.png",
    "SameGroupOrder": 12,
    "IsTrainMembers": true
  },
  "30006": {
    "EmojiID": 30006,
    "Gender": "All",
    "EmojiGroupID": 101,
    "KeyWords": {
      "Hash": -43533783
    },
    "EmojiPath": "SpriteOutput/Emoji/30006.png",
    "SameGroupOrder": 6,
    "IsTrainMembers": true
  },
  "30007": {
    "EmojiID": 30007,
    "Gender": "All",
    "EmojiGroupID": 102,
    "KeyWords": {
      "Hash": -1609617724
    },
    "EmojiPath": "SpriteOutput/Emoji/30007.png",
    "SameGroupOrder": 9
  },
  "30101": {
    "EmojiID": 30101,
    "Gender": "All",
    "KeyWords": {
      "Hash": 2019943019
    },
    "EmojiPath": "SpriteOutput/Emoji/30101.png"
  },
  "30102": {
    "EmojiID": 30102,
    "Gender": "All",
    "KeyWords": {
      "Hash": -708940336
    },
    "EmojiPath": "SpriteOutput/Emoji/30102.png"
  },
  "30201": {
    "EmojiID": 30201,
    "Gender": "All",
    "EmojiGroupID": 103,
    "KeyWords": {
      "Hash": -2133861776
    },
    "EmojiPath": "SpriteOutput/Emoji/30201.png",
    "SameGroupOrder": 7
  },
  "30008": {
    "EmojiID": 30008,
    "Gender": "All",
    "KeyWords": {
      "Hash": -493872477
    },
    "EmojiPath": "SpriteOutput/Emoji/111001.png"
  },
  "30009": {
    "EmojiID": 30009,
    "Gender": "All",
    "KeyWords": {
      "Hash": -2059956418
    },
    "EmojiPath": "SpriteOutput/Emoji/111002.png"
  },
  "30010": {
    "EmojiID": 30010,
    "Gender": "All",
    "KeyWords": {
      "Hash": -850102836
    },
    "EmojiPath": "SpriteOutput/Emoji/111003.png"
  },
  "30011": {
    "EmojiID": 30011,
    "Gender": "All",
    "KeyWords": {
      "Hash": 1878780519
    },
    "EmojiPath": "SpriteOutput/Emoji/111004.png"
  },
  "30012": {
    "EmojiID": 30012,
    "Gender": "All",
    "KeyWords": {
      "Hash": -2012902250
    },
    "EmojiPath": "SpriteOutput/Emoji/111005.png"
  },
  "30013": {
    "EmojiID": 30013,
    "Gender": "All",
    "KeyWords": {
      "Hash": 715981105
    },
    "EmojiPath": "SpriteOutput/Emoji/111006.png"
  },
  "30014": {
    "EmojiID": 30014,
    "Gender": "All",
    "KeyWords": {
      "Hash": 1119265632
    },
    "EmojiPath": "SpriteOutput/Emoji/Mission/Emoji_Photo_01.png"
  },
  "30015": {
    "EmojiID": 30015,
    "Gender": "All",
    "KeyWords": {
      "Hash": -446818309
    },
    "EmojiPath": "SpriteOutput/Emoji/Mission/Emoji_Photo_02.png"
  },
  "30016": {
    "EmojiID": 30016,
    "Gender": "All",
    "KeyWords": {
      "Hash": -43533782
    },
    "EmojiPath": "SpriteOutput/Emoji/Mission/Emoji_Photo_03.png"
  },
  "101001": {
    "EmojiID": 101001,
    "Gender": "All",
    "EmojiGroupID": 101,
    "KeyWords": {
      "Hash": 1581188609
    },
    "EmojiPath": "SpriteOutput/Emoji/101001.png",
    "SameGroupOrder": 1,
    "IsTrainMembers": true
  },
  "101002": {
    "EmojiID": 101002,
    "Gender": "All",
    "EmojiGroupID": 101,
    "KeyWords": {
      "Hash": 1581188606
    },
    "EmojiPath": "SpriteOutput/Emoji/101002.png",
    "SameGroupOrder": 2,
    "IsTrainMembers": true
  },
  "101003": {
    "EmojiID": 101003,
    "Gender": "All",
    "EmojiGroupID": 101,
    "KeyWords": {
      "Hash": 1581188607
    },
    "EmojiPath": "SpriteOutput/Emoji/101003.png",
    "SameGroupOrder": 3,
    "IsTrainMembers": true
  },
  "101004": {
    "EmojiID": 101004,
    "Gender": "All",
    "EmojiGroupID": 101,
    "KeyWords": {
      "Hash": 1581188604
    },
    "EmojiPath": "SpriteOutput/Emoji/101004.png",
    "SameGroupOrder": 4,
    "IsTrainMembers": true
  },
  "101005": {
    "EmojiID": 101005,
    "Gender": "All",
    "EmojiGroupID": 101,
    "KeyWords": {
      "Hash": 1581188605
    },
    "EmojiPath": "SpriteOutput/Emoji/101005.png",
    "SameGroupOrder": 5,
    "IsTrainMembers": true
  },
  "101006": {
    "EmojiID": 101006,
    "Gender": "All",
    "EmojiGroupID": 101,
    "KeyWords": {
      "Hash": 1581188602
    },
    "EmojiPath": "SpriteOutput/Emoji/101006.png",
    "SameGroupOrder": 7,
    "IsTrainMembers": true
  },
  "101007": {
    "EmojiID": 101007,
    "Gender": "All",
    "EmojiGroupID": 101,
    "KeyWords": {
      "Hash": 1581188603
    },
    "EmojiPath": "SpriteOutput/Emoji/101007.png",
    "SameGroupOrder": 9,
    "IsTrainMembers": true
  },
  "101008": {
    "EmojiID": 101008,
    "Gender": "All",
    "EmojiGroupID": 101,
    "KeyWords": {
      "Hash": 1581188600
    },
    "EmojiPath": "SpriteOutput/Emoji/101008.png",
    "SameGroupOrder": 10,
    "IsTrainMembers": true
  },
  "101009": {
    "EmojiID": 101009,
    "Gender": "All",
    "EmojiGroupID": 101,
    "KeyWords": {
      "Hash": 1581188601
    },
    "EmojiPath": "SpriteOutput/Emoji/101009.png",
    "SameGroupOrder": 11,
    "IsTrainMembers": true
  },
  "101010": {
    "EmojiID": 101010,
    "Gender": "All",
    "EmojiGroupID": 101,
    "KeyWords": {
      "Hash": -1147694747
    },
    "EmojiPath": "SpriteOutput/Emoji/101010.png",
    "SameGroupOrder": 13,
    "IsTrainMembers": true
  },
  "101011": {
    "EmojiID": 101011,
    "Gender": "All",
    "EmojiGroupID": 101,
    "KeyWords": {
      "Hash": -1147694746
    },
    "EmojiPath": "SpriteOutput/Emoji/101011.png",
    "SameGroupOrder": 15,
    "IsTrainMembers": true
  },
  "101012": {
    "EmojiID": 101012,
    "Gender": "All",
    "EmojiGroupID": 101,
    "KeyWords": {
      "Hash": -1147694749
    },
    "EmojiPath": "SpriteOutput/Emoji/101012.png",
    "SameGroupOrder": 16,
    "IsTrainMembers": true
  },
  "102001": {
    "EmojiID": 102001,
    "Gender": "All",
    "EmojiGroupID": 102,
    "KeyWords": {
      "Hash": -5098308
    },
    "EmojiPath": "SpriteOutput/Emoji/102001.png",
    "SameGroupOrder": 1,
    "IsTrainMembers": true
  },
  "102002": {
    "EmojiID": 102002,
    "Gender": "All",
    "EmojiGroupID": 102,
    "KeyWords": {
      "Hash": -5098311
    },
    "EmojiPath": "SpriteOutput/Emoji/102002.png",
    "SameGroupOrder": 2,
    "IsTrainMembers": true
  },
  "102003": {
    "EmojiID": 102003,
    "Gender": "All",
    "EmojiGroupID": 102,
    "KeyWords": {
      "Hash": -5098310
    },
    "EmojiPath": "SpriteOutput/Emoji/102003.png",
    "SameGroupOrder": 3,
    "IsTrainMembers": true
  },
  "102004": {
    "EmojiID": 102004,
    "Gender": "All",
    "EmojiGroupID": 102,
    "KeyWords": {
      "Hash": -5098313
    },
    "EmojiPath": "SpriteOutput/Emoji/102004.png",
    "SameGroupOrder": 4
  },
  "102005": {
    "EmojiID": 102005,
    "Gender": "All",
    "EmojiGroupID": 102,
    "KeyWords": {
      "Hash": -5098312
    },
    "EmojiPath": "SpriteOutput/Emoji/102005.png",
    "SameGroupOrder": 5
  },
  "102006": {
    "EmojiID": 102006,
    "Gender": "All",
    "EmojiGroupID": 102,
    "KeyWords": {
      "Hash": -5098315
    },
    "EmojiPath": "SpriteOutput/Emoji/102006.png",
    "SameGroupOrder": 6
  },
  "102007": {
    "EmojiID": 102007,
    "Gender": "All",
    "EmojiGroupID": 102,
    "KeyWords": {
      "Hash": -5098314
    },
    "EmojiPath": "SpriteOutput/Emoji/102007.png",
    "SameGroupOrder": 7
  },
  "102008": {
    "EmojiID": 102008,
    "Gender": "All",
    "EmojiGroupID": 102,
    "KeyWords": {
      "Hash": -5098317
    },
    "EmojiPath": "SpriteOutput/Emoji/102008.png",
    "SameGroupOrder": 8
  },
  "102009": {
    "EmojiID": 102009,
    "Gender": "All",
    "EmojiGroupID": 102,
    "KeyWords": {
      "Hash": -5098316
    },
    "EmojiPath": "SpriteOutput/Emoji/102009.png",
    "SameGroupOrder": 10
  },
  "102010": {
    "EmojiID": 102010,
    "Gender": "All",
    "EmojiGroupID": 102,
    "KeyWords": {
      "Hash": -1571182250
    },
    "EmojiPath": "SpriteOutput/Emoji/102010.png",
    "SameGroupOrder": 11
  },
  "102011": {
    "EmojiID": 102011,
    "Gender": "All",
    "EmojiGroupID": 102,
    "KeyWords": {
      "Hash": -1571182249
    },
    "EmojiPath": "SpriteOutput/Emoji/102011.png",
    "SameGroupOrder": 12
  },
  "102012": {
    "EmojiID": 102012,
    "Gender": "All",
    "EmojiGroupID": 102,
    "KeyWords": {
      "Hash": -1571182252
    },
    "EmojiPath": "SpriteOutput/Emoji/102012.png",
    "SameGroupOrder": 13
  },
  "102013": {
    "EmojiID": 102013,
    "Gender": "All",
    "EmojiGroupID": 102,
    "KeyWords": {
      "Hash": -1571182251
    },
    "EmojiPath": "SpriteOutput/Emoji/102013.png",
    "SameGroupOrder": 14
  },
  "102014": {
    "EmojiID": 102014,
    "Gender": "Male",
    "EmojiGroupID": 102,
    "KeyWords": {
      "Hash": -1571182254
    },
    "EmojiPath": "SpriteOutput/Emoji/102014.png",
    "SameGroupOrder": 15,
    "GenderLink": 1,
    "IsTrainMembers": true
  },
  "102015": {
    "EmojiID": 102015,
    "Gender": "Female",
    "EmojiGroupID": 102,
    "KeyWords": {
      "Hash": -1571182253
    },
    "EmojiPath": "SpriteOutput/Emoji/102015.png",
    "SameGroupOrder": 16,
    "GenderLink": 1,
    "IsTrainMembers": true
  },
  "103001": {
    "EmojiID": 103001,
    "Gender": "All",
    "EmojiGroupID": 103,
    "KeyWords": {
      "Hash": 1298863607
    },
    "EmojiPath": "SpriteOutput/Emoji/103001.png",
    "SameGroupOrder": 1
  },
  "103002": {
    "EmojiID": 103002,
    "Gender": "All",
    "EmojiGroupID": 103,
    "KeyWords": {
      "Hash": 1298863604
    },
    "EmojiPath": "SpriteOutput/Emoji/103002.png",
    "SameGroupOrder": 2
  },
  "103003": {
    "EmojiID": 103003,
    "Gender": "All",
    "EmojiGroupID": 103,
    "KeyWords": {
      "Hash": 1298863605
    },
    "EmojiPath": "SpriteOutput/Emoji/103003.png",
    "SameGroupOrder": 3,
    "IsTrainMembers": true
  },
  "103004": {
    "EmojiID": 103004,
    "Gender": "Male",
    "EmojiGroupID": 103,
    "KeyWords": {
      "Hash": 1298863602
    },
    "EmojiPath": "SpriteOutput/Emoji/103004.png",
    "SameGroupOrder": 4,
    "GenderLink": 2,
    "IsTrainMembers": true
  },
  "103005": {
    "EmojiID": 103005,
    "Gender": "Female",
    "EmojiGroupID": 103,
    "KeyWords": {
      "Hash": 1298863603
    },
    "EmojiPath": "SpriteOutput/Emoji/103005.png",
    "SameGroupOrder": 5,
    "GenderLink": 2,
    "IsTrainMembers": true
  },
  "103006": {
    "EmojiID": 103006,
    "Gender": "All",
    "EmojiGroupID": 103,
    "KeyWords": {
      "Hash": 1298863600
    },
    "EmojiPath": "SpriteOutput/Emoji/103006.png",
    "SameGroupOrder": 6,
    "IsTrainMembers": true
  },
  "103007": {
    "EmojiID": 103007,
    "Gender": "All",
    "EmojiGroupID": 103,
    "KeyWords": {
      "Hash": 1298863601
    },
    "EmojiPath": "SpriteOutput/Emoji/103007.png",
    "SameGroupOrder": 8
  },
  "103008": {
    "EmojiID": 103008,
    "Gender": "All",
    "EmojiGroupID": 103,
    "KeyWords": {
      "Hash": 1298863598
    },
    "EmojiPath": "SpriteOutput/Emoji/103008.png",
    "SameGroupOrder": 9
  },
  "103009": {
    "EmojiID": 103009,
    "Gender": "All",
    "EmojiGroupID": 103,
    "KeyWords": {
      "Hash": 1298863599
    },
    "EmojiPath": "SpriteOutput/Emoji/103009.png",
    "SameGroupOrder": 10
  },
  "103010": {
    "EmojiID": 103010,
    "Gender": "All",
    "EmojiGroupID": 103,
    "KeyWords": {
      "Hash": -1430019749
    },
    "EmojiPath": "SpriteOutput/Emoji/103010.png",
    "SameGroupOrder": 11
  },
  "103011": {
    "EmojiID": 103011,
    "Gender": "All",
    "EmojiGroupID": 103,
    "KeyWords": {
      "Hash": -1430019748
    },
    "EmojiPath": "SpriteOutput/Emoji/103011.png",
    "SameGroupOrder": 12
  },
  "103012": {
    "EmojiID": 103012,
    "Gender": "All",
    "EmojiGroupID": 103,
    "KeyWords": {
      "Hash": -1430019751
    },
    "EmojiPath": "SpriteOutput/Emoji/103012.png",
    "SameGroupOrder": 13
  },
  "103013": {
    "EmojiID": 103013,
    "Gender": "All",
    "EmojiGroupID": 103,
    "KeyWords": {
      "Hash": -1430019750
    },
    "EmojiPath": "SpriteOutput/Emoji/103013.png",
    "SameGroupOrder": 14
  },
  "103014": {
    "EmojiID": 103014,
    "Gender": "All",
    "EmojiGroupID": 103,
    "KeyWords": {
      "Hash": -1430019753
    },
    "EmojiPath": "SpriteOutput/Emoji/103014.png",
    "SameGroupOrder": 15
  },
  "103015": {
    "EmojiID": 103015,
    "Gender": "All",
    "EmojiGroupID": 103,
    "KeyWords": {
      "Hash": -1430019752
    },
    "EmojiPath": "SpriteOutput/Emoji/103015.png",
    "SameGroupOrder": 16
  },
  "104001": {
    "EmojiID": 104001,
    "Gender": "All",
    "EmojiGroupID": 104,
    "KeyWords": {
      "Hash": 841876698
    },
    "EmojiPath": "SpriteOutput/Emoji/104001.png",
    "SameGroupOrder": 2
  },
  "104002": {
    "EmojiID": 104002,
    "Gender": "All",
    "EmojiGroupID": 104,
    "KeyWords": {
      "Hash": 841876695
    },
    "EmojiPath": "SpriteOutput/Emoji/104002.png",
    "SameGroupOrder": 1
  },
  "104003": {
    "EmojiID": 104003,
    "Gender": "All",
    "EmojiGroupID": 104,
    "KeyWords": {
      "Hash": 841876696
    },
    "EmojiPath": "SpriteOutput/Emoji/104003.png",
    "SameGroupOrder": 3
  },
  "104004": {
    "EmojiID": 104004,
    "Gender": "All",
    "EmojiGroupID": 104,
    "KeyWords": {
      "Hash": 841876693
    },
    "EmojiPath": "SpriteOutput/Emoji/104004.png",
    "SameGroupOrder": 4
  },
  "104005": {
    "EmojiID": 104005,
    "Gender": "All",
    "EmojiGroupID": 104,
    "KeyWords": {
      "Hash": 841876694
    },
    "EmojiPath": "SpriteOutput/Emoji/104005.png",
    "SameGroupOrder": 5
  },
  "104006": {
    "EmojiID": 104006,
    "Gender": "All",
    "EmojiGroupID": 104,
    "KeyWords": {
      "Hash": 841876691
    },
    "EmojiPath": "SpriteOutput/Emoji/104006.png",
    "SameGroupOrder": 6
  },
  "104007": {
    "EmojiID": 104007,
    "Gender": "All",
    "EmojiGroupID": 104,
    "KeyWords": {
      "Hash": 841876692
    },
    "EmojiPath": "SpriteOutput/Emoji/104007.png",
    "SameGroupOrder": 7
  },
  "104008": {
    "EmojiID": 104008,
    "Gender": "All",
    "EmojiGroupID": 104,
    "KeyWords": {
      "Hash": 841876689
    },
    "EmojiPath": "SpriteOutput/Emoji/104008.png",
    "SameGroupOrder": 8
  },
  "104009": {
    "EmojiID": 104009,
    "Gender": "All",
    "EmojiGroupID": 104,
    "KeyWords": {
      "Hash": 841876690
    },
    "EmojiPath": "SpriteOutput/Emoji/104009.png",
    "SameGroupOrder": 9
  },
  "104010": {
    "EmojiID": 104010,
    "Gender": "All",
    "EmojiGroupID": 104,
    "KeyWords": {
      "Hash": -724207244
    },
    "EmojiPath": "SpriteOutput/Emoji/104010.png",
    "SameGroupOrder": 10
  },
  "104011": {
    "EmojiID": 104011,
    "Gender": "All",
    "EmojiGroupID": 104,
    "KeyWords": {
      "Hash": -724207243
    },
    "EmojiPath": "SpriteOutput/Emoji/104011.png",
    "SameGroupOrder": 11
  },
  "104012": {
    "EmojiID": 104012,
    "Gender": "All",
    "EmojiGroupID": 104,
    "KeyWords": {
      "Hash": -724207246
    },
    "EmojiPath": "SpriteOutput/Emoji/104012.png",
    "SameGroupOrder": 12
  },
  "104013": {
    "EmojiID": 104013,
    "Gender": "All",
    "EmojiGroupID": 104,
    "KeyWords": {
      "Hash": -724207245
    },
    "EmojiPath": "SpriteOutput/Emoji/104013.png",
    "SameGroupOrder": 13
  },
  "104014": {
    "EmojiID": 104014,
    "Gender": "All",
    "EmojiGroupID": 104,
    "KeyWords": {
      "Hash": -724207248
    },
    "EmojiPath": "SpriteOutput/Emoji/104014.png",
    "SameGroupOrder": 14
  },
  "104015": {
    "EmojiID": 104015,
    "Gender": "All",
    "EmojiGroupID": 104,
    "KeyWords": {
      "Hash": -724207247
    },
    "EmojiPath": "SpriteOutput/Emoji/104015.png",
    "SameGroupOrder": 15
  },
  "104016": {
    "EmojiID": 104016,
    "Gender": "All",
    "EmojiGroupID": 104,
    "KeyWords": {
      "Hash": -724207250
    },
    "EmojiPath": "SpriteOutput/Emoji/104016.png",
    "SameGroupOrder": 16
  },
  "105001": {
    "EmojiID": 105001,
    "Gender": "All",
    "EmojiGroupID": 106,
    "KeyWords": {
      "Hash": 2145838613
    },
    "EmojiPath": "SpriteOutput/Emoji/105001.png",
    "SameGroupOrder": 1
  },
  "105002": {
    "EmojiID": 105002,
    "Gender": "All",
    "EmojiGroupID": 106,
    "KeyWords": {
      "Hash": 2145838610
    },
    "EmojiPath": "SpriteOutput/Emoji/105002.png",
    "SameGroupOrder": 2
  },
  "105003": {
    "EmojiID": 105003,
    "Gender": "All",
    "EmojiGroupID": 106,
    "KeyWords": {
      "Hash": 2145838611
    },
    "EmojiPath": "SpriteOutput/Emoji/105003.png",
    "SameGroupOrder": 3
  },
  "105004": {
    "EmojiID": 105004,
    "Gender": "All",
    "EmojiGroupID": 106,
    "KeyWords": {
      "Hash": 2145838608
    },
    "EmojiPath": "SpriteOutput/Emoji/105004.png",
    "SameGroupOrder": 4
  },
  "105005": {
    "EmojiID": 105005,
    "Gender": "All",
    "EmojiGroupID": 106,
    "KeyWords": {
      "Hash": 2145838609
    },
    "EmojiPath": "SpriteOutput/Emoji/105005.png",
    "SameGroupOrder": 5
  },
  "105006": {
    "EmojiID": 105006,
    "Gender": "All",
    "EmojiGroupID": 106,
    "KeyWords": {
      "Hash": 2145838606
    },
    "EmojiPath": "SpriteOutput/Emoji/105006.png",
    "SameGroupOrder": 6
  },
  "105007": {
    "EmojiID": 105007,
    "Gender": "All",
    "EmojiGroupID": 106,
    "KeyWords": {
      "Hash": 2145838607
    },
    "EmojiPath": "SpriteOutput/Emoji/105007.png",
    "SameGroupOrder": 7
  },
  "105008": {
    "EmojiID": 105008,
    "Gender": "All",
    "EmojiGroupID": 106,
    "KeyWords": {
      "Hash": 2145838604
    },
    "EmojiPath": "SpriteOutput/Emoji/105008.png",
    "SameGroupOrder": 8
  },
  "105009": {
    "EmojiID": 105009,
    "Gender": "All",
    "EmojiGroupID": 106,
    "KeyWords": {
      "Hash": 2145838605
    },
    "EmojiPath": "SpriteOutput/Emoji/105009.png",
    "SameGroupOrder": 9
  },
  "105010": {
    "EmojiID": 105010,
    "Gender": "All",
    "EmojiGroupID": 106,
    "KeyWords": {
      "Hash": -583044743
    },
    "EmojiPath": "SpriteOutput/Emoji/105011.png",
    "SameGroupOrder": 10
  },
  "105011": {
    "EmojiID": 105011,
    "Gender": "All",
    "EmojiGroupID": 106,
    "KeyWords": {
      "Hash": -583044742
    },
    "EmojiPath": "SpriteOutput/Emoji/105010.png",
    "SameGroupOrder": 11
  },
  "105012": {
    "EmojiID": 105012,
    "Gender": "All",
    "EmojiGroupID": 106,
    "KeyWords": {
      "Hash": -583044745
    },
    "EmojiPath": "SpriteOutput/Emoji/105012.png",
    "SameGroupOrder": 12
  },
  "105013": {
    "EmojiID": 105013,
    "Gender": "All",
    "EmojiGroupID": 106,
    "KeyWords": {
      "Hash": -583044744
    },
    "EmojiPath": "SpriteOutput/Emoji/105013.png",
    "SameGroupOrder": 13
  },
  "105014": {
    "EmojiID": 105014,
    "Gender": "All",
    "EmojiGroupID": 106,
    "KeyWords": {
      "Hash": -583044747
    },
    "EmojiPath": "SpriteOutput/Emoji/105014.png",
    "SameGroupOrder": 14
  },
  "105015": {
    "EmojiID": 105015,
    "Gender": "All",
    "EmojiGroupID": 106,
    "KeyWords": {
      "Hash": -583044746
    },
    "EmojiPath": "SpriteOutput/Emoji/105015.png",
    "SameGroupOrder": 15
  },
  "105016": {
    "EmojiID": 105016,
    "Gender": "All",
    "EmojiGroupID": 106,
    "KeyWords": {
      "Hash": -583044749
    },
    "EmojiPath": "SpriteOutput/Emoji/105016.png",
    "SameGroupOrder": 16
  },
  "106001": {
    "EmojiID": 106001,
    "Gender": "All",
    "EmojiGroupID": 105,
    "KeyWords": {
      "Hash": 559551696
    },
    "EmojiPath": "SpriteOutput/Emoji/106001.png",
    "SameGroupOrder": 1
  },
  "106002": {
    "EmojiID": 106002,
    "Gender": "All",
    "EmojiGroupID": 105,
    "KeyWords": {
      "Hash": 559551693
    },
    "EmojiPath": "SpriteOutput/Emoji/106002.png",
    "SameGroupOrder": 2
  },
  "106003": {
    "EmojiID": 106003,
    "Gender": "All",
    "EmojiGroupID": 105,
    "KeyWords": {
      "Hash": 559551694
    },
    "EmojiPath": "SpriteOutput/Emoji/106003.png",
    "SameGroupOrder": 3
  },
  "106004": {
    "EmojiID": 106004,
    "Gender": "All",
    "EmojiGroupID": 105,
    "KeyWords": {
      "Hash": 559551691
    },
    "EmojiPath": "SpriteOutput/Emoji/106004.png",
    "SameGroupOrder": 4
  },
  "106005": {
    "EmojiID": 106005,
    "Gender": "All",
    "EmojiGroupID": 105,
    "KeyWords": {
      "Hash": 559551692
    },
    "EmojiPath": "SpriteOutput/Emoji/106005.png",
    "SameGroupOrder": 5
  },
  "106006": {
    "EmojiID": 106006,
    "Gender": "All",
    "EmojiGroupID": 105,
    "KeyWords": {
      "Hash": 559551689
    },
    "EmojiPath": "SpriteOutput/Emoji/106006.png",
    "SameGroupOrder": 6
  },
  "106007": {
    "EmojiID": 106007,
    "Gender": "All",
    "EmojiGroupID": 105,
    "KeyWords": {
      "Hash": 559551690
    },
    "EmojiPath": "SpriteOutput/Emoji/106007.png",
    "SameGroupOrder": 7
  },
  "106008": {
    "EmojiID": 106008,
    "Gender": "All",
    "EmojiGroupID": 105,
    "KeyWords": {
      "Hash": 559551687
    },
    "EmojiPath": "SpriteOutput/Emoji/106008.png",
    "SameGroupOrder": 8
  },
  "106009": {
    "EmojiID": 106009,
    "Gender": "All",
    "EmojiGroupID": 105,
    "KeyWords": {
      "Hash": 559551688
    },
    "EmojiPath": "SpriteOutput/Emoji/106009.png",
    "SameGroupOrder": 9
  },
  "106010": {
    "EmojiID": 106010,
    "Gender": "All",
    "EmojiGroupID": 105,
    "KeyWords": {
      "Hash": -1006532246
    },
    "EmojiPath": "SpriteOutput/Emoji/106010.png",
    "SameGroupOrder": 10
  },
  "106011": {
    "EmojiID": 106011,
    "Gender": "All",
    "EmojiGroupID": 105,
    "KeyWords": {
      "Hash": -1006532245
    },
    "EmojiPath": "SpriteOutput/Emoji/106011.png",
    "SameGroupOrder": 11
  },
  "106012": {
    "EmojiID": 106012,
    "Gender": "All",
    "EmojiGroupID": 105,
    "KeyWords": {
      "Hash": -1006532248
    },
    "EmojiPath": "SpriteOutput/Emoji/106012.png",
    "SameGroupOrder": 12
  },
  "106013": {
    "EmojiID": 106013,
    "Gender": "All",
    "EmojiGroupID": 105,
    "KeyWords": {
      "Hash": -1006532247
    },
    "EmojiPath": "SpriteOutput/Emoji/106013.png",
    "SameGroupOrder": 13
  },
  "106014": {
    "EmojiID": 106014,
    "Gender": "All",
    "EmojiGroupID": 105,
    "KeyWords": {
      "Hash": -1006532250
    },
    "EmojiPath": "SpriteOutput/Emoji/106014.png",
    "SameGroupOrder": 14
  },
  "106015": {
    "EmojiID": 106015,
    "Gender": "All",
    "EmojiGroupID": 105,
    "KeyWords": {
      "Hash": -1006532249
    },
    "EmojiPath": "SpriteOutput/Emoji/106015.png",
    "SameGroupOrder": 15
  },
  "106016": {
    "EmojiID": 106016,
    "Gender": "All",
    "EmojiGroupID": 105,
    "KeyWords": {
      "Hash": -1006532252
    },
    "EmojiPath": "SpriteOutput/Emoji/106016.png",
    "SameGroupOrder": 16
  },
  "107001": {
    "EmojiID": 107001,
    "Gender": "All",
    "EmojiGroupID": 107,
    "KeyWords": {
      "Hash": 1863513611
    },
    "EmojiPath": "SpriteOutput/Emoji/107001.png",
    "SameGroupOrder": 9,
    "IsTrainMembers": true
  },
  "107002": {
    "EmojiID": 107002,
    "Gender": "All",
    "EmojiGroupID": 107,
    "KeyWords": {
      "Hash": 1863513608
    },
    "EmojiPath": "SpriteOutput/Emoji/107002.png",
    "SameGroupOrder": 10,
    "IsTrainMembers": true
  },
  "107003": {
    "EmojiID": 107003,
    "Gender": "All",
    "EmojiGroupID": 107,
    "KeyWords": {
      "Hash": 1863513609
    },
    "EmojiPath": "SpriteOutput/Emoji/107003.png",
    "SameGroupOrder": 11,
    "IsTrainMembers": true
  },
  "107004": {
    "EmojiID": 107004,
    "Gender": "All",
    "EmojiGroupID": 107,
    "KeyWords": {
      "Hash": 1863513606
    },
    "EmojiPath": "SpriteOutput/Emoji/107004.png",
    "SameGroupOrder": 12,
    "IsTrainMembers": true
  },
  "107005": {
    "EmojiID": 107005,
    "Gender": "All",
    "EmojiGroupID": 107,
    "KeyWords": {
      "Hash": 1863513607
    },
    "EmojiPath": "SpriteOutput/Emoji/107005.png",
    "SameGroupOrder": 13,
    "IsTrainMembers": true
  },
  "107006": {
    "EmojiID": 107006,
    "Gender": "All",
    "EmojiGroupID": 107,
    "KeyWords": {
      "Hash": 1863513604
    },
    "EmojiPath": "SpriteOutput/Emoji/107006.png",
    "SameGroupOrder": 14,
    "IsTrainMembers": true
  },
  "107007": {
    "EmojiID": 107007,
    "Gender": "All",
    "EmojiGroupID": 107,
    "KeyWords": {
      "Hash": 1863513605
    },
    "EmojiPath": "SpriteOutput/Emoji/107007.png",
    "SameGroupOrder": 15,
    "IsTrainMembers": true
  },
  "107008": {
    "EmojiID": 107008,
    "Gender": "All",
    "EmojiGroupID": 107,
    "KeyWords": {
      "Hash": 1863513602
    },
    "EmojiPath": "SpriteOutput/Emoji/107008.png",
    "SameGroupOrder": 16,
    "IsTrainMembers": true
  },
  "108001": {
    "EmojiID": 108001,
    "Gender": "All",
    "EmojiGroupID": 108,
    "KeyWords": {
      "Hash": -852073314
    },
    "EmojiPath": "SpriteOutput/Emoji/108001.png",
    "SameGroupOrder": 1,
    "IsTrainMembers": true
  },
  "108002": {
    "EmojiID": 108002,
    "Gender": "All",
    "EmojiGroupID": 108,
    "KeyWords": {
      "Hash": -852073317
    },
    "EmojiPath": "SpriteOutput/Emoji/108002.png",
    "SameGroupOrder": 2,
    "IsTrainMembers": true
  },
  "108003": {
    "EmojiID": 108003,
    "Gender": "All",
    "EmojiGroupID": 108,
    "KeyWords": {
      "Hash": -852073316
    },
    "EmojiPath": "SpriteOutput/Emoji/108003.png",
    "SameGroupOrder": 3,
    "IsTrainMembers": true
  },
  "108004": {
    "EmojiID": 108004,
    "Gender": "All",
    "EmojiGroupID": 108,
    "KeyWords": {
      "Hash": -852073319
    },
    "EmojiPath": "SpriteOutput/Emoji/108004.png",
    "SameGroupOrder": 4,
    "IsTrainMembers": true
  },
  "108005": {
    "EmojiID": 108005,
    "Gender": "All",
    "EmojiGroupID": 108,
    "KeyWords": {
      "Hash": -852073318
    },
    "EmojiPath": "SpriteOutput/Emoji/108005.png",
    "SameGroupOrder": 5
  },
  "108006": {
    "EmojiID": 108006,
    "Gender": "All",
    "EmojiGroupID": 108,
    "KeyWords": {
      "Hash": -852073321
    },
    "EmojiPath": "SpriteOutput/Emoji/108006.png",
    "SameGroupOrder": 6
  },
  "108007": {
    "EmojiID": 108007,
    "Gender": "All",
    "EmojiGroupID": 108,
    "KeyWords": {
      "Hash": -852073320
    },
    "EmojiPath": "SpriteOutput/Emoji/108007.png",
    "SameGroupOrder": 7
  },
  "108008": {
    "EmojiID": 108008,
    "Gender": "All",
    "EmojiGroupID": 108,
    "KeyWords": {
      "Hash": -852073323
    },
    "EmojiPath": "SpriteOutput/Emoji/108008.png",
    "SameGroupOrder": 8
  },
  "108009": {
    "EmojiID": 108009,
    "Gender": "All",
    "EmojiGroupID": 108,
    "KeyWords": {
      "Hash": -852073322
    },
    "EmojiPath": "SpriteOutput/Emoji/108009.png",
    "SameGroupOrder": 9
  },
  "108010": {
    "EmojiID": 108010,
    "Gender": "All",
    "EmojiGroupID": 108,
    "KeyWords": {
      "Hash": 1876810040
    },
    "EmojiPath": "SpriteOutput/Emoji/108010.png",
    "SameGroupOrder": 10
  },
  "108011": {
    "EmojiID": 108011,
    "Gender": "All",
    "EmojiGroupID": 108,
    "KeyWords": {
      "Hash": 1876810041
    },
    "EmojiPath": "SpriteOutput/Emoji/108011.png",
    "SameGroupOrder": 11
  },
  "108012": {
    "EmojiID": 108012,
    "Gender": "All",
    "EmojiGroupID": 108,
    "KeyWords": {
      "Hash": 1876810038
    },
    "EmojiPath": "SpriteOutput/Emoji/108012.png",
    "SameGroupOrder": 12
  },
  "108013": {
    "EmojiID": 108013,
    "Gender": "All",
    "EmojiGroupID": 108,
    "KeyWords": {
      "Hash": 1876810039
    },
    "EmojiPath": "SpriteOutput/Emoji/108013.png",
    "SameGroupOrder": 13
  },
  "108014": {
    "EmojiID": 108014,
    "Gender": "All",
    "EmojiGroupID": 108,
    "KeyWords": {
      "Hash": 1876810036
    },
    "EmojiPath": "SpriteOutput/Emoji/108014.png",
    "SameGroupOrder": 14
  },
  "108015": {
    "EmojiID": 108015,
    "Gender": "All",
    "EmojiGroupID": 108,
    "KeyWords": {
      "Hash": 1876810037
    },
    "EmojiPath": "SpriteOutput/Emoji/108015.png",
    "SameGroupOrder": 15
  },
  "108016": {
    "EmojiID": 108016,
    "Gender": "All",
    "EmojiGroupID": 108,
    "KeyWords": {
      "Hash": 1876810034
    },
    "EmojiPath": "SpriteOutput/Emoji/108016.png",
    "SameGroupOrder": 16
  },
  "109001": {
    "EmojiID": 109001,
    "Gender": "All",
    "EmojiGroupID": 109,
    "KeyWords": {
      "Hash": 451888601
    },
    "EmojiPath": "SpriteOutput/Emoji/109001.png",
    "SameGroupOrder": 1
  },
  "109002": {
    "EmojiID": 109002,
    "Gender": "All",
    "EmojiGroupID": 109,
    "KeyWords": {
      "Hash": 451888598
    },
    "EmojiPath": "SpriteOutput/Emoji/109002.png",
    "SameGroupOrder": 2
  },
  "109003": {
    "EmojiID": 109003,
    "Gender": "All",
    "EmojiGroupID": 109,
    "KeyWords": {
      "Hash": 451888599
    },
    "EmojiPath": "SpriteOutput/Emoji/109003.png",
    "SameGroupOrder": 3
  },
  "109004": {
    "EmojiID": 109004,
    "Gender": "All",
    "EmojiGroupID": 109,
    "KeyWords": {
      "Hash": 451888596
    },
    "EmojiPath": "SpriteOutput/Emoji/109004.png",
    "SameGroupOrder": 4
  },
  "109005": {
    "EmojiID": 109005,
    "Gender": "All",
    "EmojiGroupID": 109,
    "KeyWords": {
      "Hash": 451888597
    },
    "EmojiPath": "SpriteOutput/Emoji/109005.png",
    "SameGroupOrder": 5
  },
  "109006": {
    "EmojiID": 109006,
    "Gender": "All",
    "EmojiGroupID": 109,
    "KeyWords": {
      "Hash": 451888594
    },
    "EmojiPath": "SpriteOutput/Emoji/109006.png",
    "SameGroupOrder": 6
  },
  "109007": {
    "EmojiID": 109007,
    "Gender": "All",
    "EmojiGroupID": 109,
    "KeyWords": {
      "Hash": 451888595
    },
    "EmojiPath": "SpriteOutput/Emoji/109007.png",
    "SameGroupOrder": 7
  },
  "109008": {
    "EmojiID": 109008,
    "Gender": "All",
    "EmojiGroupID": 109,
    "KeyWords": {
      "Hash": 451888592
    },
    "EmojiPath": "SpriteOutput/Emoji/109008.png",
    "SameGroupOrder": 8
  },
  "109009": {
    "EmojiID": 109009,
    "Gender": "All",
    "EmojiGroupID": 109,
    "KeyWords": {
      "Hash": 451888593
    },
    "EmojiPath": "SpriteOutput/Emoji/109009.png",
    "SameGroupOrder": 9
  },
  "109010": {
    "EmojiID": 109010,
    "Gender": "All",
    "EmojiGroupID": 109,
    "KeyWords": {
      "Hash": 2017972541
    },
    "EmojiPath": "SpriteOutput/Emoji/109010.png",
    "SameGroupOrder": 10
  },
  "109011": {
    "EmojiID": 109011,
    "Gender": "All",
    "EmojiGroupID": 109,
    "KeyWords": {
      "Hash": 2017972542
    },
    "EmojiPath": "SpriteOutput/Emoji/109011.png",
    "SameGroupOrder": 11
  },
  "109012": {
    "EmojiID": 109012,
    "Gender": "All",
    "EmojiGroupID": 109,
    "KeyWords": {
      "Hash": 2017972539
    },
    "EmojiPath": "SpriteOutput/Emoji/109012.png",
    "SameGroupOrder": 12
  },
  "109013": {
    "EmojiID": 109013,
    "Gender": "All",
    "EmojiGroupID": 109,
    "KeyWords": {
      "Hash": 2017972540
    },
    "EmojiPath": "SpriteOutput/Emoji/109013.png",
    "SameGroupOrder": 13
  },
  "109014": {
    "EmojiID": 109014,
    "Gender": "All",
    "EmojiGroupID": 109,
    "KeyWords": {
      "Hash": 2017972537
    },
    "EmojiPath": "SpriteOutput/Emoji/109014.png",
    "SameGroupOrder": 14
  },
  "109015": {
    "EmojiID": 109015,
    "Gender": "All",
    "EmojiGroupID": 109,
    "KeyWords": {
      "Hash": 2017972538
    },
    "EmojiPath": "SpriteOutput/Emoji/109015.png",
    "SameGroupOrder": 15
  },
  "109016": {
    "EmojiID": 109016,
    "Gender": "All",
    "EmojiGroupID": 109,
    "KeyWords": {
      "Hash": 2017972535
    },
    "EmojiPath": "SpriteOutput/Emoji/109016.png",
    "SameGroupOrder": 16
  },
  "110001": {
    "EmojiID": 110001,
    "Gender": "All",
    "EmojiGroupID": 110,
    "KeyWords": {
      "Hash": 277225669
    },
    "EmojiPath": "SpriteOutput/Emoji/110001.png",
    "SameGroupOrder": 1
  },
  "110002": {
    "EmojiID": 110002,
    "Gender": "All",
    "EmojiGroupID": 110,
    "KeyWords": {
      "Hash": 277225668
    },
    "EmojiPath": "SpriteOutput/Emoji/110002.png",
    "SameGroupOrder": 2
  },
  "110003": {
    "EmojiID": 110003,
    "Gender": "All",
    "EmojiGroupID": 110,
    "KeyWords": {
      "Hash": 277225667
    },
    "EmojiPath": "SpriteOutput/Emoji/110003.png",
    "SameGroupOrder": 3
  },
  "110004": {
    "EmojiID": 110004,
    "Gender": "All",
    "EmojiGroupID": 110,
    "KeyWords": {
      "Hash": 277225666
    },
    "EmojiPath": "SpriteOutput/Emoji/110004.png",
    "SameGroupOrder": 4
  },
  "110005": {
    "EmojiID": 110005,
    "Gender": "All",
    "EmojiGroupID": 110,
    "KeyWords": {
      "Hash": 277225665
    },
    "EmojiPath": "SpriteOutput/Emoji/110005.png",
    "SameGroupOrder": 5
  },
  "110006": {
    "EmojiID": 110006,
    "Gender": "All",
    "EmojiGroupID": 110,
    "KeyWords": {
      "Hash": 277225664
    },
    "EmojiPath": "SpriteOutput/Emoji/110006.png",
    "SameGroupOrder": 6
  },
  "110007": {
    "EmojiID": 110007,
    "Gender": "All",
    "EmojiGroupID": 110,
    "KeyWords": {
      "Hash": 277225663
    },
    "EmojiPath": "SpriteOutput/Emoji/110007.png",
    "SameGroupOrder": 7
  },
  "110008": {
    "EmojiID": 110008,
    "Gender": "All",
    "EmojiGroupID": 110,
    "KeyWords": {
      "Hash": 277225662
    },
    "EmojiPath": "SpriteOutput/Emoji/110008.png",
    "SameGroupOrder": 8
  },
  "110009": {
    "EmojiID": 110009,
    "Gender": "All",
    "EmojiGroupID": 110,
    "KeyWords": {
      "Hash": 277225661
    },
    "EmojiPath": "SpriteOutput/Emoji/110009.png",
    "SameGroupOrder": 9
  },
  "110010": {
    "EmojiID": 110010,
    "Gender": "All",
    "EmojiGroupID": 110,
    "KeyWords": {
      "Hash": -1288858271
    },
    "EmojiPath": "SpriteOutput/Emoji/110010.png",
    "SameGroupOrder": 10
  },
  "110011": {
    "EmojiID": 110011,
    "Gender": "All",
    "EmojiGroupID": 110,
    "KeyWords": {
      "Hash": -1288858272
    },
    "EmojiPath": "SpriteOutput/Emoji/110011.png",
    "SameGroupOrder": 11
  },
  "110012": {
    "EmojiID": 110012,
    "Gender": "All",
    "EmojiGroupID": 110,
    "KeyWords": {
      "Hash": -1288858273
    },
    "EmojiPath": "SpriteOutput/Emoji/110012.png",
    "SameGroupOrder": 12
  },
  "110013": {
    "EmojiID": 110013,
    "Gender": "All",
    "EmojiGroupID": 110,
    "KeyWords": {
      "Hash": -1288858274
    },
    "EmojiPath": "SpriteOutput/Emoji/110013.png",
    "SameGroupOrder": 13
  },
  "110014": {
    "EmojiID": 110014,
    "Gender": "All",
    "EmojiGroupID": 110,
    "KeyWords": {
      "Hash": -1288858275
    },
    "EmojiPath": "SpriteOutput/Emoji/110014.png",
    "SameGroupOrder": 14
  },
  "110015": {
    "EmojiID": 110015,
    "Gender": "All",
    "EmojiGroupID": 110,
    "KeyWords": {
      "Hash": -1288858276
    },
    "EmojiPath": "SpriteOutput/Emoji/110015.png",
    "SameGroupOrder": 15
  },
  "110016": {
    "EmojiID": 110016,
    "Gender": "All",
    "EmojiGroupID": 110,
    "KeyWords": {
      "Hash": -1288858277
    },
    "EmojiPath": "SpriteOutput/Emoji/110016.png",
    "SameGroupOrder": 16
  },
  "111001": {
    "EmojiID": 111001,
    "Gender": "All",
    "EmojiGroupID": 111,
    "KeyWords": {
      "Hash": 1581187584
    },
    "EmojiPath": "SpriteOutput/Emoji/111001.png",
    "SameGroupOrder": 1
  },
  "111002": {
    "EmojiID": 111002,
    "Gender": "All",
    "EmojiGroupID": 111,
    "KeyWords": {
      "Hash": 1581187583
    },
    "EmojiPath": "SpriteOutput/Emoji/111002.png",
    "SameGroupOrder": 2
  },
  "111003": {
    "EmojiID": 111003,
    "Gender": "All",
    "EmojiGroupID": 111,
    "KeyWords": {
      "Hash": 1581187582
    },
    "EmojiPath": "SpriteOutput/Emoji/111003.png",
    "SameGroupOrder": 3
  },
  "111004": {
    "EmojiID": 111004,
    "Gender": "All",
    "EmojiGroupID": 111,
    "KeyWords": {
      "Hash": 1581187581
    },
    "EmojiPath": "SpriteOutput/Emoji/111004.png",
    "SameGroupOrder": 4
  },
  "111005": {
    "EmojiID": 111005,
    "Gender": "All",
    "EmojiGroupID": 111,
    "KeyWords": {
      "Hash": 1581187580
    },
    "EmojiPath": "SpriteOutput/Emoji/111005.png",
    "SameGroupOrder": 5
  },
  "111006": {
    "EmojiID": 111006,
    "Gender": "All",
    "EmojiGroupID": 111,
    "KeyWords": {
      "Hash": 1581187579
    },
    "EmojiPath": "SpriteOutput/Emoji/111006.png",
    "SameGroupOrder": 6
  },
  "111007": {
    "EmojiID": 111007,
    "Gender": "All",
    "EmojiGroupID": 111,
    "KeyWords": {
      "Hash": 1581187578
    },
    "EmojiPath": "SpriteOutput/Emoji/111007.png",
    "SameGroupOrder": 7
  },
  "111008": {
    "EmojiID": 111008,
    "Gender": "All",
    "EmojiGroupID": 111,
    "KeyWords": {
      "Hash": 1581187577
    },
    "EmojiPath": "SpriteOutput/Emoji/111008.png",
    "SameGroupOrder": 8
  },
  "111009": {
    "EmojiID": 111009,
    "Gender": "All",
    "EmojiGroupID": 111,
    "KeyWords": {
      "Hash": 1581187576
    },
    "EmojiPath": "SpriteOutput/Emoji/111009.png",
    "SameGroupOrder": 9
  },
  "111010": {
    "EmojiID": 111010,
    "Gender": "All",
    "EmojiGroupID": 111,
    "KeyWords": {
      "Hash": -1147695770
    },
    "EmojiPath": "SpriteOutput/Emoji/111010.png",
    "SameGroupOrder": 10
  },
  "111011": {
    "EmojiID": 111011,
    "Gender": "All",
    "EmojiGroupID": 111,
    "KeyWords": {
      "Hash": -1147695771
    },
    "EmojiPath": "SpriteOutput/Emoji/111011.png",
    "SameGroupOrder": 11
  },
  "111012": {
    "EmojiID": 111012,
    "Gender": "All",
    "EmojiGroupID": 111,
    "KeyWords": {
      "Hash": -1147695772
    },
    "EmojiPath": "SpriteOutput/Emoji/111012.png",
    "SameGroupOrder": 12
  },
  "111013": {
    "EmojiID": 111013,
    "Gender": "All",
    "EmojiGroupID": 111,
    "KeyWords": {
      "Hash": -1147695773
    },
    "EmojiPath": "SpriteOutput/Emoji/111013.png",
    "SameGroupOrder": 13
  },
  "111014": {
    "EmojiID": 111014,
    "Gender": "All",
    "EmojiGroupID": 111,
    "KeyWords": {
      "Hash": -1147695774
    },
    "EmojiPath": "SpriteOutput/Emoji/111014.png",
    "SameGroupOrder": 14
  },
  "111015": {
    "EmojiID": 111015,
    "Gender": "All",
    "EmojiGroupID": 111,
    "KeyWords": {
      "Hash": -1147695775
    },
    "EmojiPath": "SpriteOutput/Emoji/111015.png",
    "SameGroupOrder": 15
  },
  "111016": {
    "EmojiID": 111016,
    "Gender": "All",
    "EmojiGroupID": 111,
    "KeyWords": {
      "Hash": -1147695776
    },
    "EmojiPath": "SpriteOutput/Emoji/111016.png",
    "SameGroupOrder": 16
  },
  "121001": {
    "EmojiID": 121001,
    "Gender": "All",
    "EmojiGroupID": 112,
    "KeyWords": {
      "Hash": 1581186431
    },
    "EmojiPath": "SpriteOutput/Emoji/121001.png",
    "SameGroupOrder": 1
  },
  "121002": {
    "EmojiID": 121002,
    "Gender": "All",
    "EmojiGroupID": 112,
    "KeyWords": {
      "Hash": 1581186432
    },
    "EmojiPath": "SpriteOutput/Emoji/121002.png",
    "SameGroupOrder": 2
  },
  "121003": {
    "EmojiID": 121003,
    "Gender": "All",
    "EmojiGroupID": 112,
    "KeyWords": {
      "Hash": 1581186433
    },
    "EmojiPath": "SpriteOutput/Emoji/121003.png",
    "SameGroupOrder": 3
  },
  "121004": {
    "EmojiID": 121004,
    "Gender": "All",
    "EmojiGroupID": 112,
    "KeyWords": {
      "Hash": 1581186426
    },
    "EmojiPath": "SpriteOutput/Emoji/121004.png",
    "SameGroupOrder": 4
  },
  "121005": {
    "EmojiID": 121005,
    "Gender": "All",
    "EmojiGroupID": 112,
    "KeyWords": {
      "Hash": 1581186427
    },
    "EmojiPath": "SpriteOutput/Emoji/121005.png",
    "SameGroupOrder": 5
  },
  "121006": {
    "EmojiID": 121006,
    "Gender": "All",
    "EmojiGroupID": 112,
    "KeyWords": {
      "Hash": 1581186428
    },
    "EmojiPath": "SpriteOutput/Emoji/121006.png",
    "SameGroupOrder": 6
  },
  "121007": {
    "EmojiID": 121007,
    "Gender": "All",
    "EmojiGroupID": 112,
    "KeyWords": {
      "Hash": 1581186429
    },
    "EmojiPath": "SpriteOutput/Emoji/121007.png",
    "SameGroupOrder": 7
  },
  "121008": {
    "EmojiID": 121008,
    "Gender": "All",
    "EmojiGroupID": 112,
    "KeyWords": {
      "Hash": 1581186422
    },
    "EmojiPath": "SpriteOutput/Emoji/121008.png",
    "SameGroupOrder": 8
  },
  "121009": {
    "EmojiID": 121009,
    "Gender": "All",
    "EmojiGroupID": 112,
    "KeyWords": {
      "Hash": 1581186423
    },
    "EmojiPath": "SpriteOutput/Emoji/121009.png",
    "SameGroupOrder": 9
  },
  "121010": {
    "EmojiID": 121010,
    "Gender": "All",
    "EmojiGroupID": 112,
    "KeyWords": {
      "Hash": -1147696925
    },
    "EmojiPath": "SpriteOutput/Emoji/121010.png",
    "SameGroupOrder": 10
  },
  "121011": {
    "EmojiID": 121011,
    "Gender": "All",
    "EmojiGroupID": 112,
    "KeyWords": {
      "Hash": -1147696924
    },
    "EmojiPath": "SpriteOutput/Emoji/121011.png",
    "SameGroupOrder": 11
  },
  "121012": {
    "EmojiID": 121012,
    "Gender": "All",
    "EmojiGroupID": 112,
    "KeyWords": {
      "Hash": -1147696923
    },
    "EmojiPath": "SpriteOutput/Emoji/121012.png",
    "SameGroupOrder": 12
  },
  "121013": {
    "EmojiID": 121013,
    "Gender": "All",
    "EmojiGroupID": 112,
    "KeyWords": {
      "Hash": -1147696922
    },
    "EmojiPath": "SpriteOutput/Emoji/121013.png",
    "SameGroupOrder": 13
  },
  "121014": {
    "EmojiID": 121014,
    "Gender": "All",
    "EmojiGroupID": 112,
    "KeyWords": {
      "Hash": -1147696929
    },
    "EmojiPath": "SpriteOutput/Emoji/121014.png",
    "SameGroupOrder": 14
  },
  "121015": {
    "EmojiID": 121015,
    "Gender": "All",
    "EmojiGroupID": 112,
    "KeyWords": {
      "Hash": -1147696928
    },
    "EmojiPath": "SpriteOutput/Emoji/121015.png",
    "SameGroupOrder": 15
  },
  "121016": {
    "EmojiID": 121016,
    "Gender": "All",
    "EmojiGroupID": 112,
    "KeyWords": {
      "Hash": -1147696927
    },
    "EmojiPath": "SpriteOutput/Emoji/121016.png",
    "SameGroupOrder": 16
  },
  "131001": {
    "EmojiID": 131001,
    "Gender": "All",
    "EmojiGroupID": 113,
    "KeyWords": {
      "Hash": 1581185406
    },
    "EmojiPath": "SpriteOutput/Emoji/131001.png",
    "SameGroupOrder": 1
  },
  "131002": {
    "EmojiID": 131002,
    "Gender": "All",
    "EmojiGroupID": 113,
    "KeyWords": {
      "Hash": 1581185409
    },
    "EmojiPath": "SpriteOutput/Emoji/131002.png",
    "SameGroupOrder": 2
  },
  "131003": {
    "EmojiID": 131003,
    "Gender": "All",
    "EmojiGroupID": 113,
    "KeyWords": {
      "Hash": 1581185408
    },
    "EmojiPath": "SpriteOutput/Emoji/131003.png",
    "SameGroupOrder": 3
  },
  "131004": {
    "EmojiID": 131004,
    "Gender": "All",
    "EmojiGroupID": 113,
    "KeyWords": {
      "Hash": 1581185403
    },
    "EmojiPath": "SpriteOutput/Emoji/131004.png",
    "SameGroupOrder": 4
  },
  "131005": {
    "EmojiID": 131005,
    "Gender": "All",
    "EmojiGroupID": 113,
    "KeyWords": {
      "Hash": 1581185402
    },
    "EmojiPath": "SpriteOutput/Emoji/131005.png",
    "SameGroupOrder": 5
  },
  "131006": {
    "EmojiID": 131006,
    "Gender": "All",
    "EmojiGroupID": 113,
    "KeyWords": {
      "Hash": 1581185405
    },
    "EmojiPath": "SpriteOutput/Emoji/131006.png",
    "SameGroupOrder": 6
  },
  "131007": {
    "EmojiID": 131007,
    "Gender": "All",
    "EmojiGroupID": 113,
    "KeyWords": {
      "Hash": 1581185404
    },
    "EmojiPath": "SpriteOutput/Emoji/131007.png",
    "SameGroupOrder": 7
  },
  "131008": {
    "EmojiID": 131008,
    "Gender": "All",
    "EmojiGroupID": 113,
    "KeyWords": {
      "Hash": 1581185399
    },
    "EmojiPath": "SpriteOutput/Emoji/131008.png",
    "SameGroupOrder": 8
  },
  "131009": {
    "EmojiID": 131009,
    "Gender": "All",
    "EmojiGroupID": 113,
    "KeyWords": {
      "Hash": 1581185398
    },
    "EmojiPath": "SpriteOutput/Emoji/131009.png",
    "SameGroupOrder": 9
  },
  "131010": {
    "EmojiID": 131010,
    "Gender": "All",
    "EmojiGroupID": 113,
    "KeyWords": {
      "Hash": -1147697948
    },
    "EmojiPath": "SpriteOutput/Emoji/131010.png",
    "SameGroupOrder": 10
  },
  "131011": {
    "EmojiID": 131011,
    "Gender": "All",
    "EmojiGroupID": 113,
    "KeyWords": {
      "Hash": -1147697949
    },
    "EmojiPath": "SpriteOutput/Emoji/131011.png",
    "SameGroupOrder": 11
  },
  "131012": {
    "EmojiID": 131012,
    "Gender": "All",
    "EmojiGroupID": 113,
    "KeyWords": {
      "Hash": -1147697946
    },
    "EmojiPath": "SpriteOutput/Emoji/131012.png",
    "SameGroupOrder": 12
  },
  "131013": {
    "EmojiID": 131013,
    "Gender": "All",
    "EmojiGroupID": 113,
    "KeyWords": {
      "Hash": -1147697947
    },
    "EmojiPath": "SpriteOutput/Emoji/131013.png",
    "SameGroupOrder": 13
  },
  "131014": {
    "EmojiID": 131014,
    "Gender": "All",
    "EmojiGroupID": 113,
    "KeyWords": {
      "Hash": -1147697952
    },
    "EmojiPath": "SpriteOutput/Emoji/131014.png",
    "SameGroupOrder": 14
  },
  "131015": {
    "EmojiID": 131015,
    "Gender": "All",
    "EmojiGroupID": 113,
    "KeyWords": {
      "Hash": -1147697953
    },
    "EmojiPath": "SpriteOutput/Emoji/131015.png",
    "SameGroupOrder": 15
  },
  "131016": {
    "EmojiID": 131016,
    "Gender": "All",
    "EmojiGroupID": 113,
    "KeyWords": {
      "Hash": -1147697950
    },
    "EmojiPath": "SpriteOutput/Emoji/131016.png",
    "SameGroupOrder": 16
  }
}