{
  "AchievementPage": {
    "Key": "AchievementPage"
  },
  "AchievementQuestPage": {
    "Key": "AchievementQuestPage"
  },
  "ActivityPage": {
    "Key": "ActivityPage"
  },
  "AssistMemberEditPage": {
    "Key": "AssistMemberEditPage"
  },
  "AvatarMainPage": {
    "Key": "AvatarMainPage"
  },
  "AvatarPromotionDialog": {
    "Key": "AvatarPromotionDialog"
  },
  "AvatarSelectDialog": {
    "Key": "AvatarSelectDialog"
  },
  "BattlePassDisplayPage": {
    "Key": "BattlePassDisplayPage"
  },
  "BattlePassMainPage": {
    "Key": "BattlePassMainPage"
  },
  "BattlePassPurchasePage": {
    "Key": "BattlePassPurchasePage"
  },
  "BookContentPage": {
    "Key": "BookContentPage"
  },
  "BookListPage": {
    "Key": "BookListPage"
  },
  "ChallengeDetailPage": {
    "Key": "ChallengeDetailPage"
  },
  "ChallengeSelectPage": {
    "Key": "ChallengeSelectPage"
  },
  "CommonExitPage": {
    "Key": "CommonExitPage"
  },
  "CommonIntroduceDialog": {
    "Key": "CommonIntroduceDialog"
  },
  "ExpeditionMainPage": {
    "Key": "ExpeditionMainPage"
  },
  "FarmCocoonPage": {
    "Key": "FarmCocoonPage"
  },
  "FarmElementPage": {
    "Key": "FarmElementPage"
  },
  "FarmRelicPage": {
    "Key": "FarmRelicPage"
  },
  "FarmTeamEditPage": {
    "Key": "FarmTeamEditPage"
  },
  "FarmWeeklyCocoonPage": {
    "Key": "FarmWeeklyCocoonPage"
  },
  "FriendMainPage": {
    "Key": "FriendMainPage"
  },
  "GachaAvatarDetailPage": {
    "Key": "GachaAvatarDetailPage"
  },
  "GachaLightConeDetailPage": {
    "Key": "GachaLightConeDetailPage"
  },
  "GachaMainPage": {
    "Key": "GachaMainPage"
  },
  "GachaPoolDetailDialog": {
    "Key": "GachaPoolDetailDialog"
  },
  "HandbookPage": {
    "Key": "HandbookPage"
  },
  "InventoryPage": {
    "Key": "InventoryPage"
  },
  "ItemComposePage": {
    "Key": "ItemComposePage"
  },
  "LevelRewardPage": {
    "Key": "LevelRewardPage"
  },
  "LightConeDetailPage": {
    "Key": "LightConeDetailPage"
  },
  "LightConeReplacePage": {
    "Key": "LightConeReplacePage"
  },
  "MailPage": {
    "Key": "MailPage"
  },
  "MessageMainPage": {
    "Key": "MessageMainPage"
  },
  "MissionPage": {
    "Key": "MissionPage"
  },
  "MobilePhonePage": {
    "Key": "MobilePhonePage"
  },
  "PhoneNoticePage": {
    "Key": "PhoneNoticePage"
  },
  "PhotoEditPage": {
    "Key": "PhotoEditPage"
  },
  "PhotoGraphMainPage": {
    "Key": "PhotoGraphMainPage"
  },
  "PlayerInfoPage": {
    "Key": "PlayerInfoPage"
  },
  "PunkLordMainPage": {
    "Key": "PunkLordMainPage"
  },
  "PunkLordRewardPage": {
    "Key": "PunkLordRewardPage"
  },
  "PunkLordTaskPage": {
    "Key": "PunkLordTaskPage"
  },
  "RelicDetailPage": {
    "Key": "RelicDetailPage"
  },
  "RelicReplacePage": {
    "Key": "RelicReplacePage"
  },
  "RelicSellPage": {
    "Key": "RelicSellPage"
  },
  "RogueAeonTalkPage": {
    "Key": "RogueAeonTalkPage"
  },
  "RogueEnhanceBuffPage": {
    "Key": "RogueEnhanceBuffPage"
  },
  "RogueHandbookMainPage": {
    "Key": "RogueHandbookMainPage"
  },
  "RogueJoinAvatarSelectPage": {
    "Key": "RogueJoinAvatarSelectPage"
  },
  "RogueMenuPage": {
    "Key": "RogueMenuPage"
  },
  "RogueRandomEvtPage": {
    "Key": "RogueRandomEvtPage"
  },
  "RogueRevivePage": {
    "Key": "RogueRevivePage"
  },
  "RogueScoreRewardDialog": {
    "Key": "RogueScoreRewardDialog"
  },
  "RogueSelectBonusBuffPage": {
    "Key": "RogueSelectBonusBuffPage"
  },
  "RogueSelectBuffPage": {
    "Key": "RogueSelectBuffPage"
  },
  "RogueSelectMiraclePage": {
    "Key": "RogueSelectMiraclePage"
  },
  "RogueTalentPage": {
    "Key": "RogueTalentPage"
  },
  "SettingsPage": {
    "Key": "SettingsPage"
  },
  "ShopItemDetailDialog": {
    "Key": "ShopItemDetailDialog"
  },
  "ShopPage": {
    "Key": "ShopPage"
  },
  "SwitchAreaPage": {
    "Key": "SwitchAreaPage"
  },
  "TeamEditMainPage": {
    "Key": "TeamEditMainPage"
  },
  "TeamMemberEditPage": {
    "Key": "TeamMemberEditPage"
  },
  "TeamQuickEditPage": {
    "Key": "TeamQuickEditPage"
  },
  "WikipediaOverviewPage": {
    "Key": "WikipediaOverviewPage"
  },
  "ArchiveEntrancePage": {
    "Key": "ArchiveEntrancePage"
  },
  "AssistAvatarSelectDialog": {
    "Key": "AssistAvatarSelectDialog"
  },
  "AvatarArchiveDetailPage": {
    "Key": "AvatarArchiveDetailPage"
  },
  "AvatarArchivePage": {
    "Key": "AvatarArchivePage"
  },
  "BattlePassBuyLevelDialog": {
    "Key": "BattlePassBuyLevelDialog"
  },
  "BattlePassPosterPage": {
    "Key": "BattlePassPosterPage"
  },
  "BoxingClubEntrancePage": {
    "Key": "BoxingClubEntrancePage"
  },
  "BoxingClubMainPage": {
    "Key": "BoxingClubMainPage"
  },
  "BoxingClubQuestPage": {
    "Key": "BoxingClubQuestPage"
  },
  "CameraOptionsDialog": {
    "Key": "CameraOptionsDialog"
  },
  "CDKeyDialog": {
    "Key": "CDKeyDialog"
  },
  "ChallengeRewardPreviewDialog": {
    "Key": "ChallengeRewardPreviewDialog"
  },
  "GachaInvitationDialog": {
    "Key": "GachaInvitationDialog"
  },
  "LightConeArchiveDetailPage": {
    "Key": "LightConeArchiveDetailPage"
  },
  "LightConeArchivePage": {
    "Key": "LightConeArchivePage"
  },
  "LocalTeamEditPage": {
    "Key": "LocalTeamEditPage"
  },
  "MonsterArchiveDetailPage": {
    "Key": "MonsterArchiveDetailPage"
  },
  "MonsterArchivePage": {
    "Key": "MonsterArchivePage"
  },
  "NounArchivePage": {
    "Key": "NounArchivePage"
  },
  "PhotoResultDialog": {
    "Key": "PhotoResultDialog"
  },
  "PromotionPreviewDialog": {
    "Key": "PromotionPreviewDialog"
  },
  "PunkLordRecordDialog": {
    "Key": "PunkLordRecordDialog"
  },
  "RelicArchivePage": {
    "Key": "RelicArchivePage"
  },
  "RelicSuitDetailPage": {
    "Key": "RelicSuitDetailPage"
  },
  "RogueChestRewardDialog": {
    "Key": "RogueChestRewardDialog"
  },
  "RogueExploreFinishPage": {
    "Key": "RogueExploreFinishPage"
  },
  "RogueHandbookAeonDetailPage": {
    "Key": "RogueHandbookAeonDetailPage"
  },
  "RogueHandbookAeonPage": {
    "Key": "RogueHandbookAeonPage"
  },
  "RogueHandbookBuffPage": {
    "Key": "RogueHandbookBuffPage"
  },
  "RogueSelectDetailDialog": {
    "Key": "RogueSelectDetailDialog"
  },
  "RogueSelectPage": {
    "Key": "RogueSelectPage"
  },
  "RogueSelectTeamEditPage": {
    "Key": "RogueSelectTeamEditPage"
  },
  "TutorialPunkLordMainPage": {
    "Key": "TutorialPunkLordMainPage"
  },
  "FindTrotterRecordDialog": {
    "Key": "FindTrotterRecordDialog"
  },
  "ActivityMonsterResearchSubmitPage": {
    "Key": "ActivityMonsterResearchSubmitPage"
  },
  "ActivityMonsterResearchEnterPage": {
    "Key": "ActivityMonsterResearchEnterPage"
  },
  "ActivityMonsterResearchInfoPage": {
    "Key": "ActivityMonsterResearchInfoPage"
  },
  "ActivityMonsterResearchSubmitResultPage": {
    "Key": "ActivityMonsterResearchSubmitResultPage"
  },
  "DisplayAvatarSelectDialog": {
    "Key": "DisplayAvatarSelectDialog"
  },
  "FightActivityPage": {
    "Key": "FightActivityPage"
  },
  "FightActivityDetailPage": {
    "Key": "FightActivityDetailPage"
  },
  "FightActivityRewardDialog": {
    "Key": "FightActivityRewardDialog"
  },
  "ChallengeLevelPage": {
    "Key": "ChallengeLevelPage"
  },
  "WorldShopPage": {
    "Key": "WorldShopPage"
  },
  "PlayerReturnMainPage": {
    "Key": "PlayerReturnMainPage"
  },
  "MuseumEntrancePage": {
    "Key": "MuseumEntrancePage"
  },
  "MuseumPhasePreviewPage": {
    "Key": "MuseumPhasePreviewPage"
  },
  "MuseumQuestPage": {
    "Key": "MuseumQuestPage"
  },
  "MuseumMainPage": {
    "Key": "MuseumMainPage"
  },
  "MuseumAtlasPage": {
    "Key": "MuseumAtlasPage"
  },
  "MuseumMarketPage": {
    "Key": "MuseumMarketPage"
  },
  "SilverWolfShopPage": {
    "Key": "SilverWolfShopPage"
  },
  "SilverWolfCompanionPage": {
    "Key": "SilverWolfCompanionPage"
  },
  "SilverWolfActivityMissionPage": {
    "Key": "SilverWolfActivityMissionPage"
  },
  "FantasticStoryChallengePage": {
    "Key": "FantasticStoryChallengePage"
  },
  "FantasticStoryRewardPage": {
    "Key": "FantasticStoryRewardPage"
  },
  "FantasticStoryBookPage": {
    "Key": "FantasticStoryBookPage"
  },
  "TreasureDungeonEntrancePage": {
    "Key": "TreasureDungeonEntrancePage"
  },
  "TreasureDungeonMainPage": {
    "Key": "TreasureDungeonMainPage"
  },
  "TreasureDungeonRewardPage": {
    "Key": "TreasureDungeonRewardPage"
  },
  "ChessRogueMainPage": {
    "Key": "ChessRogueMainPage"
  },
  "ChessRogueSubMissionReplayPage": {
    "Key": "ChessRogueSubMissionReplayPage"
  },
  "ChessRogueLongTermRewardDialog": {
    "Key": "ChessRogueLongTermRewardDialog"
  },
  "GachaNormalTrialPage": {
    "Key": "GachaNormalTrialPage"
  },
  "AlleyQuestRewardPage": {
    "Key": "AlleyQuestRewardPage"
  },
  "TutorialActivityAlleyPackMainPage": {
    "Key": "TutorialActivityAlleyPackMainPage"
  },
  "TutorialAlleyTransportMainPage": {
    "Key": "TutorialAlleyTransportMainPage"
  },
  "SecondTutorialAlleyTransportMainPage": {
    "Key": "SecondTutorialAlleyTransportMainPage"
  },
  "ActivityAlleyPackMainPage": {
    "Key": "ActivityAlleyPackMainPage"
  },
  "AlleyMainEntrancePage": {
    "Key": "AlleyMainEntrancePage"
  },
  "AlleyTransportMainPage": {
    "Key": "AlleyTransportMainPage"
  },
  "AlleyEventPage": {
    "Key": "AlleyEventPage"
  },
  "AlleyRenownPage": {
    "Key": "AlleyRenownPage"
  },
  "RogueSelectMainPage": {
    "Key": "RogueSelectMainPage"
  },
  "RogueAtlasOverviewPage": {
    "Key": "RogueAtlasOverviewPage"
  },
  "AlleyPackHintDialog": {
    "Key": "AlleyPackHintDialog"
  },
  "ItemDetailDialog": {
    "Key": "ItemDetailDialog"
  },
  "ReserveStaminaExchangeDialog": {
    "Key": "ReserveStaminaExchangeDialog"
  },
  "BattleCollegePage": {
    "Key": "BattleCollegePage"
  },
  "AetherDivideEntryPage": {
    "Key": "AetherDivideEntryPage"
  },
  "AetherDivideTrainerLevelRewardDialog": {
    "Key": "AetherDivideTrainerLevelRewardDialog"
  },
  "AetherSpiritAtlasPage": {
    "Key": "AetherSpiritAtlasPage"
  },
  "AetherDivideTeamEditPage": {
    "Key": "AetherDivideTeamEditPage"
  },
  "AetherSpiritMainPage": {
    "Key": "AetherSpiritMainPage"
  },
  "RogueEndlessActivityMainPage": {
    "Key": "RogueEndlessActivityMainPage"
  },
  "RogueEndlessEntrancePage": {
    "Key": "RogueEndlessEntrancePage"
  },
  "RogueEndlessRewardPage": {
    "Key": "RogueEndlessRewardPage"
  },
  "ActivityGuessTheSilhouetteMainPage": {
    "Key": "ActivityGuessTheSilhouetteMainPage"
  },
  "BoxingClubEntranceMainPage": {
    "Key": "BoxingClubEntranceMainPage"
  },
  "HeliobusQuestRewardPage": {
    "Key": "HeliobusQuestRewardPage"
  },
  "HeliobusLightConeRewardPage": {
    "Key": "HeliobusLightConeRewardPage"
  },
  "HeliobusMainEntrancePage": {
    "Key": "HeliobusMainEntrancePage"
  },
  "HeliobusPopulationPhaseDialog": {
    "Key": "HeliobusPopulationPhaseDialog"
  },
  "HeliobusSNSMainPage": {
    "Key": "HeliobusSNSMainPage"
  },
  "HeliobusChallengeMainPage": {
    "Key": "HeliobusChallengeMainPage"
  },
  "HeliobusIncomePage": {
    "Key": "HeliobusIncomePage"
  },
  "HeliobusFarmCocoonPage": {
    "Key": "HeliobusFarmCocoonPage"
  },
  "HeliobusSNSDetailDialog": {
    "Key": "HeliobusSNSDetailDialog"
  },
  "HeliobusChallengeRewardDialog": {
    "Key": "HeliobusChallengeRewardDialog"
  },
  "HeliobusSkillListPage": {
    "Key": "HeliobusSkillListPage"
  },
  "StrongChallengeMainPage": {
    "Key": "StrongChallengeMainPage"
  },
  "StrongChallengeQuestRewardPage": {
    "Key": "StrongChallengeQuestRewardPage"
  },
  "ChallengeStoryMainPage": {
    "Key": "ChallengeStoryMainPage"
  },
  "ChallengeStoryDetailPage": {
    "Key": "ChallengeStoryDetailPage"
  },
  "ChallengeStoryBuffSelectPage": {
    "Key": "ChallengeStoryBuffSelectPage"
  },
  "SpaceZooRewardListDialog": {
    "Key": "SpaceZooRewardListDialog"
  },
  "SpaceZooMainPage": {
    "Key": "SpaceZooMainPage"
  },
  "SpaceZooQuestRewardPage": {
    "Key": "SpaceZooQuestRewardPage"
  },
  "RogueNousStoryPage": {
    "Key": "RogueNousStoryPage"
  },
  "RogueNousStoryRewardDialog": {
    "Key": "RogueNousStoryRewardDialog"
  },
  "RogueNousTalentPage": {
    "Key": "RogueNousTalentPage"
  },
  "RogueNousDiceHandbookPage": {
    "Key": "RogueNousDiceHandbookPage"
  },
  "RogueNousDiceEditPage": {
    "Key": "RogueNousDiceEditPage"
  },
  "RogueNousDiceBranchPage": {
    "Key": "RogueNousDiceBranchPage"
  },
  "ActivityQuestTimeLimitPage": {
    "Key": "ActivityQuestTimeLimitPage"
  },
  "MissionChronicleMainPage": {
    "Key": "MissionChronicleMainPage"
  },
  "MissionChronicleSubDialog": {
    "Key": "MissionChronicleSubDialog"
  },
  "OfferingWorldShopPage": {
    "Key": "OfferingWorldShopPage"
  },
  "RaidCollectionMainPage": {
    "Key": "RaidCollectionMainPage"
  },
  "OptionAvatarRewardSelectDialog": {
    "Key": "OptionAvatarRewardSelectDialog"
  },
  "RaidCollectionRewardPage": {
    "Key": "RaidCollectionRewardPage"
  },
  "RaidCollectionEntranceDialog": {
    "Key": "RaidCollectionEntranceDialog"
  },
  "ActivityTelevisionMainPage": {
    "Key": "ActivityTelevisionMainPage"
  },
  "ActivityTelevisionQuestPage": {
    "Key": "ActivityTelevisionQuestPage"
  },
  "PenaconyGiftSubmitPage": {
    "Key": "PenaconyGiftSubmitPage"
  },
  "PenaconyGiftItemInfoPage": {
    "Key": "PenaconyGiftItemInfoPage"
  },
  "PenaconyGiftMainPage": {
    "Key": "PenaconyGiftMainPage"
  },
  "TravelBrochureDirectoryPage": {
    "Key": "TravelBrochureDirectoryPage"
  },
  "TravelBrochurePasterCollectPage": {
    "Key": "TravelBrochurePasterCollectPage"
  },
  "MazeGachaBoxPage": {
    "Key": "MazeGachaBoxPage"
  },
  "ActivityFeverTimeMainPage": {
    "Key": "ActivityFeverTimeMainPage"
  },
  "DrinkMakerMainEntrancePage": {
    "Key": "DrinkMakerMainEntrancePage"
  },
  "DrinkMakerBartendMainPage": {
    "Key": "DrinkMakerBartendMainPage"
  },
  "DrinkMakerBartendResultDialog": {
    "Key": "DrinkMakerBartendResultDialog"
  },
  "ActivityMonopolyFriendRankPage": {
    "Key": "ActivityMonopolyFriendRankPage"
  },
  "ActivityMonopolyDailyRewardDialog": {
    "Key": "ActivityMonopolyDailyRewardDialog"
  },
  "ActivityMonopolyMainPage": {
    "Key": "ActivityMonopolyMainPage"
  },
  "ActivityMonopolyJackpotDialog": {
    "Key": "ActivityMonopolyJackpotDialog"
  },
  "ActivityMonopolyJackpotMainPage": {
    "Key": "ActivityMonopolyJackpotMainPage"
  },
  "ActivityMonopolyAreaAssetDialog": {
    "Key": "ActivityMonopolyAreaAssetDialog"
  },
  "ActivityMonopolyMapPage": {
    "Key": "ActivityMonopolyMapPage"
  },
  "ActivityMonopolyHistoryMainDialog": {
    "Key": "ActivityMonopolyHistoryMainDialog"
  },
  "ActivityMonopolyOnGoingEventDetailDialog": {
    "Key": "ActivityMonopolyOnGoingEventDetailDialog"
  },
  "ActivityMonopolyDailySettleDialog": {
    "Key": "ActivityMonopolyDailySettleDialog"
  },
  "ActivityMonopolyBuffDisplayDialog": {
    "Key": "ActivityMonopolyBuffDisplayDialog"
  },
  "ActivityMonopolyQuestPage": {
    "Key": "ActivityMonopolyQuestPage"
  },
  "ActivityClockParkMainPage": {
    "Key": "ActivityClockParkMainPage"
  },
  "ClockParkGamePlayRaidLevelPage": {
    "Key": "ClockParkGamePlayRaidLevelPage"
  },
  "EvolveBuildMainPage": {
    "Key": "EvolveBuildMainPage"
  },
  "EvolveBuildCollectionPage": {
    "Key": "EvolveBuildCollectionPage"
  },
  "EvolveBuildShopPage": {
    "Key": "EvolveBuildShopPage"
  },
  "EvolveBuildLevelRewardPage": {
    "Key": "EvolveBuildLevelRewardPage"
  },
  "EvolveBuildStagePage": {
    "Key": "EvolveBuildStagePage"
  },
  "BattleEvolveBuildMixPage": {
    "Key": "BattleEvolveBuildMixPage"
  },
  "ActivityClockParkGamePlayMainPage": {
    "Key": "ActivityClockParkGamePlayMainPage"
  }
}