{
  "414000": {
    "StageMergedID": 414000,
    "Name": {
      "Hash": 1869664957
    },
    "IntroID": 8140,
    "Desc": {
      "Hash": 371857150
    },
    "TeamBonusIconPath": "SpriteOutput/BuffIcon/Inlevel/IconBuffAttackUp.png",
    "TeamBonusShortDesc": {
      "Hash": 2141940433
    },
    "BuffTextFormat": {
      "Hash": -1755639624
    },
    "TeamBonusMazeBuffID": 3106608,
    "StagePeriod1": [
      414001
    ],
    "StagePeriod2": [
      414002
    ],
    "StagePeriod3": [],
    "StagePeriod4": [],
    "FirstWinReward": [
      100
    ],
    "RankList": [
      {
        "PGFLHFEFDGO": "C"
      },
      {
        "PGFLHFEFDGO": "B",
        "JFJCJMPBHGK": 20000
      },
      {
        "PGFLHFEFDGO": "A",
        "JFJCJMPBHGK": 40000
      },
      {
        "PGFLHFEFDGO": "S",
        "JFJCJMPBHGK": 60000
      },
      {
        "PGFLHFEFDGO": "SS",
        "JFJCJMPBHGK": 80000
      }
    ],
    "InitialWeapon": [],
    "TrialAvatar": [
      1021106,
      1048001,
      1048002,
      3231202,
      1031105
    ],
    "RecommendList": [],
    "GearRecommendList": []
  },
  "414001": {
    "StageMergedID": 414001,
    "Name": {
      "Hash": 303581016
    },
    "IntroID": 8141,
    "Desc": {
      "Hash": 371857150
    },
    "TeamBonusIconPath": "SpriteOutput/BuffIcon/Inlevel/IconBuffAttackUp.png",
    "TeamBonusShortDesc": {
      "Hash": 575856492
    },
    "BuffTextFormat": {
      "Hash": -1755639624
    },
    "TeamBonusMazeBuffID": 3106601,
    "Difficulty": 1,
    "StagePeriod1": [
      414011
    ],
    "StagePeriod2": [
      414012
    ],
    "StagePeriod3": [
      414013
    ],
    "StagePeriod4": [],
    "FirstWinReward": [
      100
    ],
    "UnlockQuest": 6020108,
    "RankList": [
      {
        "PGFLHFEFDGO": "C"
      },
      {
        "PGFLHFEFDGO": "B",
        "JFJCJMPBHGK": 20000
      },
      {
        "PGFLHFEFDGO": "A",
        "JFJCJMPBHGK": 40000
      },
      {
        "PGFLHFEFDGO": "S",
        "JFJCJMPBHGK": 60000
      },
      {
        "PGFLHFEFDGO": "SS",
        "JFJCJMPBHGK": 80000
      }
    ],
    "InitialWeapon": [
      3106002
    ],
    "TrialAvatar": [
      1021003,
      1031013,
      3231110
    ],
    "RecommendList": [
      {
        "IDAEICPCKBL": 3106807,
        "IOGAKDCMMKJ": 1
      },
      {
        "IDAEICPCKBL": 3106804,
        "IOGAKDCMMKJ": 2
      },
      {
        "IDAEICPCKBL": 3106805,
        "IOGAKDCMMKJ": 1
      }
    ],
    "GearRecommendList": [
      3106013,
      3106011,
      3106010
    ]
  },
  "414002": {
    "StageMergedID": 414002,
    "Name": {
      "Hash": -1262502925
    },
    "IntroID": 8142,
    "Desc": {
      "Hash": 371857150
    },
    "TeamBonusIconPath": "SpriteOutput/BuffIcon/Inlevel/IconBuffAttackUp.png",
    "TeamBonusShortDesc": {
      "Hash": -990227449
    },
    "BuffTextFormat": {
      "Hash": -1755639624
    },
    "TeamBonusMazeBuffID": 3106602,
    "Difficulty": 1,
    "StagePeriod1": [
      414021
    ],
    "StagePeriod2": [
      414022
    ],
    "StagePeriod3": [
      414023
    ],
    "StagePeriod4": [],
    "FirstWinReward": [
      100
    ],
    "UnlockQuest": 6020110,
    "RankList": [
      {
        "PGFLHFEFDGO": "C"
      },
      {
        "PGFLHFEFDGO": "B",
        "JFJCJMPBHGK": 20000
      },
      {
        "PGFLHFEFDGO": "A",
        "JFJCJMPBHGK": 40000
      },
      {
        "PGFLHFEFDGO": "S",
        "JFJCJMPBHGK": 60000
      },
      {
        "PGFLHFEFDGO": "SS",
        "JFJCJMPBHGK": 80000
      }
    ],
    "InitialWeapon": [
      3106004
    ],
    "TrialAvatar": [
      1031307,
      1031005,
      1031217
    ],
    "RecommendList": [
      {
        "IDAEICPCKBL": 3106801,
        "IOGAKDCMMKJ": 2
      },
      {
        "IDAEICPCKBL": 3106805,
        "IOGAKDCMMKJ": 1
      },
      {
        "IDAEICPCKBL": 3106804,
        "IOGAKDCMMKJ": 2
      }
    ],
    "GearRecommendList": [
      3106003,
      3106011,
      3106005
    ]
  },
  "414003": {
    "StageMergedID": 414003,
    "Name": {
      "Hash": 1466380430
    },
    "IntroID": 8143,
    "Desc": {
      "Hash": 371857150
    },
    "TeamBonusIconPath": "SpriteOutput/BuffIcon/Inlevel/IconBuffAttackUp.png",
    "TeamBonusShortDesc": {
      "Hash": 1738655906
    },
    "BuffTextFormat": {
      "Hash": -1755639624
    },
    "TeamBonusMazeBuffID": 3106603,
    "Difficulty": 1,
    "StagePeriod1": [
      414031
    ],
    "StagePeriod2": [
      414032
    ],
    "StagePeriod3": [
      414033
    ],
    "StagePeriod4": [],
    "FirstWinReward": [
      100
    ],
    "UnlockQuest": 6020111,
    "RankList": [
      {
        "PGFLHFEFDGO": "C"
      },
      {
        "PGFLHFEFDGO": "B",
        "JFJCJMPBHGK": 20000
      },
      {
        "PGFLHFEFDGO": "A",
        "JFJCJMPBHGK": 40000
      },
      {
        "PGFLHFEFDGO": "S",
        "JFJCJMPBHGK": 60000
      },
      {
        "PGFLHFEFDGO": "SS",
        "JFJCJMPBHGK": 80000
      }
    ],
    "InitialWeapon": [
      3106005
    ],
    "TrialAvatar": [
      1031315,
      1038005,
      1038006,
      3231301
    ],
    "RecommendList": [
      {
        "IDAEICPCKBL": 3106811,
        "IOGAKDCMMKJ": 1
      },
      {
        "IDAEICPCKBL": 3106806,
        "IOGAKDCMMKJ": 1
      },
      {
        "IDAEICPCKBL": 3106802,
        "IOGAKDCMMKJ": 2
      },
      {
        "IDAEICPCKBL": 3106804,
        "IOGAKDCMMKJ": 2
      }
    ],
    "GearRecommendList": [
      3106001,
      3106011,
      3106008
    ]
  },
  "414004": {
    "StageMergedID": 414004,
    "Name": {
      "Hash": -99703511
    },
    "IntroID": 8144,
    "Desc": {
      "Hash": 371857150
    },
    "TeamBonusIconPath": "SpriteOutput/BuffIcon/Inlevel/IconBuffAttackUp.png",
    "TeamBonusShortDesc": {
      "Hash": -183658395
    },
    "BuffTextFormat": {
      "Hash": -1755639624
    },
    "TeamBonusMazeBuffID": 3106605,
    "Difficulty": 2,
    "StagePeriod1": [
      414041
    ],
    "StagePeriod2": [
      414042
    ],
    "StagePeriod3": [
      414043
    ],
    "StagePeriod4": [],
    "FirstWinReward": [
      100
    ],
    "UnlockQuest": 6020112,
    "RankList": [
      {
        "PGFLHFEFDGO": "C"
      },
      {
        "PGFLHFEFDGO": "B",
        "JFJCJMPBHGK": 20000
      },
      {
        "PGFLHFEFDGO": "A",
        "JFJCJMPBHGK": 40000
      },
      {
        "PGFLHFEFDGO": "S",
        "JFJCJMPBHGK": 60000
      },
      {
        "PGFLHFEFDGO": "SS",
        "JFJCJMPBHGK": 80000
      }
    ],
    "InitialWeapon": [
      3106007
    ],
    "TrialAvatar": [
      3231305,
      3231112,
      1031309
    ],
    "RecommendList": [
      {
        "IDAEICPCKBL": 3106805,
        "IOGAKDCMMKJ": 2
      },
      {
        "IDAEICPCKBL": 3106801,
        "IOGAKDCMMKJ": 2
      },
      {
        "IDAEICPCKBL": 3106812,
        "IOGAKDCMMKJ": 2
      },
      {
        "IDAEICPCKBL": 3106809,
        "IOGAKDCMMKJ": 2
      },
      {
        "IDAEICPCKBL": 3106813,
        "IOGAKDCMMKJ": 1
      }
    ],
    "GearRecommendList": [
      3106009,
      3106001,
      3106002
    ]
  },
  "414006": {
    "StageMergedID": 414006,
    "Name": {
      "Hash": 1063095903
    },
    "IntroID": 8146,
    "Desc": {
      "Hash": 371857150
    },
    "TeamBonusIconPath": "SpriteOutput/BuffIcon/Inlevel/IconBuffAttackUp.png",
    "TeamBonusShortDesc": {
      "Hash": 979141019
    },
    "BuffTextFormat": {
      "Hash": -1755639624
    },
    "TeamBonusMazeBuffID": 3106606,
    "Difficulty": 2,
    "StagePeriod1": [
      414061
    ],
    "StagePeriod2": [
      414062
    ],
    "StagePeriod3": [
      414063
    ],
    "StagePeriod4": [],
    "FirstWinReward": [
      100
    ],
    "UnlockQuest": 6020113,
    "RankList": [
      {
        "PGFLHFEFDGO": "C"
      },
      {
        "PGFLHFEFDGO": "B",
        "JFJCJMPBHGK": 20000
      },
      {
        "PGFLHFEFDGO": "A",
        "JFJCJMPBHGK": 40000
      },
      {
        "PGFLHFEFDGO": "S",
        "JFJCJMPBHGK": 60000
      },
      {
        "PGFLHFEFDGO": "SS",
        "JFJCJMPBHGK": 80000
      }
    ],
    "InitialWeapon": [
      3106012
    ],
    "TrialAvatar": [
      3231308,
      3231106,
      3231304
    ],
    "RecommendList": [
      {
        "IDAEICPCKBL": 3106808,
        "IOGAKDCMMKJ": 2
      },
      {
        "IDAEICPCKBL": 3106802,
        "IOGAKDCMMKJ": 3
      },
      {
        "IDAEICPCKBL": 3106811,
        "IOGAKDCMMKJ": 2
      },
      {
        "IDAEICPCKBL": 3106812,
        "IOGAKDCMMKJ": 2
      },
      {
        "IDAEICPCKBL": 3106804,
        "IOGAKDCMMKJ": 3
      }
    ],
    "GearRecommendList": [
      3106010,
      3106009,
      3106003
    ]
  },
  "414007": {
    "StageMergedID": 414007,
    "Name": {
      "Hash": -502988038
    },
    "IntroID": 8140,
    "Desc": {
      "Hash": 371857150
    },
    "TeamBonusIconPath": "SpriteOutput/BuffIcon/Inlevel/IconBuffAttackUp.png",
    "TeamBonusShortDesc": {
      "Hash": -586942922
    },
    "BuffTextFormat": {
      "Hash": -1755639624
    },
    "TeamBonusMazeBuffID": 3106607,
    "Difficulty": 3,
    "WeaponSelectable": true,
    "StagePeriod1": [
      414101,
      414102,
      414103,
      414104,
      414105,
      414106,
      414107,
      414108,
      414109,
      414110,
      414111,
      414112
    ],
    "StagePeriod2": [
      414201,
      414202,
      414203,
      414204,
      414205,
      414206,
      414207,
      414208,
      414209,
      414210,
      414211,
      414212
    ],
    "StagePeriod3": [
      414301,
      414302,
      414303,
      414304,
      414305,
      414306
    ],
    "StagePeriod4": [
      414999
    ],
    "FirstWinReward": [
      100
    ],
    "UnlockQuest": 6020115,
    "RankList": [
      {
        "PGFLHFEFDGO": "C"
      },
      {
        "PGFLHFEFDGO": "B",
        "JFJCJMPBHGK": 20000
      },
      {
        "PGFLHFEFDGO": "A",
        "JFJCJMPBHGK": 40000
      },
      {
        "PGFLHFEFDGO": "S",
        "JFJCJMPBHGK": 60000
      },
      {
        "PGFLHFEFDGO": "SS",
        "JFJCJMPBHGK": 80000
      }
    ],
    "InitialWeapon": [],
    "TrialAvatar": [
      1021003,
      1031013,
      3231110,
      1031307,
      1031005,
      1031217,
      1031315,
      1038005,
      1038006,
      3231301,
      3231305,
      3231112,
      1031309,
      3231308,
      3231106,
      3231304
    ],
    "RecommendList": [
      {
        "IDAEICPCKBL": 3106814,
        "IOGAKDCMMKJ": 1
      },
      {
        "IDAEICPCKBL": 3106804,
        "IOGAKDCMMKJ": 4
      },
      {
        "IDAEICPCKBL": 3106809,
        "IOGAKDCMMKJ": 3
      },
      {
        "IDAEICPCKBL": 3106812,
        "IOGAKDCMMKJ": 2
      }
    ],
    "GearRecommendList": []
  }
}