{
  "1001": {
    "ID": 1001,
    "ControlTalkList": []
  },
  "1002": {
    "ID": 1002,
    "ControlTalkList": []
  },
  "1003": {
    "ID": 1003,
    "ControlTalkList": []
  },
  "1004": {
    "ID": 1004,
    "ControlTalkList": []
  },
  "1005": {
    "ID": 1005,
    "ControlTalkList": []
  },
  "1006": {
    "ID": 1006,
    "ControlTalkList": []
  },
  "2001": {
    "ID": 2001,
    "ControlTalkList": []
  },
  "2002": {
    "ID": 2002,
    "ControlTalkList": []
  },
  "2003": {
    "ID": 2003,
    "ControlTalkList": []
  },
  "2004": {
    "ID": 2004,
    "ControlTalkList": []
  },
  "3001": {
    "ID": 3001,
    "ControlTalkList": []
  },
  "3002": {
    "ID": 3002,
    "ControlTalkList": []
  },
  "3003": {
    "ID": 3003,
    "ControlTalkList": []
  },
  "3004": {
    "ID": 3004,
    "ControlTalkList": []
  },
  "3005": {
    "ID": 3005,
    "ControlTalkList": []
  },
  "3006": {
    "ID": 3006,
    "ControlTalkList": []
  },
  "4001": {
    "ID": 4001,
    "ControlTalkList": []
  },
  "4002": {
    "ID": 4002,
    "ControlTalkList": []
  },
  "4003": {
    "ID": 4003,
    "ControlTalkList": []
  },
  "4004": {
    "ID": 4004,
    "ControlTalkList": []
  },
  "4005": {
    "ID": 4005,
    "ControlTalkList": []
  },
  "4006": {
    "ID": 4006,
    "ControlTalkList": []
  },
  "1321001": {
    "ID": 1321001,
    "ControlTalkList": []
  },
  "1321002": {
    "ID": 1321002,
    "ControlTalkList": []
  },
  "1321003": {
    "ID": 1321003,
    "RewardID": 2000745,
    "ControlTalkList": []
  },
  "1321004": {
    "ID": 1321004,
    "ControlTalkList": []
  },
  "1331201": {
    "ID": 1331201,
    "RewardID": 2000800,
    "ControlTalkList": []
  },
  "1331202": {
    "ID": 1331202,
    "ControlTalkList": []
  },
  "1331203": {
    "ID": 1331203,
    "ControlTalkList": []
  },
  "1331204": {
    "ID": 1331204,
    "RewardID": 2000799,
    "ControlTalkList": []
  },
  "1331205": {
    "ID": 1331205,
    "ControlTalkList": []
  },
  "1331206": {
    "ID": 1331206,
    "ControlTalkList": []
  },
  "1010801": {
    "ID": 1010801,
    "ControlTalkList": []
  },
  "1010802": {
    "ID": 1010802,
    "ControlTalkList": []
  },
  "1010803": {
    "ID": 1010803,
    "ControlTalkList": []
  },
  "1010804": {
    "ID": 1010804,
    "ControlTalkList": []
  },
  "1010805": {
    "ID": 1010805,
    "ControlTalkList": []
  },
  "1010806": {
    "ID": 1010806,
    "ControlTalkList": []
  },
  "1010807": {
    "ID": 1010807,
    "ControlTalkList": []
  },
  "2000201": {
    "ID": 2000201,
    "ControlTalkList": []
  },
  "2000202": {
    "ID": 2000202,
    "ControlTalkList": []
  },
  "2000203": {
    "ID": 2000203,
    "ControlTalkList": []
  },
  "2000204": {
    "ID": 2000204,
    "ControlTalkList": []
  },
  "2000301": {
    "ID": 2000301,
    "ControlTalkList": []
  },
  "2000302": {
    "ID": 2000302,
    "ControlTalkList": []
  },
  "2000303": {
    "ID": 2000303,
    "ControlTalkList": []
  },
  "2000304": {
    "ID": 2000304,
    "ControlTalkList": []
  },
  "2000401": {
    "ID": 2000401,
    "ControlTalkList": []
  },
  "2000402": {
    "ID": 2000402,
    "ControlTalkList": []
  },
  "2000403": {
    "ID": 2000403,
    "ControlTalkList": []
  },
  "2000404": {
    "ID": 2000404,
    "ControlTalkList": []
  },
  "2000405": {
    "ID": 2000405,
    "ControlTalkList": []
  },
  "2000501": {
    "ID": 2000501,
    "ControlTalkList": []
  },
  "2000502": {
    "ID": 2000502,
    "ControlTalkList": []
  },
  "2000503": {
    "ID": 2000503,
    "ControlTalkList": []
  },
  "2000504": {
    "ID": 2000504,
    "ControlTalkList": []
  },
  "1322201": {
    "ID": 1322201,
    "RewardID": 2000758,
    "ControlTalkList": []
  },
  "1322202": {
    "ID": 1322202,
    "ControlTalkList": []
  },
  "1322203": {
    "ID": 1322203,
    "RewardID": 2000757,
    "ControlTalkList": []
  },
  "1322204": {
    "ID": 1322204,
    "ControlTalkList": []
  },
  "1311301": {
    "ID": 1311301,
    "ControlTalkList": []
  },
  "1311302": {
    "ID": 1311302,
    "RewardID": 2000805,
    "ControlTalkList": []
  },
  "1311303": {
    "ID": 1311303,
    "ControlTalkList": []
  },
  "1311304": {
    "ID": 1311304,
    "ControlTalkList": []
  },
  "1311305": {
    "ID": 1311305,
    "ControlTalkList": []
  },
  "1311306": {
    "ID": 1311306,
    "ControlTalkList": []
  },
  "1340301": {
    "ID": 1340301,
    "RewardID": 2000872,
    "ControlTalkList": []
  },
  "1340302": {
    "ID": 1340302,
    "ControlTalkList": []
  },
  "1340303": {
    "ID": 1340303,
    "ControlTalkList": []
  },
  "1340304": {
    "ID": 1340304,
    "RewardID": 2000794,
    "ControlTalkList": []
  },
  "1340305": {
    "ID": 1340305,
    "ControlTalkList": []
  },
  "1340306": {
    "ID": 1340306,
    "ControlTalkList": []
  },
  "1321701": {
    "ID": 1321701,
    "ControlTalkList": []
  },
  "1321702": {
    "ID": 1321702,
    "RewardID": 2000811,
    "ControlTalkList": []
  },
  "1321703": {
    "ID": 1321703,
    "ControlTalkList": []
  },
  "1321704": {
    "ID": 1321704,
    "RewardID": 2000810,
    "ControlTalkList": []
  },
  "1321705": {
    "ID": 1321705,
    "ControlTalkList": []
  },
  "1321706": {
    "ID": 1321706,
    "ControlTalkList": []
  },
  "1320501": {
    "ID": 1320501,
    "RewardID": 2000795,
    "ControlTalkList": []
  },
  "1320502": {
    "ID": 1320502,
    "ControlTalkList": []
  },
  "1320503": {
    "ID": 1320503,
    "ControlTalkList": []
  },
  "1320504": {
    "ID": 1320504,
    "ControlTalkList": []
  },
  "1320505": {
    "ID": 1320505,
    "ControlTalkList": []
  },
  "1320506": {
    "ID": 1320506,
    "ControlTalkList": []
  },
  "1321801": {
    "ID": 1321801,
    "ControlTalkList": []
  },
  "1321802": {
    "ID": 1321802,
    "ControlTalkList": []
  },
  "1321803": {
    "ID": 1321803,
    "ControlTalkList": []
  },
  "1321804": {
    "ID": 1321804,
    "ControlTalkList": []
  },
  "1310301": {
    "ID": 1310301,
    "ControlTalkList": []
  },
  "1310302": {
    "ID": 1310302,
    "ControlTalkList": []
  },
  "1310303": {
    "ID": 1310303,
    "ControlTalkList": []
  },
  "1310304": {
    "ID": 1310304,
    "ControlTalkList": []
  },
  "1319901": {
    "ID": 1319901,
    "ControlTalkList": []
  },
  "1319902": {
    "ID": 1319902,
    "RewardID": 2000773,
    "ControlTalkList": []
  },
  "1319903": {
    "ID": 1319903,
    "ControlTalkList": []
  },
  "1319904": {
    "ID": 1319904,
    "ControlTalkList": []
  },
  "1319905": {
    "ID": 1319905,
    "ControlTalkList": []
  },
  "1319801": {
    "ID": 1319801,
    "RewardID": 2000762,
    "ControlTalkList": []
  },
  "1319802": {
    "ID": 1319802,
    "ControlTalkList": []
  },
  "1319803": {
    "ID": 1319803,
    "RewardID": 2000761,
    "ControlTalkList": []
  },
  "1319804": {
    "ID": 1319804,
    "ControlTalkList": []
  },
  "1319701": {
    "ID": 1319701,
    "ControlTalkList": []
  },
  "1319702": {
    "ID": 1319702,
    "RewardID": 2000874,
    "ControlTalkList": []
  },
  "1319703": {
    "ID": 1319703,
    "RewardID": 2000768,
    "ControlTalkList": []
  },
  "1319704": {
    "ID": 1319704,
    "ControlTalkList": []
  },
  "1311801": {
    "ID": 1311801,
    "ControlTalkList": []
  },
  "1311802": {
    "ID": 1311802,
    "RewardID": 2000748,
    "ControlTalkList": []
  },
  "1311803": {
    "ID": 1311803,
    "RewardID": 2000747,
    "ControlTalkList": []
  },
  "1311804": {
    "ID": 1311804,
    "RewardID": 2000746,
    "ControlTalkList": []
  },
  "1311001": {
    "ID": 1311001,
    "RewardID": 2000749,
    "ControlTalkList": []
  },
  "1311002": {
    "ID": 1311002,
    "ControlTalkList": []
  },
  "1311003": {
    "ID": 1311003,
    "ControlTalkList": []
  },
  "1311004": {
    "ID": 1311004,
    "ControlTalkList": []
  },
  "1330601": {
    "ID": 1330601,
    "ControlTalkList": []
  },
  "1330602": {
    "ID": 1330602,
    "RewardID": 2000751,
    "ControlTalkList": []
  },
  "1330603": {
    "ID": 1330603,
    "ControlTalkList": []
  },
  "1330604": {
    "ID": 1330604,
    "RewardID": 2000750,
    "ControlTalkList": []
  },
  "1330701": {
    "ID": 1330701,
    "RewardID": 2000753,
    "ControlTalkList": []
  },
  "1330702": {
    "ID": 1330702,
    "ControlTalkList": []
  },
  "1330703": {
    "ID": 1330703,
    "RewardID": 2000752,
    "ControlTalkList": []
  },
  "1330704": {
    "ID": 1330704,
    "ControlTalkList": []
  },
  "1330801": {
    "ID": 1330801,
    "ControlTalkList": []
  },
  "1330802": {
    "ID": 1330802,
    "ControlTalkList": []
  },
  "1330803": {
    "ID": 1330803,
    "RewardID": 2000755,
    "ControlTalkList": []
  },
  "1330804": {
    "ID": 1330804,
    "RewardID": 2000754,
    "ControlTalkList": []
  },
  "1311901": {
    "ID": 1311901,
    "ControlTalkList": []
  },
  "1311902": {
    "ID": 1311902,
    "ControlTalkList": []
  },
  "1311903": {
    "ID": 1311903,
    "ControlTalkList": []
  },
  "1311904": {
    "ID": 1311904,
    "ControlTalkList": []
  },
  "1331301": {
    "ID": 1331301,
    "RewardID": 2000758,
    "ControlTalkList": []
  },
  "1331302": {
    "ID": 1331302,
    "ControlTalkList": []
  },
  "1331303": {
    "ID": 1331303,
    "RewardID": 2000757,
    "ControlTalkList": []
  },
  "1331304": {
    "ID": 1331304,
    "RewardID": 2000756,
    "ControlTalkList": []
  },
  "1330901": {
    "ID": 1330901,
    "ControlTalkList": []
  },
  "1330902": {
    "ID": 1330902,
    "ControlTalkList": []
  },
  "1330903": {
    "ID": 1330903,
    "ControlTalkList": []
  },
  "1330904": {
    "ID": 1330904,
    "ControlTalkList": []
  },
  "1330501": {
    "ID": 1330501,
    "ControlTalkList": []
  },
  "1330502": {
    "ID": 1330502,
    "RewardID": 2000760,
    "ControlTalkList": []
  },
  "1330503": {
    "ID": 1330503,
    "RewardID": 2000759,
    "ControlTalkList": []
  },
  "1330504": {
    "ID": 1330504,
    "ControlTalkList": []
  },
  "1321201": {
    "ID": 1321201,
    "ControlTalkList": []
  },
  "1321202": {
    "ID": 1321202,
    "ControlTalkList": []
  },
  "1321203": {
    "ID": 1321203,
    "RewardID": 2000818,
    "ControlTalkList": []
  },
  "1321204": {
    "ID": 1321204,
    "ControlTalkList": []
  },
  "1311101": {
    "ID": 1311101,
    "ControlTalkList": []
  },
  "1311102": {
    "ID": 1311102,
    "RewardID": 2000765,
    "ControlTalkList": []
  },
  "1311103": {
    "ID": 1311103,
    "ControlTalkList": []
  },
  "1311104": {
    "ID": 1311104,
    "RewardID": 2000764,
    "ControlTalkList": []
  },
  "1320301": {
    "ID": 1320301,
    "RewardID": 2000767,
    "ControlTalkList": []
  },
  "1320302": {
    "ID": 1320302,
    "ControlTalkList": []
  },
  "1320303": {
    "ID": 1320303,
    "ControlTalkList": []
  },
  "1320304": {
    "ID": 1320304,
    "RewardID": 2000766,
    "ControlTalkList": []
  },
  "1312001": {
    "ID": 1312001,
    "ControlTalkList": []
  },
  "1312002": {
    "ID": 1312002,
    "RewardID": 2000770,
    "ControlTalkList": []
  },
  "1312003": {
    "ID": 1312003,
    "ControlTalkList": []
  },
  "1312004": {
    "ID": 1312004,
    "RewardID": 2000769,
    "ControlTalkList": []
  },
  "1311601": {
    "ID": 1311601,
    "RewardID": 2000776,
    "ControlTalkList": []
  },
  "1311602": {
    "ID": 1311602,
    "ControlTalkList": []
  },
  "1311603": {
    "ID": 1311603,
    "ControlTalkList": []
  },
  "1311604": {
    "ID": 1311604,
    "RewardID": 2000775,
    "ControlTalkList": []
  },
  "1310801": {
    "ID": 1310801,
    "RewardID": 2000793,
    "ControlTalkList": []
  },
  "1310802": {
    "ID": 1310802,
    "ControlTalkList": []
  },
  "1310803": {
    "ID": 1310803,
    "ControlTalkList": []
  },
  "1310804": {
    "ID": 1310804,
    "RewardID": 2000792,
    "ControlTalkList": []
  },
  "1310805": {
    "ID": 1310805,
    "ControlTalkList": []
  },
  "1310806": {
    "ID": 1310806,
    "ControlTalkList": []
  },
  "1340601": {
    "ID": 1340601,
    "RewardID": 2000779,
    "ControlTalkList": []
  },
  "1340602": {
    "ID": 1340602,
    "ControlTalkList": []
  },
  "1340603": {
    "ID": 1340603,
    "RewardID": 2000778,
    "ControlTalkList": []
  },
  "1340604": {
    "ID": 1340604,
    "RewardID": 2000777,
    "ControlTalkList": []
  },
  "1321401": {
    "ID": 1321401,
    "RewardID": 2000782,
    "ControlTalkList": []
  },
  "1321402": {
    "ID": 1321402,
    "ControlTalkList": []
  },
  "1321403": {
    "ID": 1321403,
    "RewardID": 2000781,
    "ControlTalkList": []
  },
  "1321404": {
    "ID": 1321404,
    "RewardID": 2000780,
    "ControlTalkList": []
  },
  "1321501": {
    "ID": 1321501,
    "ControlTalkList": []
  },
  "1321502": {
    "ID": 1321502,
    "ControlTalkList": []
  },
  "1321503": {
    "ID": 1321503,
    "ControlTalkList": []
  },
  "1321504": {
    "ID": 1321504,
    "RewardID": 2000783,
    "ControlTalkList": []
  },
  "1311701": {
    "ID": 1311701,
    "ControlTalkList": []
  },
  "1311702": {
    "ID": 1311702,
    "ControlTalkList": []
  },
  "1311703": {
    "ID": 1311703,
    "ControlTalkList": []
  },
  "1311704": {
    "ID": 1311704,
    "ControlTalkList": []
  },
  "1310501": {
    "ID": 1310501,
    "ControlTalkList": []
  },
  "1310502": {
    "ID": 1310502,
    "ControlTalkList": []
  },
  "1310503": {
    "ID": 1310503,
    "ControlTalkList": []
  },
  "1310504": {
    "ID": 1310504,
    "RewardID": 2000784,
    "ControlTalkList": []
  },
  "1331401": {
    "ID": 1331401,
    "RewardID": 2000789,
    "ControlTalkList": []
  },
  "1331402": {
    "ID": 1331402,
    "RewardID": 2000788,
    "ControlTalkList": []
  },
  "1331403": {
    "ID": 1331403,
    "RewardID": 2000787,
    "ControlTalkList": []
  },
  "1331404": {
    "ID": 1331404,
    "RewardID": 2000786,
    "ControlTalkList": []
  },
  "1312101": {
    "ID": 1312101,
    "ControlTalkList": []
  },
  "1312102": {
    "ID": 1312102,
    "ControlTalkList": []
  },
  "1312103": {
    "ID": 1312103,
    "ControlTalkList": []
  },
  "1312104": {
    "ID": 1312104,
    "RewardID": 2000790,
    "ControlTalkList": []
  },
  "1331101": {
    "ID": 1331101,
    "RewardID": 2000791,
    "ControlTalkList": []
  },
  "1331102": {
    "ID": 1331102,
    "ControlTalkList": []
  },
  "1331103": {
    "ID": 1331103,
    "ControlTalkList": []
  },
  "1331104": {
    "ID": 1331104,
    "ControlTalkList": []
  },
  "1320805": {
    "ID": 1320805,
    "ControlTalkList": []
  },
  "1320806": {
    "ID": 1320806,
    "ControlTalkList": []
  },
  "1320807": {
    "ID": 1320807,
    "ControlTalkList": []
  },
  "1321301": {
    "ID": 1321301,
    "ControlTalkList": []
  },
  "1321302": {
    "ID": 1321302,
    "ControlTalkList": []
  },
  "1321303": {
    "ID": 1321303,
    "ControlTalkList": []
  },
  "1321304": {
    "ID": 1321304,
    "ControlTalkList": []
  },
  "1321305": {
    "ID": 1321305,
    "ControlTalkList": []
  },
  "1321306": {
    "ID": 1321306,
    "ControlTalkList": []
  },
  "1330401": {
    "ID": 1330401,
    "RewardID": 2000807,
    "ControlTalkList": []
  },
  "1330402": {
    "ID": 1330402,
    "ControlTalkList": []
  },
  "1330403": {
    "ID": 1330403,
    "ControlTalkList": []
  },
  "1330404": {
    "ID": 1330404,
    "RewardID": 2000806,
    "ControlTalkList": []
  },
  "1330405": {
    "ID": 1330405,
    "ControlTalkList": []
  },
  "1330406": {
    "ID": 1330406,
    "ControlTalkList": []
  },
  "2000601": {
    "ID": 2000601,
    "ControlTalkList": []
  },
  "2000602": {
    "ID": 2000602,
    "ControlTalkList": []
  },
  "2000603": {
    "ID": 2000603,
    "ControlTalkList": []
  },
  "2000701": {
    "ID": 2000701,
    "ControlTalkList": []
  },
  "2000702": {
    "ID": 2000702,
    "ControlTalkList": []
  },
  "2000703": {
    "ID": 2000703,
    "ControlTalkList": []
  },
  "2000704": {
    "ID": 2000704,
    "ControlTalkList": []
  },
  "1340405": {
    "ID": 1340405,
    "ControlTalkList": []
  },
  "1340406": {
    "ID": 1340406,
    "ControlTalkList": []
  },
  "1340407": {
    "ID": 1340407,
    "ControlTalkList": []
  },
  "1311201": {
    "ID": 1311201,
    "ControlTalkList": []
  },
  "1311202": {
    "ID": 1311202,
    "ControlTalkList": []
  },
  "1311203": {
    "ID": 1311203,
    "ControlTalkList": []
  },
  "1311204": {
    "ID": 1311204,
    "ControlTalkList": []
  },
  "1311205": {
    "ID": 1311205,
    "ControlTalkList": []
  },
  "1311206": {
    "ID": 1311206,
    "ControlTalkList": []
  },
  "1330301": {
    "ID": 1330301,
    "ControlTalkList": []
  },
  "1330302": {
    "ID": 1330302,
    "ControlTalkList": []
  },
  "1330303": {
    "ID": 1330303,
    "ControlTalkList": []
  },
  "1330304": {
    "ID": 1330304,
    "ControlTalkList": []
  },
  "1330305": {
    "ID": 1330305,
    "ControlTalkList": []
  },
  "1330306": {
    "ID": 1330306,
    "ControlTalkList": []
  },
  "1322101": {
    "ID": 1322101,
    "ControlTalkList": []
  },
  "1322102": {
    "ID": 1322102,
    "RewardID": 2000813,
    "ControlTalkList": []
  },
  "1322103": {
    "ID": 1322103,
    "ControlTalkList": []
  },
  "1322104": {
    "ID": 1322104,
    "RewardID": 2000812,
    "ControlTalkList": []
  },
  "1322105": {
    "ID": 1322105,
    "ControlTalkList": []
  },
  "1322106": {
    "ID": 1322106,
    "ControlTalkList": []
  },
  "1321101": {
    "ID": 1321101,
    "RewardID": 2000804,
    "ControlTalkList": []
  },
  "1321102": {
    "ID": 1321102,
    "RewardID": 2000803,
    "ControlTalkList": []
  },
  "1321103": {
    "ID": 1321103,
    "ControlTalkList": []
  },
  "1321104": {
    "ID": 1321104,
    "ControlTalkList": []
  },
  "1321105": {
    "ID": 1321105,
    "ControlTalkList": []
  },
  "1321106": {
    "ID": 1321106,
    "ControlTalkList": []
  },
  "1342801": {
    "ID": 1342801,
    "ControlTalkList": []
  },
  "1342802": {
    "ID": 1342802,
    "ControlTalkList": []
  },
  "1342803": {
    "ID": 1342803,
    "ControlTalkList": []
  },
  "1342804": {
    "ID": 1342804,
    "ControlTalkList": []
  },
  "1330201": {
    "ID": 1330201,
    "ControlTalkList": []
  },
  "1330202": {
    "ID": 1330202,
    "RewardID": 2000802,
    "ControlTalkList": []
  },
  "1330203": {
    "ID": 1330203,
    "RewardID": 2000801,
    "ControlTalkList": []
  },
  "1330204": {
    "ID": 1330204,
    "ControlTalkList": []
  },
  "1330205": {
    "ID": 1330205,
    "ControlTalkList": []
  },
  "1330206": {
    "ID": 1330206,
    "ControlTalkList": []
  },
  "2000801": {
    "ID": 2000801,
    "ControlTalkList": []
  },
  "2000802": {
    "ID": 2000802,
    "ControlTalkList": []
  },
  "2000803": {
    "ID": 2000803,
    "ControlTalkList": []
  },
  "2000804": {
    "ID": 2000804,
    "ControlTalkList": []
  },
  "2000901": {
    "ID": 2000901,
    "ControlTalkList": []
  },
  "2000902": {
    "ID": 2000902,
    "ControlTalkList": []
  },
  "2000903": {
    "ID": 2000903,
    "ControlTalkList": []
  },
  "2000904": {
    "ID": 2000904,
    "ControlTalkList": []
  },
  "1310901": {
    "ID": 1310901,
    "ControlTalkList": []
  },
  "1310902": {
    "ID": 1310902,
    "RewardID": 2000798,
    "ControlTalkList": []
  },
  "1310903": {
    "ID": 1310903,
    "RewardID": 2000797,
    "ControlTalkList": []
  },
  "1310904": {
    "ID": 1310904,
    "RewardID": 2000796,
    "ControlTalkList": []
  },
  "1310905": {
    "ID": 1310905,
    "ControlTalkList": []
  },
  "1310906": {
    "ID": 1310906,
    "ControlTalkList": []
  },
  "13199101": {
    "ID": 13199101,
    "ControlTalkList": []
  },
  "13199102": {
    "ID": 13199102,
    "ControlTalkList": []
  },
  "13199103": {
    "ID": 13199103,
    "ControlTalkList": []
  },
  "13199104": {
    "ID": 13199104,
    "ControlTalkList": []
  },
  "1319601": {
    "ID": 1319601,
    "ControlTalkList": []
  },
  "1319602": {
    "ID": 1319602,
    "ControlTalkList": []
  },
  "1319603": {
    "ID": 1319603,
    "ControlTalkList": []
  },
  "1319604": {
    "ID": 1319604,
    "ControlTalkList": []
  },
  "1340401": {
    "ID": 1340401,
    "ControlTalkList": []
  },
  "1340402": {
    "ID": 1340402,
    "ControlTalkList": []
  },
  "1340403": {
    "ID": 1340403,
    "ControlTalkList": []
  },
  "1340404": {
    "ID": 1340404,
    "ControlTalkList": []
  },
  "1320801": {
    "ID": 1320801,
    "ControlTalkList": []
  },
  "1320802": {
    "ID": 1320802,
    "ControlTalkList": []
  },
  "1320803": {
    "ID": 1320803,
    "ControlTalkList": []
  },
  "1320804": {
    "ID": 1320804,
    "ControlTalkList": []
  },
  "2000604": {
    "ID": 2000604,
    "ControlTalkList": []
  },
  "2000605": {
    "ID": 2000605,
    "ControlTalkList": []
  },
  "2000606": {
    "ID": 2000606,
    "ControlTalkList": []
  },
  "2000607": {
    "ID": 2000607,
    "ControlTalkList": []
  },
  "2001001": {
    "ID": 2001001,
    "ControlTalkList": []
  },
  "2001002": {
    "ID": 2001002,
    "ControlTalkList": []
  },
  "2001003": {
    "ID": 2001003,
    "ControlTalkList": []
  },
  "2001004": {
    "ID": 2001004,
    "ControlTalkList": []
  },
  "2001005": {
    "ID": 2001005,
    "ControlTalkList": []
  },
  "2001006": {
    "ID": 2001006,
    "ControlTalkList": []
  },
  "1324801": {
    "ID": 1324801,
    "ControlTalkList": []
  },
  "1324802": {
    "ID": 1324802,
    "RewardID": 2001027,
    "ControlTalkList": []
  },
  "1324803": {
    "ID": 1324803,
    "ControlTalkList": []
  },
  "1324804": {
    "ID": 1324804,
    "RewardID": 2001026,
    "ControlTalkList": []
  },
  "1324901": {
    "ID": 1324901,
    "ControlTalkList": []
  },
  "1324902": {
    "ID": 1324902,
    "RewardID": 2001024,
    "ControlTalkList": []
  },
  "1324903": {
    "ID": 1324903,
    "RewardID": 2001023,
    "ControlTalkList": []
  },
  "1324904": {
    "ID": 1324904,
    "ControlTalkList": []
  },
  "2001101": {
    "ID": 2001101,
    "ControlTalkList": []
  },
  "2001102": {
    "ID": 2001102,
    "ControlTalkList": []
  },
  "2001103": {
    "ID": 2001103,
    "ControlTalkList": []
  },
  "2001104": {
    "ID": 2001104,
    "ControlTalkList": []
  },
  "2001201": {
    "ID": 2001201,
    "ControlTalkList": []
  },
  "2001202": {
    "ID": 2001202,
    "ControlTalkList": []
  },
  "2001203": {
    "ID": 2001203,
    "ControlTalkList": []
  },
  "2001204": {
    "ID": 2001204,
    "ControlTalkList": []
  },
  "2001301": {
    "ID": 2001301,
    "ControlTalkList": []
  },
  "2001302": {
    "ID": 2001302,
    "ControlTalkList": []
  },
  "2001303": {
    "ID": 2001303,
    "ControlTalkList": []
  },
  "2001304": {
    "ID": 2001304,
    "ControlTalkList": []
  },
  "2001401": {
    "ID": 2001401,
    "ControlTalkList": []
  },
  "2001402": {
    "ID": 2001402,
    "ControlTalkList": []
  },
  "2001403": {
    "ID": 2001403,
    "ControlTalkList": []
  },
  "2001404": {
    "ID": 2001404,
    "ControlTalkList": []
  },
  "2001501": {
    "ID": 2001501,
    "ControlTalkList": []
  },
  "2001502": {
    "ID": 2001502,
    "ControlTalkList": []
  },
  "2001503": {
    "ID": 2001503,
    "ControlTalkList": []
  },
  "2001504": {
    "ID": 2001504,
    "ControlTalkList": []
  },
  "1321601": {
    "ID": 1321601,
    "RewardID": 2001025,
    "ControlTalkList": []
  },
  "1321602": {
    "ID": 1321602,
    "ControlTalkList": []
  },
  "1321603": {
    "ID": 1321603,
    "ControlTalkList": []
  },
  "1321604": {
    "ID": 1321604,
    "RewardID": 2001034,
    "ControlTalkList": []
  },
  "1321605": {
    "ID": 1321605,
    "ControlTalkList": []
  },
  "1321606": {
    "ID": 1321606,
    "ControlTalkList": []
  },
  "1314601": {
    "ID": 1314601,
    "RewardID": 2001029,
    "ControlTalkList": []
  },
  "1314602": {
    "ID": 1314602,
    "ControlTalkList": []
  },
  "1314603": {
    "ID": 1314603,
    "RewardID": 2001028,
    "ControlTalkList": []
  },
  "1314604": {
    "ID": 1314604,
    "ControlTalkList": []
  },
  "1332501": {
    "ID": 1332501,
    "ControlTalkList": []
  },
  "1332502": {
    "ID": 1332502,
    "RewardID": 2001031,
    "ControlTalkList": []
  },
  "1332503": {
    "ID": 1332503,
    "ControlTalkList": []
  },
  "1332504": {
    "ID": 1332504,
    "RewardID": 2001030,
    "ControlTalkList": []
  },
  "1314501": {
    "ID": 1314501,
    "ControlTalkList": []
  },
  "1314502": {
    "ID": 1314502,
    "ControlTalkList": []
  },
  "1314503": {
    "ID": 1314503,
    "ControlTalkList": []
  },
  "1314504": {
    "ID": 1314504,
    "ControlTalkList": []
  },
  "1314505": {
    "ID": 1314505,
    "ControlTalkList": []
  },
  "1314506": {
    "ID": 1314506,
    "ControlTalkList": []
  },
  "2001601": {
    "ID": 2001601,
    "ControlTalkList": []
  },
  "2001602": {
    "ID": 2001602,
    "ControlTalkList": []
  },
  "2001603": {
    "ID": 2001603,
    "ControlTalkList": []
  },
  "2001604": {
    "ID": 2001604,
    "ControlTalkList": []
  },
  "2001605": {
    "ID": 2001605,
    "ControlTalkList": []
  },
  "2001606": {
    "ID": 2001606,
    "ControlTalkList": []
  },
  "2001701": {
    "ID": 2001701,
    "ControlTalkList": []
  },
  "2001702": {
    "ID": 2001702,
    "ControlTalkList": []
  },
  "2001703": {
    "ID": 2001703,
    "ControlTalkList": []
  },
  "2001704": {
    "ID": 2001704,
    "ControlTalkList": []
  },
  "2001705": {
    "ID": 2001705,
    "ControlTalkList": []
  },
  "2001706": {
    "ID": 2001706,
    "ControlTalkList": []
  },
  "2001801": {
    "ID": 2001801,
    "ControlTalkList": []
  },
  "2001802": {
    "ID": 2001802,
    "ControlTalkList": []
  },
  "2001803": {
    "ID": 2001803,
    "ControlTalkList": []
  },
  "2001804": {
    "ID": 2001804,
    "ControlTalkList": []
  },
  "2001805": {
    "ID": 2001805,
    "ControlTalkList": []
  },
  "2001806": {
    "ID": 2001806,
    "ControlTalkList": []
  },
  "2001901": {
    "ID": 2001901,
    "ControlTalkList": []
  },
  "2001902": {
    "ID": 2001902,
    "ControlTalkList": []
  },
  "2001903": {
    "ID": 2001903,
    "ControlTalkList": []
  },
  "2001904": {
    "ID": 2001904,
    "ControlTalkList": []
  },
  "2001905": {
    "ID": 2001905,
    "ControlTalkList": []
  },
  "2001906": {
    "ID": 2001906,
    "ControlTalkList": []
  },
  "2002001": {
    "ID": 2002001,
    "ControlTalkList": []
  },
  "2002002": {
    "ID": 2002002,
    "ControlTalkList": []
  },
  "2002003": {
    "ID": 2002003,
    "ControlTalkList": []
  },
  "2002004": {
    "ID": 2002004,
    "ControlTalkList": []
  },
  "2002005": {
    "ID": 2002005,
    "ControlTalkList": []
  },
  "2002006": {
    "ID": 2002006,
    "ControlTalkList": []
  },
  "2002101": {
    "ID": 2002101,
    "ControlTalkList": []
  },
  "2002102": {
    "ID": 2002102,
    "ControlTalkList": []
  },
  "2002103": {
    "ID": 2002103,
    "ControlTalkList": []
  },
  "2002104": {
    "ID": 2002104,
    "ControlTalkList": []
  },
  "2002105": {
    "ID": 2002105,
    "ControlTalkList": []
  },
  "2002106": {
    "ID": 2002106,
    "ControlTalkList": []
  },
  "1324301": {
    "ID": 1324301,
    "ControlTalkList": []
  },
  "1324302": {
    "ID": 1324302,
    "ControlTalkList": []
  },
  "1324303": {
    "ID": 1324303,
    "ControlTalkList": []
  },
  "1324304": {
    "ID": 1324304,
    "ControlTalkList": []
  },
  "1324305": {
    "ID": 1324305,
    "ControlTalkList": []
  },
  "1324306": {
    "ID": 1324306,
    "ControlTalkList": []
  },
  "1324401": {
    "ID": 1324401,
    "ControlTalkList": []
  },
  "1324402": {
    "ID": 1324402,
    "ControlTalkList": []
  },
  "1324403": {
    "ID": 1324403,
    "RewardID": 2001037,
    "ControlTalkList": []
  },
  "1324404": {
    "ID": 1324404,
    "ControlTalkList": []
  },
  "1332301": {
    "ID": 1332301,
    "ControlTalkList": []
  },
  "1332302": {
    "ID": 1332302,
    "RewardID": 2001073,
    "ControlTalkList": []
  },
  "1332303": {
    "ID": 1332303,
    "RewardID": 2001071,
    "ControlTalkList": []
  },
  "1332304": {
    "ID": 1332304,
    "ControlTalkList": []
  },
  "1314201": {
    "ID": 1314201,
    "ControlTalkList": []
  },
  "1314202": {
    "ID": 1314202,
    "RewardID": 2001022,
    "ControlTalkList": []
  },
  "1314203": {
    "ID": 1314203,
    "RewardID": 2001021,
    "ControlTalkList": []
  },
  "1314204": {
    "ID": 1314204,
    "RewardID": 2001020,
    "ControlTalkList": []
  },
  "1314001": {
    "ID": 1314001,
    "ControlTalkList": []
  },
  "1314002": {
    "ID": 1314002,
    "ControlTalkList": []
  },
  "1314003": {
    "ID": 1314003,
    "RewardID": 2001036,
    "ControlTalkList": []
  },
  "1314004": {
    "ID": 1314004,
    "RewardID": 2001035,
    "ControlTalkList": []
  },
  "1324501": {
    "ID": 1324501,
    "ControlTalkList": []
  },
  "1324502": {
    "ID": 1324502,
    "RewardID": 2001033,
    "ControlTalkList": []
  },
  "1324503": {
    "ID": 1324503,
    "RewardID": 2001032,
    "ControlTalkList": []
  },
  "1324504": {
    "ID": 1324504,
    "ControlTalkList": []
  },
  "1314301": {
    "ID": 1314301,
    "ControlTalkList": []
  },
  "1314302": {
    "ID": 1314302,
    "ControlTalkList": []
  },
  "1314303": {
    "ID": 1314303,
    "ControlTalkList": []
  },
  "1314304": {
    "ID": 1314304,
    "ControlTalkList": []
  },
  "1332401": {
    "ID": 1332401,
    "ControlTalkList": []
  },
  "1332402": {
    "ID": 1332402,
    "ControlTalkList": []
  },
  "1332403": {
    "ID": 1332403,
    "ControlTalkList": []
  },
  "1332404": {
    "ID": 1332404,
    "ControlTalkList": []
  },
  "1325801": {
    "ID": 1325801,
    "ControlTalkList": []
  },
  "1325802": {
    "ID": 1325802,
    "RewardID": 2001149,
    "ControlTalkList": []
  },
  "1325803": {
    "ID": 1325803,
    "ControlTalkList": []
  },
  "1325804": {
    "ID": 1325804,
    "RewardID": 2001160,
    "ControlTalkList": []
  },
  "1333101": {
    "ID": 1333101,
    "ControlTalkList": []
  },
  "1333102": {
    "ID": 1333102,
    "RewardID": 2001164,
    "ControlTalkList": []
  },
  "1333103": {
    "ID": 1333103,
    "ControlTalkList": []
  },
  "1333104": {
    "ID": 1333104,
    "ControlTalkList": []
  },
  "1315901": {
    "ID": 1315901,
    "ControlTalkList": []
  },
  "1315902": {
    "ID": 1315902,
    "RewardID": 2001177,
    "ControlTalkList": []
  },
  "1315903": {
    "ID": 1315903,
    "ControlTalkList": []
  },
  "1315904": {
    "ID": 1315904,
    "RewardID": 2001150,
    "ControlTalkList": []
  },
  "1326501": {
    "ID": 1326501,
    "ControlTalkList": []
  },
  "1326502": {
    "ID": 1326502,
    "ControlTalkList": []
  },
  "1326503": {
    "ID": 1326503,
    "ControlTalkList": []
  },
  "1326504": {
    "ID": 1326504,
    "ControlTalkList": []
  },
  "1333001": {
    "ID": 1333001,
    "ControlTalkList": []
  },
  "1333002": {
    "ID": 1333002,
    "RewardID": 2001165,
    "ControlTalkList": []
  },
  "1333003": {
    "ID": 1333003,
    "ControlTalkList": []
  },
  "1333004": {
    "ID": 1333004,
    "RewardID": 2001161,
    "ControlTalkList": []
  },
  "1315701": {
    "ID": 1315701,
    "ControlTalkList": []
  },
  "1315702": {
    "ID": 1315702,
    "ControlTalkList": []
  },
  "1315703": {
    "ID": 1315703,
    "RewardID": 2001162,
    "ControlTalkList": []
  },
  "1315704": {
    "ID": 1315704,
    "ControlTalkList": []
  },
  "1325601": {
    "ID": 1325601,
    "RewardID": 2001151,
    "ControlTalkList": []
  },
  "1325602": {
    "ID": 1325602,
    "ControlTalkList": []
  },
  "1325603": {
    "ID": 1325603,
    "ControlTalkList": []
  },
  "1325604": {
    "ID": 1325604,
    "RewardID": 2001178,
    "ControlTalkList": []
  },
  "1325901": {
    "ID": 1325901,
    "RewardID": 2001166,
    "ControlTalkList": []
  },
  "1325902": {
    "ID": 1325902,
    "ControlTalkList": []
  },
  "1325903": {
    "ID": 1325903,
    "RewardID": 2001163,
    "ControlTalkList": []
  },
  "1325904": {
    "ID": 1325904,
    "RewardID": 2001152,
    "ControlTalkList": []
  },
  "2002201": {
    "ID": 2002201,
    "ControlTalkList": []
  },
  "2002202": {
    "ID": 2002202,
    "ControlTalkList": []
  },
  "2002203": {
    "ID": 2002203,
    "ControlTalkList": []
  },
  "2002204": {
    "ID": 2002204,
    "ControlTalkList": []
  },
  "1315501": {
    "ID": 1315501,
    "ControlTalkList": []
  },
  "1315502": {
    "ID": 1315502,
    "ControlTalkList": []
  },
  "1315503": {
    "ID": 1315503,
    "ControlTalkList": []
  },
  "1315504": {
    "ID": 1315504,
    "ControlTalkList": []
  },
  "1315601": {
    "ID": 1315601,
    "ControlTalkList": []
  },
  "1315602": {
    "ID": 1315602,
    "ControlTalkList": []
  },
  "1315603": {
    "ID": 1315603,
    "ControlTalkList": []
  },
  "1315604": {
    "ID": 1315604,
    "RewardID": 2001153,
    "ControlTalkList": []
  },
  "1315605": {
    "ID": 1315605,
    "ControlTalkList": []
  },
  "1315606": {
    "ID": 1315606,
    "ControlTalkList": []
  },
  "1325401": {
    "ID": 1325401,
    "ControlTalkList": []
  },
  "1325402": {
    "ID": 1325402,
    "ControlTalkList": []
  },
  "1325403": {
    "ID": 1325403,
    "ControlTalkList": []
  },
  "1325404": {
    "ID": 1325404,
    "ControlTalkList": []
  },
  "1314401": {
    "ID": 1314401,
    "ControlTalkList": []
  },
  "1314402": {
    "ID": 1314402,
    "ControlTalkList": []
  },
  "1314403": {
    "ID": 1314403,
    "ControlTalkList": []
  },
  "1314404": {
    "ID": 1314404,
    "ControlTalkList": []
  },
  "1325301": {
    "ID": 1325301,
    "ControlTalkList": []
  },
  "1325302": {
    "ID": 1325302,
    "ControlTalkList": []
  },
  "1325303": {
    "ID": 1325303,
    "RewardID": 2001168,
    "ControlTalkList": []
  },
  "1325304": {
    "ID": 1325304,
    "RewardID": 2001167,
    "ControlTalkList": []
  },
  "2002301": {
    "ID": 2002301,
    "ControlTalkList": []
  },
  "2002302": {
    "ID": 2002302,
    "RewardID": 2001170,
    "ControlTalkList": []
  },
  "2002303": {
    "ID": 2002303,
    "ControlTalkList": []
  },
  "2002304": {
    "ID": 2002304,
    "RewardID": 2001169,
    "ControlTalkList": []
  },
  "1315301": {
    "ID": 1315301,
    "ControlTalkList": []
  },
  "1315302": {
    "ID": 1315302,
    "RewardID": 2001172,
    "ControlTalkList": []
  },
  "1315303": {
    "ID": 1315303,
    "ControlTalkList": []
  },
  "1315304": {
    "ID": 1315304,
    "RewardID": 2001171,
    "ControlTalkList": []
  },
  "1341501": {
    "ID": 1341501,
    "ControlTalkList": []
  },
  "1341502": {
    "ID": 1341502,
    "ControlTalkList": []
  },
  "1341503": {
    "ID": 1341503,
    "ControlTalkList": []
  },
  "1341504": {
    "ID": 1341504,
    "ControlTalkList": []
  },
  "1325101": {
    "ID": 1325101,
    "ControlTalkList": []
  },
  "1325102": {
    "ID": 1325102,
    "ControlTalkList": []
  },
  "1325103": {
    "ID": 1325103,
    "ControlTalkList": []
  },
  "1325104": {
    "ID": 1325104,
    "ControlTalkList": []
  },
  "2002401": {
    "ID": 2002401,
    "ControlTalkList": []
  },
  "2002402": {
    "ID": 2002402,
    "ControlTalkList": []
  },
  "2002403": {
    "ID": 2002403,
    "ControlTalkList": []
  },
  "2002404": {
    "ID": 2002404,
    "ControlTalkList": []
  },
  "1315401": {
    "ID": 1315401,
    "ControlTalkList": []
  },
  "1315402": {
    "ID": 1315402,
    "ControlTalkList": []
  },
  "1315403": {
    "ID": 1315403,
    "ControlTalkList": []
  },
  "1315404": {
    "ID": 1315404,
    "ControlTalkList": []
  },
  "1341801": {
    "ID": 1341801,
    "ControlTalkList": []
  },
  "1341802": {
    "ID": 1341802,
    "ControlTalkList": []
  },
  "1341803": {
    "ID": 1341803,
    "RewardID": 2001174,
    "ControlTalkList": []
  },
  "1341804": {
    "ID": 1341804,
    "RewardID": 2001173,
    "ControlTalkList": []
  },
  "2002501": {
    "ID": 2002501,
    "ControlTalkList": []
  },
  "2002502": {
    "ID": 2002502,
    "RewardID": 2001176,
    "ControlTalkList": []
  },
  "2002503": {
    "ID": 2002503,
    "ControlTalkList": []
  },
  "2002504": {
    "ID": 2002504,
    "RewardID": 2001175,
    "ControlTalkList": []
  },
  "1325201": {
    "ID": 1325201,
    "ControlTalkList": []
  },
  "1325202": {
    "ID": 1325202,
    "ControlTalkList": []
  },
  "1325203": {
    "ID": 1325203,
    "ControlTalkList": []
  },
  "1325204": {
    "ID": 1325204,
    "ControlTalkList": []
  },
  "1316001": {
    "ID": 1316001,
    "ControlTalkList": []
  },
  "1316002": {
    "ID": 1316002,
    "ControlTalkList": []
  },
  "1316003": {
    "ID": 1316003,
    "ControlTalkList": []
  },
  "1316004": {
    "ID": 1316004,
    "ControlTalkList": []
  },
  "1316101": {
    "ID": 1316101,
    "ControlTalkList": []
  },
  "1316102": {
    "ID": 1316102,
    "ControlTalkList": []
  },
  "1316103": {
    "ID": 1316103,
    "ControlTalkList": []
  },
  "1316104": {
    "ID": 1316104,
    "ControlTalkList": []
  },
  "2002601": {
    "ID": 2002601,
    "ControlTalkList": []
  },
  "2002602": {
    "ID": 2002602,
    "ControlTalkList": []
  },
  "2002603": {
    "ID": 2002603,
    "ControlTalkList": []
  },
  "2002604": {
    "ID": 2002604,
    "ControlTalkList": []
  },
  "2002701": {
    "ID": 2002701,
    "ControlTalkList": []
  },
  "2002702": {
    "ID": 2002702,
    "ControlTalkList": []
  },
  "2002703": {
    "ID": 2002703,
    "ControlTalkList": []
  },
  "2002704": {
    "ID": 2002704,
    "ControlTalkList": []
  },
  "2002705": {
    "ID": 2002705,
    "ControlTalkList": []
  },
  "2002706": {
    "ID": 2002706,
    "ControlTalkList": []
  },
  "2002801": {
    "ID": 2002801,
    "ControlTalkList": []
  },
  "2002802": {
    "ID": 2002802,
    "ControlTalkList": []
  },
  "2002803": {
    "ID": 2002803,
    "ControlTalkList": []
  },
  "2002804": {
    "ID": 2002804,
    "ControlTalkList": []
  },
  "2002805": {
    "ID": 2002805,
    "ControlTalkList": [
      103294201,
      103294003
    ]
  },
  "2002901": {
    "ID": 2002901,
    "ControlTalkList": []
  },
  "2002902": {
    "ID": 2002902,
    "ControlTalkList": []
  },
  "2002903": {
    "ID": 2002903,
    "ControlTalkList": []
  },
  "2002904": {
    "ID": 2002904,
    "ControlTalkList": []
  },
  "2002905": {
    "ID": 2002905,
    "ControlTalkList": [
      103294718
    ]
  },
  "2003001": {
    "ID": 2003001,
    "ControlTalkList": []
  },
  "2003002": {
    "ID": 2003002,
    "ControlTalkList": []
  },
  "2003003": {
    "ID": 2003003,
    "ControlTalkList": []
  },
  "2003004": {
    "ID": 2003004,
    "ControlTalkList": []
  },
  "2003005": {
    "ID": 2003005,
    "ControlTalkList": [
      103294718
    ]
  }
}