{
  "10001": {
    "ScriptID": 10001,
    "TotalEmoInfoList": [
      {
        "KNNEABFOHAE": 1001
      },
      {
        "BPCFGNJODCK": "Anger",
        "KNNEABFOHAE": 1003
      },
      {
        "BPCFGNJODCK": "Happy",
        "KNNEABFOHAE": 1002
      }
    ],
    "StepList": [
      "Missing",
      "Full",
      "Normal"
    ],
    "MissingEmoList": [
      "Sad"
    ],
    "MissingDialogueID": 1004,
    "FullDialogueID": 1005,
    "LockDialogueID": 1006
  },
  "10108": {
    "ScriptID": 10108,
    "DefaultEmoType": "Sad",
    "RaidID": 43305,
    "TotalEmoInfoList": [
      {
        "KNNEABFOHAE": 1010804
      },
      {
        "BPCFGNJODCK": "Anger",
        "KNNEABFOHAE": 1010805
      },
      {
        "BPCFGNJODCK": "Sad",
        "KNNEABFOHAE": 1010806
      },
      {
        "BPCFGNJODCK": "Happy",
        "KNNEABFOHAE": 1010807
      }
    ],
    "StepList": [
      "Missing",
      "Lock",
      "UnLock",
      "Normal"
    ],
    "MissingEmoList": [
      "Sad"
    ],
    "MissingDialogueID": 1010801,
    "LockDialogueID": 1010802,
    "UnLockDialogueID": 1010803
  },
  "13103": {
    "ScriptID": 13103,
    "TotalEmoInfoList": [
      {
        "KNNEABFOHAE": 1310301
      },
      {
        "BPCFGNJODCK": "Anger",
        "KNNEABFOHAE": 1310302
      },
      {
        "BPCFGNJODCK": "Sad",
        "KNNEABFOHAE": 1310303
      },
      {
        "BPCFGNJODCK": "Happy",
        "KNNEABFOHAE": 1310304
      }
    ],
    "StepList": [
      "Normal"
    ],
    "MissingEmoList": []
  },
  "13105": {
    "ScriptID": 13105,
    "TotalEmoInfoList": [
      {
        "KNNEABFOHAE": 1310501
      },
      {
        "BPCFGNJODCK": "Anger",
        "KNNEABFOHAE": 1310502
      },
      {
        "BPCFGNJODCK": "Sad",
        "KNNEABFOHAE": 1310503
      },
      {
        "BPCFGNJODCK": "Happy",
        "KNNEABFOHAE": 1310504
      }
    ],
    "StepList": [
      "Normal"
    ],
    "MissingEmoList": []
  },
  "13108": {
    "ScriptID": 13108,
    "DefaultEmoType": "Anger",
    "TotalEmoInfoList": [
      {
        "KNNEABFOHAE": 1310801
      },
      {
        "BPCFGNJODCK": "Anger",
        "KNNEABFOHAE": 1310802
      },
      {
        "BPCFGNJODCK": "Sad",
        "KNNEABFOHAE": 1310803
      },
      {
        "BPCFGNJODCK": "Happy",
        "KNNEABFOHAE": 1310804
      }
    ],
    "StepList": [
      "Missing",
      "Full",
      "Normal"
    ],
    "MissingEmoList": [
      "Anger"
    ],
    "MissingDialogueID": 1310805,
    "FullDialogueID": 1310806
  },
  "13110": {
    "ScriptID": 13110,
    "DefaultEmoType": "Anger",
    "TotalEmoInfoList": [
      {
        "KNNEABFOHAE": 1311001
      },
      {
        "BPCFGNJODCK": "Anger",
        "KNNEABFOHAE": 1311002
      },
      {
        "BPCFGNJODCK": "Sad",
        "KNNEABFOHAE": 1311003
      },
      {
        "BPCFGNJODCK": "Happy",
        "KNNEABFOHAE": 1311004
      }
    ],
    "StepList": [
      "Normal"
    ],
    "MissingEmoList": []
  },
  "13111": {
    "ScriptID": 13111,
    "DefaultEmoType": "Sad",
    "TotalEmoInfoList": [
      {
        "KNNEABFOHAE": 1311101
      },
      {
        "BPCFGNJODCK": "Anger",
        "KNNEABFOHAE": 1311102
      },
      {
        "BPCFGNJODCK": "Sad",
        "KNNEABFOHAE": 1311103
      },
      {
        "BPCFGNJODCK": "Happy",
        "KNNEABFOHAE": 1311104
      }
    ],
    "StepList": [
      "Normal"
    ],
    "MissingEmoList": []
  },
  "13112": {
    "ScriptID": 13112,
    "TotalEmoInfoList": [
      {
        "KNNEABFOHAE": 1311201
      },
      {
        "BPCFGNJODCK": "Anger",
        "KNNEABFOHAE": 1311202
      },
      {
        "BPCFGNJODCK": "Sad",
        "KNNEABFOHAE": 1311203
      },
      {
        "BPCFGNJODCK": "Happy",
        "KNNEABFOHAE": 1311204
      }
    ],
    "StepList": [
      "Missing",
      "Full",
      "Normal"
    ],
    "MissingEmoList": [
      "Peace"
    ],
    "MissingDialogueID": 1311205,
    "FullDialogueID": 1311206
  },
  "13113": {
    "ScriptID": 13113,
    "TotalEmoInfoList": [
      {
        "KNNEABFOHAE": 1311301
      },
      {
        "BPCFGNJODCK": "Anger",
        "KNNEABFOHAE": 1311302
      },
      {
        "BPCFGNJODCK": "Sad",
        "KNNEABFOHAE": 1311303
      },
      {
        "BPCFGNJODCK": "Happy",
        "KNNEABFOHAE": 1311304
      }
    ],
    "StepList": [
      "Missing",
      "Full",
      "Normal"
    ],
    "MissingEmoList": [
      "Peace"
    ],
    "MissingDialogueID": 1311305,
    "FullDialogueID": 1311306
  },
  "13116": {
    "ScriptID": 13116,
    "TotalEmoInfoList": [
      {
        "KNNEABFOHAE": 1311601
      },
      {
        "BPCFGNJODCK": "Anger",
        "KNNEABFOHAE": 1311602
      },
      {
        "BPCFGNJODCK": "Sad",
        "KNNEABFOHAE": 1311603
      },
      {
        "BPCFGNJODCK": "Happy",
        "KNNEABFOHAE": 1311604
      }
    ],
    "StepList": [
      "Normal"
    ],
    "MissingEmoList": []
  },
  "13117": {
    "ScriptID": 13117,
    "TotalEmoInfoList": [
      {
        "KNNEABFOHAE": 1311701
      },
      {
        "BPCFGNJODCK": "Anger",
        "KNNEABFOHAE": 1311702
      },
      {
        "BPCFGNJODCK": "Sad",
        "KNNEABFOHAE": 1311703
      },
      {
        "BPCFGNJODCK": "Happy",
        "KNNEABFOHAE": 1311704
      }
    ],
    "StepList": [
      "Normal"
    ],
    "MissingEmoList": []
  },
  "13118": {
    "ScriptID": 13118,
    "TotalEmoInfoList": [
      {
        "KNNEABFOHAE": 1311801
      },
      {
        "BPCFGNJODCK": "Anger",
        "KNNEABFOHAE": 1311802
      },
      {
        "BPCFGNJODCK": "Sad",
        "KNNEABFOHAE": 1311803
      },
      {
        "BPCFGNJODCK": "Happy",
        "KNNEABFOHAE": 1311804
      }
    ],
    "StepList": [
      "Normal"
    ],
    "MissingEmoList": []
  },
  "13119": {
    "ScriptID": 13119,
    "TotalEmoInfoList": [
      {
        "KNNEABFOHAE": 1311901
      },
      {
        "BPCFGNJODCK": "Anger",
        "KNNEABFOHAE": 1311902
      },
      {
        "BPCFGNJODCK": "Sad",
        "KNNEABFOHAE": 1311903
      },
      {
        "BPCFGNJODCK": "Happy",
        "KNNEABFOHAE": 1311904
      }
    ],
    "StepList": [
      "Normal"
    ],
    "MissingEmoList": []
  },
  "13120": {
    "ScriptID": 13120,
    "TotalEmoInfoList": [
      {
        "KNNEABFOHAE": 1312001
      },
      {
        "BPCFGNJODCK": "Anger",
        "KNNEABFOHAE": 1312002
      },
      {
        "BPCFGNJODCK": "Sad",
        "KNNEABFOHAE": 1312003
      },
      {
        "BPCFGNJODCK": "Happy",
        "KNNEABFOHAE": 1312004
      }
    ],
    "StepList": [
      "Normal"
    ],
    "MissingEmoList": []
  },
  "13121": {
    "ScriptID": 13121,
    "TotalEmoInfoList": [
      {
        "KNNEABFOHAE": 1312101
      },
      {
        "BPCFGNJODCK": "Anger",
        "KNNEABFOHAE": 1312102
      },
      {
        "BPCFGNJODCK": "Sad",
        "KNNEABFOHAE": 1312103
      },
      {
        "BPCFGNJODCK": "Happy",
        "KNNEABFOHAE": 1312104
      }
    ],
    "StepList": [
      "Normal"
    ],
    "MissingEmoList": []
  },
  "13146": {
    "ScriptID": 13146,
    "DefaultEmoType": "Happy",
    "TotalEmoInfoList": [
      {
        "KNNEABFOHAE": 1314601
      },
      {
        "BPCFGNJODCK": "Anger",
        "KNNEABFOHAE": 1314603
      },
      {
        "BPCFGNJODCK": "Sad",
        "KNNEABFOHAE": 1314602
      },
      {
        "BPCFGNJODCK": "Happy",
        "KNNEABFOHAE": 1314604
      }
    ],
    "StepList": [
      "Normal"
    ],
    "MissingEmoList": []
  },
  "13196": {
    "ScriptID": 13196,
    "DefaultEmoType": "Anger",
    "TotalEmoInfoList": [
      {
        "KNNEABFOHAE": 1319601
      },
      {
        "BPCFGNJODCK": "Anger",
        "KNNEABFOHAE": 1319602
      },
      {
        "BPCFGNJODCK": "Sad",
        "KNNEABFOHAE": 1319603
      },
      {
        "BPCFGNJODCK": "Happy",
        "KNNEABFOHAE": 1319604
      }
    ],
    "StepList": [
      "Normal"
    ],
    "MissingEmoList": []
  },
  "13197": {
    "ScriptID": 13197,
    "DefaultEmoType": "Happy",
    "TotalEmoInfoList": [
      {
        "KNNEABFOHAE": 1319701
      },
      {
        "BPCFGNJODCK": "Anger",
        "KNNEABFOHAE": 1319702
      },
      {
        "BPCFGNJODCK": "Sad",
        "KNNEABFOHAE": 1319703
      },
      {
        "BPCFGNJODCK": "Happy",
        "KNNEABFOHAE": 1319704
      }
    ],
    "StepList": [
      "Normal"
    ],
    "MissingEmoList": []
  },
  "13198": {
    "ScriptID": 13198,
    "DefaultEmoType": "Happy",
    "TotalEmoInfoList": [
      {
        "KNNEABFOHAE": 1319801
      },
      {
        "BPCFGNJODCK": "Anger",
        "KNNEABFOHAE": 1319802
      },
      {
        "BPCFGNJODCK": "Sad",
        "KNNEABFOHAE": 1319803
      },
      {
        "BPCFGNJODCK": "Happy",
        "KNNEABFOHAE": 1319804
      }
    ],
    "StepList": [
      "Normal"
    ],
    "MissingEmoList": []
  },
  "13199": {
    "ScriptID": 13199,
    "TotalEmoInfoList": [
      {
        "KNNEABFOHAE": 1319901
      },
      {
        "BPCFGNJODCK": "Anger",
        "KNNEABFOHAE": 1319902
      },
      {
        "BPCFGNJODCK": "Sad",
        "KNNEABFOHAE": 1319903
      },
      {
        "BPCFGNJODCK": "Happy",
        "KNNEABFOHAE": 1319904
      }
    ],
    "StepList": [
      "Normal"
    ],
    "MissingEmoList": []
  },
  "13203": {
    "ScriptID": 13203,
    "DefaultEmoType": "Sad",
    "TotalEmoInfoList": [
      {
        "KNNEABFOHAE": 1320301
      },
      {
        "BPCFGNJODCK": "Anger",
        "KNNEABFOHAE": 1320302
      },
      {
        "BPCFGNJODCK": "Sad",
        "KNNEABFOHAE": 1320303
      },
      {
        "BPCFGNJODCK": "Happy",
        "KNNEABFOHAE": 1320304
      }
    ],
    "StepList": [
      "Normal"
    ],
    "MissingEmoList": []
  },
  "13205": {
    "ScriptID": 13205,
    "DefaultEmoType": "Anger",
    "TotalEmoInfoList": [
      {
        "KNNEABFOHAE": 1320501
      },
      {
        "BPCFGNJODCK": "Anger",
        "KNNEABFOHAE": 1320502
      },
      {
        "BPCFGNJODCK": "Sad",
        "KNNEABFOHAE": 1320503
      },
      {
        "BPCFGNJODCK": "Happy",
        "KNNEABFOHAE": 1320504
      }
    ],
    "StepList": [
      "Missing",
      "Full",
      "Normal"
    ],
    "MissingEmoList": [
      "Anger"
    ],
    "MissingDialogueID": 1320505,
    "FullDialogueID": 1320506
  },
  "13208": {
    "ScriptID": 13208,
    "DefaultEmoType": "Sad",
    "RaidID": 43310,
    "TotalEmoInfoList": [
      {
        "KNNEABFOHAE": 1320801
      },
      {
        "BPCFGNJODCK": "Anger",
        "KNNEABFOHAE": 1320802
      },
      {
        "BPCFGNJODCK": "Sad",
        "KNNEABFOHAE": 1320803
      },
      {
        "BPCFGNJODCK": "Happy",
        "KNNEABFOHAE": 1320804
      }
    ],
    "StepList": [
      "Missing",
      "Lock",
      "UnLock",
      "Normal"
    ],
    "MissingEmoList": [
      "Sad"
    ],
    "MissingDialogueID": 1320805,
    "LockDialogueID": 1320806,
    "UnLockDialogueID": 1320807
  },
  "13210": {
    "ScriptID": 13210,
    "TotalEmoInfoList": [
      {
        "KNNEABFOHAE": 1321001
      },
      {
        "BPCFGNJODCK": "Anger",
        "KNNEABFOHAE": 1321002
      },
      {
        "BPCFGNJODCK": "Sad",
        "KNNEABFOHAE": 1321003
      },
      {
        "BPCFGNJODCK": "Happy",
        "KNNEABFOHAE": 1321004
      }
    ],
    "StepList": [
      "Normal"
    ],
    "MissingEmoList": [
      "Peace"
    ]
  },
  "13212": {
    "ScriptID": 13212,
    "TotalEmoInfoList": [
      {
        "KNNEABFOHAE": 1321201
      },
      {
        "BPCFGNJODCK": "Anger",
        "KNNEABFOHAE": 1321202
      },
      {
        "BPCFGNJODCK": "Sad",
        "KNNEABFOHAE": 1321203
      },
      {
        "BPCFGNJODCK": "Happy",
        "KNNEABFOHAE": 1321204
      }
    ],
    "StepList": [
      "Normal"
    ],
    "MissingEmoList": []
  },
  "13213": {
    "ScriptID": 13213,
    "DefaultEmoType": "Happy",
    "TotalEmoInfoList": [
      {
        "KNNEABFOHAE": 1321301
      },
      {
        "BPCFGNJODCK": "Anger",
        "KNNEABFOHAE": 1321302
      },
      {
        "BPCFGNJODCK": "Sad",
        "KNNEABFOHAE": 1321303
      },
      {
        "BPCFGNJODCK": "Happy",
        "KNNEABFOHAE": 1321304
      }
    ],
    "StepList": [
      "Missing",
      "Full",
      "Normal"
    ],
    "MissingEmoList": [
      "Happy"
    ],
    "MissingDialogueID": 1321305,
    "FullDialogueID": 1321306
  },
  "13214": {
    "ScriptID": 13214,
    "DefaultEmoType": "Anger",
    "TotalEmoInfoList": [
      {
        "KNNEABFOHAE": 1321401
      },
      {
        "BPCFGNJODCK": "Anger",
        "KNNEABFOHAE": 1321402
      },
      {
        "BPCFGNJODCK": "Sad",
        "KNNEABFOHAE": 1321403
      },
      {
        "BPCFGNJODCK": "Happy",
        "KNNEABFOHAE": 1321404
      }
    ],
    "StepList": [
      "Normal"
    ],
    "MissingEmoList": []
  },
  "13215": {
    "ScriptID": 13215,
    "TotalEmoInfoList": [
      {
        "KNNEABFOHAE": 1321501
      },
      {
        "BPCFGNJODCK": "Anger",
        "KNNEABFOHAE": 1321502
      },
      {
        "BPCFGNJODCK": "Sad",
        "KNNEABFOHAE": 1321503
      },
      {
        "BPCFGNJODCK": "Happy",
        "KNNEABFOHAE": 1321504
      }
    ],
    "StepList": [
      "Normal"
    ],
    "MissingEmoList": []
  },
  "13217": {
    "ScriptID": 13217,
    "DefaultEmoType": "Anger",
    "TotalEmoInfoList": [
      {
        "KNNEABFOHAE": 1321701
      },
      {
        "BPCFGNJODCK": "Anger",
        "KNNEABFOHAE": 1321702
      },
      {
        "BPCFGNJODCK": "Sad",
        "KNNEABFOHAE": 1321703
      },
      {
        "BPCFGNJODCK": "Happy",
        "KNNEABFOHAE": 1321704
      }
    ],
    "StepList": [
      "Missing",
      "Full",
      "Normal"
    ],
    "MissingEmoList": [
      "Anger"
    ],
    "MissingDialogueID": 1321705,
    "FullDialogueID": 1321706
  },
  "13218": {
    "ScriptID": 13218,
    "DefaultEmoType": "Happy",
    "TotalEmoInfoList": [
      {
        "KNNEABFOHAE": 1321801
      },
      {
        "BPCFGNJODCK": "Anger",
        "KNNEABFOHAE": 1321802
      },
      {
        "BPCFGNJODCK": "Sad",
        "KNNEABFOHAE": 1321803
      },
      {
        "BPCFGNJODCK": "Happy",
        "KNNEABFOHAE": 1321804
      }
    ],
    "StepList": [
      "Normal"
    ],
    "MissingEmoList": []
  },
  "13221": {
    "ScriptID": 13221,
    "DefaultEmoType": "Happy",
    "TotalEmoInfoList": [
      {
        "KNNEABFOHAE": 1322101
      },
      {
        "BPCFGNJODCK": "Anger",
        "KNNEABFOHAE": 1322102
      },
      {
        "BPCFGNJODCK": "Sad",
        "KNNEABFOHAE": 1322103
      },
      {
        "BPCFGNJODCK": "Happy",
        "KNNEABFOHAE": 1322104
      }
    ],
    "StepList": [
      "Missing",
      "Full",
      "Normal"
    ],
    "MissingEmoList": [
      "Happy"
    ],
    "MissingDialogueID": 1322105,
    "FullDialogueID": 1322106
  },
  "13222": {
    "ScriptID": 13222,
    "DefaultEmoType": "Happy",
    "TotalEmoInfoList": [
      {
        "KNNEABFOHAE": 1322201
      },
      {
        "BPCFGNJODCK": "Anger",
        "KNNEABFOHAE": 1322202
      },
      {
        "BPCFGNJODCK": "Sad",
        "KNNEABFOHAE": 1322203
      },
      {
        "BPCFGNJODCK": "Happy",
        "KNNEABFOHAE": 1322204
      }
    ],
    "StepList": [
      "Normal"
    ],
    "MissingEmoList": []
  },
  "13248": {
    "ScriptID": 13248,
    "TotalEmoInfoList": [
      {
        "KNNEABFOHAE": 1324801
      },
      {
        "BPCFGNJODCK": "Sad",
        "KNNEABFOHAE": 1324802
      },
      {
        "BPCFGNJODCK": "Anger",
        "KNNEABFOHAE": 1324803
      },
      {
        "BPCFGNJODCK": "Happy",
        "KNNEABFOHAE": 1324804
      }
    ],
    "StepList": [
      "Normal"
    ],
    "MissingEmoList": []
  },
  "13249": {
    "ScriptID": 13249,
    "DefaultEmoType": "Happy",
    "TotalEmoInfoList": [
      {
        "KNNEABFOHAE": 1324901
      },
      {
        "BPCFGNJODCK": "Anger",
        "KNNEABFOHAE": 1324902
      },
      {
        "BPCFGNJODCK": "Sad",
        "KNNEABFOHAE": 1324903
      },
      {
        "BPCFGNJODCK": "Happy",
        "KNNEABFOHAE": 1324904
      }
    ],
    "StepList": [
      "Normal"
    ],
    "MissingEmoList": []
  },
  "13303": {
    "ScriptID": 13303,
    "DefaultEmoType": "Sad",
    "TotalEmoInfoList": [
      {
        "KNNEABFOHAE": 1330301
      },
      {
        "BPCFGNJODCK": "Anger",
        "KNNEABFOHAE": 1330302
      },
      {
        "BPCFGNJODCK": "Sad",
        "KNNEABFOHAE": 1330303
      },
      {
        "BPCFGNJODCK": "Happy",
        "KNNEABFOHAE": 1330304
      }
    ],
    "StepList": [
      "Missing",
      "Full",
      "Normal"
    ],
    "MissingEmoList": [
      "Sad"
    ],
    "MissingDialogueID": 1330305,
    "FullDialogueID": 1330306
  },
  "13304": {
    "ScriptID": 13304,
    "DefaultEmoType": "Sad",
    "TotalEmoInfoList": [
      {
        "KNNEABFOHAE": 1330401
      },
      {
        "BPCFGNJODCK": "Anger",
        "KNNEABFOHAE": 1330402
      },
      {
        "BPCFGNJODCK": "Sad",
        "KNNEABFOHAE": 1330403
      },
      {
        "BPCFGNJODCK": "Happy",
        "KNNEABFOHAE": 1330404
      }
    ],
    "StepList": [
      "Missing",
      "Full",
      "Normal"
    ],
    "MissingEmoList": [
      "Sad"
    ],
    "MissingDialogueID": 1330405,
    "FullDialogueID": 1330406
  },
  "13305": {
    "ScriptID": 13305,
    "TotalEmoInfoList": [
      {
        "KNNEABFOHAE": 1330501
      },
      {
        "BPCFGNJODCK": "Anger",
        "KNNEABFOHAE": 1330502
      },
      {
        "BPCFGNJODCK": "Sad",
        "KNNEABFOHAE": 1330503
      },
      {
        "BPCFGNJODCK": "Happy",
        "KNNEABFOHAE": 1330504
      }
    ],
    "StepList": [
      "Normal"
    ],
    "MissingEmoList": []
  },
  "13306": {
    "ScriptID": 13306,
    "TotalEmoInfoList": [
      {
        "KNNEABFOHAE": 1330601
      },
      {
        "BPCFGNJODCK": "Anger",
        "KNNEABFOHAE": 1330602
      },
      {
        "BPCFGNJODCK": "Sad",
        "KNNEABFOHAE": 1330603
      },
      {
        "BPCFGNJODCK": "Happy",
        "KNNEABFOHAE": 1330604
      }
    ],
    "StepList": [
      "Normal"
    ],
    "MissingEmoList": []
  },
  "13307": {
    "ScriptID": 13307,
    "DefaultEmoType": "Happy",
    "TotalEmoInfoList": [
      {
        "KNNEABFOHAE": 1330701
      },
      {
        "BPCFGNJODCK": "Anger",
        "KNNEABFOHAE": 1330702
      },
      {
        "BPCFGNJODCK": "Sad",
        "KNNEABFOHAE": 1330703
      },
      {
        "BPCFGNJODCK": "Happy",
        "KNNEABFOHAE": 1330704
      }
    ],
    "StepList": [
      "Normal"
    ],
    "MissingEmoList": []
  },
  "13308": {
    "ScriptID": 13308,
    "TotalEmoInfoList": [
      {
        "KNNEABFOHAE": 1330801
      },
      {
        "BPCFGNJODCK": "Anger",
        "KNNEABFOHAE": 1330802
      },
      {
        "BPCFGNJODCK": "Sad",
        "KNNEABFOHAE": 1330803
      },
      {
        "BPCFGNJODCK": "Happy",
        "KNNEABFOHAE": 1330804
      }
    ],
    "StepList": [
      "Normal"
    ],
    "MissingEmoList": []
  },
  "13309": {
    "ScriptID": 13309,
    "TotalEmoInfoList": [
      {
        "KNNEABFOHAE": 1330901
      },
      {
        "BPCFGNJODCK": "Anger",
        "KNNEABFOHAE": 1330902
      },
      {
        "BPCFGNJODCK": "Sad",
        "KNNEABFOHAE": 1330903
      },
      {
        "BPCFGNJODCK": "Happy",
        "KNNEABFOHAE": 1330904
      }
    ],
    "StepList": [
      "Normal"
    ],
    "MissingEmoList": []
  },
  "13311": {
    "ScriptID": 13311,
    "TotalEmoInfoList": [
      {
        "KNNEABFOHAE": 1331101
      },
      {
        "BPCFGNJODCK": "Anger",
        "KNNEABFOHAE": 1331102
      },
      {
        "BPCFGNJODCK": "Sad",
        "KNNEABFOHAE": 1331103
      },
      {
        "BPCFGNJODCK": "Happy",
        "KNNEABFOHAE": 1331104
      }
    ],
    "StepList": [
      "Normal"
    ],
    "MissingEmoList": []
  },
  "13312": {
    "ScriptID": 13312,
    "DefaultEmoType": "Anger",
    "TotalEmoInfoList": [
      {
        "KNNEABFOHAE": 1331201
      },
      {
        "BPCFGNJODCK": "Anger",
        "KNNEABFOHAE": 1331202
      },
      {
        "BPCFGNJODCK": "Sad",
        "KNNEABFOHAE": 1331203
      },
      {
        "BPCFGNJODCK": "Happy",
        "KNNEABFOHAE": 1331204
      }
    ],
    "StepList": [
      "Missing",
      "Full",
      "Normal"
    ],
    "MissingEmoList": [
      "Anger"
    ],
    "MissingDialogueID": 1331205,
    "FullDialogueID": 1331206
  },
  "13313": {
    "ScriptID": 13313,
    "TotalEmoInfoList": [
      {
        "KNNEABFOHAE": 1331301
      },
      {
        "BPCFGNJODCK": "Anger",
        "KNNEABFOHAE": 1331302
      },
      {
        "BPCFGNJODCK": "Sad",
        "KNNEABFOHAE": 1331303
      },
      {
        "BPCFGNJODCK": "Happy",
        "KNNEABFOHAE": 1331304
      }
    ],
    "StepList": [
      "Normal"
    ],
    "MissingEmoList": []
  },
  "13314": {
    "ScriptID": 13314,
    "TotalEmoInfoList": [
      {
        "KNNEABFOHAE": 1331401
      },
      {
        "BPCFGNJODCK": "Anger",
        "KNNEABFOHAE": 1331402
      },
      {
        "BPCFGNJODCK": "Sad",
        "KNNEABFOHAE": 1331403
      },
      {
        "BPCFGNJODCK": "Happy",
        "KNNEABFOHAE": 1331404
      }
    ],
    "StepList": [
      "Normal"
    ],
    "MissingEmoList": []
  },
  "13325": {
    "ScriptID": 13325,
    "TotalEmoInfoList": [
      {
        "KNNEABFOHAE": 1332501
      },
      {
        "BPCFGNJODCK": "Anger",
        "KNNEABFOHAE": 1332503
      },
      {
        "BPCFGNJODCK": "Sad",
        "KNNEABFOHAE": 1332502
      },
      {
        "BPCFGNJODCK": "Happy",
        "KNNEABFOHAE": 1332504
      }
    ],
    "StepList": [
      "Normal"
    ],
    "MissingEmoList": []
  },
  "13403": {
    "ScriptID": 13403,
    "DefaultEmoType": "Sad",
    "TotalEmoInfoList": [
      {
        "KNNEABFOHAE": 1340301
      },
      {
        "BPCFGNJODCK": "Anger",
        "KNNEABFOHAE": 1340302
      },
      {
        "BPCFGNJODCK": "Sad",
        "KNNEABFOHAE": 1340303
      },
      {
        "BPCFGNJODCK": "Happy",
        "KNNEABFOHAE": 1340304
      }
    ],
    "StepList": [
      "Missing",
      "Full",
      "Normal"
    ],
    "MissingEmoList": [
      "Sad"
    ],
    "MissingDialogueID": 1340305,
    "FullDialogueID": 1340306
  },
  "13404": {
    "ScriptID": 13404,
    "DefaultEmoType": "Anger",
    "RaidID": 43312,
    "TotalEmoInfoList": [
      {
        "KNNEABFOHAE": 1340401
      },
      {
        "BPCFGNJODCK": "Anger",
        "KNNEABFOHAE": 1340402
      },
      {
        "BPCFGNJODCK": "Sad",
        "KNNEABFOHAE": 1340403
      },
      {
        "BPCFGNJODCK": "Happy",
        "KNNEABFOHAE": 1340404
      }
    ],
    "StepList": [
      "Missing",
      "Lock",
      "UnLock",
      "Normal"
    ],
    "MissingEmoList": [
      "Anger"
    ],
    "MissingDialogueID": 1340405,
    "LockDialogueID": 1340406,
    "UnLockDialogueID": 1340407
  },
  "13406": {
    "ScriptID": 13406,
    "TotalEmoInfoList": [
      {
        "KNNEABFOHAE": 1340601
      },
      {
        "BPCFGNJODCK": "Anger",
        "KNNEABFOHAE": 1340602
      },
      {
        "BPCFGNJODCK": "Sad",
        "KNNEABFOHAE": 1340603
      },
      {
        "BPCFGNJODCK": "Happy",
        "KNNEABFOHAE": 1340604
      }
    ],
    "StepList": [
      "Normal"
    ],
    "MissingEmoList": []
  },
  "20001": {
    "ScriptID": 20001,
    "TotalEmoInfoList": [
      {
        "KNNEABFOHAE": 2001
      },
      {
        "BPCFGNJODCK": "Anger",
        "KNNEABFOHAE": 2002
      },
      {
        "BPCFGNJODCK": "Happy",
        "KNNEABFOHAE": 2003
      },
      {
        "BPCFGNJODCK": "Sad",
        "KNNEABFOHAE": 2004
      }
    ],
    "StepList": [
      "Normal"
    ],
    "MissingEmoList": [
      "Peace"
    ]
  },
  "20002": {
    "ScriptID": 20002,
    "DefaultEmoType": "Anger",
    "TotalEmoInfoList": [
      {
        "KNNEABFOHAE": 2000201
      },
      {
        "BPCFGNJODCK": "Anger",
        "KNNEABFOHAE": 2000202
      },
      {
        "BPCFGNJODCK": "Sad",
        "KNNEABFOHAE": 2000203
      },
      {
        "BPCFGNJODCK": "Happy",
        "KNNEABFOHAE": 2000204
      }
    ],
    "StepList": [
      "Normal"
    ],
    "MissingEmoList": []
  },
  "20003": {
    "ScriptID": 20003,
    "TotalEmoInfoList": [
      {
        "KNNEABFOHAE": 2000301
      },
      {
        "BPCFGNJODCK": "Anger",
        "KNNEABFOHAE": 2000302
      },
      {
        "BPCFGNJODCK": "Sad",
        "KNNEABFOHAE": 2000303
      },
      {
        "BPCFGNJODCK": "Happy",
        "KNNEABFOHAE": 2000304
      }
    ],
    "StepList": [
      "Normal"
    ],
    "MissingEmoList": []
  },
  "20004": {
    "ScriptID": 20004,
    "DefaultEmoType": "Happy",
    "TotalEmoInfoList": [
      {
        "KNNEABFOHAE": 2000401
      },
      {
        "BPCFGNJODCK": "Anger",
        "KNNEABFOHAE": 2000402
      },
      {
        "BPCFGNJODCK": "Sad",
        "KNNEABFOHAE": 2000403
      },
      {
        "BPCFGNJODCK": "Happy",
        "KNNEABFOHAE": 2000404
      }
    ],
    "StepList": [
      "Missing",
      "Normal"
    ],
    "MissingEmoList": [
      "Happy"
    ],
    "MissingDialogueID": 2000405
  },
  "20005": {
    "ScriptID": 20005,
    "TotalEmoInfoList": [
      {
        "KNNEABFOHAE": 2000501
      },
      {
        "BPCFGNJODCK": "Anger",
        "KNNEABFOHAE": 2000502
      },
      {
        "BPCFGNJODCK": "Sad",
        "KNNEABFOHAE": 2000503
      },
      {
        "BPCFGNJODCK": "Happy",
        "KNNEABFOHAE": 2000504
      }
    ],
    "StepList": [
      "Normal"
    ],
    "MissingEmoList": []
  },
  "20006": {
    "ScriptID": 20006,
    "DefaultEmoType": "Anger",
    "RaidID": 43313,
    "TotalEmoInfoList": [
      {
        "KNNEABFOHAE": 2000604
      },
      {
        "BPCFGNJODCK": "Anger",
        "KNNEABFOHAE": 2000605
      },
      {
        "BPCFGNJODCK": "Sad",
        "KNNEABFOHAE": 2000606
      },
      {
        "BPCFGNJODCK": "Happy",
        "KNNEABFOHAE": 2000607
      }
    ],
    "StepList": [
      "Missing",
      "Lock",
      "UnLock",
      "Normal"
    ],
    "MissingEmoList": [
      "Anger"
    ],
    "MissingDialogueID": 2000601,
    "LockDialogueID": 2000602,
    "UnLockDialogueID": 2000603
  },
  "20007": {
    "ScriptID": 20007,
    "TotalEmoInfoList": [
      {
        "KNNEABFOHAE": 2000701
      },
      {
        "BPCFGNJODCK": "Anger",
        "KNNEABFOHAE": 2000702
      },
      {
        "BPCFGNJODCK": "Sad",
        "KNNEABFOHAE": 2000703
      },
      {
        "BPCFGNJODCK": "Happy",
        "KNNEABFOHAE": 2000704
      }
    ],
    "StepList": [
      "Normal"
    ],
    "MissingEmoList": []
  },
  "13211": {
    "ScriptID": 13211,
    "DefaultEmoType": "Happy",
    "TotalEmoInfoList": [
      {
        "KNNEABFOHAE": 1321101
      },
      {
        "BPCFGNJODCK": "Anger",
        "KNNEABFOHAE": 1321102
      },
      {
        "BPCFGNJODCK": "Sad",
        "KNNEABFOHAE": 1321103
      },
      {
        "BPCFGNJODCK": "Happy",
        "KNNEABFOHAE": 1321104
      }
    ],
    "StepList": [
      "Missing",
      "Full",
      "Normal"
    ],
    "MissingEmoList": [
      "Happy"
    ],
    "MissingDialogueID": 1321105,
    "FullDialogueID": 1321106
  },
  "13428": {
    "ScriptID": 13428,
    "TotalEmoInfoList": [
      {
        "KNNEABFOHAE": 1342801
      },
      {
        "BPCFGNJODCK": "Anger",
        "KNNEABFOHAE": 1342802
      },
      {
        "BPCFGNJODCK": "Sad",
        "KNNEABFOHAE": 1342803
      },
      {
        "BPCFGNJODCK": "Happy",
        "KNNEABFOHAE": 1342804
      }
    ],
    "StepList": [
      "Normal"
    ],
    "MissingEmoList": []
  },
  "13302": {
    "ScriptID": 13302,
    "DefaultEmoType": "Happy",
    "TotalEmoInfoList": [
      {
        "KNNEABFOHAE": 1330201
      },
      {
        "BPCFGNJODCK": "Anger",
        "KNNEABFOHAE": 1330202
      },
      {
        "BPCFGNJODCK": "Sad",
        "KNNEABFOHAE": 1330203
      },
      {
        "BPCFGNJODCK": "Happy",
        "KNNEABFOHAE": 1330204
      }
    ],
    "StepList": [
      "Missing",
      "Full",
      "Normal"
    ],
    "MissingEmoList": [
      "Happy"
    ],
    "MissingDialogueID": 1330205,
    "FullDialogueID": 1330206
  },
  "20008": {
    "ScriptID": 20008,
    "TotalEmoInfoList": [
      {
        "KNNEABFOHAE": 2000801
      },
      {
        "BPCFGNJODCK": "Anger",
        "KNNEABFOHAE": 2000802
      },
      {
        "BPCFGNJODCK": "Sad",
        "KNNEABFOHAE": 2000803
      },
      {
        "BPCFGNJODCK": "Happy",
        "KNNEABFOHAE": 2000804
      }
    ],
    "StepList": [
      "Normal"
    ],
    "MissingEmoList": []
  },
  "20009": {
    "ScriptID": 20009,
    "TotalEmoInfoList": [
      {
        "KNNEABFOHAE": 2000901
      },
      {
        "BPCFGNJODCK": "Anger",
        "KNNEABFOHAE": 2000902
      },
      {
        "BPCFGNJODCK": "Sad",
        "KNNEABFOHAE": 2000903
      },
      {
        "BPCFGNJODCK": "Happy",
        "KNNEABFOHAE": 2000904
      }
    ],
    "StepList": [
      "Normal"
    ],
    "MissingEmoList": []
  },
  "13109": {
    "ScriptID": 13109,
    "TotalEmoInfoList": [
      {
        "KNNEABFOHAE": 1310901
      },
      {
        "BPCFGNJODCK": "Anger",
        "KNNEABFOHAE": 1310902
      },
      {
        "BPCFGNJODCK": "Sad",
        "KNNEABFOHAE": 1310903
      },
      {
        "BPCFGNJODCK": "Happy",
        "KNNEABFOHAE": 1310904
      }
    ],
    "StepList": [
      "Missing",
      "Full",
      "Normal"
    ],
    "MissingEmoList": [
      "Peace"
    ],
    "MissingDialogueID": 1310905,
    "FullDialogueID": 1310906
  },
  "131991": {
    "ScriptID": 131991,
    "TotalEmoInfoList": [
      {
        "KNNEABFOHAE": 13199101
      },
      {
        "BPCFGNJODCK": "Anger",
        "KNNEABFOHAE": 13199102
      },
      {
        "BPCFGNJODCK": "Sad",
        "KNNEABFOHAE": 13199103
      },
      {
        "BPCFGNJODCK": "Happy",
        "KNNEABFOHAE": 13199104
      }
    ],
    "StepList": [
      "Normal"
    ],
    "MissingEmoList": []
  },
  "20010": {
    "ScriptID": 20010,
    "DefaultEmoType": "Happy",
    "RaidID": 4430301,
    "TotalEmoInfoList": [
      {
        "KNNEABFOHAE": 2001003
      },
      {
        "BPCFGNJODCK": "Anger",
        "KNNEABFOHAE": 2001004
      },
      {
        "BPCFGNJODCK": "Sad",
        "KNNEABFOHAE": 2001005
      },
      {
        "BPCFGNJODCK": "Happy",
        "KNNEABFOHAE": 2001006
      }
    ],
    "StepList": [
      "Lock",
      "UnLock",
      "Normal"
    ],
    "MissingEmoList": [],
    "LockDialogueID": 2001001,
    "UnLockDialogueID": 2001002
  },
  "20011": {
    "ScriptID": 20011,
    "DefaultEmoType": "Sad",
    "TotalEmoInfoList": [
      {
        "KNNEABFOHAE": 2001101
      },
      {
        "BPCFGNJODCK": "Anger",
        "KNNEABFOHAE": 2001102
      },
      {
        "BPCFGNJODCK": "Sad",
        "KNNEABFOHAE": 2001103
      },
      {
        "BPCFGNJODCK": "Happy",
        "KNNEABFOHAE": 2001104
      }
    ],
    "StepList": [
      "Normal"
    ],
    "MissingEmoList": []
  },
  "20012": {
    "ScriptID": 20012,
    "DefaultEmoType": "Anger",
    "TotalEmoInfoList": [
      {
        "KNNEABFOHAE": 2001201
      },
      {
        "BPCFGNJODCK": "Anger",
        "KNNEABFOHAE": 2001202
      },
      {
        "BPCFGNJODCK": "Sad",
        "KNNEABFOHAE": 2001203
      },
      {
        "BPCFGNJODCK": "Happy",
        "KNNEABFOHAE": 2001204
      }
    ],
    "StepList": [
      "Normal"
    ],
    "MissingEmoList": []
  },
  "20013": {
    "ScriptID": 20013,
    "DefaultEmoType": "Happy",
    "TotalEmoInfoList": [
      {
        "KNNEABFOHAE": 2001301
      },
      {
        "BPCFGNJODCK": "Anger",
        "KNNEABFOHAE": 2001302
      },
      {
        "BPCFGNJODCK": "Sad",
        "KNNEABFOHAE": 2001303
      },
      {
        "BPCFGNJODCK": "Happy",
        "KNNEABFOHAE": 2001304
      }
    ],
    "StepList": [
      "Normal"
    ],
    "MissingEmoList": []
  },
  "20014": {
    "ScriptID": 20014,
    "DefaultEmoType": "Sad",
    "TotalEmoInfoList": [
      {
        "KNNEABFOHAE": 2001401
      },
      {
        "BPCFGNJODCK": "Anger",
        "KNNEABFOHAE": 2001402
      },
      {
        "BPCFGNJODCK": "Sad",
        "KNNEABFOHAE": 2001403
      },
      {
        "BPCFGNJODCK": "Happy",
        "KNNEABFOHAE": 2001404
      }
    ],
    "StepList": [
      "Normal"
    ],
    "MissingEmoList": []
  },
  "20015": {
    "ScriptID": 20015,
    "DefaultEmoType": "Happy",
    "TotalEmoInfoList": [
      {
        "KNNEABFOHAE": 2001501
      },
      {
        "BPCFGNJODCK": "Anger",
        "KNNEABFOHAE": 2001502
      },
      {
        "BPCFGNJODCK": "Sad",
        "KNNEABFOHAE": 2001503
      },
      {
        "BPCFGNJODCK": "Happy",
        "KNNEABFOHAE": 2001504
      }
    ],
    "StepList": [
      "Normal"
    ],
    "MissingEmoList": []
  },
  "13216": {
    "ScriptID": 13216,
    "DefaultEmoType": "Anger",
    "TotalEmoInfoList": [
      {
        "KNNEABFOHAE": 1321601
      },
      {
        "BPCFGNJODCK": "Anger",
        "KNNEABFOHAE": 1321602
      },
      {
        "BPCFGNJODCK": "Sad",
        "KNNEABFOHAE": 1321603
      },
      {
        "BPCFGNJODCK": "Happy",
        "KNNEABFOHAE": 1321604
      }
    ],
    "StepList": [
      "Missing",
      "Full",
      "Normal"
    ],
    "MissingEmoList": [
      "Anger"
    ],
    "MissingDialogueID": 1321605,
    "FullDialogueID": 1321606
  },
  "13145": {
    "ScriptID": 13145,
    "DefaultEmoType": "Sad",
    "TotalEmoInfoList": [
      {
        "KNNEABFOHAE": 1314501
      },
      {
        "BPCFGNJODCK": "Anger",
        "KNNEABFOHAE": 1314502
      },
      {
        "BPCFGNJODCK": "Sad",
        "KNNEABFOHAE": 1314503
      },
      {
        "BPCFGNJODCK": "Happy",
        "KNNEABFOHAE": 1314504
      }
    ],
    "StepList": [
      "Missing",
      "Full",
      "Normal"
    ],
    "MissingEmoList": [
      "Sad"
    ],
    "MissingDialogueID": 1314505,
    "FullDialogueID": 1314506
  },
  "20016": {
    "ScriptID": 20016,
    "DefaultEmoType": "Happy",
    "RaidID": 4430302,
    "TotalEmoInfoList": [
      {
        "KNNEABFOHAE": 2001603
      },
      {
        "BPCFGNJODCK": "Anger",
        "KNNEABFOHAE": 2001604
      },
      {
        "BPCFGNJODCK": "Sad",
        "KNNEABFOHAE": 2001605
      },
      {
        "BPCFGNJODCK": "Happy",
        "KNNEABFOHAE": 2001606
      }
    ],
    "StepList": [
      "Lock",
      "UnLock",
      "Normal"
    ],
    "MissingEmoList": [],
    "LockDialogueID": 2001601,
    "UnLockDialogueID": 2001602
  },
  "20017": {
    "ScriptID": 20017,
    "DefaultEmoType": "Happy",
    "RaidID": 4430303,
    "TotalEmoInfoList": [
      {
        "KNNEABFOHAE": 2001703
      },
      {
        "BPCFGNJODCK": "Anger",
        "KNNEABFOHAE": 2001704
      },
      {
        "BPCFGNJODCK": "Sad",
        "KNNEABFOHAE": 2001705
      },
      {
        "BPCFGNJODCK": "Happy",
        "KNNEABFOHAE": 2001706
      }
    ],
    "StepList": [
      "Lock",
      "UnLock",
      "Normal"
    ],
    "MissingEmoList": [],
    "LockDialogueID": 2001701,
    "UnLockDialogueID": 2001702
  },
  "20018": {
    "ScriptID": 20018,
    "DefaultEmoType": "Sad",
    "RaidID": 4430201,
    "TotalEmoInfoList": [
      {
        "KNNEABFOHAE": 2001803
      },
      {
        "BPCFGNJODCK": "Anger",
        "KNNEABFOHAE": 2001804
      },
      {
        "BPCFGNJODCK": "Sad",
        "KNNEABFOHAE": 2001805
      },
      {
        "BPCFGNJODCK": "Happy",
        "KNNEABFOHAE": 2001806
      }
    ],
    "StepList": [
      "Lock",
      "UnLock",
      "Normal"
    ],
    "MissingEmoList": [],
    "LockDialogueID": 2001801,
    "UnLockDialogueID": 2001802
  },
  "20019": {
    "ScriptID": 20019,
    "DefaultEmoType": "Sad",
    "RaidID": 4430203,
    "TotalEmoInfoList": [
      {
        "KNNEABFOHAE": 2001903
      },
      {
        "BPCFGNJODCK": "Anger",
        "KNNEABFOHAE": 2001904
      },
      {
        "BPCFGNJODCK": "Sad",
        "KNNEABFOHAE": 2001905
      },
      {
        "BPCFGNJODCK": "Happy",
        "KNNEABFOHAE": 2001906
      }
    ],
    "StepList": [
      "Lock",
      "UnLock",
      "Normal"
    ],
    "MissingEmoList": [],
    "LockDialogueID": 2001901,
    "UnLockDialogueID": 2001902
  },
  "20020": {
    "ScriptID": 20020,
    "DefaultEmoType": "Sad",
    "RaidID": 4430202,
    "TotalEmoInfoList": [
      {
        "KNNEABFOHAE": 2002003
      },
      {
        "BPCFGNJODCK": "Anger",
        "KNNEABFOHAE": 2002004
      },
      {
        "BPCFGNJODCK": "Sad",
        "KNNEABFOHAE": 2002005
      },
      {
        "BPCFGNJODCK": "Happy",
        "KNNEABFOHAE": 2002006
      }
    ],
    "StepList": [
      "Lock",
      "UnLock",
      "Normal"
    ],
    "MissingEmoList": [],
    "LockDialogueID": 2002001,
    "UnLockDialogueID": 2002002
  },
  "20021": {
    "ScriptID": 20021,
    "DefaultEmoType": "Sad",
    "RaidID": 4430204,
    "TotalEmoInfoList": [
      {
        "KNNEABFOHAE": 2002103
      },
      {
        "BPCFGNJODCK": "Anger",
        "KNNEABFOHAE": 2002104
      },
      {
        "BPCFGNJODCK": "Sad",
        "KNNEABFOHAE": 2002105
      },
      {
        "BPCFGNJODCK": "Happy",
        "KNNEABFOHAE": 2002106
      }
    ],
    "StepList": [
      "Lock",
      "UnLock",
      "Normal"
    ],
    "MissingEmoList": [],
    "LockDialogueID": 2002101,
    "UnLockDialogueID": 2002102
  },
  "13243": {
    "ScriptID": 13243,
    "DefaultEmoType": "Happy",
    "TotalEmoInfoList": [
      {
        "KNNEABFOHAE": 1324301
      },
      {
        "BPCFGNJODCK": "Anger",
        "KNNEABFOHAE": 1324302
      },
      {
        "BPCFGNJODCK": "Sad",
        "KNNEABFOHAE": 1324303
      },
      {
        "BPCFGNJODCK": "Happy",
        "KNNEABFOHAE": 1324304
      }
    ],
    "StepList": [
      "Missing",
      "Full",
      "Normal"
    ],
    "MissingEmoList": [
      "Happy"
    ],
    "MissingDialogueID": 1324305,
    "FullDialogueID": 1324306
  },
  "13323": {
    "ScriptID": 13323,
    "TotalEmoInfoList": [
      {
        "KNNEABFOHAE": 1332301
      },
      {
        "BPCFGNJODCK": "Anger",
        "KNNEABFOHAE": 1332302
      },
      {
        "BPCFGNJODCK": "Sad",
        "KNNEABFOHAE": 1332303
      },
      {
        "BPCFGNJODCK": "Happy",
        "KNNEABFOHAE": 1332304
      }
    ],
    "StepList": [
      "Normal"
    ],
    "MissingEmoList": []
  },
  "13245": {
    "ScriptID": 13245,
    "DefaultEmoType": "Happy",
    "TotalEmoInfoList": [
      {
        "KNNEABFOHAE": 1324501
      },
      {
        "BPCFGNJODCK": "Anger",
        "KNNEABFOHAE": 1324502
      },
      {
        "BPCFGNJODCK": "Sad",
        "KNNEABFOHAE": 1324503
      },
      {
        "BPCFGNJODCK": "Happy",
        "KNNEABFOHAE": 1324504
      }
    ],
    "StepList": [
      "Normal"
    ],
    "MissingEmoList": []
  },
  "13143": {
    "ScriptID": 13143,
    "TotalEmoInfoList": [
      {
        "KNNEABFOHAE": 1314301
      },
      {
        "BPCFGNJODCK": "Anger",
        "KNNEABFOHAE": 1314302
      },
      {
        "BPCFGNJODCK": "Sad",
        "KNNEABFOHAE": 1314303
      },
      {
        "BPCFGNJODCK": "Happy",
        "KNNEABFOHAE": 1314304
      }
    ],
    "StepList": [
      "Normal"
    ],
    "MissingEmoList": []
  },
  "13142": {
    "ScriptID": 13142,
    "TotalEmoInfoList": [
      {
        "KNNEABFOHAE": 1314201
      },
      {
        "BPCFGNJODCK": "Anger",
        "KNNEABFOHAE": 1314202
      },
      {
        "BPCFGNJODCK": "Sad",
        "KNNEABFOHAE": 1314203
      },
      {
        "BPCFGNJODCK": "Happy",
        "KNNEABFOHAE": 1314204
      }
    ],
    "StepList": [
      "Normal"
    ],
    "MissingEmoList": []
  },
  "13140": {
    "ScriptID": 13140,
    "TotalEmoInfoList": [
      {
        "KNNEABFOHAE": 1314001
      },
      {
        "BPCFGNJODCK": "Anger",
        "KNNEABFOHAE": 1314002
      },
      {
        "BPCFGNJODCK": "Sad",
        "KNNEABFOHAE": 1314003
      },
      {
        "BPCFGNJODCK": "Happy",
        "KNNEABFOHAE": 1314004
      }
    ],
    "StepList": [
      "Normal"
    ],
    "MissingEmoList": []
  },
  "13244": {
    "ScriptID": 13244,
    "TotalEmoInfoList": [
      {
        "KNNEABFOHAE": 1324401
      },
      {
        "BPCFGNJODCK": "Anger",
        "KNNEABFOHAE": 1324402
      },
      {
        "BPCFGNJODCK": "Sad",
        "KNNEABFOHAE": 1324403
      },
      {
        "BPCFGNJODCK": "Happy",
        "KNNEABFOHAE": 1324404
      }
    ],
    "StepList": [
      "Normal"
    ],
    "MissingEmoList": []
  },
  "13324": {
    "ScriptID": 13324,
    "TotalEmoInfoList": [
      {
        "KNNEABFOHAE": 1332401
      },
      {
        "BPCFGNJODCK": "Anger",
        "KNNEABFOHAE": 1332402
      },
      {
        "BPCFGNJODCK": "Sad",
        "KNNEABFOHAE": 1332403
      },
      {
        "BPCFGNJODCK": "Happy",
        "KNNEABFOHAE": 1332404
      }
    ],
    "StepList": [
      "Normal"
    ],
    "MissingEmoList": []
  },
  "13258": {
    "ScriptID": 13258,
    "TotalEmoInfoList": [
      {
        "KNNEABFOHAE": 1325801
      },
      {
        "BPCFGNJODCK": "Anger",
        "KNNEABFOHAE": 1325802
      },
      {
        "BPCFGNJODCK": "Sad",
        "KNNEABFOHAE": 1325803
      },
      {
        "BPCFGNJODCK": "Happy",
        "KNNEABFOHAE": 1325804
      }
    ],
    "StepList": [
      "Normal"
    ],
    "MissingEmoList": []
  },
  "13331": {
    "ScriptID": 13331,
    "DefaultEmoType": "Happy",
    "TotalEmoInfoList": [
      {
        "KNNEABFOHAE": 1333101
      },
      {
        "BPCFGNJODCK": "Anger",
        "KNNEABFOHAE": 1333102
      },
      {
        "BPCFGNJODCK": "Sad",
        "KNNEABFOHAE": 1333103
      },
      {
        "BPCFGNJODCK": "Happy",
        "KNNEABFOHAE": 1333104
      }
    ],
    "StepList": [
      "Normal"
    ],
    "MissingEmoList": []
  },
  "13159": {
    "ScriptID": 13159,
    "TotalEmoInfoList": [
      {
        "KNNEABFOHAE": 1315901
      },
      {
        "BPCFGNJODCK": "Anger",
        "KNNEABFOHAE": 1315902
      },
      {
        "BPCFGNJODCK": "Sad",
        "KNNEABFOHAE": 1315903
      },
      {
        "BPCFGNJODCK": "Happy",
        "KNNEABFOHAE": 1315904
      }
    ],
    "StepList": [
      "Normal"
    ],
    "MissingEmoList": []
  },
  "13265": {
    "ScriptID": 13265,
    "TotalEmoInfoList": [
      {
        "KNNEABFOHAE": 1326501
      },
      {
        "BPCFGNJODCK": "Anger",
        "KNNEABFOHAE": 1326502
      },
      {
        "BPCFGNJODCK": "Sad",
        "KNNEABFOHAE": 1326503
      },
      {
        "BPCFGNJODCK": "Happy",
        "KNNEABFOHAE": 1326504
      }
    ],
    "StepList": [
      "Normal"
    ],
    "MissingEmoList": []
  },
  "13330": {
    "ScriptID": 13330,
    "DefaultEmoType": "Happy",
    "TotalEmoInfoList": [
      {
        "KNNEABFOHAE": 1333001
      },
      {
        "BPCFGNJODCK": "Anger",
        "KNNEABFOHAE": 1333002
      },
      {
        "BPCFGNJODCK": "Sad",
        "KNNEABFOHAE": 1333003
      },
      {
        "BPCFGNJODCK": "Happy",
        "KNNEABFOHAE": 1333004
      }
    ],
    "StepList": [
      "Normal"
    ],
    "MissingEmoList": []
  },
  "13157": {
    "ScriptID": 13157,
    "TotalEmoInfoList": [
      {
        "KNNEABFOHAE": 1315701
      },
      {
        "BPCFGNJODCK": "Anger",
        "KNNEABFOHAE": 1315702
      },
      {
        "BPCFGNJODCK": "Sad",
        "KNNEABFOHAE": 1315703
      },
      {
        "BPCFGNJODCK": "Happy",
        "KNNEABFOHAE": 1315704
      }
    ],
    "StepList": [
      "Normal"
    ],
    "MissingEmoList": []
  },
  "13256": {
    "ScriptID": 13256,
    "TotalEmoInfoList": [
      {
        "KNNEABFOHAE": 1325601
      },
      {
        "BPCFGNJODCK": "Anger",
        "KNNEABFOHAE": 1325602
      },
      {
        "BPCFGNJODCK": "Sad",
        "KNNEABFOHAE": 1325603
      },
      {
        "BPCFGNJODCK": "Happy",
        "KNNEABFOHAE": 1325604
      }
    ],
    "StepList": [
      "Normal"
    ],
    "MissingEmoList": []
  },
  "13259": {
    "ScriptID": 13259,
    "DefaultEmoType": "Anger",
    "TotalEmoInfoList": [
      {
        "KNNEABFOHAE": 1325901
      },
      {
        "BPCFGNJODCK": "Anger",
        "KNNEABFOHAE": 1325902
      },
      {
        "BPCFGNJODCK": "Sad",
        "KNNEABFOHAE": 1325903
      },
      {
        "BPCFGNJODCK": "Happy",
        "KNNEABFOHAE": 1325904
      }
    ],
    "StepList": [
      "Normal"
    ],
    "MissingEmoList": []
  },
  "20022": {
    "ScriptID": 20022,
    "TotalEmoInfoList": [
      {
        "KNNEABFOHAE": 2002201
      },
      {
        "BPCFGNJODCK": "Anger",
        "KNNEABFOHAE": 2002202
      },
      {
        "BPCFGNJODCK": "Sad",
        "KNNEABFOHAE": 2002203
      },
      {
        "BPCFGNJODCK": "Happy",
        "KNNEABFOHAE": 2002204
      }
    ],
    "StepList": [
      "Normal"
    ],
    "MissingEmoList": []
  },
  "13155": {
    "ScriptID": 13155,
    "DefaultEmoType": "Happy",
    "TotalEmoInfoList": [
      {
        "KNNEABFOHAE": 1315501
      },
      {
        "BPCFGNJODCK": "Anger",
        "KNNEABFOHAE": 1315502
      },
      {
        "BPCFGNJODCK": "Sad",
        "KNNEABFOHAE": 1315503
      },
      {
        "BPCFGNJODCK": "Happy",
        "KNNEABFOHAE": 1315504
      }
    ],
    "StepList": [
      "Normal"
    ],
    "MissingEmoList": []
  },
  "13156": {
    "ScriptID": 13156,
    "TotalEmoInfoList": [
      {
        "KNNEABFOHAE": 1315601
      },
      {
        "BPCFGNJODCK": "Anger",
        "KNNEABFOHAE": 1315602
      },
      {
        "BPCFGNJODCK": "Sad",
        "KNNEABFOHAE": 1315603
      },
      {
        "BPCFGNJODCK": "Happy",
        "KNNEABFOHAE": 1315604
      }
    ],
    "StepList": [
      "Missing",
      "Full",
      "Normal"
    ],
    "MissingEmoList": [
      "Peace"
    ],
    "MissingDialogueID": 1315605,
    "FullDialogueID": 1315606
  },
  "13254": {
    "ScriptID": 13254,
    "DefaultEmoType": "Happy",
    "TotalEmoInfoList": [
      {
        "KNNEABFOHAE": 1325401
      },
      {
        "BPCFGNJODCK": "Anger",
        "KNNEABFOHAE": 1325402
      },
      {
        "BPCFGNJODCK": "Sad",
        "KNNEABFOHAE": 1325403
      },
      {
        "BPCFGNJODCK": "Happy",
        "KNNEABFOHAE": 1325404
      }
    ],
    "StepList": [
      "Normal"
    ],
    "MissingEmoList": []
  },
  "13144": {
    "ScriptID": 13144,
    "TotalEmoInfoList": [
      {
        "KNNEABFOHAE": 1314401
      },
      {
        "BPCFGNJODCK": "Anger",
        "KNNEABFOHAE": 1314402
      },
      {
        "BPCFGNJODCK": "Sad",
        "KNNEABFOHAE": 1314403
      },
      {
        "BPCFGNJODCK": "Happy",
        "KNNEABFOHAE": 1314404
      }
    ],
    "StepList": [
      "Normal"
    ],
    "MissingEmoList": []
  },
  "13253": {
    "ScriptID": 13253,
    "TotalEmoInfoList": [
      {
        "KNNEABFOHAE": 1325301
      },
      {
        "BPCFGNJODCK": "Anger",
        "KNNEABFOHAE": 1325302
      },
      {
        "BPCFGNJODCK": "Sad",
        "KNNEABFOHAE": 1325303
      },
      {
        "BPCFGNJODCK": "Happy",
        "KNNEABFOHAE": 1325304
      }
    ],
    "StepList": [
      "Normal"
    ],
    "MissingEmoList": []
  },
  "20023": {
    "ScriptID": 20023,
    "TotalEmoInfoList": [
      {
        "KNNEABFOHAE": 2002301
      },
      {
        "BPCFGNJODCK": "Anger",
        "KNNEABFOHAE": 2002302
      },
      {
        "BPCFGNJODCK": "Sad",
        "KNNEABFOHAE": 2002303
      },
      {
        "BPCFGNJODCK": "Happy",
        "KNNEABFOHAE": 2002304
      }
    ],
    "StepList": [
      "Normal"
    ],
    "MissingEmoList": []
  },
  "13153": {
    "ScriptID": 13153,
    "TotalEmoInfoList": [
      {
        "KNNEABFOHAE": 1315301
      },
      {
        "BPCFGNJODCK": "Anger",
        "KNNEABFOHAE": 1315302
      },
      {
        "BPCFGNJODCK": "Sad",
        "KNNEABFOHAE": 1315303
      },
      {
        "BPCFGNJODCK": "Happy",
        "KNNEABFOHAE": 1315304
      }
    ],
    "StepList": [
      "Normal"
    ],
    "MissingEmoList": []
  },
  "13415": {
    "ScriptID": 13415,
    "DefaultEmoType": "Happy",
    "TotalEmoInfoList": [
      {
        "KNNEABFOHAE": 1341501
      },
      {
        "BPCFGNJODCK": "Anger",
        "KNNEABFOHAE": 1341502
      },
      {
        "BPCFGNJODCK": "Sad",
        "KNNEABFOHAE": 1341503
      },
      {
        "BPCFGNJODCK": "Happy",
        "KNNEABFOHAE": 1341504
      }
    ],
    "StepList": [
      "Normal"
    ],
    "MissingEmoList": []
  },
  "13251": {
    "ScriptID": 13251,
    "DefaultEmoType": "Sad",
    "TotalEmoInfoList": [
      {
        "KNNEABFOHAE": 1325101
      },
      {
        "BPCFGNJODCK": "Anger",
        "KNNEABFOHAE": 1325102
      },
      {
        "BPCFGNJODCK": "Sad",
        "KNNEABFOHAE": 1325103
      },
      {
        "BPCFGNJODCK": "Happy",
        "KNNEABFOHAE": 1325104
      }
    ],
    "StepList": [
      "Normal"
    ],
    "MissingEmoList": []
  },
  "20024": {
    "ScriptID": 20024,
    "TotalEmoInfoList": [
      {
        "KNNEABFOHAE": 2002401
      },
      {
        "BPCFGNJODCK": "Anger",
        "KNNEABFOHAE": 2002402
      },
      {
        "BPCFGNJODCK": "Sad",
        "KNNEABFOHAE": 2002403
      },
      {
        "BPCFGNJODCK": "Happy",
        "KNNEABFOHAE": 2002404
      }
    ],
    "StepList": [
      "Normal"
    ],
    "MissingEmoList": []
  },
  "13154": {
    "ScriptID": 13154,
    "DefaultEmoType": "Happy",
    "TotalEmoInfoList": [
      {
        "KNNEABFOHAE": 1315401
      },
      {
        "BPCFGNJODCK": "Anger",
        "KNNEABFOHAE": 1315402
      },
      {
        "BPCFGNJODCK": "Sad",
        "KNNEABFOHAE": 1315403
      },
      {
        "BPCFGNJODCK": "Happy",
        "KNNEABFOHAE": 1315404
      }
    ],
    "StepList": [
      "Normal"
    ],
    "MissingEmoList": []
  },
  "13418": {
    "ScriptID": 13418,
    "TotalEmoInfoList": [
      {
        "KNNEABFOHAE": 1341801
      },
      {
        "BPCFGNJODCK": "Anger",
        "KNNEABFOHAE": 1341802
      },
      {
        "BPCFGNJODCK": "Sad",
        "KNNEABFOHAE": 1341803
      },
      {
        "BPCFGNJODCK": "Happy",
        "KNNEABFOHAE": 1341804
      }
    ],
    "StepList": [
      "Normal"
    ],
    "MissingEmoList": []
  },
  "20025": {
    "ScriptID": 20025,
    "TotalEmoInfoList": [
      {
        "KNNEABFOHAE": 2002501
      },
      {
        "BPCFGNJODCK": "Anger",
        "KNNEABFOHAE": 2002502
      },
      {
        "BPCFGNJODCK": "Sad",
        "KNNEABFOHAE": 2002503
      },
      {
        "BPCFGNJODCK": "Happy",
        "KNNEABFOHAE": 2002504
      }
    ],
    "StepList": [
      "Normal"
    ],
    "MissingEmoList": []
  },
  "13252": {
    "ScriptID": 13252,
    "DefaultEmoType": "Happy",
    "TotalEmoInfoList": [
      {
        "KNNEABFOHAE": 1325201
      },
      {
        "BPCFGNJODCK": "Anger",
        "KNNEABFOHAE": 1325202
      },
      {
        "BPCFGNJODCK": "Sad",
        "KNNEABFOHAE": 1325203
      },
      {
        "BPCFGNJODCK": "Happy",
        "KNNEABFOHAE": 1325204
      }
    ],
    "StepList": [
      "Normal"
    ],
    "MissingEmoList": []
  },
  "13160": {
    "ScriptID": 13160,
    "TotalEmoInfoList": [
      {
        "KNNEABFOHAE": 1316001
      },
      {
        "BPCFGNJODCK": "Anger",
        "KNNEABFOHAE": 1316002
      },
      {
        "BPCFGNJODCK": "Sad",
        "KNNEABFOHAE": 1316003
      },
      {
        "BPCFGNJODCK": "Happy",
        "KNNEABFOHAE": 1316004
      }
    ],
    "StepList": [
      "Normal"
    ],
    "MissingEmoList": []
  },
  "13161": {
    "ScriptID": 13161,
    "DefaultEmoType": "Happy",
    "TotalEmoInfoList": [
      {
        "KNNEABFOHAE": 1316101
      },
      {
        "BPCFGNJODCK": "Anger",
        "KNNEABFOHAE": 1316102
      },
      {
        "BPCFGNJODCK": "Sad",
        "KNNEABFOHAE": 1316103
      },
      {
        "BPCFGNJODCK": "Happy",
        "KNNEABFOHAE": 1316104
      }
    ],
    "StepList": [
      "Normal"
    ],
    "MissingEmoList": []
  },
  "20026": {
    "ScriptID": 20026,
    "TotalEmoInfoList": [
      {
        "KNNEABFOHAE": 2002601
      },
      {
        "BPCFGNJODCK": "Anger",
        "KNNEABFOHAE": 2002602
      },
      {
        "BPCFGNJODCK": "Sad",
        "KNNEABFOHAE": 2002603
      },
      {
        "BPCFGNJODCK": "Happy",
        "KNNEABFOHAE": 2002604
      }
    ],
    "StepList": [
      "Normal"
    ],
    "MissingEmoList": []
  },
  "20027": {
    "ScriptID": 20027,
    "RaidID": 43322,
    "TotalEmoInfoList": [
      {
        "KNNEABFOHAE": 2002701
      },
      {
        "BPCFGNJODCK": "Anger",
        "KNNEABFOHAE": 2002702
      },
      {
        "BPCFGNJODCK": "Sad",
        "KNNEABFOHAE": 2002703
      },
      {
        "BPCFGNJODCK": "Happy",
        "KNNEABFOHAE": 2002704
      }
    ],
    "StepList": [
      "Lock",
      "UnLock",
      "Normal"
    ],
    "MissingEmoList": [],
    "LockDialogueID": 2002705,
    "UnLockDialogueID": 2002706
  },
  "20028": {
    "ScriptID": 20028,
    "TotalEmoInfoList": [
      {
        "KNNEABFOHAE": 2002801
      },
      {
        "BPCFGNJODCK": "Anger",
        "KNNEABFOHAE": 2002802
      },
      {
        "BPCFGNJODCK": "Sad",
        "KNNEABFOHAE": 2002803
      },
      {
        "BPCFGNJODCK": "Happy",
        "KNNEABFOHAE": 2002804
      }
    ],
    "StepList": [
      "Control",
      "Normal"
    ],
    "MissingEmoList": [],
    "ControlDialogueID": 2002805
  },
  "20029": {
    "ScriptID": 20029,
    "TotalEmoInfoList": [
      {
        "KNNEABFOHAE": 2002901
      },
      {
        "BPCFGNJODCK": "Anger",
        "KNNEABFOHAE": 2002902
      },
      {
        "BPCFGNJODCK": "Sad",
        "KNNEABFOHAE": 2002903
      },
      {
        "BPCFGNJODCK": "Happy",
        "KNNEABFOHAE": 2002904
      }
    ],
    "StepList": [
      "Control",
      "Normal"
    ],
    "MissingEmoList": [],
    "ControlDialogueID": 2002905
  },
  "20030": {
    "ScriptID": 20030,
    "TotalEmoInfoList": [
      {
        "KNNEABFOHAE": 2003001
      },
      {
        "BPCFGNJODCK": "Anger",
        "KNNEABFOHAE": 2003002
      },
      {
        "BPCFGNJODCK": "Sad",
        "KNNEABFOHAE": 2003003
      },
      {
        "BPCFGNJODCK": "Happy",
        "KNNEABFOHAE": 2003004
      }
    ],
    "StepList": [
      "Control",
      "Normal"
    ],
    "MissingEmoList": [],
    "ControlDialogueID": 2003005
  }
}