{
  "6101": {
    "HeliobusSpecialPostID": 6101,
    "SubMissionID": 801510118,
    "PostImgIDList": [
      6101
    ],
    "TemplateIDList": [
      610101,
      610102,
      610103
    ],
    "Likes": [
      {
        "AHMDOLFPJBE": 698
      },
      {
        "AFHMILFFDIB": 1,
        "AHMDOLFPJBE": 1016
      },
      {
        "AFHMILFFDIB": 2,
        "AHMDOLFPJBE": 1330
      },
      {
        "AFHMILFFDIB": 3,
        "AHMDOLFPJBE": 4218
      },
      {
        "AFHMILFFDIB": 4,
        "AHMDOLFPJBE": 5667
      },
      {
        "AFHMILFFDIB": 5,
        "AHMDOLFPJBE": 7005
      },
      {
        "AFHMILFFDIB": 6,
        "AHMDOLFPJBE": 18009
      },
      {
        "AFHMILFFDIB": 7,
        "AHMDOLFPJBE": 22503
      },
      {
        "AFHMILFFDIB": 8,
        "AHMDOLFPJBE": 25166
      },
      {
        "AFHMILFFDIB": 9,
        "AHMDOLFPJBE": 27955
      },
      {
        "AFHMILFFDIB": 10,
        "AHMDOLFPJBE": 54113
      },
      {
        "AFHMILFFDIB": 11,
        "AHMDOLFPJBE": 63141
      },
      {
        "AFHMILFFDIB": 12,
        "AHMDOLFPJBE": 71056
      },
      {
        "AFHMILFFDIB": 13,
        "AHMDOLFPJBE": 77400
      },
      {
        "AFHMILFFDIB": 14,
        "AHMDOLFPJBE": 93683
      }
    ]
  },
  "6102": {
    "HeliobusSpecialPostID": 6102,
    "SubMissionID": 801510201,
    "PostImgIDList": [
      6102
    ],
    "TemplateIDList": [
      610201,
      610202,
      610203
    ],
    "Likes": [
      {
        "AHMDOLFPJBE": 4673
      },
      {
        "AFHMILFFDIB": 1,
        "AHMDOLFPJBE": 6232
      },
      {
        "AFHMILFFDIB": 2,
        "AHMDOLFPJBE": 7786
      },
      {
        "AFHMILFFDIB": 3,
        "AHMDOLFPJBE": 19639
      },
      {
        "AFHMILFFDIB": 4,
        "AHMDOLFPJBE": 24733
      },
      {
        "AFHMILFFDIB": 5,
        "AHMDOLFPJBE": 27887
      },
      {
        "AFHMILFFDIB": 6,
        "AHMDOLFPJBE": 30766
      },
      {
        "AFHMILFFDIB": 7,
        "AHMDOLFPJBE": 59358
      },
      {
        "AFHMILFFDIB": 8,
        "AHMDOLFPJBE": 68079
      },
      {
        "AFHMILFFDIB": 9,
        "AHMDOLFPJBE": 76132
      },
      {
        "AFHMILFFDIB": 10,
        "AHMDOLFPJBE": 83585
      },
      {
        "AFHMILFFDIB": 11,
        "AHMDOLFPJBE": 100570
      },
      {
        "AFHMILFFDIB": 12,
        "AHMDOLFPJBE": 100570
      },
      {
        "AFHMILFFDIB": 13,
        "AHMDOLFPJBE": 100570
      },
      {
        "AFHMILFFDIB": 14,
        "AHMDOLFPJBE": 100570
      }
    ]
  },
  "6103": {
    "HeliobusSpecialPostID": 6103,
    "SubMissionID": 801510317,
    "PostImgIDList": [
      6103
    ],
    "TemplateIDList": [
      610301,
      610302,
      610303
    ],
    "Likes": [
      {
        "AHMDOLFPJBE": 19329
      },
      {
        "AFHMILFFDIB": 1,
        "AHMDOLFPJBE": 24197
      },
      {
        "AFHMILFFDIB": 2,
        "AHMDOLFPJBE": 27560
      },
      {
        "AFHMILFFDIB": 3,
        "AHMDOLFPJBE": 30942
      },
      {
        "AFHMILFFDIB": 4,
        "AHMDOLFPJBE": 59792
      },
      {
        "AFHMILFFDIB": 5,
        "AHMDOLFPJBE": 69638
      },
      {
        "AFHMILFFDIB": 6,
        "AHMDOLFPJBE": 78156
      },
      {
        "AFHMILFFDIB": 7,
        "AHMDOLFPJBE": 85268
      },
      {
        "AFHMILFFDIB": 8,
        "AHMDOLFPJBE": 101941
      },
      {
        "AFHMILFFDIB": 9,
        "AHMDOLFPJBE": 101941
      },
      {
        "AFHMILFFDIB": 10,
        "AHMDOLFPJBE": 101941
      },
      {
        "AFHMILFFDIB": 11,
        "AHMDOLFPJBE": 101941
      },
      {
        "AFHMILFFDIB": 12,
        "AHMDOLFPJBE": 101941
      },
      {
        "AFHMILFFDIB": 13,
        "AHMDOLFPJBE": 101941
      },
      {
        "AFHMILFFDIB": 14,
        "AHMDOLFPJBE": 101941
      }
    ]
  },
  "6104": {
    "HeliobusSpecialPostID": 6104,
    "SubMissionID": 801510414,
    "PostImgIDList": [
      6104
    ],
    "TemplateIDList": [
      610401,
      610402,
      610403
    ],
    "Likes": [
      {
        "AHMDOLFPJBE": 27375
      },
      {
        "AFHMILFFDIB": 1,
        "AHMDOLFPJBE": 30330
      },
      {
        "AFHMILFFDIB": 2,
        "AHMDOLFPJBE": 57335
      },
      {
        "AFHMILFFDIB": 3,
        "AHMDOLFPJBE": 66237
      },
      {
        "AFHMILFFDIB": 4,
        "AHMDOLFPJBE": 73112
      },
      {
        "AFHMILFFDIB": 5,
        "AHMDOLFPJBE": 73112
      },
      {
        "AFHMILFFDIB": 6,
        "AHMDOLFPJBE": 73112
      },
      {
        "AFHMILFFDIB": 7,
        "AHMDOLFPJBE": 73112
      },
      {
        "AFHMILFFDIB": 8,
        "AHMDOLFPJBE": 73112
      },
      {
        "AFHMILFFDIB": 9,
        "AHMDOLFPJBE": 73112
      },
      {
        "AFHMILFFDIB": 10,
        "AHMDOLFPJBE": 73112
      },
      {
        "AFHMILFFDIB": 11,
        "AHMDOLFPJBE": 73112
      },
      {
        "AFHMILFFDIB": 12,
        "AHMDOLFPJBE": 73112
      },
      {
        "AFHMILFFDIB": 13,
        "AHMDOLFPJBE": 73112
      },
      {
        "AFHMILFFDIB": 14,
        "AHMDOLFPJBE": 73112
      }
    ]
  },
  "6202": {
    "HeliobusSpecialPostID": 6202,
    "SubMissionID": 801515205,
    "PostImgIDList": [
      6202
    ],
    "TemplateIDList": [
      620201,
      620202,
      620203
    ],
    "Likes": [
      {
        "AHMDOLFPJBE": 1049
      },
      {
        "AFHMILFFDIB": 1,
        "AHMDOLFPJBE": 1365
      },
      {
        "AFHMILFFDIB": 2,
        "AHMDOLFPJBE": 4325
      },
      {
        "AFHMILFFDIB": 3,
        "AHMDOLFPJBE": 5760
      },
      {
        "AFHMILFFDIB": 4,
        "AHMDOLFPJBE": 7117
      },
      {
        "AFHMILFFDIB": 5,
        "AHMDOLFPJBE": 18100
      },
      {
        "AFHMILFFDIB": 6,
        "AHMDOLFPJBE": 22933
      },
      {
        "AFHMILFFDIB": 7,
        "AHMDOLFPJBE": 25675
      },
      {
        "AFHMILFFDIB": 8,
        "AHMDOLFPJBE": 28334
      },
      {
        "AFHMILFFDIB": 9,
        "AHMDOLFPJBE": 54441
      },
      {
        "AFHMILFFDIB": 10,
        "AHMDOLFPJBE": 63640
      },
      {
        "AFHMILFFDIB": 11,
        "AHMDOLFPJBE": 71398
      },
      {
        "AFHMILFFDIB": 12,
        "AHMDOLFPJBE": 79335
      },
      {
        "AFHMILFFDIB": 13,
        "AHMDOLFPJBE": 93723
      },
      {
        "AFHMILFFDIB": 14,
        "AHMDOLFPJBE": 93723
      }
    ]
  },
  "6201": {
    "HeliobusSpecialPostID": 6201,
    "SubMissionID": 801515111,
    "PostImgIDList": [
      6201
    ],
    "TemplateIDList": [
      620101,
      620102,
      620103
    ],
    "Likes": [
      {
        "AHMDOLFPJBE": 1092
      },
      {
        "AFHMILFFDIB": 1,
        "AHMDOLFPJBE": 1439
      },
      {
        "AFHMILFFDIB": 2,
        "AHMDOLFPJBE": 4496
      },
      {
        "AFHMILFFDIB": 3,
        "AHMDOLFPJBE": 6005
      },
      {
        "AFHMILFFDIB": 4,
        "AHMDOLFPJBE": 7418
      },
      {
        "AFHMILFFDIB": 5,
        "AHMDOLFPJBE": 19084
      },
      {
        "AFHMILFFDIB": 6,
        "AHMDOLFPJBE": 24029
      },
      {
        "AFHMILFFDIB": 7,
        "AHMDOLFPJBE": 27057
      },
      {
        "AFHMILFFDIB": 8,
        "AHMDOLFPJBE": 30178
      },
      {
        "AFHMILFFDIB": 9,
        "AHMDOLFPJBE": 57139
      },
      {
        "AFHMILFFDIB": 10,
        "AHMDOLFPJBE": 67126
      },
      {
        "AFHMILFFDIB": 11,
        "AHMDOLFPJBE": 74129
      },
      {
        "AFHMILFFDIB": 12,
        "AHMDOLFPJBE": 82111
      },
      {
        "AFHMILFFDIB": 13,
        "AHMDOLFPJBE": 98514
      },
      {
        "AFHMILFFDIB": 14,
        "AHMDOLFPJBE": 98514
      }
    ]
  },
  "6203": {
    "HeliobusSpecialPostID": 6203,
    "SubMissionID": 801515311,
    "PostImgIDList": [
      6203
    ],
    "TemplateIDList": [
      620301,
      620302,
      620303
    ],
    "Likes": [
      {
        "AHMDOLFPJBE": 5826
      },
      {
        "AFHMILFFDIB": 1,
        "AHMDOLFPJBE": 7290
      },
      {
        "AFHMILFFDIB": 2,
        "AHMDOLFPJBE": 18461
      },
      {
        "AFHMILFFDIB": 3,
        "AHMDOLFPJBE": 22888
      },
      {
        "AFHMILFFDIB": 4,
        "AHMDOLFPJBE": 25767
      },
      {
        "AFHMILFFDIB": 5,
        "AHMDOLFPJBE": 28439
      },
      {
        "AFHMILFFDIB": 6,
        "AHMDOLFPJBE": 53770
      },
      {
        "AFHMILFFDIB": 7,
        "AHMDOLFPJBE": 61941
      },
      {
        "AFHMILFFDIB": 8,
        "AHMDOLFPJBE": 68755
      },
      {
        "AFHMILFFDIB": 9,
        "AHMDOLFPJBE": 75712
      },
      {
        "AFHMILFFDIB": 10,
        "AHMDOLFPJBE": 90617
      },
      {
        "AFHMILFFDIB": 11,
        "AHMDOLFPJBE": 90617
      },
      {
        "AFHMILFFDIB": 12,
        "AHMDOLFPJBE": 90617
      },
      {
        "AFHMILFFDIB": 13,
        "AHMDOLFPJBE": 90617
      },
      {
        "AFHMILFFDIB": 14,
        "AHMDOLFPJBE": 90617
      }
    ]
  },
  "6208": {
    "HeliobusSpecialPostID": 6208,
    "SubMissionID": 801516210,
    "PostImgIDList": [
      6208
    ],
    "TemplateIDList": [
      620801,
      620802,
      620803
    ],
    "Likes": [
      {
        "AHMDOLFPJBE": 7599
      },
      {
        "AFHMILFFDIB": 1,
        "AHMDOLFPJBE": 9533
      },
      {
        "AFHMILFFDIB": 2,
        "AHMDOLFPJBE": 24129
      },
      {
        "AFHMILFFDIB": 3,
        "AHMDOLFPJBE": 30315
      },
      {
        "AFHMILFFDIB": 4,
        "AHMDOLFPJBE": 34009
      },
      {
        "AFHMILFFDIB": 5,
        "AHMDOLFPJBE": 37521
      },
      {
        "AFHMILFFDIB": 6,
        "AHMDOLFPJBE": 71242
      },
      {
        "AFHMILFFDIB": 7,
        "AHMDOLFPJBE": 81898
      },
      {
        "AFHMILFFDIB": 8,
        "AHMDOLFPJBE": 90404
      },
      {
        "AFHMILFFDIB": 9,
        "AHMDOLFPJBE": 98896
      },
      {
        "AFHMILFFDIB": 10,
        "AHMDOLFPJBE": 118914
      },
      {
        "AFHMILFFDIB": 11,
        "AHMDOLFPJBE": 118914
      },
      {
        "AFHMILFFDIB": 12,
        "AHMDOLFPJBE": 118914
      },
      {
        "AFHMILFFDIB": 13,
        "AHMDOLFPJBE": 118914
      },
      {
        "AFHMILFFDIB": 14,
        "AHMDOLFPJBE": 118914
      }
    ]
  },
  "6205": {
    "HeliobusSpecialPostID": 6205,
    "SubMissionID": 801515705,
    "PostImgIDList": [
      6205
    ],
    "TemplateIDList": [
      620501,
      620502,
      620503
    ],
    "Likes": [
      {
        "AHMDOLFPJBE": 26939
      },
      {
        "AFHMILFFDIB": 1,
        "AHMDOLFPJBE": 30404
      },
      {
        "AFHMILFFDIB": 2,
        "AHMDOLFPJBE": 33733
      },
      {
        "AFHMILFFDIB": 3,
        "AHMDOLFPJBE": 64450
      },
      {
        "AFHMILFFDIB": 4,
        "AHMDOLFPJBE": 74692
      },
      {
        "AFHMILFFDIB": 5,
        "AHMDOLFPJBE": 82605
      },
      {
        "AFHMILFFDIB": 6,
        "AHMDOLFPJBE": 90700
      },
      {
        "AFHMILFFDIB": 7,
        "AHMDOLFPJBE": 107997
      },
      {
        "AFHMILFFDIB": 8,
        "AHMDOLFPJBE": 107997
      },
      {
        "AFHMILFFDIB": 9,
        "AHMDOLFPJBE": 107997
      },
      {
        "AFHMILFFDIB": 10,
        "AHMDOLFPJBE": 107997
      },
      {
        "AFHMILFFDIB": 11,
        "AHMDOLFPJBE": 107997
      },
      {
        "AFHMILFFDIB": 12,
        "AHMDOLFPJBE": 107997
      },
      {
        "AFHMILFFDIB": 13,
        "AHMDOLFPJBE": 107997
      },
      {
        "AFHMILFFDIB": 14,
        "AHMDOLFPJBE": 107997
      }
    ]
  },
  "6206": {
    "HeliobusSpecialPostID": 6206,
    "SubMissionID": 801516112,
    "PostImgIDList": [
      6206
    ],
    "TemplateIDList": [
      620601,
      620602,
      620603
    ],
    "Likes": [
      {
        "AHMDOLFPJBE": 25615
      },
      {
        "AFHMILFFDIB": 1,
        "AHMDOLFPJBE": 29245
      },
      {
        "AFHMILFFDIB": 2,
        "AHMDOLFPJBE": 32770
      },
      {
        "AFHMILFFDIB": 3,
        "AHMDOLFPJBE": 63158
      },
      {
        "AFHMILFFDIB": 4,
        "AHMDOLFPJBE": 72915
      },
      {
        "AFHMILFFDIB": 5,
        "AHMDOLFPJBE": 81900
      },
      {
        "AFHMILFFDIB": 6,
        "AHMDOLFPJBE": 91012
      },
      {
        "AFHMILFFDIB": 7,
        "AHMDOLFPJBE": 108915
      },
      {
        "AFHMILFFDIB": 8,
        "AHMDOLFPJBE": 108915
      },
      {
        "AFHMILFFDIB": 9,
        "AHMDOLFPJBE": 108915
      },
      {
        "AFHMILFFDIB": 10,
        "AHMDOLFPJBE": 108915
      },
      {
        "AFHMILFFDIB": 11,
        "AHMDOLFPJBE": 108915
      },
      {
        "AFHMILFFDIB": 12,
        "AHMDOLFPJBE": 108915
      },
      {
        "AFHMILFFDIB": 13,
        "AHMDOLFPJBE": 108915
      },
      {
        "AFHMILFFDIB": 14,
        "AHMDOLFPJBE": 108915
      }
    ]
  },
  "6207": {
    "HeliobusSpecialPostID": 6207,
    "SubMissionID": 801516324,
    "PostImgIDList": [
      6207
    ],
    "TemplateIDList": [
      620701,
      620702,
      620703
    ],
    "Likes": [
      {
        "AHMDOLFPJBE": 69767
      },
      {
        "AFHMILFFDIB": 1,
        "AHMDOLFPJBE": 76936
      },
      {
        "AFHMILFFDIB": 2,
        "AHMDOLFPJBE": 84233
      },
      {
        "AFHMILFFDIB": 3,
        "AHMDOLFPJBE": 99944
      },
      {
        "AFHMILFFDIB": 4,
        "AHMDOLFPJBE": 99944
      },
      {
        "AFHMILFFDIB": 5,
        "AHMDOLFPJBE": 99944
      },
      {
        "AFHMILFFDIB": 6,
        "AHMDOLFPJBE": 99944
      },
      {
        "AFHMILFFDIB": 7,
        "AHMDOLFPJBE": 99944
      },
      {
        "AFHMILFFDIB": 8,
        "AHMDOLFPJBE": 99944
      },
      {
        "AFHMILFFDIB": 9,
        "AHMDOLFPJBE": 99944
      },
      {
        "AFHMILFFDIB": 10,
        "AHMDOLFPJBE": 99944
      },
      {
        "AFHMILFFDIB": 11,
        "AHMDOLFPJBE": 99944
      },
      {
        "AFHMILFFDIB": 12,
        "AHMDOLFPJBE": 99944
      },
      {
        "AFHMILFFDIB": 13,
        "AHMDOLFPJBE": 99944
      },
      {
        "AFHMILFFDIB": 14,
        "AHMDOLFPJBE": 99944
      }
    ]
  },
  "6204": {
    "HeliobusSpecialPostID": 6204,
    "SubMissionID": 801515506,
    "PostImgIDList": [
      6204
    ],
    "TemplateIDList": [
      620401,
      620402,
      620403
    ],
    "Likes": [
      {
        "AHMDOLFPJBE": 73312
      },
      {
        "AFHMILFFDIB": 1,
        "AHMDOLFPJBE": 76936
      },
      {
        "AFHMILFFDIB": 2,
        "AHMDOLFPJBE": 84233
      },
      {
        "AFHMILFFDIB": 3,
        "AHMDOLFPJBE": 99944
      },
      {
        "AFHMILFFDIB": 4,
        "AHMDOLFPJBE": 99944
      },
      {
        "AFHMILFFDIB": 5,
        "AHMDOLFPJBE": 99944
      },
      {
        "AFHMILFFDIB": 6,
        "AHMDOLFPJBE": 99944
      },
      {
        "AFHMILFFDIB": 7,
        "AHMDOLFPJBE": 99944
      },
      {
        "AFHMILFFDIB": 8,
        "AHMDOLFPJBE": 99944
      },
      {
        "AFHMILFFDIB": 9,
        "AHMDOLFPJBE": 99944
      },
      {
        "AFHMILFFDIB": 10,
        "AHMDOLFPJBE": 99944
      },
      {
        "AFHMILFFDIB": 11,
        "AHMDOLFPJBE": 99944
      },
      {
        "AFHMILFFDIB": 12,
        "AHMDOLFPJBE": 99944
      },
      {
        "AFHMILFFDIB": 13,
        "AHMDOLFPJBE": 99944
      },
      {
        "AFHMILFFDIB": 14,
        "AHMDOLFPJBE": 99944
      }
    ]
  },
  "6209": {
    "HeliobusSpecialPostID": 6209,
    "SubMissionID": 801515313,
    "PostImgIDList": [
      6203
    ],
    "TemplateIDList": [
      620301,
      620302,
      620303
    ],
    "Likes": [
      {
        "AHMDOLFPJBE": 5826
      },
      {
        "AFHMILFFDIB": 1,
        "AHMDOLFPJBE": 7290
      },
      {
        "AFHMILFFDIB": 2,
        "AHMDOLFPJBE": 18461
      },
      {
        "AFHMILFFDIB": 3,
        "AHMDOLFPJBE": 22888
      },
      {
        "AFHMILFFDIB": 4,
        "AHMDOLFPJBE": 25767
      },
      {
        "AFHMILFFDIB": 5,
        "AHMDOLFPJBE": 28439
      },
      {
        "AFHMILFFDIB": 6,
        "AHMDOLFPJBE": 53770
      },
      {
        "AFHMILFFDIB": 7,
        "AHMDOLFPJBE": 61941
      },
      {
        "AFHMILFFDIB": 8,
        "AHMDOLFPJBE": 68755
      },
      {
        "AFHMILFFDIB": 9,
        "AHMDOLFPJBE": 75712
      },
      {
        "AFHMILFFDIB": 10,
        "AHMDOLFPJBE": 90617
      },
      {
        "AFHMILFFDIB": 11,
        "AHMDOLFPJBE": 90617
      },
      {
        "AFHMILFFDIB": 12,
        "AHMDOLFPJBE": 90617
      },
      {
        "AFHMILFFDIB": 13,
        "AHMDOLFPJBE": 90617
      },
      {
        "AFHMILFFDIB": 14,
        "AHMDOLFPJBE": 90617
      }
    ]
  },
  "6701": {
    "HeliobusSpecialPostID": 6701,
    "SubMissionID": 801517103,
    "PostImgIDList": [
      6701
    ],
    "TemplateIDList": [
      670101
    ],
    "Likes": [
      {
        "AHMDOLFPJBE": 30535
      },
      {
        "AFHMILFFDIB": 1,
        "AHMDOLFPJBE": 34061
      },
      {
        "AFHMILFFDIB": 2,
        "AHMDOLFPJBE": 38152
      },
      {
        "AFHMILFFDIB": 3,
        "AHMDOLFPJBE": 72009
      },
      {
        "AFHMILFFDIB": 4,
        "AHMDOLFPJBE": 83407
      },
      {
        "AFHMILFFDIB": 5,
        "AHMDOLFPJBE": 92443
      },
      {
        "AFHMILFFDIB": 6,
        "AHMDOLFPJBE": 102306
      },
      {
        "AFHMILFFDIB": 7,
        "AHMDOLFPJBE": 122540
      },
      {
        "AFHMILFFDIB": 8,
        "AHMDOLFPJBE": 122540
      },
      {
        "AFHMILFFDIB": 9,
        "AHMDOLFPJBE": 122540
      },
      {
        "AFHMILFFDIB": 10,
        "AHMDOLFPJBE": 122540
      },
      {
        "AFHMILFFDIB": 11,
        "AHMDOLFPJBE": 122540
      },
      {
        "AFHMILFFDIB": 12,
        "AHMDOLFPJBE": 122540
      },
      {
        "AFHMILFFDIB": 13,
        "AHMDOLFPJBE": 122540
      },
      {
        "AFHMILFFDIB": 14,
        "AHMDOLFPJBE": 122540
      }
    ]
  },
  "6702": {
    "HeliobusSpecialPostID": 6702,
    "SubMissionID": 801517208,
    "PostImgIDList": [
      6702
    ],
    "TemplateIDList": [
      670201
    ],
    "Likes": [
      {
        "AHMDOLFPJBE": 133056
      },
      {
        "AFHMILFFDIB": 1,
        "AHMDOLFPJBE": 133056
      },
      {
        "AFHMILFFDIB": 2,
        "AHMDOLFPJBE": 133056
      },
      {
        "AFHMILFFDIB": 3,
        "AHMDOLFPJBE": 133056
      },
      {
        "AFHMILFFDIB": 4,
        "AHMDOLFPJBE": 133056
      },
      {
        "AFHMILFFDIB": 5,
        "AHMDOLFPJBE": 133056
      },
      {
        "AFHMILFFDIB": 6,
        "AHMDOLFPJBE": 133056
      },
      {
        "AFHMILFFDIB": 7,
        "AHMDOLFPJBE": 133056
      },
      {
        "AFHMILFFDIB": 8,
        "AHMDOLFPJBE": 133056
      },
      {
        "AFHMILFFDIB": 9,
        "AHMDOLFPJBE": 133056
      },
      {
        "AFHMILFFDIB": 10,
        "AHMDOLFPJBE": 133056
      },
      {
        "AFHMILFFDIB": 11,
        "AHMDOLFPJBE": 133056
      },
      {
        "AFHMILFFDIB": 12,
        "AHMDOLFPJBE": 133056
      },
      {
        "AFHMILFFDIB": 13,
        "AHMDOLFPJBE": 133056
      },
      {
        "AFHMILFFDIB": 14,
        "AHMDOLFPJBE": 133056
      }
    ]
  },
  "6703": {
    "HeliobusSpecialPostID": 6703,
    "SubMissionID": 801517309,
    "PostImgIDList": [
      6703
    ],
    "TemplateIDList": [
      670301
    ],
    "Likes": [
      {
        "AHMDOLFPJBE": 67364
      },
      {
        "AFHMILFFDIB": 1,
        "AHMDOLFPJBE": 74489
      },
      {
        "AFHMILFFDIB": 2,
        "AHMDOLFPJBE": 82333
      },
      {
        "AFHMILFFDIB": 3,
        "AHMDOLFPJBE": 97951
      },
      {
        "AFHMILFFDIB": 4,
        "AHMDOLFPJBE": 97951
      },
      {
        "AFHMILFFDIB": 5,
        "AHMDOLFPJBE": 97951
      },
      {
        "AFHMILFFDIB": 6,
        "AHMDOLFPJBE": 97951
      },
      {
        "AFHMILFFDIB": 7,
        "AHMDOLFPJBE": 97951
      },
      {
        "AFHMILFFDIB": 8,
        "AHMDOLFPJBE": 97951
      },
      {
        "AFHMILFFDIB": 9,
        "AHMDOLFPJBE": 97951
      },
      {
        "AFHMILFFDIB": 10,
        "AHMDOLFPJBE": 97951
      },
      {
        "AFHMILFFDIB": 11,
        "AHMDOLFPJBE": 97951
      },
      {
        "AFHMILFFDIB": 12,
        "AHMDOLFPJBE": 97951
      },
      {
        "AFHMILFFDIB": 13,
        "AHMDOLFPJBE": 97951
      },
      {
        "AFHMILFFDIB": 14,
        "AHMDOLFPJBE": 97951
      }
    ]
  }
}