{
  "1": {
    "ID": 1,
    "Title": "InfoText_WorldLevel_Title",
    "Desc": "InfoText_WorldLevel_Text",
    "Desc_Os": {
      "Hash": 1865159202
    }
  },
  "2": {
    "ID": 2,
    "Title": "InfoText_ChallengeMaze_Title",
    "Desc": "InfoText_ChallengeMaze_Text",
    "Desc_Os": {
      "Hash": 16869822
    }
  },
  "3": {
    "ID": 3,
    "Title": "InfoText_ItemCompose_Title",
    "Desc": "InfoText_ItemCompose_Text",
    "Desc_Os": {
      "Hash": 553775607
    }
  },
  "4": {
    "ID": 4,
    "Title": "InfoText_Character_Title",
    "Desc": "InfoText_Character_Text",
    "Desc_Os": {
      "Hash": 736270743
    }
  },
  "5": {
    "ID": 5,
    "Title": "InfoText_SkillTree_Title",
    "Desc": "InfoText_SkillTree_Text",
    "Desc_Os": {
      "Hash": 1618684185
    }
  },
  "6": {
    "ID": 6,
    "Title": "InfoText_LightCone_Title",
    "Desc": "InfoText_LightCone_Text",
    "Desc_Os": {
      "Hash": -1469612489
    }
  },
  "7": {
    "ID": 7,
    "Title": "InfoText_DailyRecord_Title",
    "Desc": "InfoText_DailyRecord_Text",
    "Desc_Os": {
      "Hash": -358100344
    }
  },
  "8": {
    "ID": 8,
    "Title": "InfoText_Mission_Title",
    "Desc": "InfoText_Mission_Text",
    "Desc_Os": {
      "Hash": -1748919486
    }
  },
  "9": {
    "ID": 9,
    "Title": "InfoText_Map_Title",
    "Desc": "InfoText_Map_Text",
    "Desc_Os": {
      "Hash": 1276862826
    }
  },
  "10": {
    "ID": 10,
    "Title": "InfoText_Cocoon_Title",
    "Desc": "InfoText_Cocoon_Text",
    "Desc_Os": {
      "Hash": 448247263
    }
  },
  "11": {
    "ID": 11,
    "Title": "InfoText_Mail_Title",
    "Desc": "InfoText_Mail_Text",
    "Desc_Os": {
      "Hash": 1824070099
    }
  },
  "12": {
    "ID": 12,
    "Title": "InfoText_Rogue_Title",
    "Desc": "InfoText_Rogue_Text1",
    "Desc_Os": {
      "Hash": -986869243
    }
  },
  "13": {
    "ID": 13,
    "Title": "InfoText_HeroPaths_Title",
    "Desc": "InfoText_HeroPaths_Text",
    "Desc_Os": {
      "Hash": 437654712
    }
  },
  "14": {
    "ID": 14,
    "Title": "InfoText_Prestige_Title",
    "Desc": "InfoText_Prestige_Text",
    "Desc_Os": {
      "Hash": 320981545
    }
  },
  "15": {
    "ID": 15,
    "Title": "InfoText_Cocoon2_Title",
    "Desc": "InfoText_Cocoon2_Text",
    "Desc_Os": {
      "Hash": 163013197
    }
  },
  "16": {
    "ID": 16,
    "Title": "InfoText_FarmElement_Title",
    "Desc": "InfoText_FarmElement_Text",
    "Desc_Os": {
      "Hash": -592790944
    }
  },
  "17": {
    "ID": 17,
    "Title": "InfoText_FarmRelic_Title",
    "Desc": "InfoText_FarmRelic_Text",
    "Desc_Os": {
      "Hash": -1765857721
    }
  },
  "18": {
    "ID": 18,
    "Title": "InfoText_HealPool_Title",
    "Desc": "InfoText_HealPool_Text",
    "Desc_Os": {
      "Hash": 393203616
    }
  },
  "19": {
    "ID": 19,
    "Title": "InfoText_RogueGacha_Title",
    "Desc": "InfoText_RogueGacha_Text",
    "Desc_Os": {
      "Hash": 1753388692
    }
  },
  "20": {
    "ID": 20,
    "Title": "InfoText_ChallengeMaze_Theme1_Title",
    "Desc": "InfoText_ChallengeMaze_Theme1_Text",
    "Desc_Os": {
      "Hash": 2095803157
    }
  },
  "21": {
    "ID": 21,
    "Title": "InfoText_Rogue_Title",
    "Desc": "InfoText_Rogue_Text1",
    "Desc_Os": {
      "Hash": -986869243
    }
  },
  "22": {
    "ID": 22,
    "Title": "InfoText_Rogue_Title",
    "Desc": "InfoText_Rogue_Text1",
    "Desc_Os": {
      "Hash": -986869243
    }
  },
  "23": {
    "ID": 23,
    "Title": "InfoText_RogueAppraisal_Title",
    "Desc": "InfoText_RogueAppraisal_Text",
    "Desc_Os": {
      "Hash": -60335867
    }
  },
  "24": {
    "ID": 24,
    "Title": "InfoText_Achievement_Title",
    "Desc": "InfoText_Achievement_Text",
    "Desc_Os": {
      "Hash": -342923411
    }
  },
  "25": {
    "ID": 25,
    "Title": "InfoText_Expedition_Title",
    "Desc": "InfoText_Expedition_Text",
    "Desc_Os": {
      "Hash": 278879611
    }
  },
  "26": {
    "ID": 26,
    "Title": "InfoText_PhoneMessage_Title",
    "Desc": "InfoText_PhoneMessage_Text",
    "Desc_Os": {
      "Hash": 1836359705
    }
  },
  "27": {
    "ID": 27,
    "Title": "InfoText_PhoneNotifications_Title",
    "Desc": "InfoText_PhoneNotifications_Text",
    "Desc_Os": {
      "Hash": 1704366124
    }
  },
  "28": {
    "ID": 28,
    "Title": "InfoText_HandbookGuide_Title",
    "Desc": "InfoText_HandbookGuide_Text",
    "Desc_Os": {
      "Hash": 2137024804
    }
  },
  "29": {
    "ID": 29,
    "Title": "UIText_AvatarPath_LabelName",
    "Desc": "InfoText_HeroPaths_Text",
    "Desc_Os": {
      "Hash": 437654712
    }
  },
  "30": {
    "ID": 30,
    "Title": "InfoText_RogueImmerse_Title",
    "Desc": "InfoText_RogueImmerse_Text",
    "Desc_Os": {
      "Hash": -336181972
    }
  },
  "31": {
    "ID": 31,
    "Title": "UIText_QuestOverviewtDialog_Intro",
    "Desc": "ActivityPanel_IntroDesc_30002",
    "Desc_Os": {
      "Hash": 1812127381
    }
  },
  "32": {
    "ID": 32,
    "Title": "InfoText_MonthlyCard_Title",
    "Desc": "InfoText_MonthlyCard_Desc",
    "Desc_Os": {
      "Hash": 1704711846
    }
  },
  "33": {
    "ID": 33,
    "Title": "InfoText_Battlepass_Title",
    "Desc": "InfoText_Battlepass_Desc",
    "Desc_Os": {
      "Hash": -392156126
    }
  },
  "34": {
    "ID": 34,
    "Title": "InfoText_Handbook1_Title",
    "Desc": "InfoText_Handbook1_Desc",
    "Desc_Os": {
      "Hash": -1999393607
    }
  },
  "35": {
    "ID": 35,
    "Title": "InfoText_Handbook2_Title",
    "Desc": "InfoText_Handbook2_Desc",
    "Desc_Os": {
      "Hash": 607238568
    }
  },
  "36": {
    "ID": 36,
    "Title": "InfoText_Handbook3_Title",
    "Desc": "InfoText_Handbook3_Desc",
    "Desc_Os": {
      "Hash": 132115331
    }
  },
  "37": {
    "ID": 37,
    "Title": "InfoText_Handbook4_Title",
    "Desc": "InfoText_Handbook4_Desc",
    "Desc_Os": {
      "Hash": -70689422
    }
  },
  "38": {
    "ID": 38,
    "Title": "InfoText_Handbook5_Title",
    "Desc": "InfoText_Handbook5_Desc",
    "Desc_Os": {
      "Hash": 1971292749
    }
  },
  "39": {
    "ID": 39,
    "Title": "InfoText_Assistance_Title",
    "Desc": "InfoText_Assistance_Desc",
    "Desc_Os": {
      "Hash": -125734538
    }
  },
  "40": {
    "ID": 40,
    "Title": "InfoText_RogueScore_Title",
    "Desc": "InfoText_RogueScore_Text",
    "Desc_Os": {
      "Hash": 1886418392
    }
  },
  "41": {
    "ID": 41,
    "Title": "InfoText_RogueRelicBox_Title",
    "Desc": "InfoText_RogueRelicBox_Text",
    "Desc_Os": {
      "Hash": 1632342618
    }
  },
  "42": {
    "ID": 42,
    "Title": "InfoText_RogueScoreReward_Title",
    "Desc": "InfoText_RogueScoreReward_Text",
    "Desc_Os": {
      "Hash": -609629577
    }
  },
  "43": {
    "ID": 43,
    "Title": "InfoText_Handbook6_Title",
    "Desc": "InfoText_Handbook6_Desc",
    "Desc_Os": {
      "Hash": 282957628
    }
  },
  "44": {
    "ID": 44,
    "Title": "InfoText_Handbook7_Title",
    "Desc": "InfoText_Handbook7_Desc",
    "Desc_Os": {
      "Hash": -192165609
    }
  },
  "45": {
    "ID": 45,
    "Title": "InfoText_RelicSell_Title",
    "Desc": "InfoText_RelicSell_Desc",
    "Desc_Os": {
      "Hash": -963709087
    }
  },
  "46": {
    "ID": 46,
    "Title": "InfoText_EquipmentSell_Title",
    "Desc": "InfoText_EquipmentSell_Desc",
    "Desc_Os": {
      "Hash": 1134830694
    }
  },
  "47": {
    "ID": 47,
    "Title": "InfoText_Rogue_Aeon_Title",
    "Desc": "InfoText_Rogue_Aeon_Desc",
    "Desc_Os": {
      "Hash": -1299593958
    }
  },
  "48": {
    "ID": 48,
    "Title": "InfoText_WorldLevel_Title",
    "Desc": "InfoText_WorldLevel_Only_Text",
    "Desc_Os": {
      "Hash": -732913583
    }
  },
  "49": {
    "ID": 49,
    "Title": "InfoText_SilverWolf_Title",
    "Desc": "InfoText_SilverWolf_Text",
    "Desc_Os": {
      "Hash": -1350841645
    }
  },
  "50": {
    "ID": 50,
    "Title": "InfoText_Raid_Title",
    "Desc": "InfoText_Raid_Text",
    "Desc_Os": {
      "Hash": 1021081104
    }
  },
  "51": {
    "ID": 51,
    "Title": "InfoText_RogueMonsterDrop_Title",
    "Desc": "InfoText_RogueMonsterDrop_Desc",
    "Desc_Os": {
      "Hash": 1366414745
    }
  },
  "53": {
    "ID": 53,
    "Title": "InfoText_TreasureDungeon_Title",
    "Desc": "InfoText_TreasureDungeon_Desc",
    "Desc_Os": {
      "Hash": -1193966499
    }
  },
  "54": {
    "ID": 54,
    "Title": "InfoText_ActivityExpedition_Title",
    "Desc": "InfoText_ActivityExpedition_Desc",
    "Desc_Os": {
      "Hash": -362290884
    }
  },
  "55": {
    "ID": 55,
    "Title": "UIText_TreasureDungeon_Prepare_Attribute",
    "Desc": "InfoText_TreasureDungeonAttribute_Desc",
    "Desc_Os": {
      "Hash": 188218973
    }
  },
  "56": {
    "ID": 56,
    "Title": "InfoText_ChallengeMaze_Activity_Title",
    "Desc": "InfoText_ChallengeMaze_Activity_Desc",
    "Desc_Os": {
      "Hash": 1948886524
    }
  },
  "57": {
    "ID": 57,
    "Title": "InfoText_Museum_Title",
    "Desc": "InfoText_Museum_Text",
    "Desc_Os": {
      "Hash": 1306470456
    }
  },
  "58": {
    "ID": 58,
    "Title": "UIText_TreasureDungeon_Stage_ExploreValue",
    "Desc": "InfoText_TreasureDungeonExploreValue_Desc",
    "Desc_Os": {
      "Hash": 232564935
    }
  },
  "59": {
    "ID": 59,
    "Title": "InfoText_Resident_Title",
    "Desc": "InfoText_Resident_Desc",
    "Desc_Os": {
      "Hash": 1843248950
    }
  },
  "60": {
    "ID": 60,
    "Title": "UIText_ItemSell_IntroTitle",
    "Desc": "UIText_ItemSell_Destroy_Desc",
    "Desc_Os": {
      "Hash": 94089126
    }
  },
  "61": {
    "ID": 61,
    "Title": "InfoText_AvatarDemo_New_Title",
    "Desc": "InfoText_AvatarDemo_New_Desc",
    "Desc_Os": {
      "Hash": 527254435
    }
  },
  "62": {
    "ID": 62,
    "Title": "InfoText_ReserveStamina_Title",
    "Desc": "InfoText_ReserveStamina_Desc",
    "Desc_Os": {
      "Hash": 935686627
    }
  },
  "63": {
    "ID": 63,
    "Title": "InfoText_TreasureDungeon_Title",
    "Desc": "ActivityPanel_IntroDesc_50004",
    "Desc_Os": {
      "Hash": 1812120853
    }
  },
  "64": {
    "ID": 64,
    "Title": "UIText_Debute_Trust",
    "Desc": "UIText_Debute_TrustInfo",
    "Desc_Os": {
      "Hash": -848933992
    }
  },
  "65": {
    "ID": 65,
    "Title": "InfoText_QuickConsumable_Title",
    "Desc": "InfoText_QuickConsumable_Title_Desc",
    "Desc_Os": {
      "Hash": 1554548195
    }
  },
  "66": {
    "ID": 66,
    "Title": "InfoText_RogueDLC_MonsterDrop_Title",
    "Desc": "InfoText_RogueDLC_RogueMonsterDrop_Desc",
    "Desc_Os": {
      "Hash": -553979413
    }
  },
  "67": {
    "ID": 67,
    "Title": "InfoText_RogueDLC_Main_Title",
    "Desc": "InfoText_RogueDLC_Main_Desc",
    "Desc_Os": {
      "Hash": 945238687
    }
  },
  "68": {
    "ID": 68,
    "Title": "InfoText_RogueEndless_Main_Title",
    "Desc": "InfoText_RogueEndless_Main_Desc",
    "Desc_Os": {
      "Hash": -1340154904
    }
  },
  "69": {
    "ID": 69,
    "Title": "InfoText_RogueNous_Main_Title",
    "Desc": "InfoText_RogueNous_Main_Desc",
    "Desc_Os": {
      "Hash": -161277869
    }
  },
  "70": {
    "ID": 70,
    "Title": "InfoText_RogueDLC_Total_Title",
    "Desc": "InfoText_RogueDLC_Total_Desc",
    "Desc_Os": {
      "Hash": 915065796
    }
  },
  "71": {
    "ID": 71,
    "Title": "InfoText_ChallengeStory_Title",
    "Desc": "InfoText_ChallengeStory_Desc",
    "Desc_Os": {
      "Hash": 1629233368
    }
  },
  "72": {
    "ID": 72,
    "Title": "InfoText_RecentUpdateChallenge_Title",
    "Desc": "InfoText_RecentUpdateChallenge_Desc",
    "Desc_Os": {
      "Hash": -2095291913
    }
  },
  "73": {
    "ID": 73,
    "Title": "InfoText_RogueNous_NousValue_Title",
    "Desc": "InfoText_RogueNous_NousValue_Desc",
    "Desc_Os": {
      "Hash": 1171470440
    }
  },
  "74": {
    "ID": 74,
    "Title": "InfoText_RogueNous_MonsterDrop_Title",
    "Desc": "InfoText_RogueNous_MonsterDrop_Desc",
    "Desc_Os": {
      "Hash": 1603654233
    }
  },
  "75": {
    "ID": 75,
    "Title": "InfoText_Handbook_limit_Title",
    "Desc": "InfoText_Handbook_limit_Desc",
    "Desc_Os": {
      "Hash": 1025369842
    }
  },
  "76": {
    "ID": 76,
    "Title": "InfoText_Friend_Mark_Title",
    "Desc": "InfoText_Friend_Mark_Desc",
    "Desc_Os": {
      "Hash": 170990490
    }
  },
  "77": {
    "ID": 77,
    "Title": "InfoText_RollShop_Dream_Title",
    "Desc": "InfoText_RollShop_Dream_Desc",
    "Desc_Os": {
      "Hash": 1310639683
    }
  },
  "78": {
    "ID": 78,
    "Title": "InfoText_RollShop_Turntable_Title",
    "Desc": "InfoText_RollShop_Turntable_Desc",
    "Desc_Os": {
      "Hash": -26556765
    }
  },
  "79": {
    "ID": 79,
    "Title": "InfoText_RollShop_Gacha_Title",
    "Desc": "InfoText_RollShop_Gacha_Desc",
    "Desc_Os": {
      "Hash": 714778760
    }
  },
  "80": {
    "ID": 80,
    "Title": "InfoText_ActivityTelevision_Battle_Title",
    "Desc": "InfoText_ActivityTelevision_Battle_Desc",
    "Desc_Os": {
      "Hash": 899915798
    }
  },
  "83": {
    "ID": 83,
    "Title": "InfoText_Monopoly_Game_Title",
    "Desc": "InfoText_Monopoly_Game_GachaA_Desc",
    "Desc_Os": {
      "Hash": 354813030
    }
  },
  "84": {
    "ID": 84,
    "Title": "InfoText_Monopoly_Game_Title",
    "Desc": "InfoText_Monopoly_Game_GachaB_Desc",
    "Desc_Os": {
      "Hash": 354807591
    }
  },
  "85": {
    "ID": 85,
    "Title": "InfoText_Monopoly_Game_Title",
    "Desc": "InfoText_Monopoly_Game_GachaC_Desc",
    "Desc_Os": {
      "Hash": 354806632
    }
  },
  "86": {
    "ID": 86,
    "Title": "InfoText_Monopoly_Game_Title",
    "Desc": "InfoText_Monopoly_Game_BingoA_Desc",
    "Desc_Os": {
      "Hash": -559798759
    }
  },
  "87": {
    "ID": 87,
    "Title": "InfoText_Monopoly_Game_Title",
    "Desc": "InfoText_Monopoly_Game_BingoB_Desc",
    "Desc_Os": {
      "Hash": -559797544
    }
  },
  "88": {
    "ID": 88,
    "Title": "InfoText_Monopoly_Game_Title",
    "Desc": "InfoText_Monopoly_Game_BingoC_Desc",
    "Desc_Os": {
      "Hash": -559800809
    }
  },
  "89": {
    "ID": 89,
    "Title": "InfoText_Monopoly_Raffle_Title",
    "Desc": "UIText_ActivityMonopoly_Buff_Info",
    "Desc_Os": {
      "Hash": -912449725
    }
  },
  "90": {
    "ID": 90,
    "Title": "InfoText_ExpeditionAboutBoothill_Title",
    "Desc": "InfoText_ExpeditionAboutBoothill_Desc",
    "Desc_Os": {
      "Hash": -1283678455
    }
  },
  "91": {
    "ID": 91,
    "Title": "ActivityPanel_TitleName_50008",
    "Desc": "ActivityPanel_IntroDesc_50008",
    "Desc_Os": {
      "Hash": 1812120857
    }
  },
  "95": {
    "ID": 95,
    "Title": "ActivityPanel_TitleName_50012",
    "Desc": "ActivityPanel_IntroDesc_50012",
    "Desc_Os": {
      "Hash": -916762504
    }
  },
  "96": {
    "ID": 96,
    "Title": "ActivityPanel_TitleName_50011",
    "Desc": "ActivityPanel_IntroDesc_50011",
    "Desc_Os": {
      "Hash": -916762507
    }
  }
}