{
  "Mission": {
    "DOPOFGKJBNI": "Mission",
    "GEEJPHAPOIB": "NotNormal"
  },
  "Equipment": {
    "DOPOFGKJBNI": "Equipment",
    "GEEJPHAPOIB": "Rare"
  },
  "Relic": {
    "DOPOFGKJBNI": "Relic",
    "GEEJPHAPOIB": "VeryRare"
  },
  "HeadIcon": {
    "DOPOFGKJBNI": "HeadIcon",
    "GEEJPHAPOIB": "NotNormal"
  },
  "MusicAlbum": {
    "DOPOFGKJBNI": "MusicAlbum",
    "GEEJPHAPOIB": "Rare"
  },
  "ChatBubble": {
    "DOPOFGKJBNI": "ChatBubble",
    "GEEJPHAPOIB": "VeryRare"
  },
  "PhoneTheme": {
    "DOPOFGKJBNI": "PhoneTheme",
    "GEEJPHAPOIB": "VeryRare"
  }
}