{
  "400004": {
    "UseDataID": 400004,
    "ConsumeType": 4,
    "ConsumeTag": [
      "HP"
    ],
    "UseTargetType": "Alive",
    "MazeBuffID": 400004,
    "MazeBuffParam": [],
    "MazeBuffParam2": [],
    "UseMultipleMax": 1,
    "IsCheckHP": true,
    "UseEffect": "AvatarItemIcon_Eff_Heal",
    "PreviewHPRecoveryPercent": 0.15,
    "PreviewHPRecoveryValue": 150,
    "IsShowItemDesc": true,
    "ActivityCount": 1
  },
  "400005": {
    "UseDataID": 400005,
    "ConsumeType": 5,
    "ConsumeTag": [
      "HP",
      "BP"
    ],
    "MazeBuffID": 400005,
    "MazeBuffParam": [],
    "MazeBuffID2": 409001,
    "MazeBuffParam2": [],
    "UseMultipleMax": 1,
    "UseEffect": "AvatarItemIcon_Eff_SkillPoints",
    "PreviewHPRecoveryPercent": -0.15,
    "PreviewSkillPoint": 2,
    "IsShowItemDesc": true,
    "ActivityCount": 1
  },
  "400006": {
    "UseDataID": 400006,
    "ConsumeType": 5,
    "ConsumeTag": [
      "BP"
    ],
    "MazeBuffID": 400006,
    "MazeBuffParam": [],
    "MazeBuffParam2": [],
    "UseMultipleMax": 1,
    "UseEffect": "AvatarItemIcon_Eff_SkillPoints",
    "PreviewSkillPoint": 2,
    "IsShowItemDesc": true,
    "ActivityCount": 1
  },
  "400007": {
    "UseDataID": 400007,
    "ConsumeType": 4,
    "ConsumeTag": [
      "HP"
    ],
    "UseTargetType": "Dead",
    "MazeBuffID": 400007,
    "MazeBuffParam": [],
    "MazeBuffParam2": [],
    "UseMultipleMax": 1,
    "UseEffect": "AvatarItemIcon_Eff_Heal",
    "PreviewHPRecoveryPercent": 0.05,
    "IsShowItemDesc": true,
    "ActivityCount": 1
  },
  "401003": {
    "UseDataID": 401003,
    "ConsumeType": 4,
    "ConsumeTag": [
      "HP"
    ],
    "UseTargetType": "Alive",
    "MazeBuffID": 401003,
    "MazeBuffParam": [],
    "MazeBuffParam2": [],
    "UseMultipleMax": 1,
    "IsCheckHP": true,
    "UseEffect": "AvatarItemIcon_Eff_Heal",
    "PreviewHPRecoveryPercent": 0.24,
    "PreviewHPRecoveryValue": 300,
    "IsShowItemDesc": true,
    "ActivityCount": 1
  },
  "401004": {
    "UseDataID": 401004,
    "ConsumeType": 1,
    "ConsumeTag": [
      "HP"
    ],
    "MazeBuffID": 401004,
    "MazeBuffParam": [],
    "MazeBuffID2": 409001,
    "MazeBuffParam2": [],
    "UseMultipleMax": 1,
    "UseEffect": "AvatarItemIcon_Eff_AtkUp",
    "PreviewHPRecoveryPercent": -0.15,
    "IsShowItemDesc": true,
    "ActivityCount": 1
  },
  "401005": {
    "UseDataID": 401005,
    "ConsumeType": 5,
    "ConsumeTag": [
      "HP",
      "BP"
    ],
    "MazeBuffID": 401005,
    "MazeBuffParam": [],
    "MazeBuffID2": 409001,
    "MazeBuffParam2": [],
    "UseMultipleMax": 1,
    "UseEffect": "AvatarItemIcon_Eff_SkillPoints",
    "PreviewHPRecoveryPercent": -0.15,
    "PreviewSkillPoint": 4,
    "IsShowItemDesc": true,
    "ActivityCount": 1
  },
  "401006": {
    "UseDataID": 401006,
    "ConsumeType": 5,
    "ConsumeTag": [
      "SP"
    ],
    "UseTargetType": "Alive",
    "MazeBuffID": 401006,
    "MazeBuffParam": [],
    "MazeBuffParam2": [],
    "UseMultipleMax": 1,
    "UseEffect": "AvatarItemIcon_Eff_MpGet",
    "PreviewPowerPercent": 0.3,
    "IsShowItemDesc": true,
    "ActivityCount": 1
  },
  "401007": {
    "UseDataID": 401007,
    "ConsumeType": 4,
    "ConsumeTag": [
      "HP"
    ],
    "UseTargetType": "Dead",
    "MazeBuffID": 401007,
    "MazeBuffParam": [],
    "MazeBuffParam2": [],
    "UseMultipleMax": 1,
    "UseEffect": "AvatarItemIcon_Eff_Heal",
    "PreviewHPRecoveryPercent": 0.1,
    "IsShowItemDesc": true,
    "ActivityCount": 1
  },
  "401008": {
    "UseDataID": 401008,
    "ConsumeType": 2,
    "ConsumeTag": [],
    "MazeBuffID": 401008,
    "MazeBuffParam": [],
    "MazeBuffParam2": [],
    "UseMultipleMax": 1,
    "UseEffect": "AvatarItemIcon_Eff_DefUp",
    "IsShowItemDesc": true,
    "ActivityCount": 1
  },
  "401009": {
    "UseDataID": 401009,
    "ConsumeType": 2,
    "ConsumeTag": [],
    "MazeBuffID": 401009,
    "MazeBuffParam": [],
    "MazeBuffParam2": [],
    "UseMultipleMax": 1,
    "UseEffect": "AvatarItemIcon_Eff_DefUp",
    "IsShowItemDesc": true,
    "ActivityCount": 1
  },
  "401010": {
    "UseDataID": 401010,
    "ConsumeType": 2,
    "ConsumeTag": [],
    "MazeBuffID": 401010,
    "MazeBuffParam": [],
    "MazeBuffParam2": [],
    "UseMultipleMax": 1,
    "UseEffect": "AvatarItemIcon_Eff_DefUp",
    "IsShowItemDesc": true,
    "ActivityCount": 1
  },
  "401011": {
    "UseDataID": 401011,
    "ConsumeType": 3,
    "ConsumeTag": [],
    "MazeBuffID": 401011,
    "MazeBuffParam": [],
    "MazeBuffParam2": [],
    "UseMultipleMax": 1,
    "UseEffect": "AvatarItemIcon_Eff_Common",
    "IsShowItemDesc": true,
    "ActivityCount": 1
  },
  "401012": {
    "UseDataID": 401012,
    "ConsumeType": 4,
    "ConsumeTag": [
      "HP"
    ],
    "UseTargetType": "Alive",
    "MazeBuffID": 401012,
    "MazeBuffParam": [],
    "MazeBuffParam2": [],
    "UseMultipleMax": 1,
    "IsCheckHP": true,
    "UseEffect": "AvatarItemIcon_Eff_Heal",
    "PreviewHPRecoveryPercent": 0.28,
    "PreviewHPRecoveryValue": 250,
    "IsShowItemDesc": true,
    "ActivityCount": 1
  },
  "401013": {
    "UseDataID": 401013,
    "ConsumeType": 1,
    "ConsumeTag": [],
    "MazeBuffID": 401013,
    "MazeBuffParam": [],
    "MazeBuffParam2": [],
    "UseMultipleMax": 1,
    "UseEffect": "AvatarItemIcon_Eff_AtkUp",
    "IsShowItemDesc": true,
    "ActivityCount": 1
  },
  "402001": {
    "UseDataID": 402001,
    "ConsumeType": 4,
    "ConsumeTag": [
      "HP"
    ],
    "UseTargetType": "Alive",
    "MazeBuffID": 402001,
    "MazeBuffParam": [],
    "MazeBuffParam2": [],
    "UseMultipleMax": 1,
    "IsCheckHP": true,
    "UseEffect": "AvatarItemIcon_Eff_Heal",
    "PreviewHPRecoveryPercent": 0.38,
    "PreviewHPRecoveryValue": 400,
    "IsShowItemDesc": true,
    "ActivityCount": 1
  },
  "402002": {
    "UseDataID": 402002,
    "ConsumeType": 2,
    "ConsumeTag": [],
    "MazeBuffID": 402002,
    "MazeBuffParam": [],
    "MazeBuffParam2": [],
    "UseMultipleMax": 1,
    "UseEffect": "AvatarItemIcon_Eff_DefUp",
    "IsShowItemDesc": true,
    "ActivityCount": 1
  },
  "402003": {
    "UseDataID": 402003,
    "ConsumeType": 5,
    "ConsumeTag": [
      "SP"
    ],
    "UseTargetType": "Alive",
    "MazeBuffID": 402003,
    "MazeBuffParam": [],
    "MazeBuffParam2": [],
    "UseMultipleMax": 1,
    "UseEffect": "AvatarItemIcon_Eff_MpGet",
    "PreviewPowerPercent": 0.5,
    "IsShowItemDesc": true,
    "ActivityCount": 1
  },
  "402004": {
    "UseDataID": 402004,
    "ConsumeType": 1,
    "ConsumeTag": [],
    "MazeBuffID": 402004,
    "MazeBuffParam": [],
    "MazeBuffParam2": [],
    "UseMultipleMax": 1,
    "UseEffect": "AvatarItemIcon_Eff_AtkUp",
    "IsShowItemDesc": true,
    "ActivityCount": 1
  },
  "402005": {
    "UseDataID": 402005,
    "ConsumeType": 2,
    "ConsumeTag": [],
    "MazeBuffID": 402005,
    "MazeBuffParam": [],
    "MazeBuffParam2": [],
    "UseMultipleMax": 1,
    "UseEffect": "AvatarItemIcon_Eff_DefUp",
    "IsShowItemDesc": true,
    "ActivityCount": 1
  },
  "402006": {
    "UseDataID": 402006,
    "ConsumeType": 2,
    "ConsumeTag": [],
    "MazeBuffID": 402006,
    "MazeBuffParam": [],
    "MazeBuffID2": 409001,
    "MazeBuffParam2": [],
    "UseMultipleMax": 1,
    "UseEffect": "AvatarItemIcon_Eff_DefUp",
    "IsShowItemDesc": true,
    "ActivityCount": 1
  },
  "402007": {
    "UseDataID": 402007,
    "ConsumeType": 2,
    "ConsumeTag": [],
    "MazeBuffID": 402007,
    "MazeBuffParam": [],
    "MazeBuffParam2": [],
    "UseMultipleMax": 1,
    "UseEffect": "AvatarItemIcon_Eff_DefUp",
    "IsShowItemDesc": true,
    "ActivityCount": 1
  },
  "402008": {
    "UseDataID": 402008,
    "ConsumeType": 1,
    "ConsumeTag": [],
    "MazeBuffID": 402008,
    "MazeBuffParam": [],
    "MazeBuffParam2": [],
    "UseMultipleMax": 1,
    "UseEffect": "AvatarItemIcon_Eff_AtkUp",
    "IsShowItemDesc": true,
    "ActivityCount": 1
  },
  "402009": {
    "UseDataID": 402009,
    "ConsumeType": 1,
    "ConsumeTag": [],
    "MazeBuffID": 402009,
    "MazeBuffParam": [],
    "MazeBuffParam2": [],
    "UseMultipleMax": 1,
    "UseEffect": "AvatarItemIcon_Eff_AtkUp",
    "IsShowItemDesc": true,
    "ActivityCount": 1
  },
  "402010": {
    "UseDataID": 402010,
    "ConsumeType": 1,
    "ConsumeTag": [],
    "MazeBuffID": 402010,
    "MazeBuffParam": [],
    "MazeBuffParam2": [],
    "UseMultipleMax": 1,
    "UseEffect": "AvatarItemIcon_Eff_AtkUp",
    "IsShowItemDesc": true,
    "ActivityCount": 1
  },
  "402011": {
    "UseDataID": 402011,
    "ConsumeType": 1,
    "ConsumeTag": [],
    "MazeBuffID": 402011,
    "MazeBuffParam": [],
    "MazeBuffParam2": [],
    "UseMultipleMax": 1,
    "UseEffect": "AvatarItemIcon_Eff_AtkUp",
    "IsShowItemDesc": true,
    "ActivityCount": 1
  },
  "402012": {
    "UseDataID": 402012,
    "ConsumeType": 1,
    "ConsumeTag": [],
    "MazeBuffID": 402012,
    "MazeBuffParam": [],
    "MazeBuffParam2": [],
    "UseMultipleMax": 1,
    "UseEffect": "AvatarItemIcon_Eff_AtkUp",
    "IsShowItemDesc": true,
    "ActivityCount": 1
  },
  "402013": {
    "UseDataID": 402013,
    "ConsumeType": 1,
    "ConsumeTag": [],
    "MazeBuffID": 402013,
    "MazeBuffParam": [],
    "MazeBuffParam2": [],
    "UseMultipleMax": 1,
    "UseEffect": "AvatarItemIcon_Eff_AtkUp",
    "IsShowItemDesc": true,
    "ActivityCount": 1
  },
  "402014": {
    "UseDataID": 402014,
    "ConsumeType": 1,
    "ConsumeTag": [],
    "MazeBuffID": 402014,
    "MazeBuffParam": [],
    "MazeBuffParam2": [],
    "UseMultipleMax": 1,
    "UseEffect": "AvatarItemIcon_Eff_AtkUp",
    "IsShowItemDesc": true,
    "ActivityCount": 1
  },
  "402015": {
    "UseDataID": 402015,
    "ConsumeType": 1,
    "ConsumeTag": [],
    "MazeBuffID": 402015,
    "MazeBuffParam": [],
    "MazeBuffParam2": [],
    "UseMultipleMax": 1,
    "UseEffect": "AvatarItemIcon_Eff_AtkUp",
    "IsShowItemDesc": true,
    "ActivityCount": 1
  },
  "402016": {
    "UseDataID": 402016,
    "ConsumeType": 3,
    "ConsumeTag": [],
    "UseTargetType": "Alive",
    "MazeBuffID": 402016,
    "MazeBuffParam": [],
    "MazeBuffParam2": [],
    "UseMultipleMax": 1,
    "UseEffect": "AvatarItemIcon_Eff_Hurt",
    "PreviewHPRecoveryPercent": -0.99,
    "IsShowItemDesc": true,
    "ActivityCount": 1
  },
  "402017": {
    "UseDataID": 402017,
    "ConsumeType": 5,
    "ConsumeTag": [
      "SP"
    ],
    "UseTargetType": "Alive",
    "MazeBuffID": 402017,
    "MazeBuffParam": [],
    "MazeBuffParam2": [],
    "UseMultipleMax": 1,
    "UseEffect": "AvatarItemIcon_Eff_MpGet",
    "PreviewPowerPercent": 0.5,
    "IsShowItemDesc": true,
    "ActivityCount": 1
  },
  "403001": {
    "UseDataID": 403001,
    "ConsumeType": 1,
    "ConsumeTag": [],
    "MazeBuffID": 403001,
    "MazeBuffParam": [],
    "MazeBuffParam2": [],
    "UseMultipleMax": 1,
    "UseEffect": "AvatarItemIcon_Eff_AtkUp",
    "IsShowItemDesc": true,
    "ActivityCount": 1
  },
  "403002": {
    "UseDataID": 403002,
    "ConsumeType": 1,
    "ConsumeTag": [],
    "MazeBuffID": 403002,
    "MazeBuffParam": [],
    "MazeBuffParam2": [],
    "UseMultipleMax": 1,
    "UseEffect": "AvatarItemIcon_Eff_AtkUp",
    "IsShowItemDesc": true,
    "ActivityCount": 1
  },
  "403003": {
    "UseDataID": 403003,
    "ConsumeType": 1,
    "ConsumeTag": [],
    "MazeBuffID": 403003,
    "MazeBuffParam": [],
    "MazeBuffParam2": [],
    "UseMultipleMax": 1,
    "UseEffect": "AvatarItemIcon_Eff_AtkUp",
    "IsShowItemDesc": true,
    "ActivityCount": 1
  },
  "403004": {
    "UseDataID": 403004,
    "ConsumeType": 2,
    "ConsumeTag": [],
    "MazeBuffID": 403004,
    "MazeBuffParam": [],
    "MazeBuffParam2": [],
    "UseMultipleMax": 1,
    "UseEffect": "AvatarItemIcon_Eff_DefUp",
    "IsShowItemDesc": true,
    "ActivityCount": 1
  },
  "403005": {
    "UseDataID": 403005,
    "ConsumeType": 1,
    "ConsumeTag": [],
    "MazeBuffID": 403005,
    "MazeBuffParam": [],
    "MazeBuffParam2": [],
    "UseMultipleMax": 1,
    "UseEffect": "AvatarItemIcon_Eff_AtkUp",
    "IsShowItemDesc": true,
    "ActivityCount": 3
  },
  "403006": {
    "UseDataID": 403006,
    "ConsumeType": 2,
    "ConsumeTag": [],
    "MazeBuffID": 403006,
    "MazeBuffParam": [],
    "MazeBuffParam2": [],
    "UseMultipleMax": 1,
    "UseEffect": "AvatarItemIcon_Eff_DefUp",
    "IsShowItemDesc": true,
    "ActivityCount": 3
  },
  "408001": {
    "UseDataID": 408001,
    "ConsumeType": 3,
    "ConsumeTag": [],
    "UseTargetType": "Alive",
    "MazeBuffID": 408001,
    "MazeBuffParam": [],
    "MazeBuffParam2": [],
    "UseMultipleMax": 1,
    "UseEffect": "AvatarItemIcon_Eff_Hurt",
    "PreviewHPRecoveryPercent": -0.15,
    "IsShowItemDesc": true,
    "ActivityCount": 1
  },
  "408002": {
    "UseDataID": 408002,
    "ConsumeType": 5,
    "ConsumeTag": [
      "BP"
    ],
    "MazeBuffID": 408002,
    "MazeBuffParam": [],
    "MazeBuffParam2": [],
    "UseMultipleMax": 1,
    "UseEffect": "AvatarItemIcon_Eff_SkillPoints",
    "PreviewSkillPoint": 4,
    "IsShowItemDesc": true,
    "ActivityCount": 1
  },
  "408003": {
    "UseDataID": 408003,
    "ConsumeType": 2,
    "ConsumeTag": [],
    "MazeBuffID": 408003,
    "MazeBuffParam": [],
    "MazeBuffParam2": [],
    "UseMultipleMax": 1,
    "UseEffect": "AvatarItemIcon_Eff_DefUp",
    "IsShowItemDesc": true,
    "ActivityCount": 1
  },
  "408004": {
    "UseDataID": 408004,
    "ConsumeType": 4,
    "ConsumeTag": [
      "HP"
    ],
    "UseTargetType": "Alive",
    "MazeBuffID": 408004,
    "MazeBuffParam": [],
    "MazeBuffParam2": [],
    "UseMultipleMax": 1,
    "IsCheckHP": true,
    "UseEffect": "AvatarItemIcon_Eff_Heal",
    "PreviewHPRecoveryPercent": 1,
    "IsShowItemDesc": true,
    "ActivityCount": 1
  },
  "408005": {
    "UseDataID": 408005,
    "ConsumeType": 1,
    "ConsumeTag": [],
    "MazeBuffID": 408005,
    "MazeBuffParam": [],
    "MazeBuffParam2": [],
    "UseMultipleMax": 1,
    "UseEffect": "AvatarItemIcon_Eff_AtkUp",
    "IsShowItemDesc": true,
    "ActivityCount": 1
  },
  "408201": {
    "UseDataID": 408201,
    "ConsumeType": 4,
    "ConsumeTag": [
      "HP"
    ],
    "UseTargetType": "Alive",
    "MazeBuffID": 408201,
    "MazeBuffParam": [],
    "MazeBuffParam2": [],
    "UseMultipleMax": 1,
    "IsCheckHP": true,
    "UseEffect": "AvatarItemIcon_Eff_Heal",
    "PreviewHPRecoveryPercent": 0.2,
    "IsShowItemDesc": true,
    "ActivityCount": 1
  },
  "408202": {
    "UseDataID": 408202,
    "ConsumeType": 4,
    "ConsumeTag": [
      "HP"
    ],
    "UseTargetType": "Alive",
    "MazeBuffID": 408202,
    "MazeBuffParam": [],
    "MazeBuffParam2": [],
    "UseMultipleMax": 1,
    "IsCheckHP": true,
    "UseEffect": "AvatarItemIcon_Eff_Heal",
    "PreviewHPRecoveryPercent": 0.15,
    "PreviewHPRecoveryValue": 150,
    "IsShowItemDesc": true,
    "ActivityCount": 1
  },
  "408203": {
    "UseDataID": 408203,
    "ConsumeType": 4,
    "ConsumeTag": [
      "HP"
    ],
    "UseTargetType": "Alive",
    "MazeBuffID": 408203,
    "MazeBuffParam": [],
    "MazeBuffParam2": [],
    "UseMultipleMax": 1,
    "IsCheckHP": true,
    "UseEffect": "AvatarItemIcon_Eff_Heal",
    "PreviewHPRecoveryPercent": 0.15,
    "PreviewHPRecoveryValue": 150,
    "IsShowItemDesc": true,
    "ActivityCount": 1
  },
  "408401": {
    "UseDataID": 408401,
    "ConsumeType": 1,
    "ConsumeTag": [],
    "MazeBuffID": 408401,
    "MazeBuffParam": [],
    "MazeBuffParam2": [],
    "UseMultipleMax": 1,
    "UseEffect": "AvatarItemIcon_Eff_AtkUp",
    "IsShowItemDesc": true,
    "ActivityCount": 1
  },
  "408402": {
    "UseDataID": 408402,
    "ConsumeType": 5,
    "ConsumeTag": [
      "BP"
    ],
    "MazeBuffID": 408402,
    "MazeBuffParam": [],
    "MazeBuffID2": 409001,
    "MazeBuffParam2": [],
    "UseMultipleMax": 1,
    "UseEffect": "AvatarItemIcon_Eff_SkillPoints",
    "PreviewHPRecoveryPercent": -0.15,
    "PreviewSkillPoint": 4,
    "IsShowItemDesc": true,
    "ActivityCount": 1
  },
  "408403": {
    "UseDataID": 408403,
    "ConsumeType": 1,
    "ConsumeTag": [
      "HP"
    ],
    "MazeBuffID": 408403,
    "MazeBuffParam": [],
    "MazeBuffID2": 409001,
    "MazeBuffParam2": [],
    "UseMultipleMax": 1,
    "UseEffect": "AvatarItemIcon_Eff_AtkUp",
    "PreviewHPRecoveryPercent": -0.15,
    "IsShowItemDesc": true,
    "ActivityCount": 1
  },
  "408404": {
    "UseDataID": 408404,
    "ConsumeType": 5,
    "ConsumeTag": [
      "BP"
    ],
    "MazeBuffID": 408404,
    "MazeBuffParam": [],
    "MazeBuffParam2": [],
    "UseMultipleMax": 1,
    "UseEffect": "AvatarItemIcon_Eff_SkillPoints",
    "PreviewSkillPoint": 3,
    "IsShowItemDesc": true,
    "ActivityCount": 1
  },
  "408405": {
    "UseDataID": 408405,
    "ConsumeType": 1,
    "ConsumeTag": [],
    "MazeBuffID": 408405,
    "MazeBuffParam": [],
    "MazeBuffParam2": [],
    "UseMultipleMax": 1,
    "UseEffect": "AvatarItemIcon_Eff_AtkUp",
    "IsShowItemDesc": true,
    "ActivityCount": 1
  },
  "408406": {
    "UseDataID": 408406,
    "ConsumeType": 5,
    "ConsumeTag": [
      "SP"
    ],
    "UseTargetType": "Alive",
    "MazeBuffID": 408406,
    "MazeBuffParam": [],
    "MazeBuffParam2": [],
    "UseMultipleMax": 1,
    "UseEffect": "AvatarItemIcon_Eff_Heal",
    "PreviewPowerPercent": 0.3,
    "IsShowItemDesc": true,
    "ActivityCount": 1
  },
  "408407": {
    "UseDataID": 408407,
    "ConsumeType": 5,
    "ConsumeTag": [
      "SP"
    ],
    "UseTargetType": "Alive",
    "MazeBuffID": 408407,
    "MazeBuffParam": [],
    "MazeBuffParam2": [],
    "UseMultipleMax": 1,
    "UseEffect": "AvatarItemIcon_Eff_Heal",
    "PreviewPowerPercent": 0.3,
    "IsShowItemDesc": true,
    "ActivityCount": 1
  },
  "408408": {
    "UseDataID": 408408,
    "ConsumeType": 4,
    "ConsumeTag": [
      "HP"
    ],
    "UseTargetType": "Dead",
    "MazeBuffID": 408408,
    "MazeBuffParam": [],
    "MazeBuffParam2": [],
    "UseMultipleMax": 1,
    "UseEffect": "AvatarItemIcon_Eff_Heal",
    "PreviewHPRecoveryPercent": 0.1,
    "IsShowItemDesc": true,
    "ActivityCount": 1
  },
  "408601": {
    "UseDataID": 408601,
    "ConsumeType": 5,
    "ConsumeTag": [
      "SP"
    ],
    "UseTargetType": "Alive",
    "MazeBuffID": 408601,
    "MazeBuffParam": [],
    "MazeBuffParam2": [],
    "UseMultipleMax": 1,
    "UseEffect": "AvatarItemIcon_Eff_Heal",
    "PreviewPowerPercent": 0.5,
    "IsShowItemDesc": true,
    "ActivityCount": 1
  },
  "408602": {
    "UseDataID": 408602,
    "ConsumeType": 4,
    "ConsumeTag": [
      "HP"
    ],
    "UseTargetType": "Dead",
    "MazeBuffID": 408602,
    "MazeBuffParam": [],
    "MazeBuffParam2": [],
    "UseMultipleMax": 1,
    "UseEffect": "AvatarItemIcon_Eff_Heal",
    "PreviewHPRecoveryPercent": 0.3,
    "IsShowItemDesc": true,
    "ActivityCount": 1
  },
  "408603": {
    "UseDataID": 408603,
    "ConsumeType": 1,
    "ConsumeTag": [],
    "MazeBuffID": 408603,
    "MazeBuffParam": [],
    "MazeBuffParam2": [],
    "UseMultipleMax": 1,
    "UseEffect": "AvatarItemIcon_Eff_AtkUp",
    "IsShowItemDesc": true,
    "ActivityCount": 1
  },
  "408604": {
    "UseDataID": 408604,
    "ConsumeType": 5,
    "ConsumeTag": [
      "BP"
    ],
    "MazeBuffID": 408604,
    "MazeBuffParam": [],
    "MazeBuffParam2": [],
    "UseMultipleMax": 1,
    "UseEffect": "AvatarItemIcon_Eff_SkillPoints",
    "PreviewSkillPoint": 2,
    "IsShowItemDesc": true,
    "ActivityCount": 1
  },
  "140278": {
    "UseDataID": 140278,
    "ConsumeType": 4,
    "ConsumeTag": [
      "HP"
    ],
    "UseTargetType": "Alive",
    "MazeBuffID": 409003,
    "MazeBuffParam": [],
    "MazeBuffParam2": [],
    "UseMultipleMax": 1,
    "IsCheckHP": true,
    "UseEffect": "AvatarItemIcon_Eff_Heal",
    "PreviewHPRecoveryPercent": 0.36,
    "PreviewHPRecoveryValue": 460,
    "IsShowItemDesc": true,
    "ActivityCount": 1
  },
  "140279": {
    "UseDataID": 140279,
    "ConsumeType": 5,
    "ConsumeTag": [
      "BP"
    ],
    "MazeBuffID": 409004,
    "MazeBuffParam": [],
    "MazeBuffParam2": [],
    "UseMultipleMax": 1,
    "UseEffect": "AvatarItemIcon_Eff_SkillPoints",
    "PreviewSkillPoint": 4,
    "IsShowItemDesc": true,
    "ActivityCount": 1
  },
  "400008": {
    "UseDataID": 400008,
    "ConsumeType": 5,
    "ConsumeTag": [
      "HP",
      "BP"
    ],
    "MazeBuffID": 400008,
    "MazeBuffParam": [],
    "MazeBuffID2": 409001,
    "MazeBuffParam2": [],
    "UseMultipleMax": 1,
    "UseEffect": "AvatarItemIcon_Eff_SkillPoints",
    "PreviewHPRecoveryPercent": -0.15,
    "PreviewSkillPoint": 2,
    "IsShowItemDesc": true,
    "ActivityCount": 1
  },
  "401014": {
    "UseDataID": 401014,
    "ConsumeType": 1,
    "ConsumeTag": [],
    "MazeBuffID": 401014,
    "MazeBuffParam": [],
    "MazeBuffParam2": [],
    "UseMultipleMax": 1,
    "UseEffect": "AvatarItemIcon_Eff_AtkUp",
    "IsShowItemDesc": true,
    "ActivityCount": 1
  },
  "401015": {
    "UseDataID": 401015,
    "ConsumeType": 2,
    "ConsumeTag": [
      "HP"
    ],
    "MazeBuffID": 401015,
    "MazeBuffParam": [],
    "MazeBuffID2": 409005,
    "MazeBuffParam2": [],
    "UseMultipleMax": 1,
    "UseEffect": "AvatarItemIcon_Eff_DefUp",
    "PreviewHPRecoveryPercent": -0.05,
    "IsShowItemDesc": true,
    "ActivityCount": 1
  },
  "401016": {
    "UseDataID": 401016,
    "ConsumeType": 1,
    "ConsumeTag": [],
    "MazeBuffID": 401016,
    "MazeBuffParam": [],
    "MazeBuffParam2": [],
    "UseMultipleMax": 1,
    "UseEffect": "AvatarItemIcon_Eff_AtkUp",
    "IsShowItemDesc": true,
    "ActivityCount": 1
  },
  "402018": {
    "UseDataID": 402018,
    "ConsumeType": 2,
    "ConsumeTag": [],
    "MazeBuffID": 402018,
    "MazeBuffParam": [],
    "MazeBuffParam2": [],
    "UseMultipleMax": 1,
    "UseEffect": "AvatarItemIcon_Eff_DefUp",
    "IsShowItemDesc": true,
    "ActivityCount": 1
  },
  "402019": {
    "UseDataID": 402019,
    "ConsumeType": 2,
    "ConsumeTag": [],
    "MazeBuffID": 402019,
    "MazeBuffParam": [],
    "MazeBuffParam2": [],
    "UseMultipleMax": 1,
    "UseEffect": "AvatarItemIcon_Eff_DefUp",
    "IsShowItemDesc": true,
    "ActivityCount": 1
  },
  "402020": {
    "UseDataID": 402020,
    "ConsumeType": 1,
    "ConsumeTag": [
      "HP"
    ],
    "MazeBuffID": 402020,
    "MazeBuffParam": [],
    "MazeBuffID2": 409005,
    "MazeBuffParam2": [],
    "UseMultipleMax": 1,
    "UseEffect": "AvatarItemIcon_Eff_AtkUp",
    "PreviewHPRecoveryPercent": -0.05,
    "IsShowItemDesc": true,
    "ActivityCount": 1
  },
  "402021": {
    "UseDataID": 402021,
    "ConsumeType": 2,
    "ConsumeTag": [],
    "MazeBuffID": 402021,
    "MazeBuffParam": [],
    "MazeBuffParam2": [],
    "UseMultipleMax": 1,
    "UseEffect": "AvatarItemIcon_Eff_DefUp",
    "IsShowItemDesc": true,
    "ActivityCount": 1
  },
  "402022": {
    "UseDataID": 402022,
    "ConsumeType": 2,
    "ConsumeTag": [],
    "MazeBuffID": 402022,
    "MazeBuffParam": [],
    "MazeBuffParam2": [],
    "UseMultipleMax": 1,
    "UseEffect": "AvatarItemIcon_Eff_DefUp",
    "IsShowItemDesc": true,
    "ActivityCount": 1
  },
  "402023": {
    "UseDataID": 402023,
    "ConsumeType": 1,
    "ConsumeTag": [],
    "MazeBuffID": 402023,
    "MazeBuffParam": [],
    "MazeBuffParam2": [],
    "UseMultipleMax": 1,
    "UseEffect": "AvatarItemIcon_Eff_AtkUp",
    "IsShowItemDesc": true,
    "ActivityCount": 1
  },
  "403007": {
    "UseDataID": 403007,
    "ConsumeType": 1,
    "ConsumeTag": [],
    "MazeBuffID": 403007,
    "MazeBuffParam": [],
    "MazeBuffParam2": [],
    "UseMultipleMax": 1,
    "UseEffect": "AvatarItemIcon_Eff_AtkUp",
    "IsShowItemDesc": true,
    "ActivityCount": 1
  },
  "403008": {
    "UseDataID": 403008,
    "ConsumeType": 1,
    "ConsumeTag": [],
    "MazeBuffID": 403008,
    "MazeBuffParam": [],
    "MazeBuffParam2": [],
    "UseMultipleMax": 1,
    "UseEffect": "AvatarItemIcon_Eff_AtkUp",
    "IsShowItemDesc": true,
    "ActivityCount": 1
  },
  "408204": {
    "UseDataID": 408204,
    "ConsumeType": 2,
    "ConsumeTag": [],
    "MazeBuffID": 408204,
    "MazeBuffParam": [],
    "MazeBuffParam2": [],
    "UseMultipleMax": 1,
    "UseEffect": "AvatarItemIcon_Eff_DefUp",
    "IsShowItemDesc": true,
    "ActivityCount": 1
  },
  "408205": {
    "UseDataID": 408205,
    "ConsumeType": 5,
    "ConsumeTag": [
      "BP"
    ],
    "MazeBuffID": 408205,
    "MazeBuffParam": [],
    "MazeBuffParam2": [],
    "UseMultipleMax": 1,
    "UseEffect": "AvatarItemIcon_Eff_SkillPoints",
    "PreviewSkillPoint": 2,
    "IsShowItemDesc": true,
    "ActivityCount": 1
  },
  "408206": {
    "UseDataID": 408206,
    "ConsumeType": 4,
    "ConsumeTag": [
      "HP"
    ],
    "UseTargetType": "Alive",
    "MazeBuffID": 408206,
    "MazeBuffParam": [],
    "MazeBuffParam2": [],
    "UseMultipleMax": 1,
    "IsCheckHP": true,
    "UseEffect": "AvatarItemIcon_Eff_Heal",
    "PreviewHPRecoveryValue": 10,
    "IsShowItemDesc": true,
    "ActivityCount": 1
  },
  "408207": {
    "UseDataID": 408207,
    "ConsumeType": 4,
    "ConsumeTag": [
      "HP"
    ],
    "UseTargetType": "Alive",
    "MazeBuffID": 408207,
    "MazeBuffParam": [],
    "MazeBuffParam2": [],
    "UseMultipleMax": 1,
    "IsCheckHP": true,
    "UseEffect": "AvatarItemIcon_Eff_Heal",
    "PreviewHPRecoveryValue": 1,
    "IsShowItemDesc": true,
    "ActivityCount": 1
  },
  "408409": {
    "UseDataID": 408409,
    "ConsumeType": 2,
    "ConsumeTag": [],
    "MazeBuffID": 408409,
    "MazeBuffParam": [],
    "MazeBuffParam2": [],
    "UseMultipleMax": 1,
    "UseEffect": "AvatarItemIcon_Eff_DefUp",
    "IsShowItemDesc": true,
    "ActivityCount": 1
  },
  "408605": {
    "UseDataID": 408605,
    "ConsumeType": 5,
    "ConsumeTag": [
      "BP"
    ],
    "MazeBuffID": 408605,
    "MazeBuffParam": [],
    "MazeBuffParam2": [],
    "UseMultipleMax": 1,
    "UseEffect": "AvatarItemIcon_Eff_SkillPoints",
    "PreviewSkillPoint": 4,
    "IsShowItemDesc": true,
    "ActivityCount": 1
  },
  "408606": {
    "UseDataID": 408606,
    "ConsumeType": 5,
    "ConsumeTag": [
      "SP"
    ],
    "UseTargetType": "Alive",
    "MazeBuffID": 408606,
    "MazeBuffParam": [],
    "MazeBuffParam2": [],
    "UseMultipleMax": 1,
    "UseEffect": "AvatarItemIcon_Eff_MpGet",
    "PreviewPowerPercent": 0.5,
    "IsShowItemDesc": true,
    "ActivityCount": 1
  },
  "401017": {
    "UseDataID": 401017,
    "ConsumeType": 1,
    "ConsumeTag": [],
    "MazeBuffID": 401017,
    "MazeBuffParam": [],
    "MazeBuffParam2": [],
    "UseMultipleMax": 1,
    "UseEffect": "AvatarItemIcon_Eff_AtkUp",
    "IsShowItemDesc": true,
    "ActivityCount": 1
  },
  "401018": {
    "UseDataID": 401018,
    "ConsumeType": 2,
    "ConsumeTag": [
      "HP"
    ],
    "MazeBuffID": 401018,
    "MazeBuffParam": [],
    "MazeBuffID2": 409005,
    "MazeBuffParam2": [],
    "UseMultipleMax": 1,
    "UseEffect": "AvatarItemIcon_Eff_DefUp",
    "PreviewHPRecoveryPercent": -0.05,
    "IsShowItemDesc": true,
    "ActivityCount": 1
  },
  "402024": {
    "UseDataID": 402024,
    "ConsumeType": 4,
    "ConsumeTag": [
      "HP"
    ],
    "UseTargetType": "Alive",
    "MazeBuffID": 402024,
    "MazeBuffParam": [],
    "MazeBuffParam2": [],
    "UseMultipleMax": 1,
    "IsCheckHP": true,
    "UseEffect": "AvatarItemIcon_Eff_Heal",
    "PreviewHPRecoveryPercent": 0.4,
    "PreviewHPRecoveryValue": 320,
    "IsShowItemDesc": true,
    "ActivityCount": 1
  },
  "408410": {
    "UseDataID": 408410,
    "ConsumeType": 2,
    "ConsumeTag": [],
    "MazeBuffID": 408410,
    "MazeBuffParam": [],
    "MazeBuffParam2": [],
    "UseMultipleMax": 1,
    "UseEffect": "AvatarItemIcon_Eff_DefUp",
    "IsShowItemDesc": true,
    "ActivityCount": 1
  },
  "408411": {
    "UseDataID": 408411,
    "ConsumeType": 1,
    "ConsumeTag": [],
    "MazeBuffID": 408411,
    "MazeBuffParam": [],
    "MazeBuffParam2": [],
    "UseMultipleMax": 1,
    "UseEffect": "AvatarItemIcon_Eff_AtkUp",
    "IsShowItemDesc": true,
    "ActivityCount": 1
  },
  "408412": {
    "UseDataID": 408412,
    "ConsumeType": 5,
    "ConsumeTag": [
      "BP"
    ],
    "MazeBuffID": 408412,
    "MazeBuffParam": [],
    "MazeBuffParam2": [],
    "UseMultipleMax": 1,
    "UseEffect": "AvatarItemIcon_Eff_SkillPoints",
    "PreviewSkillPoint": 3,
    "IsShowItemDesc": true,
    "ActivityCount": 1
  },
  "408413": {
    "UseDataID": 408413,
    "ConsumeType": 5,
    "ConsumeTag": [
      "SP"
    ],
    "UseTargetType": "Alive",
    "MazeBuffID": 408413,
    "MazeBuffParam": [],
    "MazeBuffParam2": [],
    "UseMultipleMax": 1,
    "UseEffect": "AvatarItemIcon_Eff_MpGet",
    "PreviewPowerPercent": 0.3,
    "IsShowItemDesc": true,
    "ActivityCount": 1
  },
  "408414": {
    "UseDataID": 408414,
    "ConsumeType": 2,
    "ConsumeTag": [],
    "MazeBuffID": 408414,
    "MazeBuffParam": [],
    "MazeBuffParam2": [],
    "UseMultipleMax": 1,
    "UseEffect": "AvatarItemIcon_Eff_DefUp",
    "IsShowItemDesc": true,
    "ActivityCount": 1
  },
  "408607": {
    "UseDataID": 408607,
    "ConsumeType": 2,
    "ConsumeTag": [],
    "MazeBuffID": 408607,
    "MazeBuffParam": [],
    "MazeBuffParam2": [],
    "UseMultipleMax": 1,
    "UseEffect": "AvatarItemIcon_Eff_DefUp",
    "IsShowItemDesc": true,
    "ActivityCount": 1
  },
  "408608": {
    "UseDataID": 408608,
    "ConsumeType": 4,
    "ConsumeTag": [
      "HP"
    ],
    "UseTargetType": "Alive",
    "MazeBuffID": 408608,
    "MazeBuffParam": [],
    "MazeBuffParam2": [],
    "UseMultipleMax": 1,
    "IsCheckHP": true,
    "UseEffect": "AvatarItemIcon_Eff_Heal",
    "PreviewHPRecoveryPercent": 0.45,
    "IsShowItemDesc": true,
    "ActivityCount": 1
  },
  "401019": {
    "UseDataID": 401019,
    "ConsumeType": 5,
    "ConsumeTag": [
      "SP"
    ],
    "UseTargetType": "Alive",
    "MazeBuffID": 401019,
    "MazeBuffParam": [],
    "MazeBuffParam2": [],
    "UseMultipleMax": 1,
    "UseEffect": "AvatarItemIcon_Eff_MpGet",
    "PreviewPowerPercent": 0.3,
    "IsShowItemDesc": true,
    "ActivityCount": 1
  },
  "401020": {
    "UseDataID": 401020,
    "ConsumeType": 1,
    "ConsumeTag": [],
    "MazeBuffID": 401020,
    "MazeBuffParam": [],
    "MazeBuffParam2": [],
    "UseMultipleMax": 1,
    "UseEffect": "AvatarItemIcon_Eff_AtkUp",
    "IsShowItemDesc": true,
    "ActivityCount": 1
  },
  "401021": {
    "UseDataID": 401021,
    "ConsumeType": 1,
    "ConsumeTag": [],
    "MazeBuffID": 401021,
    "MazeBuffParam": [],
    "MazeBuffParam2": [],
    "UseMultipleMax": 1,
    "UseEffect": "AvatarItemIcon_Eff_AtkUp",
    "IsShowItemDesc": true,
    "ActivityCount": 1
  },
  "401022": {
    "UseDataID": 401022,
    "ConsumeType": 5,
    "ConsumeTag": [
      "SP"
    ],
    "UseTargetType": "Alive",
    "MazeBuffID": 401022,
    "MazeBuffParam": [],
    "MazeBuffParam2": [],
    "UseMultipleMax": 1,
    "UseEffect": "AvatarItemIcon_Eff_MpGet",
    "PreviewPowerPercent": 0.3,
    "IsShowItemDesc": true,
    "ActivityCount": 1
  },
  "401023": {
    "UseDataID": 401023,
    "ConsumeType": 2,
    "ConsumeTag": [],
    "MazeBuffID": 401023,
    "MazeBuffParam": [],
    "MazeBuffParam2": [],
    "UseMultipleMax": 1,
    "UseEffect": "AvatarItemIcon_Eff_DefUp",
    "IsShowItemDesc": true,
    "ActivityCount": 1
  },
  "401024": {
    "UseDataID": 401024,
    "ConsumeType": 2,
    "ConsumeTag": [],
    "MazeBuffID": 401024,
    "MazeBuffParam": [],
    "MazeBuffParam2": [],
    "UseMultipleMax": 1,
    "UseEffect": "AvatarItemIcon_Eff_DefUp",
    "IsShowItemDesc": true,
    "ActivityCount": 1
  },
  "401025": {
    "UseDataID": 401025,
    "ConsumeType": 1,
    "ConsumeTag": [],
    "MazeBuffID": 401025,
    "MazeBuffParam": [],
    "MazeBuffParam2": [],
    "UseMultipleMax": 1,
    "UseEffect": "AvatarItemIcon_Eff_AtkUp",
    "IsShowItemDesc": true,
    "ActivityCount": 1
  },
  "401026": {
    "UseDataID": 401026,
    "ConsumeType": 4,
    "ConsumeTag": [
      "HP"
    ],
    "UseTargetType": "Alive",
    "MazeBuffID": 401026,
    "MazeBuffParam": [],
    "MazeBuffParam2": [],
    "UseMultipleMax": 1,
    "IsCheckHP": true,
    "UseEffect": "AvatarItemIcon_Eff_Heal",
    "PreviewHPRecoveryPercent": 0.24,
    "PreviewHPRecoveryValue": 300,
    "IsShowItemDesc": true,
    "ActivityCount": 1
  },
  "401027": {
    "UseDataID": 401027,
    "ConsumeType": 2,
    "ConsumeTag": [],
    "MazeBuffID": 401027,
    "MazeBuffParam": [],
    "MazeBuffParam2": [],
    "UseMultipleMax": 1,
    "UseEffect": "AvatarItemIcon_Eff_DefUp",
    "IsShowItemDesc": true,
    "ActivityCount": 1
  },
  "401028": {
    "UseDataID": 401028,
    "ConsumeType": 2,
    "ConsumeTag": [],
    "MazeBuffID": 401028,
    "MazeBuffParam": [],
    "MazeBuffParam2": [],
    "UseMultipleMax": 1,
    "UseEffect": "AvatarItemIcon_Eff_DefUp",
    "IsShowItemDesc": true,
    "ActivityCount": 1
  },
  "402025": {
    "UseDataID": 402025,
    "ConsumeType": 1,
    "ConsumeTag": [],
    "MazeBuffID": 402025,
    "MazeBuffParam": [],
    "MazeBuffParam2": [],
    "UseMultipleMax": 1,
    "UseEffect": "AvatarItemIcon_Eff_AtkUp",
    "IsShowItemDesc": true,
    "ActivityCount": 1
  },
  "402026": {
    "UseDataID": 402026,
    "ConsumeType": 1,
    "ConsumeTag": [],
    "MazeBuffID": 402026,
    "MazeBuffParam": [],
    "MazeBuffParam2": [],
    "UseMultipleMax": 1,
    "UseEffect": "AvatarItemIcon_Eff_AtkUp",
    "IsShowItemDesc": true,
    "ActivityCount": 1
  },
  "402027": {
    "UseDataID": 402027,
    "ConsumeType": 4,
    "ConsumeTag": [
      "HP"
    ],
    "UseTargetType": "Alive",
    "MazeBuffID": 402027,
    "MazeBuffParam": [],
    "MazeBuffParam2": [],
    "UseMultipleMax": 1,
    "IsCheckHP": true,
    "UseEffect": "AvatarItemIcon_Eff_Heal",
    "PreviewHPRecoveryPercent": 0.4,
    "PreviewHPRecoveryValue": 320,
    "IsShowItemDesc": true,
    "ActivityCount": 1
  },
  "402028": {
    "UseDataID": 402028,
    "ConsumeType": 2,
    "ConsumeTag": [],
    "MazeBuffID": 402028,
    "MazeBuffParam": [],
    "MazeBuffParam2": [],
    "UseMultipleMax": 1,
    "UseEffect": "AvatarItemIcon_Eff_DefUp",
    "IsShowItemDesc": true,
    "ActivityCount": 1
  },
  "403009": {
    "UseDataID": 403009,
    "ConsumeType": 2,
    "ConsumeTag": [],
    "MazeBuffID": 403009,
    "MazeBuffParam": [],
    "MazeBuffParam2": [],
    "UseMultipleMax": 1,
    "UseEffect": "AvatarItemIcon_Eff_DefUp",
    "IsShowItemDesc": true,
    "ActivityCount": 1
  },
  "403010": {
    "UseDataID": 403010,
    "ConsumeType": 1,
    "ConsumeTag": [],
    "MazeBuffID": 403010,
    "MazeBuffParam": [],
    "MazeBuffParam2": [],
    "UseMultipleMax": 1,
    "UseEffect": "AvatarItemIcon_Eff_AtkUp",
    "IsShowItemDesc": true,
    "ActivityCount": 1
  },
  "408208": {
    "UseDataID": 408208,
    "ConsumeType": 4,
    "ConsumeTag": [
      "HP"
    ],
    "UseTargetType": "Alive",
    "MazeBuffID": 408208,
    "MazeBuffParam": [],
    "MazeBuffParam2": [],
    "UseMultipleMax": 1,
    "IsCheckHP": true,
    "UseEffect": "AvatarItemIcon_Eff_Heal",
    "PreviewHPRecoveryPercent": 0.15,
    "PreviewHPRecoveryValue": 150,
    "IsShowItemDesc": true,
    "ActivityCount": 1
  },
  "408415": {
    "UseDataID": 408415,
    "ConsumeType": 1,
    "ConsumeTag": [],
    "MazeBuffID": 408415,
    "MazeBuffParam": [],
    "MazeBuffParam2": [],
    "UseMultipleMax": 1,
    "UseEffect": "AvatarItemIcon_Eff_AtkUp",
    "IsShowItemDesc": true,
    "ActivityCount": 1
  },
  "408416": {
    "UseDataID": 408416,
    "ConsumeType": 4,
    "ConsumeTag": [
      "HP"
    ],
    "UseTargetType": "Alive",
    "MazeBuffID": 408416,
    "MazeBuffParam": [],
    "MazeBuffParam2": [],
    "UseMultipleMax": 1,
    "IsCheckHP": true,
    "UseEffect": "AvatarItemIcon_Eff_Heal",
    "PreviewHPRecoveryPercent": 0.24,
    "PreviewHPRecoveryValue": 300,
    "IsShowItemDesc": true,
    "ActivityCount": 1
  },
  "408417": {
    "UseDataID": 408417,
    "ConsumeType": 2,
    "ConsumeTag": [],
    "MazeBuffID": 408417,
    "MazeBuffParam": [],
    "MazeBuffParam2": [],
    "UseMultipleMax": 1,
    "UseEffect": "AvatarItemIcon_Eff_DefUp",
    "IsShowItemDesc": true,
    "ActivityCount": 1
  },
  "408418": {
    "UseDataID": 408418,
    "ConsumeType": 5,
    "ConsumeTag": [
      "BP"
    ],
    "MazeBuffID": 408418,
    "MazeBuffParam": [],
    "MazeBuffParam2": [],
    "UseMultipleMax": 1,
    "UseEffect": "AvatarItemIcon_Eff_SkillPoints",
    "PreviewSkillPoint": 3,
    "IsShowItemDesc": true,
    "ActivityCount": 1
  },
  "408609": {
    "UseDataID": 408609,
    "ConsumeType": 2,
    "ConsumeTag": [],
    "MazeBuffID": 408609,
    "MazeBuffParam": [],
    "MazeBuffParam2": [],
    "UseMultipleMax": 1,
    "UseEffect": "AvatarItemIcon_Eff_DefUp",
    "IsShowItemDesc": true,
    "ActivityCount": 1
  },
  "408610": {
    "UseDataID": 408610,
    "ConsumeType": 1,
    "ConsumeTag": [],
    "MazeBuffID": 408610,
    "MazeBuffParam": [],
    "MazeBuffParam2": [],
    "UseMultipleMax": 1,
    "UseEffect": "AvatarItemIcon_Eff_AtkUp",
    "IsShowItemDesc": true,
    "ActivityCount": 1
  },
  "408611": {
    "UseDataID": 408611,
    "ConsumeType": 1,
    "ConsumeTag": [],
    "MazeBuffID": 408611,
    "MazeBuffParam": [],
    "MazeBuffParam2": [],
    "UseMultipleMax": 1,
    "UseEffect": "AvatarItemIcon_Eff_AtkUp",
    "IsShowItemDesc": true,
    "ActivityCount": 1
  },
  "408612": {
    "UseDataID": 408612,
    "ConsumeType": 1,
    "ConsumeTag": [],
    "MazeBuffID": 408612,
    "MazeBuffParam": [],
    "MazeBuffParam2": [],
    "UseMultipleMax": 1,
    "UseEffect": "AvatarItemIcon_Eff_AtkUp",
    "IsShowItemDesc": true,
    "ActivityCount": 1
  },
  "408613": {
    "UseDataID": 408613,
    "ConsumeType": 2,
    "ConsumeTag": [],
    "MazeBuffID": 408613,
    "MazeBuffParam": [],
    "MazeBuffParam2": [],
    "UseMultipleMax": 1,
    "UseEffect": "AvatarItemIcon_Eff_DefUp",
    "IsShowItemDesc": true,
    "ActivityCount": 1
  },
  "408614": {
    "UseDataID": 408614,
    "ConsumeType": 1,
    "ConsumeTag": [],
    "MazeBuffID": 408614,
    "MazeBuffParam": [],
    "MazeBuffParam2": [],
    "UseMultipleMax": 1,
    "UseEffect": "AvatarItemIcon_Eff_AtkUp",
    "IsShowItemDesc": true,
    "ActivityCount": 1
  },
  "408615": {
    "UseDataID": 408615,
    "ConsumeType": 1,
    "ConsumeTag": [],
    "MazeBuffID": 408615,
    "MazeBuffParam": [],
    "MazeBuffParam2": [],
    "UseMultipleMax": 1,
    "UseEffect": "AvatarItemIcon_Eff_AtkUp",
    "IsShowItemDesc": true,
    "ActivityCount": 1
  },
  "408616": {
    "UseDataID": 408616,
    "ConsumeType": 2,
    "ConsumeTag": [],
    "MazeBuffID": 408616,
    "MazeBuffParam": [],
    "MazeBuffParam2": [],
    "UseMultipleMax": 1,
    "UseEffect": "AvatarItemIcon_Eff_DefUp",
    "IsShowItemDesc": true,
    "ActivityCount": 1
  },
  "408617": {
    "UseDataID": 408617,
    "ConsumeType": 1,
    "ConsumeTag": [],
    "MazeBuffID": 408617,
    "MazeBuffParam": [],
    "MazeBuffParam2": [],
    "UseMultipleMax": 1,
    "UseEffect": "AvatarItemIcon_Eff_AtkUp",
    "IsShowItemDesc": true,
    "ActivityCount": 1
  },
  "408618": {
    "UseDataID": 408618,
    "ConsumeType": 1,
    "ConsumeTag": [],
    "MazeBuffID": 408618,
    "MazeBuffParam": [],
    "MazeBuffParam2": [],
    "UseMultipleMax": 1,
    "UseEffect": "AvatarItemIcon_Eff_AtkUp",
    "IsShowItemDesc": true,
    "ActivityCount": 1
  },
  "408619": {
    "UseDataID": 408619,
    "ConsumeType": 1,
    "ConsumeTag": [],
    "MazeBuffID": 408619,
    "MazeBuffParam": [],
    "MazeBuffParam2": [],
    "UseMultipleMax": 1,
    "UseEffect": "AvatarItemIcon_Eff_AtkUp",
    "IsShowItemDesc": true,
    "ActivityCount": 1
  },
  "408620": {
    "UseDataID": 408620,
    "ConsumeType": 1,
    "ConsumeTag": [],
    "MazeBuffID": 408620,
    "MazeBuffParam": [],
    "MazeBuffParam2": [],
    "UseMultipleMax": 1,
    "UseEffect": "AvatarItemIcon_Eff_AtkUp",
    "IsShowItemDesc": true,
    "ActivityCount": 1
  },
  "408621": {
    "UseDataID": 408621,
    "ConsumeType": 2,
    "ConsumeTag": [],
    "MazeBuffID": 408621,
    "MazeBuffParam": [],
    "MazeBuffParam2": [],
    "UseMultipleMax": 1,
    "UseEffect": "AvatarItemIcon_Eff_DefUp",
    "IsShowItemDesc": true,
    "ActivityCount": 1
  },
  "408622": {
    "UseDataID": 408622,
    "ConsumeType": 1,
    "ConsumeTag": [],
    "MazeBuffID": 408622,
    "MazeBuffParam": [],
    "MazeBuffParam2": [],
    "UseMultipleMax": 1,
    "UseEffect": "AvatarItemIcon_Eff_AtkUp",
    "IsShowItemDesc": true,
    "ActivityCount": 1
  },
  "408623": {
    "UseDataID": 408623,
    "ConsumeType": 1,
    "ConsumeTag": [],
    "MazeBuffID": 408623,
    "MazeBuffParam": [],
    "MazeBuffParam2": [],
    "UseMultipleMax": 1,
    "UseEffect": "AvatarItemIcon_Eff_AtkUp",
    "IsShowItemDesc": true,
    "ActivityCount": 1
  },
  "408801": {
    "UseDataID": 408801,
    "ConsumeType": 1,
    "ConsumeTag": [],
    "MazeBuffID": 408801,
    "MazeBuffParam": [],
    "MazeBuffParam2": [],
    "UseMultipleMax": 1,
    "UseEffect": "AvatarItemIcon_Eff_AtkUp",
    "IsShowItemDesc": true,
    "ActivityCount": 1
  },
  "408802": {
    "UseDataID": 408802,
    "ConsumeType": 3,
    "ConsumeTag": [],
    "MazeBuffID": 408802,
    "MazeBuffParam": [],
    "MazeBuffParam2": [],
    "UseMultipleMax": 1,
    "UseEffect": "AvatarItemIcon_Eff_Common",
    "IsShowItemDesc": true,
    "ActivityCount": 1
  },
  "403011": {
    "UseDataID": 403011,
    "ConsumeType": 1,
    "ConsumeTag": [],
    "MazeBuffID": 403011,
    "MazeBuffParam": [],
    "MazeBuffParam2": [],
    "UseMultipleMax": 1,
    "UseEffect": "AvatarItemIcon_Eff_AtkUp",
    "IsShowItemDesc": true,
    "ActivityCount": 1
  },
  "408419": {
    "UseDataID": 408419,
    "ConsumeType": 1,
    "ConsumeTag": [],
    "MazeBuffID": 408419,
    "MazeBuffParam": [],
    "MazeBuffParam2": [],
    "UseMultipleMax": 1,
    "UseEffect": "AvatarItemIcon_Eff_AtkUp",
    "IsShowItemDesc": true,
    "ActivityCount": 1
  },
  "408420": {
    "UseDataID": 408420,
    "ConsumeType": 1,
    "ConsumeTag": [],
    "MazeBuffID": 408420,
    "MazeBuffParam": [],
    "MazeBuffParam2": [],
    "UseMultipleMax": 1,
    "UseEffect": "AvatarItemIcon_Eff_AtkUp",
    "IsShowItemDesc": true,
    "ActivityCount": 1
  },
  "408421": {
    "UseDataID": 408421,
    "ConsumeType": 1,
    "ConsumeTag": [],
    "MazeBuffID": 408421,
    "MazeBuffParam": [],
    "MazeBuffParam2": [],
    "UseMultipleMax": 1,
    "UseEffect": "AvatarItemIcon_Eff_AtkUp",
    "IsShowItemDesc": true,
    "ActivityCount": 1
  },
  "408422": {
    "UseDataID": 408422,
    "ConsumeType": 1,
    "ConsumeTag": [],
    "MazeBuffID": 408422,
    "MazeBuffParam": [],
    "MazeBuffParam2": [],
    "UseMultipleMax": 1,
    "UseEffect": "AvatarItemIcon_Eff_AtkUp",
    "IsShowItemDesc": true,
    "ActivityCount": 1
  },
  "408624": {
    "UseDataID": 408624,
    "ConsumeType": 1,
    "ConsumeTag": [],
    "MazeBuffID": 408624,
    "MazeBuffParam": [],
    "MazeBuffParam2": [],
    "UseMultipleMax": 1,
    "UseEffect": "AvatarItemIcon_Eff_AtkUp",
    "IsShowItemDesc": true,
    "ActivityCount": 1
  },
  "408625": {
    "UseDataID": 408625,
    "ConsumeType": 2,
    "ConsumeTag": [],
    "MazeBuffID": 408625,
    "MazeBuffParam": [],
    "MazeBuffParam2": [],
    "UseMultipleMax": 1,
    "UseEffect": "AvatarItemIcon_Eff_DefUp",
    "IsShowItemDesc": true,
    "ActivityCount": 1
  },
  "408626": {
    "UseDataID": 408626,
    "ConsumeType": 1,
    "ConsumeTag": [],
    "MazeBuffID": 408626,
    "MazeBuffParam": [],
    "MazeBuffParam2": [],
    "UseMultipleMax": 1,
    "UseEffect": "AvatarItemIcon_Eff_AtkUp",
    "IsShowItemDesc": true,
    "ActivityCount": 1
  },
  "408627": {
    "UseDataID": 408627,
    "ConsumeType": 1,
    "ConsumeTag": [],
    "MazeBuffID": 408627,
    "MazeBuffParam": [],
    "MazeBuffParam2": [],
    "UseMultipleMax": 1,
    "UseEffect": "AvatarItemIcon_Eff_AtkUp",
    "IsShowItemDesc": true,
    "ActivityCount": 1
  }
}