{
  "210001": {
    "ID": 210001,
    "ItemMainType": "Usable",
    "ItemSubType": "MusicAlbum",
    "InventoryDisplayTag": 3,
    "Rarity": "Rare",
    "PurposeType": 20,
    "isVisible": true,
    "ItemName": {
      "Hash": -1037501318
    },
    "ItemDesc": {
      "Hash": -1461302340
    },
    "ItemBGDesc": {
      "Hash": -1696341267
    },
    "ItemIconPath": "SpriteOutput/ItemIcon/210001.png",
    "ItemFigureIconPath": "SpriteOutput/ItemFigures/210001.png",
    "ItemCurrencyIconPath": "SpriteOutput/ItemIcon/210001.png",
    "ItemAvatarIconPath": "",
    "PileLimit": 999,
    "CustomDataList": [],
    "ReturnItemIDList": []
  },
  "210003": {
    "ID": 210003,
    "ItemMainType": "Usable",
    "ItemSubType": "MusicAlbum",
    "InventoryDisplayTag": 3,
    "Rarity": "Rare",
    "PurposeType": 20,
    "isVisible": true,
    "ItemName": {
      "Hash": 2094666564
    },
    "ItemDesc": {
      "Hash": 1670865542
    },
    "ItemBGDesc": {
      "Hash": -533541853
    },
    "ItemIconPath": "SpriteOutput/ItemIcon/210001.png",
    "ItemFigureIconPath": "SpriteOutput/ItemFigures/210001.png",
    "ItemCurrencyIconPath": "SpriteOutput/ItemIcon/210001.png",
    "ItemAvatarIconPath": "",
    "PileLimit": 999,
    "CustomDataList": [],
    "ReturnItemIDList": []
  },
  "210008": {
    "ID": 210008,
    "ItemMainType": "Usable",
    "ItemSubType": "MusicAlbum",
    "InventoryDisplayTag": 3,
    "Rarity": "Rare",
    "PurposeType": 20,
    "isVisible": true,
    "ItemName": {
      "Hash": 172352263
    },
    "ItemDesc": {
      "Hash": -251448759
    },
    "ItemBGDesc": {
      "Hash": -486487686
    },
    "ItemIconPath": "SpriteOutput/ItemIcon/210001.png",
    "ItemFigureIconPath": "SpriteOutput/ItemFigures/210001.png",
    "ItemCurrencyIconPath": "SpriteOutput/ItemIcon/210001.png",
    "ItemAvatarIconPath": "",
    "PileLimit": 999,
    "CustomDataList": [],
    "ReturnItemIDList": []
  },
  "210010": {
    "ID": 210010,
    "ItemMainType": "Usable",
    "ItemSubType": "MusicAlbum",
    "InventoryDisplayTag": 3,
    "Rarity": "Rare",
    "PurposeType": 20,
    "isVisible": true,
    "ItemName": {
      "Hash": 528582624
    },
    "ItemDesc": {
      "Hash": 104781602
    },
    "ItemBGDesc": {
      "Hash": -130257327
    },
    "ItemIconPath": "SpriteOutput/ItemIcon/210001.png",
    "ItemFigureIconPath": "SpriteOutput/ItemFigures/210001.png",
    "ItemCurrencyIconPath": "SpriteOutput/ItemIcon/210001.png",
    "ItemAvatarIconPath": "",
    "PileLimit": 999,
    "CustomDataList": [],
    "ReturnItemIDList": []
  },
  "210100": {
    "ID": 210100,
    "ItemMainType": "Usable",
    "ItemSubType": "MusicAlbum",
    "InventoryDisplayTag": 3,
    "Rarity": "Rare",
    "PurposeType": 20,
    "isVisible": true,
    "ItemName": {
      "Hash": -1057704294
    },
    "ItemDesc": {
      "Hash": -1481505316
    },
    "ItemBGDesc": {
      "Hash": -1716544243
    },
    "ItemIconPath": "SpriteOutput/ItemIcon/210001.png",
    "ItemFigureIconPath": "SpriteOutput/ItemFigures/210001.png",
    "ItemCurrencyIconPath": "SpriteOutput/ItemIcon/210001.png",
    "ItemAvatarIconPath": "",
    "PileLimit": 999,
    "CustomDataList": [],
    "ReturnItemIDList": []
  },
  "210101": {
    "ID": 210101,
    "ItemMainType": "Usable",
    "ItemSubType": "MusicAlbum",
    "InventoryDisplayTag": 3,
    "Rarity": "Rare",
    "PurposeType": 20,
    "isVisible": true,
    "ItemName": {
      "Hash": 508379647
    },
    "ItemDesc": {
      "Hash": 84578625
    },
    "ItemBGDesc": {
      "Hash": -150460302
    },
    "ItemIconPath": "SpriteOutput/ItemIcon/210001.png",
    "ItemFigureIconPath": "SpriteOutput/ItemFigures/210001.png",
    "ItemCurrencyIconPath": "SpriteOutput/ItemIcon/210001.png",
    "ItemAvatarIconPath": "",
    "PileLimit": 999,
    "CustomDataList": [],
    "ReturnItemIDList": []
  },
  "210102": {
    "ID": 210102,
    "ItemMainType": "Usable",
    "ItemSubType": "MusicAlbum",
    "InventoryDisplayTag": 3,
    "Rarity": "Rare",
    "PurposeType": 20,
    "isVisible": true,
    "ItemName": {
      "Hash": 2074463588
    },
    "ItemDesc": {
      "Hash": 1650662566
    },
    "ItemBGDesc": {
      "Hash": -553744829
    },
    "ItemIconPath": "SpriteOutput/ItemIcon/210001.png",
    "ItemFigureIconPath": "SpriteOutput/ItemFigures/210001.png",
    "ItemCurrencyIconPath": "SpriteOutput/ItemIcon/210001.png",
    "ItemAvatarIconPath": "",
    "PileLimit": 999,
    "CustomDataList": [],
    "ReturnItemIDList": []
  },
  "210103": {
    "ID": 210103,
    "ItemMainType": "Usable",
    "ItemSubType": "MusicAlbum",
    "InventoryDisplayTag": 3,
    "Rarity": "Rare",
    "PurposeType": 20,
    "isVisible": true,
    "ItemName": {
      "Hash": -654419767
    },
    "ItemDesc": {
      "Hash": -1078220789
    },
    "ItemBGDesc": {
      "Hash": 1012339112
    },
    "ItemIconPath": "SpriteOutput/ItemIcon/210001.png",
    "ItemFigureIconPath": "SpriteOutput/ItemFigures/210001.png",
    "ItemCurrencyIconPath": "SpriteOutput/ItemIcon/210001.png",
    "ItemAvatarIconPath": "",
    "PileLimit": 999,
    "CustomDataList": [],
    "ReturnItemIDList": []
  },
  "210104": {
    "ID": 210104,
    "ItemMainType": "Usable",
    "ItemSubType": "MusicAlbum",
    "InventoryDisplayTag": 3,
    "Rarity": "Rare",
    "PurposeType": 20,
    "isVisible": true,
    "ItemName": {
      "Hash": 911664174
    },
    "ItemDesc": {
      "Hash": 844093512
    },
    "ItemBGDesc": {
      "Hash": 609054585
    },
    "ItemIconPath": "SpriteOutput/ItemIcon/210001.png",
    "ItemFigureIconPath": "SpriteOutput/ItemFigures/210001.png",
    "ItemCurrencyIconPath": "SpriteOutput/ItemIcon/210001.png",
    "ItemAvatarIconPath": "",
    "PileLimit": 999,
    "CustomDataList": [],
    "ReturnItemIDList": []
  },
  "210105": {
    "ID": 210105,
    "ItemMainType": "Usable",
    "ItemSubType": "MusicAlbum",
    "InventoryDisplayTag": 3,
    "Rarity": "Rare",
    "PurposeType": 20,
    "isVisible": true,
    "ItemName": {
      "Hash": -1817219181
    },
    "ItemDesc": {
      "Hash": -1884789843
    },
    "ItemBGDesc": {
      "Hash": -2119828770
    },
    "ItemIconPath": "SpriteOutput/ItemIcon/210001.png",
    "ItemFigureIconPath": "SpriteOutput/ItemFigures/210001.png",
    "ItemCurrencyIconPath": "SpriteOutput/ItemIcon/210001.png",
    "ItemAvatarIconPath": "",
    "PileLimit": 999,
    "CustomDataList": [],
    "ReturnItemIDList": []
  },
  "210106": {
    "ID": 210106,
    "ItemMainType": "Usable",
    "ItemSubType": "MusicAlbum",
    "InventoryDisplayTag": 3,
    "Rarity": "Rare",
    "PurposeType": 20,
    "isVisible": true,
    "ItemName": {
      "Hash": -251135240
    },
    "ItemDesc": {
      "Hash": -318705902
    },
    "ItemBGDesc": {
      "Hash": 1771853999
    },
    "ItemIconPath": "SpriteOutput/ItemIcon/210001.png",
    "ItemFigureIconPath": "SpriteOutput/ItemFigures/210001.png",
    "ItemCurrencyIconPath": "SpriteOutput/ItemIcon/210001.png",
    "ItemAvatarIconPath": "",
    "PileLimit": 999,
    "CustomDataList": [],
    "ReturnItemIDList": []
  },
  "210107": {
    "ID": 210107,
    "ItemMainType": "Usable",
    "ItemSubType": "MusicAlbum",
    "InventoryDisplayTag": 3,
    "Rarity": "Rare",
    "PurposeType": 20,
    "isVisible": true,
    "ItemName": {
      "Hash": 1314948701
    },
    "ItemDesc": {
      "Hash": 1247378039
    },
    "ItemBGDesc": {
      "Hash": -957029356
    },
    "ItemIconPath": "SpriteOutput/ItemIcon/210001.png",
    "ItemFigureIconPath": "SpriteOutput/ItemFigures/210001.png",
    "ItemCurrencyIconPath": "SpriteOutput/ItemIcon/210001.png",
    "ItemAvatarIconPath": "",
    "PileLimit": 999,
    "CustomDataList": [],
    "ReturnItemIDList": []
  },
  "210108": {
    "ID": 210108,
    "ItemMainType": "Usable",
    "ItemSubType": "MusicAlbum",
    "InventoryDisplayTag": 3,
    "Rarity": "Rare",
    "PurposeType": 20,
    "isVisible": true,
    "ItemName": {
      "Hash": -1413934654
    },
    "ItemDesc": {
      "Hash": -1837735676
    },
    "ItemBGDesc": {
      "Hash": -2072774603
    },
    "ItemIconPath": "SpriteOutput/ItemIcon/210001.png",
    "ItemFigureIconPath": "SpriteOutput/ItemFigures/210001.png",
    "ItemCurrencyIconPath": "SpriteOutput/ItemIcon/210001.png",
    "ItemAvatarIconPath": "",
    "PileLimit": 999,
    "CustomDataList": [],
    "ReturnItemIDList": []
  },
  "210109": {
    "ID": 210109,
    "ItemMainType": "Usable",
    "ItemSubType": "MusicAlbum",
    "InventoryDisplayTag": 3,
    "Rarity": "Rare",
    "PurposeType": 20,
    "isVisible": true,
    "ItemName": {
      "Hash": 152149287
    },
    "ItemDesc": {
      "Hash": -271651735
    },
    "ItemBGDesc": {
      "Hash": -506690662
    },
    "ItemIconPath": "SpriteOutput/ItemIcon/210001.png",
    "ItemFigureIconPath": "SpriteOutput/ItemFigures/210001.png",
    "ItemCurrencyIconPath": "SpriteOutput/ItemIcon/210001.png",
    "ItemAvatarIconPath": "",
    "PileLimit": 999,
    "CustomDataList": [],
    "ReturnItemIDList": []
  },
  "210110": {
    "ID": 210110,
    "ItemMainType": "Usable",
    "ItemSubType": "MusicAlbum",
    "InventoryDisplayTag": 3,
    "Rarity": "Rare",
    "PurposeType": 20,
    "isVisible": true,
    "ItemName": {
      "Hash": -1057704293
    },
    "ItemDesc": {
      "Hash": -1481505315
    },
    "ItemBGDesc": {
      "Hash": -1716544244
    },
    "ItemIconPath": "SpriteOutput/ItemIcon/210001.png",
    "ItemFigureIconPath": "SpriteOutput/ItemFigures/210001.png",
    "ItemCurrencyIconPath": "SpriteOutput/ItemIcon/210001.png",
    "ItemAvatarIconPath": "",
    "PileLimit": 999,
    "CustomDataList": [],
    "ReturnItemIDList": []
  },
  "210111": {
    "ID": 210111,
    "ItemMainType": "Usable",
    "ItemSubType": "MusicAlbum",
    "InventoryDisplayTag": 3,
    "Rarity": "Rare",
    "PurposeType": 20,
    "isVisible": true,
    "ItemName": {
      "Hash": 508379648
    },
    "ItemDesc": {
      "Hash": 84578626
    },
    "ItemBGDesc": {
      "Hash": -150460303
    },
    "ItemIconPath": "SpriteOutput/ItemIcon/210001.png",
    "ItemFigureIconPath": "SpriteOutput/ItemFigures/210001.png",
    "ItemCurrencyIconPath": "SpriteOutput/ItemIcon/210001.png",
    "ItemAvatarIconPath": "",
    "PileLimit": 999,
    "CustomDataList": [],
    "ReturnItemIDList": []
  },
  "210112": {
    "ID": 210112,
    "ItemMainType": "Usable",
    "ItemSubType": "MusicAlbum",
    "InventoryDisplayTag": 3,
    "Rarity": "Rare",
    "PurposeType": 20,
    "isVisible": true,
    "ItemName": {
      "Hash": 2074463589
    },
    "ItemDesc": {
      "Hash": 1650662567
    },
    "ItemBGDesc": {
      "Hash": -553744830
    },
    "ItemIconPath": "SpriteOutput/ItemIcon/210001.png",
    "ItemFigureIconPath": "SpriteOutput/ItemFigures/210001.png",
    "ItemCurrencyIconPath": "SpriteOutput/ItemIcon/210001.png",
    "ItemAvatarIconPath": "",
    "PileLimit": 999,
    "CustomDataList": [],
    "ReturnItemIDList": []
  },
  "210113": {
    "ID": 210113,
    "ItemMainType": "Usable",
    "ItemSubType": "MusicAlbum",
    "InventoryDisplayTag": 3,
    "Rarity": "Rare",
    "PurposeType": 20,
    "isVisible": true,
    "ItemName": {
      "Hash": -654419766
    },
    "ItemDesc": {
      "Hash": -1078220788
    },
    "ItemBGDesc": {
      "Hash": 1012339111
    },
    "ItemIconPath": "SpriteOutput/ItemIcon/210001.png",
    "ItemFigureIconPath": "SpriteOutput/ItemFigures/210001.png",
    "ItemCurrencyIconPath": "SpriteOutput/ItemIcon/210001.png",
    "ItemAvatarIconPath": "",
    "PileLimit": 999,
    "CustomDataList": [],
    "ReturnItemIDList": []
  },
  "210114": {
    "ID": 210114,
    "ItemMainType": "Usable",
    "ItemSubType": "MusicAlbum",
    "InventoryDisplayTag": 3,
    "Rarity": "Rare",
    "PurposeType": 20,
    "isVisible": true,
    "ItemName": {
      "Hash": 911664175
    },
    "ItemDesc": {
      "Hash": 844093513
    },
    "ItemBGDesc": {
      "Hash": 609054584
    },
    "ItemIconPath": "SpriteOutput/ItemIcon/210001.png",
    "ItemFigureIconPath": "SpriteOutput/ItemFigures/210001.png",
    "ItemCurrencyIconPath": "SpriteOutput/ItemIcon/210001.png",
    "ItemAvatarIconPath": "",
    "PileLimit": 999,
    "CustomDataList": [],
    "ReturnItemIDList": []
  },
  "210115": {
    "ID": 210115,
    "ItemMainType": "Usable",
    "ItemSubType": "MusicAlbum",
    "InventoryDisplayTag": 3,
    "Rarity": "Rare",
    "PurposeType": 20,
    "isVisible": true,
    "ItemName": {
      "Hash": -1817219180
    },
    "ItemDesc": {
      "Hash": -1884789842
    },
    "ItemBGDesc": {
      "Hash": -2119828771
    },
    "ItemIconPath": "SpriteOutput/ItemIcon/210001.png",
    "ItemFigureIconPath": "SpriteOutput/ItemFigures/210001.png",
    "ItemCurrencyIconPath": "SpriteOutput/ItemIcon/210001.png",
    "ItemAvatarIconPath": "",
    "PileLimit": 999,
    "CustomDataList": [],
    "ReturnItemIDList": []
  },
  "210200": {
    "ID": 210200,
    "ItemMainType": "Usable",
    "ItemSubType": "MusicAlbum",
    "InventoryDisplayTag": 3,
    "Rarity": "Rare",
    "PurposeType": 20,
    "isVisible": true,
    "ItemName": {
      "Hash": 810907625
    },
    "ItemDesc": {
      "Hash": 387106603
    },
    "ItemBGDesc": {
      "Hash": -412582328
    },
    "ItemIconPath": "SpriteOutput/ItemIcon/210001.png",
    "ItemFigureIconPath": "SpriteOutput/ItemFigures/210001.png",
    "ItemCurrencyIconPath": "SpriteOutput/ItemIcon/210001.png",
    "ItemAvatarIconPath": "",
    "PileLimit": 999,
    "CustomDataList": [],
    "ReturnItemIDList": []
  },
  "210201": {
    "ID": 210201,
    "ItemMainType": "Usable",
    "ItemSubType": "MusicAlbum",
    "InventoryDisplayTag": 3,
    "Rarity": "Rare",
    "PurposeType": 20,
    "isVisible": true,
    "ItemName": {
      "Hash": -755176316
    },
    "ItemDesc": {
      "Hash": -1178977338
    },
    "ItemBGDesc": {
      "Hash": -1978666269
    },
    "ItemIconPath": "SpriteOutput/ItemIcon/210001.png",
    "ItemFigureIconPath": "SpriteOutput/ItemFigures/210001.png",
    "ItemCurrencyIconPath": "SpriteOutput/ItemIcon/210001.png",
    "ItemAvatarIconPath": "",
    "PileLimit": 999,
    "CustomDataList": [],
    "ReturnItemIDList": []
  },
  "210202": {
    "ID": 210202,
    "ItemMainType": "Usable",
    "ItemSubType": "MusicAlbum",
    "InventoryDisplayTag": 3,
    "Rarity": "Rare",
    "PurposeType": 20,
    "isVisible": true,
    "ItemName": {
      "Hash": 1973707039
    },
    "ItemDesc": {
      "Hash": 1549906017
    },
    "ItemBGDesc": {
      "Hash": -1575381742
    },
    "ItemIconPath": "SpriteOutput/ItemIcon/210001.png",
    "ItemFigureIconPath": "SpriteOutput/ItemFigures/210001.png",
    "ItemCurrencyIconPath": "SpriteOutput/ItemIcon/210001.png",
    "ItemAvatarIconPath": "",
    "PileLimit": 999,
    "CustomDataList": [],
    "ReturnItemIDList": []
  },
  "210203": {
    "ID": 210203,
    "ItemMainType": "Usable",
    "ItemSubType": "MusicAlbum",
    "InventoryDisplayTag": 3,
    "Rarity": "Rare",
    "PurposeType": 20,
    "isVisible": true,
    "ItemName": {
      "Hash": 407623098
    },
    "ItemDesc": {
      "Hash": -16177924
    },
    "ItemBGDesc": {
      "Hash": 1153501613
    },
    "ItemIconPath": "SpriteOutput/ItemIcon/210001.png",
    "ItemFigureIconPath": "SpriteOutput/ItemFigures/210001.png",
    "ItemCurrencyIconPath": "SpriteOutput/ItemIcon/210001.png",
    "ItemAvatarIconPath": "",
    "PileLimit": 999,
    "CustomDataList": [],
    "ReturnItemIDList": []
  },
  "210204": {
    "ID": 210204,
    "ItemMainType": "Usable",
    "ItemSubType": "MusicAlbum",
    "InventoryDisplayTag": 3,
    "Rarity": "Rare",
    "PurposeType": 20,
    "isVisible": true,
    "ItemName": {
      "Hash": -1514691203
    },
    "ItemDesc": {
      "Hash": -1582261865
    },
    "ItemBGDesc": {
      "Hash": 1913016500
    },
    "ItemIconPath": "SpriteOutput/ItemIcon/210001.png",
    "ItemFigureIconPath": "SpriteOutput/ItemFigures/210001.png",
    "ItemCurrencyIconPath": "SpriteOutput/ItemIcon/210001.png",
    "ItemAvatarIconPath": "",
    "PileLimit": 999,
    "CustomDataList": [],
    "ReturnItemIDList": []
  },
  "210205": {
    "ID": 210205,
    "ItemMainType": "Usable",
    "ItemSubType": "MusicAlbum",
    "InventoryDisplayTag": 3,
    "Rarity": "Rare",
    "PurposeType": 20,
    "isVisible": true,
    "ItemName": {
      "Hash": 1214192152
    },
    "ItemDesc": {
      "Hash": 1146621490
    },
    "ItemBGDesc": {
      "Hash": 346932559
    },
    "ItemIconPath": "SpriteOutput/ItemIcon/210001.png",
    "ItemFigureIconPath": "SpriteOutput/ItemFigures/210001.png",
    "ItemCurrencyIconPath": "SpriteOutput/ItemIcon/210001.png",
    "ItemAvatarIconPath": "",
    "PileLimit": 999,
    "CustomDataList": [],
    "ReturnItemIDList": []
  },
  "210206": {
    "ID": 210206,
    "ItemMainType": "Usable",
    "ItemSubType": "MusicAlbum",
    "InventoryDisplayTag": 3,
    "Rarity": "Rare",
    "PurposeType": 20,
    "isVisible": true,
    "ItemName": {
      "Hash": -351891789
    },
    "ItemDesc": {
      "Hash": -419462451
    },
    "ItemBGDesc": {
      "Hash": 750217086
    },
    "ItemIconPath": "SpriteOutput/ItemIcon/210001.png",
    "ItemFigureIconPath": "SpriteOutput/ItemFigures/210001.png",
    "ItemCurrencyIconPath": "SpriteOutput/ItemIcon/210001.png",
    "ItemAvatarIconPath": "",
    "PileLimit": 999,
    "CustomDataList": [],
    "ReturnItemIDList": []
  },
  "210207": {
    "ID": 210207,
    "ItemMainType": "Usable",
    "ItemSubType": "MusicAlbum",
    "InventoryDisplayTag": 3,
    "Rarity": "Rare",
    "PurposeType": 20,
    "isVisible": true,
    "ItemName": {
      "Hash": -1917975730
    },
    "ItemDesc": {
      "Hash": -1985546392
    },
    "ItemBGDesc": {
      "Hash": -815866855
    },
    "ItemIconPath": "SpriteOutput/ItemIcon/210001.png",
    "ItemFigureIconPath": "SpriteOutput/ItemFigures/210001.png",
    "ItemCurrencyIconPath": "SpriteOutput/ItemIcon/210001.png",
    "ItemAvatarIconPath": "",
    "PileLimit": 999,
    "CustomDataList": [],
    "ReturnItemIDList": []
  },
  "210208": {
    "ID": 210208,
    "ItemMainType": "Usable",
    "ItemSubType": "MusicAlbum",
    "InventoryDisplayTag": 3,
    "Rarity": "Rare",
    "PurposeType": 20,
    "isVisible": true,
    "ItemName": {
      "Hash": 454677265
    },
    "ItemDesc": {
      "Hash": 30876243
    },
    "ItemBGDesc": {
      "Hash": -768812688
    },
    "ItemIconPath": "SpriteOutput/ItemIcon/210001.png",
    "ItemFigureIconPath": "SpriteOutput/ItemFigures/210001.png",
    "ItemCurrencyIconPath": "SpriteOutput/ItemIcon/210001.png",
    "ItemAvatarIconPath": "",
    "PileLimit": 999,
    "CustomDataList": [],
    "ReturnItemIDList": []
  },
  "210209": {
    "ID": 210209,
    "ItemMainType": "Usable",
    "ItemSubType": "MusicAlbum",
    "InventoryDisplayTag": 3,
    "Rarity": "Rare",
    "PurposeType": 20,
    "isVisible": true,
    "ItemName": {
      "Hash": -1111406676
    },
    "ItemDesc": {
      "Hash": -1535207698
    },
    "ItemBGDesc": {
      "Hash": 1960070667
    },
    "ItemIconPath": "SpriteOutput/ItemIcon/210001.png",
    "ItemFigureIconPath": "SpriteOutput/ItemFigures/210001.png",
    "ItemCurrencyIconPath": "SpriteOutput/ItemIcon/210001.png",
    "ItemAvatarIconPath": "",
    "PileLimit": 999,
    "CustomDataList": [],
    "ReturnItemIDList": []
  },
  "210210": {
    "ID": 210210,
    "ItemMainType": "Usable",
    "ItemSubType": "MusicAlbum",
    "InventoryDisplayTag": 3,
    "Rarity": "Rare",
    "PurposeType": 20,
    "isVisible": true,
    "ItemName": {
      "Hash": 810907626
    },
    "ItemDesc": {
      "Hash": 387106604
    },
    "ItemBGDesc": {
      "Hash": -412582329
    },
    "ItemIconPath": "SpriteOutput/ItemIcon/210001.png",
    "ItemFigureIconPath": "SpriteOutput/ItemFigures/210001.png",
    "ItemCurrencyIconPath": "SpriteOutput/ItemIcon/210001.png",
    "ItemAvatarIconPath": "",
    "PileLimit": 999,
    "CustomDataList": [],
    "ReturnItemIDList": []
  },
  "210211": {
    "ID": 210211,
    "ItemMainType": "Usable",
    "ItemSubType": "MusicAlbum",
    "InventoryDisplayTag": 3,
    "Rarity": "Rare",
    "PurposeType": 20,
    "isVisible": true,
    "ItemName": {
      "Hash": -755176315
    },
    "ItemDesc": {
      "Hash": -1178977337
    },
    "ItemBGDesc": {
      "Hash": -1978666270
    },
    "ItemIconPath": "SpriteOutput/ItemIcon/210001.png",
    "ItemFigureIconPath": "SpriteOutput/ItemFigures/210001.png",
    "ItemCurrencyIconPath": "SpriteOutput/ItemIcon/210001.png",
    "ItemAvatarIconPath": "",
    "PileLimit": 999,
    "CustomDataList": [],
    "ReturnItemIDList": []
  },
  "210212": {
    "ID": 210212,
    "ItemMainType": "Usable",
    "ItemSubType": "MusicAlbum",
    "InventoryDisplayTag": 3,
    "Rarity": "Rare",
    "PurposeType": 20,
    "isVisible": true,
    "ItemName": {
      "Hash": 1973707040
    },
    "ItemDesc": {
      "Hash": 1549906018
    },
    "ItemBGDesc": {
      "Hash": -1575381743
    },
    "ItemIconPath": "SpriteOutput/ItemIcon/210001.png",
    "ItemFigureIconPath": "SpriteOutput/ItemFigures/210001.png",
    "ItemCurrencyIconPath": "SpriteOutput/ItemIcon/210001.png",
    "ItemAvatarIconPath": "",
    "PileLimit": 999,
    "CustomDataList": [],
    "ReturnItemIDList": []
  },
  "210213": {
    "ID": 210213,
    "ItemMainType": "Usable",
    "ItemSubType": "MusicAlbum",
    "InventoryDisplayTag": 3,
    "Rarity": "Rare",
    "PurposeType": 20,
    "isVisible": true,
    "ItemName": {
      "Hash": 407623099
    },
    "ItemDesc": {
      "Hash": -16177923
    },
    "ItemBGDesc": {
      "Hash": 1153501612
    },
    "ItemIconPath": "SpriteOutput/ItemIcon/210001.png",
    "ItemFigureIconPath": "SpriteOutput/ItemFigures/210001.png",
    "ItemCurrencyIconPath": "SpriteOutput/ItemIcon/210001.png",
    "ItemAvatarIconPath": "",
    "PileLimit": 999,
    "CustomDataList": [],
    "ReturnItemIDList": []
  },
  "210214": {
    "ID": 210214,
    "ItemMainType": "Usable",
    "ItemSubType": "MusicAlbum",
    "InventoryDisplayTag": 3,
    "Rarity": "Rare",
    "PurposeType": 20,
    "isVisible": true,
    "ItemName": {
      "Hash": -1514691202
    },
    "ItemDesc": {
      "Hash": -1582261864
    },
    "ItemBGDesc": {
      "Hash": 1913016499
    },
    "ItemIconPath": "SpriteOutput/ItemIcon/210001.png",
    "ItemFigureIconPath": "SpriteOutput/ItemFigures/210001.png",
    "ItemCurrencyIconPath": "SpriteOutput/ItemIcon/210001.png",
    "ItemAvatarIconPath": "",
    "PileLimit": 999,
    "CustomDataList": [],
    "ReturnItemIDList": []
  },
  "210215": {
    "ID": 210215,
    "ItemMainType": "Usable",
    "ItemSubType": "MusicAlbum",
    "InventoryDisplayTag": 3,
    "Rarity": "Rare",
    "PurposeType": 20,
    "isVisible": true,
    "ItemName": {
      "Hash": 1214192153
    },
    "ItemDesc": {
      "Hash": 1146621491
    },
    "ItemBGDesc": {
      "Hash": 346932558
    },
    "ItemIconPath": "SpriteOutput/ItemIcon/210001.png",
    "ItemFigureIconPath": "SpriteOutput/ItemFigures/210001.png",
    "ItemCurrencyIconPath": "SpriteOutput/ItemIcon/210001.png",
    "ItemAvatarIconPath": "",
    "PileLimit": 999,
    "CustomDataList": [],
    "ReturnItemIDList": []
  },
  "210216": {
    "ID": 210216,
    "ItemMainType": "Usable",
    "ItemSubType": "MusicAlbum",
    "InventoryDisplayTag": 3,
    "Rarity": "Rare",
    "PurposeType": 20,
    "isVisible": true,
    "ItemName": {
      "Hash": -351891788
    },
    "ItemDesc": {
      "Hash": -419462450
    },
    "ItemBGDesc": {
      "Hash": 750217085
    },
    "ItemIconPath": "SpriteOutput/ItemIcon/210001.png",
    "ItemFigureIconPath": "SpriteOutput/ItemFigures/210001.png",
    "ItemCurrencyIconPath": "SpriteOutput/ItemIcon/210001.png",
    "ItemAvatarIconPath": "",
    "PileLimit": 999,
    "CustomDataList": [],
    "ReturnItemIDList": []
  },
  "210217": {
    "ID": 210217,
    "ItemMainType": "Usable",
    "ItemSubType": "MusicAlbum",
    "InventoryDisplayTag": 3,
    "Rarity": "Rare",
    "PurposeType": 20,
    "isVisible": true,
    "ItemName": {
      "Hash": -1917975729
    },
    "ItemDesc": {
      "Hash": -1985546391
    },
    "ItemBGDesc": {
      "Hash": -815866856
    },
    "ItemIconPath": "SpriteOutput/ItemIcon/210001.png",
    "ItemFigureIconPath": "SpriteOutput/ItemFigures/210001.png",
    "ItemCurrencyIconPath": "SpriteOutput/ItemIcon/210001.png",
    "ItemAvatarIconPath": "",
    "PileLimit": 999,
    "CustomDataList": [],
    "ReturnItemIDList": []
  },
  "210218": {
    "ID": 210218,
    "ItemMainType": "Usable",
    "ItemSubType": "MusicAlbum",
    "InventoryDisplayTag": 3,
    "Rarity": "Rare",
    "PurposeType": 20,
    "isVisible": true,
    "ItemName": {
      "Hash": 454677266
    },
    "ItemDesc": {
      "Hash": 30876244
    },
    "ItemBGDesc": {
      "Hash": -768812689
    },
    "ItemIconPath": "SpriteOutput/ItemIcon/210001.png",
    "ItemFigureIconPath": "SpriteOutput/ItemFigures/210001.png",
    "ItemCurrencyIconPath": "SpriteOutput/ItemIcon/210001.png",
    "ItemAvatarIconPath": "",
    "PileLimit": 999,
    "CustomDataList": [],
    "ReturnItemIDList": []
  },
  "210219": {
    "ID": 210219,
    "ItemMainType": "Usable",
    "ItemSubType": "MusicAlbum",
    "InventoryDisplayTag": 3,
    "Rarity": "Rare",
    "PurposeType": 20,
    "isVisible": true,
    "ItemName": {
      "Hash": -1111406675
    },
    "ItemDesc": {
      "Hash": -1535207697
    },
    "ItemBGDesc": {
      "Hash": 1960070666
    },
    "ItemIconPath": "SpriteOutput/ItemIcon/210001.png",
    "ItemFigureIconPath": "SpriteOutput/ItemFigures/210001.png",
    "ItemCurrencyIconPath": "SpriteOutput/ItemIcon/210001.png",
    "ItemAvatarIconPath": "",
    "PileLimit": 999,
    "CustomDataList": [],
    "ReturnItemIDList": []
  },
  "210220": {
    "ID": 210220,
    "ItemMainType": "Usable",
    "ItemSubType": "MusicAlbum",
    "InventoryDisplayTag": 3,
    "Rarity": "Rare",
    "PurposeType": 20,
    "isVisible": true,
    "ItemName": {
      "Hash": 810907623
    },
    "ItemDesc": {
      "Hash": 387106605
    },
    "ItemBGDesc": {
      "Hash": -412582330
    },
    "ItemIconPath": "SpriteOutput/ItemIcon/210001.png",
    "ItemFigureIconPath": "SpriteOutput/ItemFigures/210001.png",
    "ItemCurrencyIconPath": "SpriteOutput/ItemIcon/210001.png",
    "ItemAvatarIconPath": "",
    "PileLimit": 999,
    "CustomDataList": [],
    "ReturnItemIDList": []
  },
  "210221": {
    "ID": 210221,
    "ItemMainType": "Usable",
    "ItemSubType": "MusicAlbum",
    "InventoryDisplayTag": 3,
    "Rarity": "Rare",
    "PurposeType": 20,
    "isVisible": true,
    "ItemName": {
      "Hash": -755176318
    },
    "ItemDesc": {
      "Hash": -1178977336
    },
    "ItemBGDesc": {
      "Hash": -1978666271
    },
    "ItemIconPath": "SpriteOutput/ItemIcon/210001.png",
    "ItemFigureIconPath": "SpriteOutput/ItemFigures/210001.png",
    "ItemCurrencyIconPath": "SpriteOutput/ItemIcon/210001.png",
    "ItemAvatarIconPath": "",
    "PileLimit": 999,
    "CustomDataList": [],
    "ReturnItemIDList": []
  },
  "210222": {
    "ID": 210222,
    "ItemMainType": "Usable",
    "ItemSubType": "MusicAlbum",
    "InventoryDisplayTag": 3,
    "Rarity": "Rare",
    "PurposeType": 20,
    "isVisible": true,
    "ItemName": {
      "Hash": 1973707037
    },
    "ItemDesc": {
      "Hash": 1549906019
    },
    "ItemBGDesc": {
      "Hash": -1575381744
    },
    "ItemIconPath": "SpriteOutput/ItemIcon/210001.png",
    "ItemFigureIconPath": "SpriteOutput/ItemFigures/210001.png",
    "ItemCurrencyIconPath": "SpriteOutput/ItemIcon/210001.png",
    "ItemAvatarIconPath": "",
    "PileLimit": 999,
    "CustomDataList": [],
    "ReturnItemIDList": []
  },
  "210223": {
    "ID": 210223,
    "ItemMainType": "Usable",
    "ItemSubType": "MusicAlbum",
    "InventoryDisplayTag": 3,
    "Rarity": "Rare",
    "PurposeType": 20,
    "isVisible": true,
    "ItemName": {
      "Hash": 407623096
    },
    "ItemDesc": {
      "Hash": -16177922
    },
    "ItemBGDesc": {
      "Hash": 1153501611
    },
    "ItemIconPath": "SpriteOutput/ItemIcon/210001.png",
    "ItemFigureIconPath": "SpriteOutput/ItemFigures/210001.png",
    "ItemCurrencyIconPath": "SpriteOutput/ItemIcon/210001.png",
    "ItemAvatarIconPath": "",
    "PileLimit": 999,
    "CustomDataList": [],
    "ReturnItemIDList": []
  },
  "210224": {
    "ID": 210224,
    "ItemMainType": "Usable",
    "ItemSubType": "MusicAlbum",
    "InventoryDisplayTag": 3,
    "Rarity": "Rare",
    "PurposeType": 20,
    "isVisible": true,
    "ItemName": {
      "Hash": -1514691205
    },
    "ItemDesc": {
      "Hash": -1582261863
    },
    "ItemBGDesc": {
      "Hash": 1913016498
    },
    "ItemIconPath": "SpriteOutput/ItemIcon/210001.png",
    "ItemFigureIconPath": "SpriteOutput/ItemFigures/210001.png",
    "ItemCurrencyIconPath": "SpriteOutput/ItemIcon/210001.png",
    "ItemAvatarIconPath": "",
    "PileLimit": 999,
    "CustomDataList": [],
    "ReturnItemIDList": []
  },
  "210225": {
    "ID": 210225,
    "ItemMainType": "Usable",
    "ItemSubType": "MusicAlbum",
    "InventoryDisplayTag": 3,
    "Rarity": "Rare",
    "PurposeType": 20,
    "isVisible": true,
    "ItemName": {
      "Hash": 1214192150
    },
    "ItemDesc": {
      "Hash": 1146621492
    },
    "ItemBGDesc": {
      "Hash": 346932557
    },
    "ItemIconPath": "SpriteOutput/ItemIcon/210001.png",
    "ItemFigureIconPath": "SpriteOutput/ItemFigures/210001.png",
    "ItemCurrencyIconPath": "SpriteOutput/ItemIcon/210001.png",
    "ItemAvatarIconPath": "",
    "PileLimit": 999,
    "CustomDataList": [],
    "ReturnItemIDList": []
  },
  "210226": {
    "ID": 210226,
    "ItemMainType": "Usable",
    "ItemSubType": "MusicAlbum",
    "InventoryDisplayTag": 3,
    "Rarity": "Rare",
    "PurposeType": 20,
    "isVisible": true,
    "ItemName": {
      "Hash": -351891791
    },
    "ItemDesc": {
      "Hash": -419462449
    },
    "ItemBGDesc": {
      "Hash": 750217084
    },
    "ItemIconPath": "SpriteOutput/ItemIcon/210001.png",
    "ItemFigureIconPath": "SpriteOutput/ItemFigures/210001.png",
    "ItemCurrencyIconPath": "SpriteOutput/ItemIcon/210001.png",
    "ItemAvatarIconPath": "",
    "PileLimit": 999,
    "CustomDataList": [],
    "ReturnItemIDList": []
  },
  "210227": {
    "ID": 210227,
    "ItemMainType": "Usable",
    "ItemSubType": "MusicAlbum",
    "InventoryDisplayTag": 3,
    "Rarity": "Rare",
    "PurposeType": 20,
    "isVisible": true,
    "ItemName": {
      "Hash": -1917975732
    },
    "ItemDesc": {
      "Hash": -1985546390
    },
    "ItemBGDesc": {
      "Hash": -815866857
    },
    "ItemIconPath": "SpriteOutput/ItemIcon/210001.png",
    "ItemFigureIconPath": "SpriteOutput/ItemFigures/210001.png",
    "ItemCurrencyIconPath": "SpriteOutput/ItemIcon/210001.png",
    "ItemAvatarIconPath": "",
    "PileLimit": 999,
    "CustomDataList": [],
    "ReturnItemIDList": []
  },
  "210228": {
    "ID": 210228,
    "ItemMainType": "Usable",
    "ItemSubType": "MusicAlbum",
    "InventoryDisplayTag": 3,
    "Rarity": "Rare",
    "PurposeType": 20,
    "isVisible": true,
    "ItemName": {
      "Hash": 454677263
    },
    "ItemDesc": {
      "Hash": 30876245
    },
    "ItemBGDesc": {
      "Hash": -768812690
    },
    "ItemIconPath": "SpriteOutput/ItemIcon/210001.png",
    "ItemFigureIconPath": "SpriteOutput/ItemFigures/210001.png",
    "ItemCurrencyIconPath": "SpriteOutput/ItemIcon/210001.png",
    "ItemAvatarIconPath": "",
    "PileLimit": 999,
    "CustomDataList": [],
    "ReturnItemIDList": []
  },
  "210229": {
    "ID": 210229,
    "ItemMainType": "Usable",
    "ItemSubType": "MusicAlbum",
    "InventoryDisplayTag": 3,
    "Rarity": "Rare",
    "PurposeType": 20,
    "isVisible": true,
    "ItemName": {
      "Hash": -1111406678
    },
    "ItemDesc": {
      "Hash": -1535207696
    },
    "ItemBGDesc": {
      "Hash": 1960070665
    },
    "ItemIconPath": "SpriteOutput/ItemIcon/210001.png",
    "ItemFigureIconPath": "SpriteOutput/ItemFigures/210001.png",
    "ItemCurrencyIconPath": "SpriteOutput/ItemIcon/210001.png",
    "ItemAvatarIconPath": "",
    "PileLimit": 999,
    "CustomDataList": [],
    "ReturnItemIDList": []
  },
  "210300": {
    "ID": 210300,
    "ItemMainType": "Usable",
    "ItemSubType": "MusicAlbum",
    "InventoryDisplayTag": 3,
    "Rarity": "Rare",
    "PurposeType": 20,
    "isVisible": true,
    "ItemName": {
      "Hash": -775379292
    },
    "ItemDesc": {
      "Hash": -1199180314
    },
    "ItemBGDesc": {
      "Hash": -1998869245
    },
    "ItemIconPath": "SpriteOutput/ItemIcon/210001.png",
    "ItemFigureIconPath": "SpriteOutput/ItemFigures/210001.png",
    "ItemCurrencyIconPath": "SpriteOutput/ItemIcon/210001.png",
    "ItemAvatarIconPath": "",
    "PileLimit": 999,
    "CustomDataList": [],
    "ReturnItemIDList": []
  },
  "210301": {
    "ID": 210301,
    "ItemMainType": "Usable",
    "ItemSubType": "MusicAlbum",
    "InventoryDisplayTag": 3,
    "Rarity": "Rare",
    "PurposeType": 20,
    "isVisible": true,
    "ItemName": {
      "Hash": 790704649
    },
    "ItemDesc": {
      "Hash": 366903627
    },
    "ItemBGDesc": {
      "Hash": -432785304
    },
    "ItemIconPath": "SpriteOutput/ItemIcon/210001.png",
    "ItemFigureIconPath": "SpriteOutput/ItemFigures/210001.png",
    "ItemCurrencyIconPath": "SpriteOutput/ItemIcon/210001.png",
    "ItemAvatarIconPath": "",
    "PileLimit": 999,
    "CustomDataList": [],
    "ReturnItemIDList": []
  },
  "210302": {
    "ID": 210302,
    "ItemMainType": "Usable",
    "ItemSubType": "MusicAlbum",
    "InventoryDisplayTag": 3,
    "Rarity": "Rare",
    "PurposeType": 20,
    "isVisible": true,
    "ItemName": {
      "Hash": 387420122
    },
    "ItemDesc": {
      "Hash": -36380900
    },
    "ItemBGDesc": {
      "Hash": 1133298637
    },
    "ItemIconPath": "SpriteOutput/ItemIcon/210001.png",
    "ItemFigureIconPath": "SpriteOutput/ItemFigures/210001.png",
    "ItemCurrencyIconPath": "SpriteOutput/ItemIcon/210001.png",
    "ItemAvatarIconPath": "",
    "PileLimit": 999,
    "CustomDataList": [],
    "ReturnItemIDList": []
  },
  "210303": {
    "ID": 210303,
    "ItemMainType": "Usable",
    "ItemSubType": "MusicAlbum",
    "InventoryDisplayTag": 3,
    "Rarity": "Rare",
    "PurposeType": 20,
    "isVisible": true,
    "ItemName": {
      "Hash": 1953504063
    },
    "ItemDesc": {
      "Hash": 1529703041
    },
    "ItemBGDesc": {
      "Hash": -1595584718
    },
    "ItemIconPath": "SpriteOutput/ItemIcon/210001.png",
    "ItemFigureIconPath": "SpriteOutput/ItemFigures/210001.png",
    "ItemCurrencyIconPath": "SpriteOutput/ItemIcon/210001.png",
    "ItemAvatarIconPath": "",
    "PileLimit": 999,
    "CustomDataList": [],
    "ReturnItemIDList": []
  },
  "210304": {
    "ID": 210304,
    "ItemMainType": "Usable",
    "ItemSubType": "MusicAlbum",
    "InventoryDisplayTag": 3,
    "Rarity": "Rare",
    "PurposeType": 20,
    "isVisible": true,
    "ItemName": {
      "Hash": 1193989176
    },
    "ItemDesc": {
      "Hash": 1126418514
    },
    "ItemBGDesc": {
      "Hash": 326729583
    },
    "ItemIconPath": "SpriteOutput/ItemIcon/210001.png",
    "ItemFigureIconPath": "SpriteOutput/ItemFigures/210001.png",
    "ItemCurrencyIconPath": "SpriteOutput/ItemIcon/210001.png",
    "ItemAvatarIconPath": "",
    "PileLimit": 999,
    "CustomDataList": [],
    "ReturnItemIDList": []
  },
  "210305": {
    "ID": 210305,
    "ItemMainType": "Usable",
    "ItemSubType": "MusicAlbum",
    "InventoryDisplayTag": 3,
    "Rarity": "Rare",
    "PurposeType": 20,
    "isVisible": true,
    "ItemName": {
      "Hash": -1534894179
    },
    "ItemDesc": {
      "Hash": -1602464841
    },
    "ItemBGDesc": {
      "Hash": 1892813524
    },
    "ItemIconPath": "SpriteOutput/ItemIcon/210001.png",
    "ItemFigureIconPath": "SpriteOutput/ItemFigures/210001.png",
    "ItemCurrencyIconPath": "SpriteOutput/ItemIcon/210001.png",
    "ItemAvatarIconPath": "",
    "PileLimit": 999,
    "CustomDataList": [],
    "ReturnItemIDList": []
  },
  "210306": {
    "ID": 210306,
    "ItemMainType": "Usable",
    "ItemSubType": "MusicAlbum",
    "InventoryDisplayTag": 3,
    "Rarity": "Rare",
    "PurposeType": 20,
    "isVisible": true,
    "ItemName": {
      "Hash": -1938178706
    },
    "ItemDesc": {
      "Hash": -2005749368
    },
    "ItemBGDesc": {
      "Hash": -836069831
    },
    "ItemIconPath": "SpriteOutput/ItemIcon/210001.png",
    "ItemFigureIconPath": "SpriteOutput/ItemFigures/210001.png",
    "ItemCurrencyIconPath": "SpriteOutput/ItemIcon/210001.png",
    "ItemAvatarIconPath": "",
    "PileLimit": 999,
    "CustomDataList": [],
    "ReturnItemIDList": []
  },
  "210307": {
    "ID": 210307,
    "ItemMainType": "Usable",
    "ItemSubType": "MusicAlbum",
    "InventoryDisplayTag": 3,
    "Rarity": "Rare",
    "PurposeType": 20,
    "isVisible": true,
    "ItemName": {
      "Hash": -372094765
    },
    "ItemDesc": {
      "Hash": -439665427
    },
    "ItemBGDesc": {
      "Hash": 730014110
    },
    "ItemIconPath": "SpriteOutput/ItemIcon/210001.png",
    "ItemFigureIconPath": "SpriteOutput/ItemFigures/210001.png",
    "ItemCurrencyIconPath": "SpriteOutput/ItemIcon/210001.png",
    "ItemAvatarIconPath": "",
    "PileLimit": 999,
    "CustomDataList": [],
    "ReturnItemIDList": []
  },
  "210308": {
    "ID": 210308,
    "ItemMainType": "Usable",
    "ItemSubType": "MusicAlbum",
    "InventoryDisplayTag": 3,
    "Rarity": "Rare",
    "PurposeType": 20,
    "isVisible": true,
    "ItemName": {
      "Hash": -1131609652
    },
    "ItemDesc": {
      "Hash": -1555410674
    },
    "ItemBGDesc": {
      "Hash": 1939867691
    },
    "ItemIconPath": "SpriteOutput/ItemIcon/210001.png",
    "ItemFigureIconPath": "SpriteOutput/ItemFigures/210001.png",
    "ItemCurrencyIconPath": "SpriteOutput/ItemIcon/210001.png",
    "ItemAvatarIconPath": "",
    "PileLimit": 999,
    "CustomDataList": [],
    "ReturnItemIDList": []
  },
  "210309": {
    "ID": 210309,
    "ItemMainType": "Usable",
    "ItemSubType": "MusicAlbum",
    "InventoryDisplayTag": 3,
    "Rarity": "Rare",
    "PurposeType": 20,
    "isVisible": true,
    "ItemName": {
      "Hash": 434474289
    },
    "ItemDesc": {
      "Hash": 10673267
    },
    "ItemBGDesc": {
      "Hash": -789015664
    },
    "ItemIconPath": "SpriteOutput/ItemIcon/210001.png",
    "ItemFigureIconPath": "SpriteOutput/ItemFigures/210001.png",
    "ItemCurrencyIconPath": "SpriteOutput/ItemIcon/210001.png",
    "ItemAvatarIconPath": "",
    "PileLimit": 999,
    "CustomDataList": [],
    "ReturnItemIDList": []
  },
  "210310": {
    "ID": 210310,
    "ItemMainType": "Usable",
    "ItemSubType": "MusicAlbum",
    "InventoryDisplayTag": 3,
    "Rarity": "Rare",
    "PurposeType": 20,
    "isVisible": true,
    "ItemName": {
      "Hash": -775379291
    },
    "ItemDesc": {
      "Hash": -1199180313
    },
    "ItemBGDesc": {
      "Hash": -1998869246
    },
    "ItemIconPath": "SpriteOutput/ItemIcon/210001.png",
    "ItemFigureIconPath": "SpriteOutput/ItemFigures/210001.png",
    "ItemCurrencyIconPath": "SpriteOutput/ItemIcon/210001.png",
    "ItemAvatarIconPath": "",
    "PileLimit": 999,
    "CustomDataList": [],
    "ReturnItemIDList": []
  },
  "210311": {
    "ID": 210311,
    "ItemMainType": "Usable",
    "ItemSubType": "MusicAlbum",
    "InventoryDisplayTag": 3,
    "Rarity": "Rare",
    "PurposeType": 20,
    "isVisible": true,
    "ItemName": {
      "Hash": 790704650
    },
    "ItemDesc": {
      "Hash": 366903628
    },
    "ItemBGDesc": {
      "Hash": -432785305
    },
    "ItemIconPath": "SpriteOutput/ItemIcon/210001.png",
    "ItemFigureIconPath": "SpriteOutput/ItemFigures/210001.png",
    "ItemCurrencyIconPath": "SpriteOutput/ItemIcon/210001.png",
    "ItemAvatarIconPath": "",
    "PileLimit": 999,
    "CustomDataList": [],
    "ReturnItemIDList": []
  },
  "210312": {
    "ID": 210312,
    "ItemMainType": "Usable",
    "ItemSubType": "MusicAlbum",
    "InventoryDisplayTag": 3,
    "Rarity": "Rare",
    "PurposeType": 20,
    "isVisible": true,
    "ItemName": {
      "Hash": 387420123
    },
    "ItemDesc": {
      "Hash": -36380899
    },
    "ItemBGDesc": {
      "Hash": 1133298636
    },
    "ItemIconPath": "SpriteOutput/ItemIcon/210001.png",
    "ItemFigureIconPath": "SpriteOutput/ItemFigures/210001.png",
    "ItemCurrencyIconPath": "SpriteOutput/ItemIcon/210001.png",
    "ItemAvatarIconPath": "",
    "PileLimit": 999,
    "CustomDataList": [],
    "ReturnItemIDList": []
  },
  "210313": {
    "ID": 210313,
    "ItemMainType": "Usable",
    "ItemSubType": "MusicAlbum",
    "InventoryDisplayTag": 3,
    "Rarity": "Rare",
    "PurposeType": 20,
    "isVisible": true,
    "ItemName": {
      "Hash": 1953504064
    },
    "ItemDesc": {
      "Hash": 1529703042
    },
    "ItemBGDesc": {
      "Hash": -1595584719
    },
    "ItemIconPath": "SpriteOutput/ItemIcon/210001.png",
    "ItemFigureIconPath": "SpriteOutput/ItemFigures/210001.png",
    "ItemCurrencyIconPath": "SpriteOutput/ItemIcon/210001.png",
    "ItemAvatarIconPath": "",
    "PileLimit": 999,
    "CustomDataList": [],
    "ReturnItemIDList": []
  },
  "210314": {
    "ID": 210314,
    "ItemMainType": "Usable",
    "ItemSubType": "MusicAlbum",
    "InventoryDisplayTag": 3,
    "Rarity": "Rare",
    "PurposeType": 20,
    "isVisible": true,
    "ItemName": {
      "Hash": 1193989177
    },
    "ItemDesc": {
      "Hash": 1126418515
    },
    "ItemBGDesc": {
      "Hash": 326729582
    },
    "ItemIconPath": "SpriteOutput/ItemIcon/210001.png",
    "ItemFigureIconPath": "SpriteOutput/ItemFigures/210001.png",
    "ItemCurrencyIconPath": "SpriteOutput/ItemIcon/210001.png",
    "ItemAvatarIconPath": "",
    "PileLimit": 999,
    "CustomDataList": [],
    "ReturnItemIDList": []
  },
  "210315": {
    "ID": 210315,
    "ItemMainType": "Usable",
    "ItemSubType": "MusicAlbum",
    "InventoryDisplayTag": 3,
    "Rarity": "Rare",
    "PurposeType": 20,
    "isVisible": true,
    "ItemName": {
      "Hash": -1534894178
    },
    "ItemDesc": {
      "Hash": -1602464840
    },
    "ItemBGDesc": {
      "Hash": 1892813523
    },
    "ItemIconPath": "SpriteOutput/ItemIcon/210001.png",
    "ItemFigureIconPath": "SpriteOutput/ItemFigures/210001.png",
    "ItemCurrencyIconPath": "SpriteOutput/ItemIcon/210001.png",
    "ItemAvatarIconPath": "",
    "PileLimit": 999,
    "CustomDataList": [],
    "ReturnItemIDList": []
  },
  "210316": {
    "ID": 210316,
    "ItemMainType": "Usable",
    "ItemSubType": "MusicAlbum",
    "InventoryDisplayTag": 3,
    "Rarity": "Rare",
    "PurposeType": 20,
    "isVisible": true,
    "ItemName": {
      "Hash": -1938178705
    },
    "ItemDesc": {
      "Hash": -2005749367
    },
    "ItemBGDesc": {
      "Hash": -836069832
    },
    "ItemIconPath": "SpriteOutput/ItemIcon/210001.png",
    "ItemFigureIconPath": "SpriteOutput/ItemFigures/210001.png",
    "ItemCurrencyIconPath": "SpriteOutput/ItemIcon/210001.png",
    "ItemAvatarIconPath": "",
    "PileLimit": 999,
    "CustomDataList": [],
    "ReturnItemIDList": []
  },
  "210317": {
    "ID": 210317,
    "ItemMainType": "Usable",
    "ItemSubType": "MusicAlbum",
    "InventoryDisplayTag": 3,
    "Rarity": "Rare",
    "PurposeType": 20,
    "isVisible": true,
    "ItemName": {
      "Hash": -372094764
    },
    "ItemDesc": {
      "Hash": -439665426
    },
    "ItemBGDesc": {
      "Hash": 730014109
    },
    "ItemIconPath": "SpriteOutput/ItemIcon/210001.png",
    "ItemFigureIconPath": "SpriteOutput/ItemFigures/210001.png",
    "ItemCurrencyIconPath": "SpriteOutput/ItemIcon/210001.png",
    "ItemAvatarIconPath": "",
    "PileLimit": 999,
    "CustomDataList": [],
    "ReturnItemIDList": []
  },
  "210318": {
    "ID": 210318,
    "ItemMainType": "Usable",
    "ItemSubType": "MusicAlbum",
    "InventoryDisplayTag": 3,
    "Rarity": "Rare",
    "PurposeType": 20,
    "isVisible": true,
    "ItemName": {
      "Hash": -1131609651
    },
    "ItemDesc": {
      "Hash": -1555410673
    },
    "ItemBGDesc": {
      "Hash": 1939867690
    },
    "ItemIconPath": "SpriteOutput/ItemIcon/210001.png",
    "ItemFigureIconPath": "SpriteOutput/ItemFigures/210001.png",
    "ItemCurrencyIconPath": "SpriteOutput/ItemIcon/210001.png",
    "ItemAvatarIconPath": "",
    "PileLimit": 999,
    "CustomDataList": [],
    "ReturnItemIDList": []
  },
  "210319": {
    "ID": 210319,
    "ItemMainType": "Usable",
    "ItemSubType": "MusicAlbum",
    "InventoryDisplayTag": 3,
    "Rarity": "Rare",
    "PurposeType": 20,
    "isVisible": true,
    "ItemName": {
      "Hash": 434474290
    },
    "ItemDesc": {
      "Hash": 10673268
    },
    "ItemBGDesc": {
      "Hash": -789015665
    },
    "ItemIconPath": "SpriteOutput/ItemIcon/210001.png",
    "ItemFigureIconPath": "SpriteOutput/ItemFigures/210001.png",
    "ItemCurrencyIconPath": "SpriteOutput/ItemIcon/210001.png",
    "ItemAvatarIconPath": "",
    "PileLimit": 999,
    "CustomDataList": [],
    "ReturnItemIDList": []
  },
  "210320": {
    "ID": 210320,
    "ItemMainType": "Usable",
    "ItemSubType": "MusicAlbum",
    "InventoryDisplayTag": 3,
    "Rarity": "Rare",
    "PurposeType": 20,
    "isVisible": true,
    "ItemName": {
      "Hash": -775379294
    },
    "ItemDesc": {
      "Hash": -1199180312
    },
    "ItemBGDesc": {
      "Hash": -1998869247
    },
    "ItemIconPath": "SpriteOutput/ItemIcon/210001.png",
    "ItemFigureIconPath": "SpriteOutput/ItemFigures/210001.png",
    "ItemCurrencyIconPath": "SpriteOutput/ItemIcon/210001.png",
    "ItemAvatarIconPath": "",
    "PileLimit": 999,
    "CustomDataList": [],
    "ReturnItemIDList": []
  },
  "210321": {
    "ID": 210321,
    "ItemMainType": "Usable",
    "ItemSubType": "MusicAlbum",
    "InventoryDisplayTag": 3,
    "Rarity": "Rare",
    "PurposeType": 20,
    "isVisible": true,
    "ItemName": {
      "Hash": 790704647
    },
    "ItemDesc": {
      "Hash": 366903629
    },
    "ItemBGDesc": {
      "Hash": -432785306
    },
    "ItemIconPath": "SpriteOutput/ItemIcon/210001.png",
    "ItemFigureIconPath": "SpriteOutput/ItemFigures/210001.png",
    "ItemCurrencyIconPath": "SpriteOutput/ItemIcon/210001.png",
    "ItemAvatarIconPath": "",
    "PileLimit": 999,
    "CustomDataList": [],
    "ReturnItemIDList": []
  },
  "210322": {
    "ID": 210322,
    "ItemMainType": "Usable",
    "ItemSubType": "MusicAlbum",
    "InventoryDisplayTag": 3,
    "Rarity": "Rare",
    "PurposeType": 20,
    "isVisible": true,
    "ItemName": {
      "Hash": 387420120
    },
    "ItemDesc": {
      "Hash": -36380898
    },
    "ItemBGDesc": {
      "Hash": 1133298635
    },
    "ItemIconPath": "SpriteOutput/ItemIcon/210001.png",
    "ItemFigureIconPath": "SpriteOutput/ItemFigures/210001.png",
    "ItemCurrencyIconPath": "SpriteOutput/ItemIcon/210001.png",
    "ItemAvatarIconPath": "",
    "PileLimit": 999,
    "CustomDataList": [],
    "ReturnItemIDList": []
  },
  "210323": {
    "ID": 210323,
    "ItemMainType": "Usable",
    "ItemSubType": "MusicAlbum",
    "InventoryDisplayTag": 3,
    "Rarity": "Rare",
    "PurposeType": 20,
    "isVisible": true,
    "ItemName": {
      "Hash": 1953504061
    },
    "ItemDesc": {
      "Hash": 1529703043
    },
    "ItemBGDesc": {
      "Hash": -1595584720
    },
    "ItemIconPath": "SpriteOutput/ItemIcon/210001.png",
    "ItemFigureIconPath": "SpriteOutput/ItemFigures/210001.png",
    "ItemCurrencyIconPath": "SpriteOutput/ItemIcon/210001.png",
    "ItemAvatarIconPath": "",
    "PileLimit": 999,
    "CustomDataList": [],
    "ReturnItemIDList": []
  },
  "210324": {
    "ID": 210324,
    "ItemMainType": "Usable",
    "ItemSubType": "MusicAlbum",
    "InventoryDisplayTag": 3,
    "Rarity": "Rare",
    "PurposeType": 20,
    "isVisible": true,
    "ItemName": {
      "Hash": 1193989174
    },
    "ItemDesc": {
      "Hash": 1126418516
    },
    "ItemBGDesc": {
      "Hash": 326729581
    },
    "ItemIconPath": "SpriteOutput/ItemIcon/210001.png",
    "ItemFigureIconPath": "SpriteOutput/ItemFigures/210001.png",
    "ItemCurrencyIconPath": "SpriteOutput/ItemIcon/210001.png",
    "ItemAvatarIconPath": "",
    "PileLimit": 999,
    "CustomDataList": [],
    "ReturnItemIDList": []
  },
  "210325": {
    "ID": 210325,
    "ItemMainType": "Usable",
    "ItemSubType": "MusicAlbum",
    "InventoryDisplayTag": 3,
    "Rarity": "Rare",
    "PurposeType": 20,
    "isVisible": true,
    "ItemName": {
      "Hash": -1534894181
    },
    "ItemDesc": {
      "Hash": -1602464839
    },
    "ItemBGDesc": {
      "Hash": 1892813522
    },
    "ItemIconPath": "SpriteOutput/ItemIcon/210001.png",
    "ItemFigureIconPath": "SpriteOutput/ItemFigures/210001.png",
    "ItemCurrencyIconPath": "SpriteOutput/ItemIcon/210001.png",
    "ItemAvatarIconPath": "",
    "PileLimit": 999,
    "CustomDataList": [],
    "ReturnItemIDList": []
  },
  "210326": {
    "ID": 210326,
    "ItemMainType": "Usable",
    "ItemSubType": "MusicAlbum",
    "InventoryDisplayTag": 3,
    "Rarity": "Rare",
    "PurposeType": 20,
    "isVisible": true,
    "ItemName": {
      "Hash": -1938178708
    },
    "ItemDesc": {
      "Hash": -2005749366
    },
    "ItemBGDesc": {
      "Hash": -836069833
    },
    "ItemIconPath": "SpriteOutput/ItemIcon/210001.png",
    "ItemFigureIconPath": "SpriteOutput/ItemFigures/210001.png",
    "ItemCurrencyIconPath": "SpriteOutput/ItemIcon/210001.png",
    "ItemAvatarIconPath": "",
    "PileLimit": 999,
    "CustomDataList": [],
    "ReturnItemIDList": []
  },
  "210327": {
    "ID": 210327,
    "ItemMainType": "Usable",
    "ItemSubType": "MusicAlbum",
    "InventoryDisplayTag": 3,
    "Rarity": "Rare",
    "PurposeType": 20,
    "isVisible": true,
    "ItemName": {
      "Hash": -372094767
    },
    "ItemDesc": {
      "Hash": -439665425
    },
    "ItemBGDesc": {
      "Hash": 730014108
    },
    "ItemIconPath": "SpriteOutput/ItemIcon/210001.png",
    "ItemFigureIconPath": "SpriteOutput/ItemFigures/210001.png",
    "ItemCurrencyIconPath": "SpriteOutput/ItemIcon/210001.png",
    "ItemAvatarIconPath": "",
    "PileLimit": 999,
    "CustomDataList": [],
    "ReturnItemIDList": []
  },
  "210328": {
    "ID": 210328,
    "ItemMainType": "Usable",
    "ItemSubType": "MusicAlbum",
    "InventoryDisplayTag": 3,
    "Rarity": "Rare",
    "PurposeType": 20,
    "isVisible": true,
    "ItemName": {
      "Hash": -1131609654
    },
    "ItemDesc": {
      "Hash": -1555410672
    },
    "ItemBGDesc": {
      "Hash": 1939867689
    },
    "ItemIconPath": "SpriteOutput/ItemIcon/210001.png",
    "ItemFigureIconPath": "SpriteOutput/ItemFigures/210001.png",
    "ItemCurrencyIconPath": "SpriteOutput/ItemIcon/210001.png",
    "ItemAvatarIconPath": "",
    "PileLimit": 999,
    "CustomDataList": [],
    "ReturnItemIDList": []
  },
  "210329": {
    "ID": 210329,
    "ItemMainType": "Usable",
    "ItemSubType": "MusicAlbum",
    "InventoryDisplayTag": 3,
    "Rarity": "Rare",
    "PurposeType": 20,
    "isVisible": true,
    "ItemName": {
      "Hash": 434474287
    },
    "ItemDesc": {
      "Hash": 10673269
    },
    "ItemBGDesc": {
      "Hash": -789015666
    },
    "ItemIconPath": "SpriteOutput/ItemIcon/210001.png",
    "ItemFigureIconPath": "SpriteOutput/ItemFigures/210001.png",
    "ItemCurrencyIconPath": "SpriteOutput/ItemIcon/210001.png",
    "ItemAvatarIconPath": "",
    "PileLimit": 999,
    "CustomDataList": [],
    "ReturnItemIDList": []
  },
  "210330": {
    "ID": 210330,
    "ItemMainType": "Usable",
    "ItemSubType": "MusicAlbum",
    "InventoryDisplayTag": 3,
    "Rarity": "Rare",
    "PurposeType": 20,
    "isVisible": true,
    "ItemName": {
      "Hash": -775379293
    },
    "ItemDesc": {
      "Hash": -1199180311
    },
    "ItemBGDesc": {
      "Hash": -1998869248
    },
    "ItemIconPath": "SpriteOutput/ItemIcon/210001.png",
    "ItemFigureIconPath": "SpriteOutput/ItemFigures/210001.png",
    "ItemCurrencyIconPath": "SpriteOutput/ItemIcon/210001.png",
    "ItemAvatarIconPath": "",
    "PileLimit": 999,
    "CustomDataList": [],
    "ReturnItemIDList": []
  },
  "210331": {
    "ID": 210331,
    "ItemMainType": "Usable",
    "ItemSubType": "MusicAlbum",
    "InventoryDisplayTag": 3,
    "Rarity": "Rare",
    "PurposeType": 20,
    "isVisible": true,
    "ItemName": {
      "Hash": 790704648
    },
    "ItemDesc": {
      "Hash": 366903630
    },
    "ItemBGDesc": {
      "Hash": -432785307
    },
    "ItemIconPath": "SpriteOutput/ItemIcon/210001.png",
    "ItemFigureIconPath": "SpriteOutput/ItemFigures/210001.png",
    "ItemCurrencyIconPath": "SpriteOutput/ItemIcon/210001.png",
    "ItemAvatarIconPath": "",
    "PileLimit": 999,
    "CustomDataList": [],
    "ReturnItemIDList": []
  },
  "210332": {
    "ID": 210332,
    "ItemMainType": "Usable",
    "ItemSubType": "MusicAlbum",
    "InventoryDisplayTag": 3,
    "Rarity": "Rare",
    "PurposeType": 20,
    "isVisible": true,
    "ItemName": {
      "Hash": 387420121
    },
    "ItemDesc": {
      "Hash": -36380897
    },
    "ItemBGDesc": {
      "Hash": 1133298634
    },
    "ItemIconPath": "SpriteOutput/ItemIcon/210001.png",
    "ItemFigureIconPath": "SpriteOutput/ItemFigures/210001.png",
    "ItemCurrencyIconPath": "SpriteOutput/ItemIcon/210001.png",
    "ItemAvatarIconPath": "",
    "PileLimit": 999,
    "CustomDataList": [],
    "ReturnItemIDList": []
  },
  "210333": {
    "ID": 210333,
    "ItemMainType": "Usable",
    "ItemSubType": "MusicAlbum",
    "InventoryDisplayTag": 3,
    "Rarity": "Rare",
    "PurposeType": 20,
    "isVisible": true,
    "ItemName": {
      "Hash": 1953504062
    },
    "ItemDesc": {
      "Hash": 1529703044
    },
    "ItemBGDesc": {
      "Hash": -1595584721
    },
    "ItemIconPath": "SpriteOutput/ItemIcon/210001.png",
    "ItemFigureIconPath": "SpriteOutput/ItemFigures/210001.png",
    "ItemCurrencyIconPath": "SpriteOutput/ItemIcon/210001.png",
    "ItemAvatarIconPath": "",
    "PileLimit": 999,
    "CustomDataList": [],
    "ReturnItemIDList": []
  },
  "210334": {
    "ID": 210334,
    "ItemMainType": "Usable",
    "ItemSubType": "MusicAlbum",
    "InventoryDisplayTag": 3,
    "Rarity": "Rare",
    "PurposeType": 20,
    "isVisible": true,
    "ItemName": {
      "Hash": 1193989175
    },
    "ItemDesc": {
      "Hash": 1126418517
    },
    "ItemBGDesc": {
      "Hash": 326729580
    },
    "ItemIconPath": "SpriteOutput/ItemIcon/210001.png",
    "ItemFigureIconPath": "SpriteOutput/ItemFigures/210001.png",
    "ItemCurrencyIconPath": "SpriteOutput/ItemIcon/210001.png",
    "ItemAvatarIconPath": "",
    "PileLimit": 999,
    "CustomDataList": [],
    "ReturnItemIDList": []
  },
  "210335": {
    "ID": 210335,
    "ItemMainType": "Usable",
    "ItemSubType": "MusicAlbum",
    "InventoryDisplayTag": 3,
    "Rarity": "Rare",
    "PurposeType": 20,
    "isVisible": true,
    "ItemName": {
      "Hash": -1534894180
    },
    "ItemDesc": {
      "Hash": -1602464838
    },
    "ItemBGDesc": {
      "Hash": 1892813521
    },
    "ItemIconPath": "SpriteOutput/ItemIcon/210001.png",
    "ItemFigureIconPath": "SpriteOutput/ItemFigures/210001.png",
    "ItemCurrencyIconPath": "SpriteOutput/ItemIcon/210001.png",
    "ItemAvatarIconPath": "",
    "PileLimit": 999,
    "CustomDataList": [],
    "ReturnItemIDList": []
  },
  "210336": {
    "ID": 210336,
    "ItemMainType": "Usable",
    "ItemSubType": "MusicAlbum",
    "InventoryDisplayTag": 3,
    "Rarity": "Rare",
    "PurposeType": 20,
    "isVisible": true,
    "ItemName": {
      "Hash": -1938178707
    },
    "ItemDesc": {
      "Hash": -2005749365
    },
    "ItemBGDesc": {
      "Hash": -836069834
    },
    "ItemIconPath": "SpriteOutput/ItemIcon/210001.png",
    "ItemFigureIconPath": "SpriteOutput/ItemFigures/210001.png",
    "ItemCurrencyIconPath": "SpriteOutput/ItemIcon/210001.png",
    "ItemAvatarIconPath": "",
    "PileLimit": 999,
    "CustomDataList": [],
    "ReturnItemIDList": []
  },
  "210337": {
    "ID": 210337,
    "ItemMainType": "Usable",
    "ItemSubType": "MusicAlbum",
    "InventoryDisplayTag": 3,
    "Rarity": "Rare",
    "PurposeType": 20,
    "isVisible": true,
    "ItemName": {
      "Hash": -372094766
    },
    "ItemDesc": {
      "Hash": -439665424
    },
    "ItemBGDesc": {
      "Hash": 730014107
    },
    "ItemIconPath": "SpriteOutput/ItemIcon/210001.png",
    "ItemFigureIconPath": "SpriteOutput/ItemFigures/210001.png",
    "ItemCurrencyIconPath": "SpriteOutput/ItemIcon/210001.png",
    "ItemAvatarIconPath": "",
    "PileLimit": 999,
    "CustomDataList": [],
    "ReturnItemIDList": []
  },
  "210338": {
    "ID": 210338,
    "ItemMainType": "Usable",
    "ItemSubType": "MusicAlbum",
    "InventoryDisplayTag": 3,
    "Rarity": "Rare",
    "PurposeType": 20,
    "isVisible": true,
    "ItemName": {
      "Hash": -1131609653
    },
    "ItemDesc": {
      "Hash": -1555410671
    },
    "ItemBGDesc": {
      "Hash": 1939867688
    },
    "ItemIconPath": "SpriteOutput/ItemIcon/210001.png",
    "ItemFigureIconPath": "SpriteOutput/ItemFigures/210001.png",
    "ItemCurrencyIconPath": "SpriteOutput/ItemIcon/210001.png",
    "ItemAvatarIconPath": "",
    "PileLimit": 999,
    "CustomDataList": [],
    "ReturnItemIDList": []
  },
  "210339": {
    "ID": 210339,
    "ItemMainType": "Usable",
    "ItemSubType": "MusicAlbum",
    "InventoryDisplayTag": 3,
    "Rarity": "Rare",
    "PurposeType": 20,
    "isVisible": true,
    "ItemName": {
      "Hash": 434474288
    },
    "ItemDesc": {
      "Hash": 10673270
    },
    "ItemBGDesc": {
      "Hash": -789015667
    },
    "ItemIconPath": "SpriteOutput/ItemIcon/210001.png",
    "ItemFigureIconPath": "SpriteOutput/ItemFigures/210001.png",
    "ItemCurrencyIconPath": "SpriteOutput/ItemIcon/210001.png",
    "ItemAvatarIconPath": "",
    "PileLimit": 999,
    "CustomDataList": [],
    "ReturnItemIDList": []
  },
  "210340": {
    "ID": 210340,
    "ItemMainType": "Usable",
    "ItemSubType": "MusicAlbum",
    "InventoryDisplayTag": 3,
    "Rarity": "Rare",
    "PurposeType": 20,
    "isVisible": true,
    "ItemName": {
      "Hash": -775379288
    },
    "ItemDesc": {
      "Hash": -1199180310
    },
    "ItemBGDesc": {
      "Hash": -1998869249
    },
    "ItemIconPath": "SpriteOutput/ItemIcon/210001.png",
    "ItemFigureIconPath": "SpriteOutput/ItemFigures/210001.png",
    "ItemCurrencyIconPath": "SpriteOutput/ItemIcon/210001.png",
    "ItemAvatarIconPath": "",
    "PileLimit": 999,
    "CustomDataList": [],
    "ReturnItemIDList": []
  },
  "210341": {
    "ID": 210341,
    "ItemMainType": "Usable",
    "ItemSubType": "MusicAlbum",
    "InventoryDisplayTag": 3,
    "Rarity": "Rare",
    "PurposeType": 20,
    "isVisible": true,
    "ItemName": {
      "Hash": 790704653
    },
    "ItemDesc": {
      "Hash": 366903631
    },
    "ItemBGDesc": {
      "Hash": -432785308
    },
    "ItemIconPath": "SpriteOutput/ItemIcon/210001.png",
    "ItemFigureIconPath": "SpriteOutput/ItemFigures/210001.png",
    "ItemCurrencyIconPath": "SpriteOutput/ItemIcon/210001.png",
    "ItemAvatarIconPath": "",
    "PileLimit": 999,
    "CustomDataList": [],
    "ReturnItemIDList": []
  },
  "210342": {
    "ID": 210342,
    "ItemMainType": "Usable",
    "ItemSubType": "MusicAlbum",
    "InventoryDisplayTag": 3,
    "Rarity": "Rare",
    "PurposeType": 20,
    "isVisible": true,
    "ItemName": {
      "Hash": 387420126
    },
    "ItemDesc": {
      "Hash": -36380896
    },
    "ItemBGDesc": {
      "Hash": 1133298633
    },
    "ItemIconPath": "SpriteOutput/ItemIcon/210001.png",
    "ItemFigureIconPath": "SpriteOutput/ItemFigures/210001.png",
    "ItemCurrencyIconPath": "SpriteOutput/ItemIcon/210001.png",
    "ItemAvatarIconPath": "",
    "PileLimit": 999,
    "CustomDataList": [],
    "ReturnItemIDList": []
  },
  "210343": {
    "ID": 210343,
    "ItemMainType": "Usable",
    "ItemSubType": "MusicAlbum",
    "InventoryDisplayTag": 3,
    "Rarity": "Rare",
    "PurposeType": 20,
    "isVisible": true,
    "ItemName": {
      "Hash": 1953504067
    },
    "ItemDesc": {
      "Hash": 1529703045
    },
    "ItemBGDesc": {
      "Hash": -1595584722
    },
    "ItemIconPath": "SpriteOutput/ItemIcon/210001.png",
    "ItemFigureIconPath": "SpriteOutput/ItemFigures/210001.png",
    "ItemCurrencyIconPath": "SpriteOutput/ItemIcon/210001.png",
    "ItemAvatarIconPath": "",
    "PileLimit": 999,
    "CustomDataList": [],
    "ReturnItemIDList": []
  },
  "210344": {
    "ID": 210344,
    "ItemMainType": "Usable",
    "ItemSubType": "MusicAlbum",
    "InventoryDisplayTag": 3,
    "Rarity": "Rare",
    "PurposeType": 20,
    "isVisible": true,
    "ItemName": {
      "Hash": 1193989180
    },
    "ItemDesc": {
      "Hash": 1126418518
    },
    "ItemBGDesc": {
      "Hash": 326729579
    },
    "ItemIconPath": "SpriteOutput/ItemIcon/210001.png",
    "ItemFigureIconPath": "SpriteOutput/ItemFigures/210001.png",
    "ItemCurrencyIconPath": "SpriteOutput/ItemIcon/210001.png",
    "ItemAvatarIconPath": "",
    "PileLimit": 999,
    "CustomDataList": [],
    "ReturnItemIDList": []
  },
  "210345": {
    "ID": 210345,
    "ItemMainType": "Usable",
    "ItemSubType": "MusicAlbum",
    "InventoryDisplayTag": 3,
    "Rarity": "Rare",
    "PurposeType": 20,
    "isVisible": true,
    "ItemName": {
      "Hash": -1534894175
    },
    "ItemDesc": {
      "Hash": -1602464837
    },
    "ItemBGDesc": {
      "Hash": 1892813520
    },
    "ItemIconPath": "SpriteOutput/ItemIcon/210001.png",
    "ItemFigureIconPath": "SpriteOutput/ItemFigures/210001.png",
    "ItemCurrencyIconPath": "SpriteOutput/ItemIcon/210001.png",
    "ItemAvatarIconPath": "",
    "PileLimit": 999,
    "CustomDataList": [],
    "ReturnItemIDList": []
  },
  "210346": {
    "ID": 210346,
    "ItemMainType": "Usable",
    "ItemSubType": "MusicAlbum",
    "InventoryDisplayTag": 3,
    "Rarity": "Rare",
    "PurposeType": 20,
    "isVisible": true,
    "ItemName": {
      "Hash": -1938178702
    },
    "ItemDesc": {
      "Hash": -2005749364
    },
    "ItemBGDesc": {
      "Hash": -836069835
    },
    "ItemIconPath": "SpriteOutput/ItemIcon/210001.png",
    "ItemFigureIconPath": "SpriteOutput/ItemFigures/210001.png",
    "ItemCurrencyIconPath": "SpriteOutput/ItemIcon/210001.png",
    "ItemAvatarIconPath": "",
    "PileLimit": 999,
    "CustomDataList": [],
    "ReturnItemIDList": []
  },
  "210347": {
    "ID": 210347,
    "ItemMainType": "Usable",
    "ItemSubType": "MusicAlbum",
    "InventoryDisplayTag": 3,
    "Rarity": "Rare",
    "PurposeType": 20,
    "isVisible": true,
    "ItemName": {
      "Hash": -372094761
    },
    "ItemDesc": {
      "Hash": -439665423
    },
    "ItemBGDesc": {
      "Hash": 730014106
    },
    "ItemIconPath": "SpriteOutput/ItemIcon/210001.png",
    "ItemFigureIconPath": "SpriteOutput/ItemFigures/210001.png",
    "ItemCurrencyIconPath": "SpriteOutput/ItemIcon/210001.png",
    "ItemAvatarIconPath": "",
    "PileLimit": 999,
    "CustomDataList": [],
    "ReturnItemIDList": []
  },
  "210348": {
    "ID": 210348,
    "ItemMainType": "Usable",
    "ItemSubType": "MusicAlbum",
    "InventoryDisplayTag": 3,
    "Rarity": "Rare",
    "PurposeType": 20,
    "isVisible": true,
    "ItemName": {
      "Hash": -1131609648
    },
    "ItemDesc": {
      "Hash": -1555410670
    },
    "ItemBGDesc": {
      "Hash": 1939867687
    },
    "ItemIconPath": "SpriteOutput/ItemIcon/210001.png",
    "ItemFigureIconPath": "SpriteOutput/ItemFigures/210001.png",
    "ItemCurrencyIconPath": "SpriteOutput/ItemIcon/210001.png",
    "ItemAvatarIconPath": "",
    "PileLimit": 999,
    "CustomDataList": [],
    "ReturnItemIDList": []
  },
  "210349": {
    "ID": 210349,
    "ItemMainType": "Usable",
    "ItemSubType": "MusicAlbum",
    "InventoryDisplayTag": 3,
    "Rarity": "Rare",
    "PurposeType": 20,
    "isVisible": true,
    "ItemName": {
      "Hash": 434474293
    },
    "ItemDesc": {
      "Hash": 10673271
    },
    "ItemBGDesc": {
      "Hash": -789015668
    },
    "ItemIconPath": "SpriteOutput/ItemIcon/210001.png",
    "ItemFigureIconPath": "SpriteOutput/ItemFigures/210001.png",
    "ItemCurrencyIconPath": "SpriteOutput/ItemIcon/210001.png",
    "ItemAvatarIconPath": "",
    "PileLimit": 999,
    "CustomDataList": [],
    "ReturnItemIDList": []
  },
  "210350": {
    "ID": 210350,
    "ItemMainType": "Usable",
    "ItemSubType": "MusicAlbum",
    "InventoryDisplayTag": 3,
    "Rarity": "Rare",
    "PurposeType": 20,
    "isVisible": true,
    "ItemName": {
      "Hash": -775379287
    },
    "ItemDesc": {
      "Hash": -1199180309
    },
    "ItemBGDesc": {
      "Hash": -1998869250
    },
    "ItemIconPath": "SpriteOutput/ItemIcon/210001.png",
    "ItemFigureIconPath": "SpriteOutput/ItemFigures/210001.png",
    "ItemCurrencyIconPath": "SpriteOutput/ItemIcon/210001.png",
    "ItemAvatarIconPath": "",
    "PileLimit": 999,
    "CustomDataList": [],
    "ReturnItemIDList": []
  },
  "210351": {
    "ID": 210351,
    "ItemMainType": "Usable",
    "ItemSubType": "MusicAlbum",
    "InventoryDisplayTag": 3,
    "Rarity": "Rare",
    "PurposeType": 20,
    "isVisible": true,
    "ItemName": {
      "Hash": 790704654
    },
    "ItemDesc": {
      "Hash": 366903632
    },
    "ItemBGDesc": {
      "Hash": -432785309
    },
    "ItemIconPath": "SpriteOutput/ItemIcon/210001.png",
    "ItemFigureIconPath": "SpriteOutput/ItemFigures/210001.png",
    "ItemCurrencyIconPath": "SpriteOutput/ItemIcon/210001.png",
    "ItemAvatarIconPath": "",
    "PileLimit": 999,
    "CustomDataList": [],
    "ReturnItemIDList": []
  },
  "210352": {
    "ID": 210352,
    "ItemMainType": "Usable",
    "ItemSubType": "MusicAlbum",
    "InventoryDisplayTag": 3,
    "Rarity": "Rare",
    "PurposeType": 20,
    "isVisible": true,
    "ItemName": {
      "Hash": 387420127
    },
    "ItemDesc": {
      "Hash": -36380895
    },
    "ItemBGDesc": {
      "Hash": 1133298632
    },
    "ItemIconPath": "SpriteOutput/ItemIcon/210001.png",
    "ItemFigureIconPath": "SpriteOutput/ItemFigures/210001.png",
    "ItemCurrencyIconPath": "SpriteOutput/ItemIcon/210001.png",
    "ItemAvatarIconPath": "",
    "PileLimit": 999,
    "CustomDataList": [],
    "ReturnItemIDList": []
  }
}