{
  "1000": {
    "ID": 1000,
    "Name": {
      "Hash": -1004884256
    },
    "IconPath": "SpriteOutput/AvatarRoundIcon/UI_Message_Contacts_Pam.png",
    "SignatureText": {
      "Hash": -1582570808
    },
    "ContactsType": 1,
    "ContactsCamp": 1
  },
  "1001": {
    "ID": 1001,
    "Name": {
      "Hash": -1004884255
    },
    "IconPath": "SpriteOutput/AvatarRoundIcon/1001.png",
    "SignatureText": {
      "Hash": 1146312547
    },
    "ContactsType": 1,
    "ContactsCamp": 1
  },
  "1002": {
    "ID": 1002,
    "Name": {
      "Hash": -1004884258
    },
    "IconPath": "SpriteOutput/AvatarRoundIcon/1002.png",
    "SignatureText": {
      "Hash": 1549597074
    },
    "ContactsType": 1,
    "ContactsCamp": 1
  },
  "1003": {
    "ID": 1003,
    "Name": {
      "Hash": -1004884257
    },
    "IconPath": "SpriteOutput/AvatarRoundIcon/1003.png",
    "SignatureText": {
      "Hash": -16486867
    },
    "ContactsType": 1,
    "ContactsCamp": 1
  },
  "1004": {
    "ID": 1004,
    "Name": {
      "Hash": -1004884260
    },
    "IconPath": "SpriteOutput/AvatarRoundIcon/1004.png",
    "SignatureText": {
      "Hash": 743028020
    },
    "ContactsType": 1,
    "ContactsCamp": 1
  },
  "1005": {
    "ID": 1005,
    "Name": {
      "Hash": -1004884259
    },
    "IconPath": "SpriteOutput/AvatarRoundIcon/1005.png",
    "SignatureText": {
      "Hash": 371857150
    },
    "ContactsType": 1,
    "ContactsCamp": 5
  },
  "1006": {
    "ID": 1006,
    "Name": {
      "Hash": -1004884262
    },
    "IconPath": "SpriteOutput/AvatarRoundIcon/1006.png",
    "SignatureText": {
      "Hash": -419771394
    },
    "ContactsType": 1,
    "ContactsCamp": 5
  },
  "1007": {
    "ID": 1007,
    "Name": {
      "Hash": -1004884261
    },
    "IconPath": "SpriteOutput/AvatarRoundIcon/UI_Message_Contacts_Screwllum.png",
    "SignatureText": {
      "Hash": -1985855335
    },
    "ContactsType": 1,
    "ContactsCamp": 2
  },
  "1008": {
    "ID": 1008,
    "Name": {
      "Hash": -1004884248
    },
    "IconPath": "SpriteOutput/AvatarRoundIcon/1008.png",
    "SignatureText": {
      "Hash": -1938801168
    },
    "ContactsType": 1,
    "ContactsCamp": 2
  },
  "1009": {
    "ID": 1009,
    "Name": {
      "Hash": -1004884247
    },
    "IconPath": "SpriteOutput/AvatarRoundIcon/1009.png",
    "SignatureText": {
      "Hash": 790082187
    },
    "ContactsType": 1,
    "ContactsCamp": 2
  },
  "1013": {
    "ID": 1013,
    "Name": {
      "Hash": 561199684
    },
    "IconPath": "SpriteOutput/AvatarRoundIcon/1013.png",
    "SignatureText": {
      "Hash": -16486868
    },
    "ContactsType": 1,
    "ContactsCamp": 2
  },
  "1101": {
    "ID": 1101,
    "Name": {
      "Hash": -1004884160
    },
    "IconPath": "SpriteOutput/AvatarRoundIcon/1101.png",
    "SignatureText": {
      "Hash": 1287475048
    },
    "ContactsType": 1,
    "ContactsCamp": 3
  },
  "1102": {
    "ID": 1102,
    "Name": {
      "Hash": -1004884161
    },
    "IconPath": "SpriteOutput/AvatarRoundIcon/1102.png",
    "SignatureText": {
      "Hash": -1441408307
    },
    "ContactsType": 1,
    "ContactsCamp": 3
  },
  "1103": {
    "ID": 1103,
    "Name": {
      "Hash": -1004884162
    },
    "IconPath": "SpriteOutput/AvatarRoundIcon/1103.png",
    "SignatureText": {
      "Hash": 124675634
    },
    "ContactsType": 1,
    "ContactsCamp": 3
  },
  "1104": {
    "ID": 1104,
    "Name": {
      "Hash": -1004884163
    },
    "IconPath": "SpriteOutput/AvatarRoundIcon/1104.png",
    "SignatureText": {
      "Hash": 2046989935
    },
    "ContactsType": 1,
    "ContactsCamp": 3
  },
  "1105": {
    "ID": 1105,
    "Name": {
      "Hash": -1004884164
    },
    "IconPath": "SpriteOutput/AvatarRoundIcon/1105.png",
    "SignatureText": {
      "Hash": -681893420
    },
    "ContactsType": 1,
    "ContactsCamp": 3
  },
  "1106": {
    "ID": 1106,
    "Name": {
      "Hash": -1004884165
    },
    "IconPath": "SpriteOutput/AvatarRoundIcon/1106.png",
    "SignatureText": {
      "Hash": 884190521
    },
    "ContactsType": 1,
    "ContactsCamp": 3
  },
  "1107": {
    "ID": 1107,
    "Name": {
      "Hash": -1004884166
    },
    "IconPath": "SpriteOutput/AvatarRoundIcon/1107.png",
    "SignatureText": {
      "Hash": -1844692834
    },
    "ContactsType": 1,
    "ContactsCamp": 3
  },
  "1108": {
    "ID": 1108,
    "Name": {
      "Hash": -1004884151
    },
    "IconPath": "SpriteOutput/AvatarRoundIcon/1108.png",
    "SignatureText": {
      "Hash": -634839253
    },
    "ContactsType": 1,
    "ContactsCamp": 3
  },
  "1109": {
    "ID": 1109,
    "Name": {
      "Hash": -1004884152
    },
    "IconPath": "SpriteOutput/AvatarRoundIcon/1109.png",
    "SignatureText": {
      "Hash": 931244688
    },
    "ContactsType": 1,
    "ContactsCamp": 3
  },
  "1110": {
    "ID": 1110,
    "Name": {
      "Hash": 561199782
    },
    "IconPath": "SpriteOutput/AvatarRoundIcon/1110.png",
    "SignatureText": {
      "Hash": -278608894
    },
    "ContactsType": 1,
    "ContactsCamp": 3
  },
  "1111": {
    "ID": 1111,
    "Name": {
      "Hash": 561199781
    },
    "IconPath": "SpriteOutput/AvatarRoundIcon/1111.png",
    "SignatureText": {
      "Hash": 1287475047
    },
    "ContactsType": 1,
    "ContactsCamp": 3
  },
  "1112": {
    "ID": 1112,
    "Name": {
      "Hash": 561199780
    },
    "IconPath": "SpriteOutput/AvatarRoundIcon/1112.png",
    "SignatureText": {
      "Hash": -1441408308
    },
    "ContactsType": 1,
    "ContactsCamp": 6
  },
  "1201": {
    "ID": 1201,
    "Name": {
      "Hash": -1004884321
    },
    "IconPath": "SpriteOutput/AvatarRoundIcon/1201.png",
    "SignatureText": {
      "Hash": 1428637549
    },
    "ContactsType": 1,
    "ContactsCamp": 4
  },
  "1202": {
    "ID": 1202,
    "Name": {
      "Hash": -1004884320
    },
    "IconPath": "SpriteOutput/AvatarRoundIcon/1202.png",
    "SignatureText": {
      "Hash": -137446392
    },
    "ContactsType": 1,
    "ContactsCamp": 4
  },
  "1203": {
    "ID": 1203,
    "Name": {
      "Hash": -1004884319
    },
    "IconPath": "SpriteOutput/AvatarRoundIcon/1203.png",
    "SignatureText": {
      "Hash": -1703530333
    },
    "ContactsType": 1,
    "ContactsCamp": 4
  },
  "1204": {
    "ID": 1204,
    "Name": {
      "Hash": -1004884326
    },
    "IconPath": "SpriteOutput/AvatarRoundIcon/1204.png",
    "SignatureText": {
      "Hash": 1025353022
    },
    "ContactsType": 1,
    "ContactsCamp": 4
  },
  "1205": {
    "ID": 1205,
    "Name": {
      "Hash": -1004884325
    },
    "IconPath": "SpriteOutput/AvatarRoundIcon/1205.png",
    "SignatureText": {
      "Hash": 371857150
    },
    "ContactsType": 1,
    "ContactsCamp": 5
  },
  "1206": {
    "ID": 1206,
    "Name": {
      "Hash": -1004884324
    },
    "IconPath": "SpriteOutput/AvatarRoundIcon/1206.png",
    "SignatureText": {
      "Hash": -2106814860
    },
    "ContactsType": 1,
    "ContactsCamp": 4
  },
  "1207": {
    "ID": 1207,
    "Name": {
      "Hash": -1004884323
    },
    "IconPath": "SpriteOutput/AvatarRoundIcon/1207.png",
    "SignatureText": {
      "Hash": 622068495
    },
    "ContactsType": 1,
    "ContactsCamp": 4
  },
  "1208": {
    "ID": 1208,
    "Name": {
      "Hash": -1004884314
    },
    "IconPath": "SpriteOutput/AvatarRoundIcon/1208.png",
    "SignatureText": {
      "Hash": -1656476166
    },
    "ContactsType": 1,
    "ContactsCamp": 4
  },
  "1209": {
    "ID": 1209,
    "Name": {
      "Hash": -1004884313
    },
    "IconPath": "SpriteOutput/AvatarRoundIcon/1209.png",
    "SignatureText": {
      "Hash": 1072407189
    },
    "ContactsType": 1,
    "ContactsCamp": 4
  },
  "1210": {
    "ID": 1210,
    "Name": {
      "Hash": 561199619
    },
    "IconPath": "SpriteOutput/AvatarRoundIcon/1210.png",
    "SignatureText": {
      "Hash": -1300245807
    },
    "ContactsType": 1,
    "ContactsCamp": 4
  },
  "1211": {
    "ID": 1211,
    "Name": {
      "Hash": 561199620
    },
    "IconPath": "SpriteOutput/AvatarRoundIcon/1211.png",
    "SignatureText": {
      "Hash": 1428637548
    },
    "ContactsType": 1,
    "ContactsCamp": 4
  },
  "1214": {
    "ID": 1214,
    "Name": {
      "Hash": 561199615
    },
    "IconPath": "SpriteOutput/AvatarRoundIcon/1214.png",
    "SignatureText": {
      "Hash": 1025353021
    },
    "ContactsType": 1,
    "ContactsCamp": 4
  },
  "1215": {
    "ID": 1215,
    "Name": {
      "Hash": 561199616
    },
    "IconPath": "SpriteOutput/AvatarRoundIcon/1215.png",
    "SignatureText": {
      "Hash": -540730920
    },
    "ContactsType": 1,
    "ContactsCamp": 4
  },
  "1217": {
    "ID": 1217,
    "Name": {
      "Hash": 561199618
    },
    "IconPath": "SpriteOutput/AvatarRoundIcon/1217.png",
    "SignatureText": {
      "Hash": 622068494
    },
    "ContactsType": 1,
    "ContactsCamp": 4
  },
  "1301": {
    "ID": 1301,
    "Name": {
      "Hash": -1004884226
    },
    "IconPath": "SpriteOutput/AvatarRoundIcon/1301.png",
    "SignatureText": {
      "Hash": 1569800050
    },
    "ContactsType": 1,
    "ContactsCamp": 11
  },
  "1302": {
    "ID": 1302,
    "Name": {
      "Hash": -1004884223
    },
    "IconPath": "SpriteOutput/AvatarRoundIcon/1302.png",
    "SignatureText": {
      "Hash": 1166515523
    },
    "ContactsType": 1,
    "ContactsCamp": 7
  },
  "1303": {
    "ID": 1303,
    "Name": {
      "Hash": -1004884224
    },
    "IconPath": "SpriteOutput/AvatarRoundIcon/1303.png",
    "SignatureText": {
      "Hash": -1562367832
    },
    "ContactsType": 1,
    "ContactsCamp": 2
  },
  "1304": {
    "ID": 1304,
    "Name": {
      "Hash": -1004884229
    },
    "IconPath": "SpriteOutput/AvatarRoundIcon/1304.png",
    "SignatureText": {
      "Hash": -1965652359
    },
    "ContactsType": 1,
    "ContactsCamp": 6
  },
  "1305": {
    "ID": 1305,
    "Name": {
      "Hash": -1004884230
    },
    "IconPath": "SpriteOutput/AvatarRoundIcon/1305.png",
    "SignatureText": {
      "Hash": -399568418
    },
    "ContactsType": 1,
    "ContactsCamp": 8
  },
  "1306": {
    "ID": 1306,
    "Name": {
      "Hash": -1004884227
    },
    "IconPath": "SpriteOutput/AvatarRoundIcon/1306.png",
    "SignatureText": {
      "Hash": -802852945
    },
    "ContactsType": 1,
    "ContactsCamp": 9
  },
  "1307": {
    "ID": 1307,
    "Name": {
      "Hash": -1004884228
    },
    "IconPath": "SpriteOutput/AvatarRoundIcon/1307.png",
    "SignatureText": {
      "Hash": 763230996
    },
    "ContactsType": 1,
    "ContactsCamp": 10
  },
  "1308": {
    "ID": 1308,
    "Name": {
      "Hash": -1004884217
    },
    "IconPath": "SpriteOutput/AvatarRoundIcon/1308.png",
    "SignatureText": {
      "Hash": 371857150
    },
    "ContactsType": 1,
    "ContactsCamp": 13
  },
  "1310": {
    "ID": 1310,
    "Name": {
      "Hash": 561199716
    },
    "IconPath": "SpriteOutput/AvatarRoundIcon/1310.png",
    "SignatureText": {
      "Hash": 371857150
    },
    "ContactsType": 1,
    "ContactsCamp": 99
  },
  "1312": {
    "ID": 1312,
    "Name": {
      "Hash": 561199718
    },
    "IconPath": "SpriteOutput/AvatarRoundIcon/1312.png",
    "SignatureText": {
      "Hash": 1166515522
    },
    "ContactsType": 1,
    "ContactsCamp": 11
  },
  "1309": {
    "ID": 1309,
    "Name": {
      "Hash": -1004884218
    },
    "IconPath": "SpriteOutput/AvatarRoundIcon/1309.png",
    "SignatureText": {
      "Hash": 1213569690
    },
    "ContactsType": 1,
    "ContactsCamp": 11
  },
  "1315": {
    "ID": 1315,
    "Name": {
      "Hash": 561199711
    },
    "IconPath": "SpriteOutput/AvatarRoundIcon/1315.png",
    "SignatureText": {
      "Hash": -399568419
    },
    "ContactsType": 1,
    "ContactsCamp": 6
  },
  "8000": {
    "ID": 8000,
    "Name": {
      "Hash": 1710702669
    },
    "IconPath": "",
    "SignatureText": {
      "Hash": 371857150
    }
  },
  "1": {
    "ID": 1,
    "Name": {
      "Hash": -983408528
    },
    "IconPath": "SpriteOutput/AvatarRoundIcon/UI_Message_Contacts_Wenmingde.png",
    "SignatureText": {
      "Hash": 602126360
    },
    "ContactsType": 2,
    "ContactsCamp": 2
  },
  "2": {
    "ID": 2,
    "Name": {
      "Hash": 1745474827
    },
    "IconPath": "SpriteOutput/AvatarRoundIcon/UI_Message_Contacts_DoctorDig.png",
    "SignatureText": {
      "Hash": 602126357
    },
    "ContactsType": 2,
    "ContactsCamp": 3
  },
  "3": {
    "ID": 3,
    "Name": {
      "Hash": 179390886
    },
    "IconPath": "SpriteOutput/AvatarRoundIcon/UI_Message_Contacts_Anonymous.png",
    "SignatureText": {
      "Hash": 602126358
    },
    "ContactsType": 2,
    "ContactsCamp": 3
  },
  "4": {
    "ID": 4,
    "Name": {
      "Hash": -1742923415
    },
    "IconPath": "SpriteOutput/AvatarRoundIcon/UI_Message_Contacts_Anonymous.png",
    "SignatureText": {
      "Hash": 371857150
    },
    "ContactsType": 2,
    "ContactsCamp": 3
  },
  "5": {
    "ID": 5,
    "Name": {
      "Hash": 985959940
    },
    "IconPath": "SpriteOutput/AvatarRoundIcon/UI_Message_Contacts_Rocky.png",
    "SignatureText": {
      "Hash": 602126356
    },
    "ContactsType": 2,
    "ContactsCamp": 2
  },
  "6": {
    "ID": 6,
    "Name": {
      "Hash": -580124001
    },
    "IconPath": "SpriteOutput/AvatarRoundIcon/UI_Message_Contacts_Anonymous.png",
    "SignatureText": {
      "Hash": 602126353
    },
    "ContactsType": 2,
    "ContactsCamp": 2
  },
  "7": {
    "ID": 7,
    "Name": {
      "Hash": -2146207942
    },
    "IconPath": "SpriteOutput/AvatarRoundIcon/UI_Message_Contacts_Anonymous.png",
    "SignatureText": {
      "Hash": 602126354
    },
    "ContactsType": 2,
    "ContactsCamp": 2
  },
  "8": {
    "ID": 8,
    "Name": {
      "Hash": 226445053
    },
    "IconPath": "SpriteOutput/AvatarRoundIcon/UI_Message_Contacts_Abraham.png",
    "SignatureText": {
      "Hash": 602126351
    },
    "ContactsType": 2,
    "ContactsCamp": 2
  },
  "9": {
    "ID": 9,
    "Name": {
      "Hash": -1339638888
    },
    "IconPath": "SpriteOutput/AvatarRoundIcon/UI_Message_Contacts_Anonymous.png",
    "SignatureText": {
      "Hash": 371857150
    },
    "ContactsType": 2,
    "ContactsCamp": 99
  },
  "10": {
    "ID": 10,
    "Name": {
      "Hash": -702793376
    },
    "IconPath": "SpriteOutput/AvatarRoundIcon/UI_Message_Contacts_Julian.png",
    "SignatureText": {
      "Hash": 2099833064
    },
    "ContactsType": 2,
    "ContactsCamp": 3
  },
  "11": {
    "ID": 11,
    "Name": {
      "Hash": -702793375
    },
    "IconPath": "SpriteOutput/AvatarRoundIcon/UI_Message_Contacts_Julian.png",
    "SignatureText": {
      "Hash": 533749123
    },
    "ContactsType": 2,
    "ContactsCamp": 99
  },
  "12": {
    "ID": 12,
    "Name": {
      "Hash": -702793378
    },
    "IconPath": "SpriteOutput/AvatarRoundIcon/UI_Message_Contacts_Oleg.png",
    "SignatureText": {
      "Hash": 937033650
    },
    "ContactsType": 2,
    "ContactsCamp": 3
  },
  "13": {
    "ID": 13,
    "Name": {
      "Hash": -702793377
    },
    "IconPath": "SpriteOutput/AvatarRoundIcon/UI_Message_Group_Train.png",
    "SignatureText": {
      "Hash": 371857150
    },
    "ContactsType": 3,
    "ContactsCamp": 1
  },
  "14": {
    "ID": 14,
    "Name": {
      "Hash": -702793380
    },
    "IconPath": "SpriteOutput/AvatarRoundIcon/UI_Message_Contacts_Anonymous.png",
    "SignatureText": {
      "Hash": 371857150
    }
  },
  "15": {
    "ID": 15,
    "Name": {
      "Hash": -702793379
    },
    "IconPath": "SpriteOutput/AvatarRoundIcon/UI_Message_Group_Default.png",
    "SignatureText": {
      "Hash": 371857150
    },
    "ContactsType": 3,
    "ContactsCamp": 2
  },
  "16": {
    "ID": 16,
    "Name": {
      "Hash": -702793382
    },
    "IconPath": "SpriteOutput/AvatarRoundIcon/UI_Message_Contacts_Anonymous.png",
    "SignatureText": {
      "Hash": 371857150
    }
  },
  "17": {
    "ID": 17,
    "Name": {
      "Hash": -702793381
    },
    "IconPath": "SpriteOutput/AvatarRoundIcon/UI_Message_Contacts_Anonymous.png",
    "SignatureText": {
      "Hash": 371857150
    }
  },
  "18": {
    "ID": 18,
    "Name": {
      "Hash": -702793368
    },
    "IconPath": "SpriteOutput/AvatarRoundIcon/UI_Message_Contacts_Anonymous.png",
    "SignatureText": {
      "Hash": 371857150
    }
  },
  "19": {
    "ID": 19,
    "Name": {
      "Hash": -702793367
    },
    "IconPath": "SpriteOutput/AvatarRoundIcon/UI_Message_Contacts_Anonymous.png",
    "SignatureText": {
      "Hash": 371857150
    }
  },
  "20": {
    "ID": 20,
    "Name": {
      "Hash": 2026089979
    },
    "IconPath": "SpriteOutput/AvatarRoundIcon/UI_Message_Contacts_Anonymous.png",
    "SignatureText": {
      "Hash": 371857150
    }
  },
  "21": {
    "ID": 21,
    "Name": {
      "Hash": 2026089980
    },
    "IconPath": "SpriteOutput/AvatarRoundIcon/UI_Message_Contacts_Anonymous.png",
    "SignatureText": {
      "Hash": 371857150
    }
  },
  "22": {
    "ID": 22,
    "Name": {
      "Hash": 2026089977
    },
    "IconPath": "SpriteOutput/AvatarRoundIcon/UI_Message_Contacts_Anonymous.png",
    "SignatureText": {
      "Hash": 371857150
    }
  },
  "23": {
    "ID": 23,
    "Name": {
      "Hash": 2026089978
    },
    "IconPath": "SpriteOutput/AvatarRoundIcon/UI_Message_Contacts_Anonymous.png",
    "SignatureText": {
      "Hash": 371857150
    }
  },
  "24": {
    "ID": 24,
    "Name": {
      "Hash": 2026089975
    },
    "IconPath": "SpriteOutput/AvatarRoundIcon/UI_Message_Contacts_Pamela.png",
    "SignatureText": {
      "Hash": 371857150
    },
    "ContactsType": 2,
    "ContactsCamp": 2
  },
  "25": {
    "ID": 25,
    "Name": {
      "Hash": 2026089976
    },
    "IconPath": "SpriteOutput/AvatarRoundIcon/UI_Message_Contacts_Anonymous.png",
    "SignatureText": {
      "Hash": 371857150
    }
  },
  "26": {
    "ID": 26,
    "Name": {
      "Hash": 2026089973
    },
    "IconPath": "SpriteOutput/AvatarRoundIcon/UI_Message_Contacts_Anonymous.png",
    "SignatureText": {
      "Hash": 371857150
    }
  },
  "27": {
    "ID": 27,
    "Name": {
      "Hash": 2026089974
    },
    "IconPath": "SpriteOutput/AvatarRoundIcon/UI_Message_Contacts_Anonymous.png",
    "SignatureText": {
      "Hash": 371857150
    }
  },
  "28": {
    "ID": 28,
    "Name": {
      "Hash": 2026089987
    },
    "IconPath": "SpriteOutput/AvatarRoundIcon/UI_Message_Contacts_Anonymous.png",
    "SignatureText": {
      "Hash": 371857150
    }
  },
  "29": {
    "ID": 29,
    "Name": {
      "Hash": 2026089988
    },
    "IconPath": "SpriteOutput/AvatarRoundIcon/UI_Message_Contacts_Leonard.png",
    "SignatureText": {
      "Hash": 371857150
    }
  },
  "30": {
    "ID": 30,
    "Name": {
      "Hash": 460006038
    },
    "IconPath": "SpriteOutput/AvatarRoundIcon/UI_Message_Contacts_Anonymous.png",
    "SignatureText": {
      "Hash": 371857150
    }
  },
  "31": {
    "ID": 31,
    "Name": {
      "Hash": 460006039
    },
    "IconPath": "SpriteOutput/AvatarRoundIcon/UI_Message_Contacts_Tantan.png",
    "SignatureText": {
      "Hash": 533749121
    },
    "ContactsType": 2,
    "ContactsCamp": 4
  },
  "32": {
    "ID": 32,
    "Name": {
      "Hash": 460006036
    },
    "IconPath": "SpriteOutput/AvatarRoundIcon/UI_Message_Contacts_Luhui.png",
    "SignatureText": {
      "Hash": 937033648
    },
    "ContactsType": 2,
    "ContactsCamp": 4
  },
  "33": {
    "ID": 33,
    "Name": {
      "Hash": 460006037
    },
    "IconPath": "SpriteOutput/AvatarRoundIcon/UI_Message_Contacts_Wnfurui.png",
    "SignatureText": {
      "Hash": -629050293
    },
    "ContactsCamp": 4
  },
  "34": {
    "ID": 34,
    "Name": {
      "Hash": 460006034
    },
    "IconPath": "SpriteOutput/AvatarRoundIcon/UI_Message_Contacts_Daiqing.png",
    "SignatureText": {
      "Hash": 130464594
    },
    "ContactsCamp": 4
  },
  "35": {
    "ID": 35,
    "Name": {
      "Hash": 460006035
    },
    "IconPath": "SpriteOutput/AvatarRoundIcon/UI_Message_Contacts_Anonymous.png",
    "SignatureText": {
      "Hash": 371857150
    },
    "ContactsCamp": 4
  },
  "36": {
    "ID": 36,
    "Name": {
      "Hash": 460006032
    },
    "IconPath": "SpriteOutput/AvatarRoundIcon/UI_Message_Contacts_Anonymous.png",
    "SignatureText": {
      "Hash": -1032334820
    },
    "ContactsType": 2,
    "ContactsCamp": 4
  },
  "37": {
    "ID": 37,
    "Name": {
      "Hash": 460006033
    },
    "IconPath": "SpriteOutput/AvatarRoundIcon/UI_Message_Contacts_Anonymous.png",
    "SignatureText": {
      "Hash": 1696548535
    },
    "ContactsType": 2,
    "ContactsCamp": 4
  },
  "38": {
    "ID": 38,
    "Name": {
      "Hash": 460006046
    },
    "IconPath": "SpriteOutput/AvatarRoundIcon/UI_Message_Contacts_Xikui.png",
    "SignatureText": {
      "Hash": 1743602702
    },
    "ContactsType": 2,
    "ContactsCamp": 4
  },
  "39": {
    "ID": 39,
    "Name": {
      "Hash": 460006047
    },
    "IconPath": "SpriteOutput/AvatarRoundIcon/UI_Message_Contacts_Yujin.png",
    "SignatureText": {
      "Hash": 177518761
    },
    "ContactsType": 2,
    "ContactsCamp": 4
  },
  "40": {
    "ID": 40,
    "Name": {
      "Hash": -1462308263
    },
    "IconPath": "SpriteOutput/AvatarRoundIcon/UI_Message_Contacts_Donne.png",
    "SignatureText": {
      "Hash": 2099833059
    },
    "ContactsType": 2,
    "ContactsCamp": 3
  },
  "41": {
    "ID": 41,
    "Name": {
      "Hash": -1462308262
    },
    "IconPath": "SpriteOutput/AvatarRoundIcon/UI_Message_Contacts_Anonymous.png",
    "SignatureText": {
      "Hash": 533749118
    },
    "ContactsType": 2,
    "ContactsCamp": 4
  },
  "42": {
    "ID": 42,
    "Name": {
      "Hash": -1462308265
    },
    "IconPath": "SpriteOutput/AvatarRoundIcon/UI_Message_Contacts_Dahao.png",
    "SignatureText": {
      "Hash": 937033645
    },
    "ContactsType": 2,
    "ContactsCamp": 4
  },
  "44": {
    "ID": 44,
    "Name": {
      "Hash": -1462308267
    },
    "IconPath": "SpriteOutput/AvatarRoundIcon/UI_Message_Contacts_Liangmu.png",
    "SignatureText": {
      "Hash": 130464591
    },
    "ContactsType": 2,
    "ContactsCamp": 4
  },
  "46": {
    "ID": 46,
    "Name": {
      "Hash": -1462308269
    },
    "IconPath": "SpriteOutput/AvatarRoundIcon/UI_Message_Contacts_Diting.png",
    "SignatureText": {
      "Hash": -1032334823
    },
    "ContactsType": 2,
    "ContactsCamp": 4
  },
  "47": {
    "ID": 47,
    "Name": {
      "Hash": -1462308268
    },
    "IconPath": "SpriteOutput/AvatarRoundIcon/UI_Message_Contacts_Jingyana.png",
    "SignatureText": {
      "Hash": 1696548532
    },
    "ContactsType": 2,
    "ContactsCamp": 4
  },
  "48": {
    "ID": 48,
    "Name": {
      "Hash": -1462308255
    },
    "IconPath": "SpriteOutput/AvatarRoundIcon/UI_Message_Contacts_Emilie.png",
    "SignatureText": {
      "Hash": 1743602699
    },
    "ContactsType": 2,
    "ContactsCamp": 2
  },
  "49": {
    "ID": 49,
    "Name": {
      "Hash": -1462308254
    },
    "IconPath": "SpriteOutput/AvatarRoundIcon/UI_Message_Contacts_Anonymous.png",
    "SignatureText": {
      "Hash": 177518758
    },
    "ContactsType": 2,
    "ContactsCamp": 99
  },
  "50": {
    "ID": 50,
    "Name": {
      "Hash": 1266575092
    },
    "IconPath": "SpriteOutput/AvatarRoundIcon/UI_Message_Group_Default.png",
    "SignatureText": {
      "Hash": 2099833060
    },
    "ContactsType": 2,
    "ContactsCamp": 3
  },
  "51": {
    "ID": 51,
    "Name": {
      "Hash": 1266575093
    },
    "IconPath": "SpriteOutput/AvatarRoundIcon/UI_Message_Contacts_Qingni.png",
    "SignatureText": {
      "Hash": 533749119
    },
    "ContactsType": 2,
    "ContactsCamp": 4
  },
  "52": {
    "ID": 52,
    "Name": {
      "Hash": 1266575090
    },
    "IconPath": "SpriteOutput/AvatarRoundIcon/UI_Message_Contacts_Bukaixin.png",
    "SignatureText": {
      "Hash": 937033646
    },
    "ContactsType": 2,
    "ContactsCamp": 2
  },
  "53": {
    "ID": 53,
    "Name": {
      "Hash": 1266575091
    },
    "IconPath": "SpriteOutput/AvatarRoundIcon/UI_Message_Contacts_Anonymous.png",
    "SignatureText": {
      "Hash": 371857150
    },
    "ContactsType": 2,
    "ContactsCamp": 4
  },
  "54": {
    "ID": 54,
    "Name": {
      "Hash": 1266575088
    },
    "IconPath": "SpriteOutput/AvatarRoundIcon/UI_Message_Contacts_Chengjie.png",
    "SignatureText": {
      "Hash": 130464592
    },
    "ContactsType": 2,
    "ContactsCamp": 4
  },
  "55": {
    "ID": 55,
    "Name": {
      "Hash": 1266575089
    },
    "IconPath": "SpriteOutput/AvatarRoundIcon/UI_Message_Contacts_Ziqiao.png",
    "SignatureText": {
      "Hash": -1435619349
    },
    "ContactsType": 2,
    "ContactsCamp": 4
  },
  "56": {
    "ID": 56,
    "Name": {
      "Hash": 1266575086
    },
    "IconPath": "SpriteOutput/AvatarRoundIcon/UI_Message_Group_Default.png",
    "SignatureText": {
      "Hash": 371857150
    },
    "ContactsType": 3,
    "ContactsCamp": 2
  },
  "57": {
    "ID": 57,
    "Name": {
      "Hash": 1266575087
    },
    "IconPath": "SpriteOutput/AvatarRoundIcon/UI_Message_Contacts_Anonymous.png",
    "SignatureText": {
      "Hash": 371857150
    },
    "ContactsType": 2,
    "ContactsCamp": 4
  },
  "58": {
    "ID": 58,
    "Name": {
      "Hash": 1266575100
    },
    "IconPath": "SpriteOutput/AvatarRoundIcon/UI_Message_Contacts_Anonymous.png",
    "SignatureText": {
      "Hash": 371857150
    },
    "ContactsType": 2,
    "ContactsCamp": 4
  },
  "59": {
    "ID": 59,
    "Name": {
      "Hash": 1266575101
    },
    "IconPath": "SpriteOutput/AvatarRoundIcon/UI_Message_Contacts_Engineer.png",
    "SignatureText": {
      "Hash": 371857150
    },
    "ContactsType": 2,
    "ContactsCamp": 2
  },
  "60": {
    "ID": 60,
    "Name": {
      "Hash": -299508849
    },
    "IconPath": "SpriteOutput/AvatarRoundIcon/UI_Message_Contacts_Qingzu.png",
    "SignatureText": {
      "Hash": 371857150
    },
    "ContactsType": 2,
    "ContactsCamp": 4
  },
  "61": {
    "ID": 61,
    "Name": {
      "Hash": -299508848
    },
    "IconPath": "SpriteOutput/AvatarRoundIcon/UI_Message_Contacts_Lvfulong.png",
    "SignatureText": {
      "Hash": 371857150
    },
    "ContactsType": 2,
    "ContactsCamp": 4
  },
  "62": {
    "ID": 62,
    "Name": {
      "Hash": -299508851
    },
    "IconPath": "SpriteOutput/AvatarRoundIcon/UI_Message_Contacts_Anonymous.png",
    "SignatureText": {
      "Hash": 371857150
    },
    "ContactsType": 2,
    "ContactsCamp": 4
  },
  "63": {
    "ID": 63,
    "Name": {
      "Hash": -299508850
    },
    "IconPath": "SpriteOutput/AvatarRoundIcon/UI_Message_Contacts_Anonymous.png",
    "SignatureText": {
      "Hash": -629050298
    },
    "ContactsType": 2,
    "ContactsCamp": 99
  },
  "64": {
    "ID": 64,
    "Name": {
      "Hash": -299508853
    },
    "IconPath": "SpriteOutput/AvatarRoundIcon/UI_Message_Contacts_Anonymous.png",
    "SignatureText": {
      "Hash": 371857150
    },
    "ContactsType": 2,
    "ContactsCamp": 4
  },
  "65": {
    "ID": 65,
    "Name": {
      "Hash": -299508852
    },
    "IconPath": "SpriteOutput/AvatarRoundIcon/UI_Message_Contacts_Anonymous.png",
    "SignatureText": {
      "Hash": 371857150
    },
    "ContactsType": 2,
    "ContactsCamp": 4
  },
  "66": {
    "ID": 66,
    "Name": {
      "Hash": -299508855
    },
    "IconPath": "SpriteOutput/AvatarRoundIcon/UI_Message_Contacts_Danshu.png",
    "SignatureText": {
      "Hash": 371857150
    },
    "ContactsType": 2,
    "ContactsCamp": 4
  },
  "67": {
    "ID": 67,
    "Name": {
      "Hash": -299508854
    },
    "IconPath": "SpriteOutput/AvatarRoundIcon/UI_Message_Group_Default.png",
    "SignatureText": {
      "Hash": 371857150
    },
    "ContactsType": 3,
    "ContactsCamp": 3
  },
  "68": {
    "ID": 68,
    "Name": {
      "Hash": -299508841
    },
    "IconPath": "SpriteOutput/AvatarRoundIcon/UI_Message_Group_Default.png",
    "SignatureText": {
      "Hash": 371857150
    },
    "ContactsType": 3,
    "ContactsCamp": 2
  },
  "69": {
    "ID": 69,
    "Name": {
      "Hash": -299508840
    },
    "IconPath": "SpriteOutput/AvatarRoundIcon/UI_Message_Contacts_Regin.png",
    "SignatureText": {
      "Hash": 177518756
    },
    "ContactsType": 2,
    "ContactsCamp": 3
  },
  "70": {
    "ID": 70,
    "Name": {
      "Hash": -1865592790
    },
    "IconPath": "SpriteOutput/AvatarRoundIcon/UI_Message_Group_Default.png",
    "SignatureText": {
      "Hash": 371857150
    },
    "ContactsType": 3,
    "ContactsCamp": 3
  },
  "71": {
    "ID": 71,
    "Name": {
      "Hash": -1865592789
    },
    "IconPath": "SpriteOutput/AvatarRoundIcon/UI_Message_Contacts_NPCSoldier.png",
    "SignatureText": {
      "Hash": 371857150
    },
    "ContactsType": 2,
    "ContactsCamp": 3
  },
  "72": {
    "ID": 72,
    "Name": {
      "Hash": -1865592792
    },
    "IconPath": "SpriteOutput/AvatarRoundIcon/UI_Message_Contacts_Zhangzhang.png",
    "SignatureText": {
      "Hash": 371857150
    },
    "ContactsType": 2,
    "ContactsCamp": 3
  },
  "73": {
    "ID": 73,
    "Name": {
      "Hash": -1865592791
    },
    "IconPath": "SpriteOutput/AvatarRoundIcon/UI_Message_Group_Default.png",
    "SignatureText": {
      "Hash": 371857150
    },
    "ContactsType": 3,
    "ContactsCamp": 3
  },
  "74": {
    "ID": 74,
    "Name": {
      "Hash": -1865592794
    },
    "IconPath": "SpriteOutput/AvatarRoundIcon/UI_Message_Contacts_Anonymous.png",
    "SignatureText": {
      "Hash": 371857150
    },
    "ContactsType": 2,
    "ContactsCamp": 99
  },
  "75": {
    "ID": 75,
    "Name": {
      "Hash": -1865592793
    },
    "IconPath": "SpriteOutput/AvatarRoundIcon/UI_Message_Contacts_Anonymous.png",
    "SignatureText": {
      "Hash": 371857150
    },
    "ContactsType": 2,
    "ContactsCamp": 4
  },
  "76": {
    "ID": 76,
    "Name": {
      "Hash": -1865592796
    },
    "IconPath": "SpriteOutput/AvatarRoundIcon/UI_Message_Contacts_Anonymous.png",
    "SignatureText": {
      "Hash": 371857150
    },
    "ContactsType": 2,
    "ContactsCamp": 4
  },
  "77": {
    "ID": 77,
    "Name": {
      "Hash": -1865592795
    },
    "IconPath": "SpriteOutput/AvatarRoundIcon/UI_Message_Group_Default.png",
    "SignatureText": {
      "Hash": 371857150
    },
    "ContactsType": 3,
    "ContactsCamp": 3
  },
  "78": {
    "ID": 78,
    "Name": {
      "Hash": -1865592782
    },
    "IconPath": "SpriteOutput/AvatarRoundIcon/UI_Message_Group_Default.png",
    "SignatureText": {
      "Hash": 371857150
    },
    "ContactsType": 3,
    "ContactsCamp": 99
  },
  "79": {
    "ID": 79,
    "Name": {
      "Hash": -1865592781
    },
    "IconPath": "SpriteOutput/AvatarRoundIcon/UI_Message_Contacts_Mingxi.png",
    "SignatureText": {
      "Hash": 371857150
    },
    "ContactsType": 2,
    "ContactsCamp": 99
  },
  "80": {
    "ID": 80,
    "Name": {
      "Hash": 507060205
    },
    "IconPath": "SpriteOutput/AvatarRoundIcon/UI_Message_Contacts_Xiaohan.png",
    "SignatureText": {
      "Hash": 371857150
    },
    "ContactsType": 2,
    "ContactsCamp": 99
  },
  "82": {
    "ID": 82,
    "Name": {
      "Hash": 507060203
    },
    "IconPath": "SpriteOutput/AvatarRoundIcon/UI_Message_Contacts_Zhongshan.png",
    "SignatureText": {
      "Hash": 371857150
    },
    "ContactsType": 2,
    "ContactsCamp": 4
  },
  "83": {
    "ID": 83,
    "Name": {
      "Hash": 507060204
    },
    "IconPath": "SpriteOutput/AvatarRoundIcon/UI_Message_Contacts_XiaoCong.png",
    "SignatureText": {
      "Hash": -629050300
    },
    "ContactsType": 2,
    "ContactsCamp": 4
  },
  "84": {
    "ID": 84,
    "Name": {
      "Hash": 507060201
    },
    "IconPath": "SpriteOutput/AvatarRoundIcon/UI_Message_Contacts_Taode.png",
    "SignatureText": {
      "Hash": 130464587
    },
    "ContactsType": 2,
    "ContactsCamp": 4
  },
  "86": {
    "ID": 86,
    "Name": {
      "Hash": 507060199
    },
    "IconPath": "SpriteOutput/AvatarRoundIcon/UI_Message_Contacts_Velite.png",
    "SignatureText": {
      "Hash": -1032334827
    },
    "ContactsType": 2,
    "ContactsCamp": 99
  },
  "87": {
    "ID": 87,
    "Name": {
      "Hash": 507060200
    },
    "IconPath": "SpriteOutput/AvatarRoundIcon/UI_Message_Contacts_MrXiYan.png",
    "SignatureText": {
      "Hash": 1696548528
    },
    "ContactsType": 2,
    "ContactsCamp": 4
  },
  "88": {
    "ID": 88,
    "Name": {
      "Hash": 507060213
    },
    "IconPath": "SpriteOutput/AvatarRoundIcon/UI_Message_Contacts_Giovanni.png",
    "SignatureText": {
      "Hash": 1743602695
    },
    "ContactsType": 2,
    "ContactsCamp": 99
  },
  "89": {
    "ID": 89,
    "Name": {
      "Hash": 507060214
    },
    "IconPath": "SpriteOutput/AvatarRoundIcon/UI_Message_Contacts_Yancui.png",
    "SignatureText": {
      "Hash": 177518754
    },
    "ContactsType": 2,
    "ContactsCamp": 4
  },
  "90": {
    "ID": 90,
    "Name": {
      "Hash": -1059023736
    },
    "IconPath": "SpriteOutput/AvatarRoundIcon/UI_Message_Group_Default.png",
    "SignatureText": {
      "Hash": 371857150
    },
    "ContactsType": 3,
    "ContactsCamp": 4
  },
  "91": {
    "ID": 91,
    "Name": {
      "Hash": -1059023735
    },
    "IconPath": "SpriteOutput/AvatarRoundIcon/UI_Message_Contacts_Wosen.png",
    "SignatureText": {
      "Hash": 533749115
    },
    "ContactsType": 2,
    "ContactsCamp": 2
  },
  "92": {
    "ID": 92,
    "Name": {
      "Hash": -1059023738
    },
    "IconPath": "SpriteOutput/AvatarRoundIcon/UI_Message_Contacts_Guangjin.png",
    "SignatureText": {
      "Hash": 371857150
    },
    "ContactsType": 2,
    "ContactsCamp": 4
  },
  "93": {
    "ID": 93,
    "Name": {
      "Hash": -1059023737
    },
    "IconPath": "SpriteOutput/AvatarRoundIcon/UI_Message_Group_Default.png",
    "SignatureText": {
      "Hash": 371857150
    },
    "ContactsType": 3,
    "ContactsCamp": 99
  },
  "95": {
    "ID": 95,
    "Name": {
      "Hash": -1059023739
    },
    "IconPath": "SpriteOutput/AvatarRoundIcon/UI_Message_Contacts_JieZhongKe.png",
    "SignatureText": {
      "Hash": 371857150
    },
    "ContactsType": 2,
    "ContactsCamp": 2
  },
  "97": {
    "ID": 97,
    "Name": {
      "Hash": -1059023741
    },
    "IconPath": "SpriteOutput/AvatarRoundIcon/UI_Message_Contacts_Anonymous.png",
    "SignatureText": {
      "Hash": 371857150
    },
    "ContactsType": 2,
    "ContactsCamp": 2
  },
  "98": {
    "ID": 98,
    "Name": {
      "Hash": -1059023728
    },
    "IconPath": "SpriteOutput/AvatarRoundIcon/UI_Message_Contacts_Anonymous.png",
    "SignatureText": {
      "Hash": 371857150
    },
    "ContactsType": 2,
    "ContactsCamp": 2
  },
  "102": {
    "ID": 102,
    "Name": {
      "Hash": -512450170
    },
    "IconPath": "SpriteOutput/AvatarRoundIcon/UI_Message_Contacts_Anonymous.png",
    "SignatureText": {
      "Hash": 371857150
    },
    "ContactsType": 2,
    "ContactsCamp": 4
  },
  "103": {
    "ID": 103,
    "Name": {
      "Hash": 1053633771
    },
    "IconPath": "SpriteOutput/AvatarRoundIcon/UI_Message_Contacts_Anonymous.png",
    "SignatureText": {
      "Hash": 371857150
    }
  },
  "104": {
    "ID": 104,
    "Name": {
      "Hash": 294118884
    },
    "IconPath": "SpriteOutput/AvatarRoundIcon/UI_Message_Contacts_Anonymous.png",
    "SignatureText": {
      "Hash": 371857150
    }
  },
  "105": {
    "ID": 105,
    "Name": {
      "Hash": 1860202825
    },
    "IconPath": "SpriteOutput/AvatarRoundIcon/UI_Message_Group_Default.png",
    "SignatureText": {
      "Hash": 371857150
    },
    "ContactsType": 3,
    "ContactsCamp": 2
  },
  "106": {
    "ID": 106,
    "Name": {
      "Hash": 1456918298
    },
    "IconPath": "SpriteOutput/AvatarRoundIcon/UI_Message_Contacts_DreamStore.png",
    "SignatureText": {
      "Hash": -892205934
    },
    "ContactsType": 2,
    "ContactsCamp": 99
  },
  "107": {
    "ID": 107,
    "Name": {
      "Hash": -1271965057
    },
    "IconPath": "SpriteOutput/AvatarRoundIcon/UI_Message_Group_Default.png",
    "SignatureText": {
      "Hash": 371857150
    },
    "ContactsType": 3,
    "ContactsCamp": 99
  },
  "108": {
    "ID": 108,
    "Name": {
      "Hash": -2031479944
    },
    "IconPath": "SpriteOutput/AvatarRoundIcon/UI_Message_Contacts_Anonymous.png",
    "SignatureText": {
      "Hash": 371857150
    },
    "ContactsType": 2,
    "ContactsCamp": 4
  },
  "109": {
    "ID": 109,
    "Name": {
      "Hash": -465396003
    },
    "IconPath": "SpriteOutput/AvatarRoundIcon/UI_Message_Group_Default.png",
    "SignatureText": {
      "Hash": 371857150
    },
    "ContactsType": 3,
    "ContactsCamp": 99
  },
  "110": {
    "ID": 110,
    "Name": {
      "Hash": -1675249583
    },
    "IconPath": "SpriteOutput/AvatarRoundIcon/UI_Message_Group_Default.png",
    "SignatureText": {
      "Hash": 371857150
    },
    "ContactsType": 3,
    "ContactsCamp": 4
  },
  "111": {
    "ID": 111,
    "Name": {
      "Hash": -109165642
    },
    "IconPath": "SpriteOutput/AvatarRoundIcon/UI_Message_Contacts_Anonymous.png",
    "SignatureText": {
      "Hash": 1836677426
    },
    "ContactsType": 2,
    "ContactsCamp": 4
  },
  "112": {
    "ID": 112,
    "Name": {
      "Hash": -512450169
    },
    "IconPath": "SpriteOutput/AvatarRoundIcon/UI_Message_Contacts_Anonymous.png",
    "SignatureText": {
      "Hash": 371857150
    }
  },
  "113": {
    "ID": 113,
    "Name": {
      "Hash": 1053633772
    },
    "IconPath": "SpriteOutput/AvatarRoundIcon/UI_Message_Group_Default.png",
    "SignatureText": {
      "Hash": 371857150
    },
    "ContactsType": 3,
    "ContactsCamp": 2
  },
  "114": {
    "ID": 114,
    "Name": {
      "Hash": 294118885
    },
    "IconPath": "SpriteOutput/AvatarRoundIcon/UI_Message_Group_Default.png",
    "SignatureText": {
      "Hash": 371857150
    },
    "ContactsType": 3,
    "ContactsCamp": 2
  },
  "115": {
    "ID": 115,
    "Name": {
      "Hash": 1860202826
    },
    "IconPath": "SpriteOutput/AvatarRoundIcon/UI_Message_Group_Default.png",
    "SignatureText": {
      "Hash": 371857150
    },
    "ContactsType": 3,
    "ContactsCamp": 1
  },
  "116": {
    "ID": 116,
    "Name": {
      "Hash": 1456918299
    },
    "IconPath": "SpriteOutput/AvatarRoundIcon/UI_Message_Contacts_DreamOffice.png",
    "SignatureText": {
      "Hash": 371857150
    },
    "ContactsType": 2,
    "ContactsCamp": 99
  },
  "117": {
    "ID": 117,
    "Name": {
      "Hash": -1271965056
    },
    "IconPath": "SpriteOutput/AvatarRoundIcon/UI_Message_Group_Default.png",
    "SignatureText": {
      "Hash": 371857150
    },
    "ContactsType": 3,
    "ContactsCamp": 99
  },
  "118": {
    "ID": 118,
    "Name": {
      "Hash": -2031479943
    },
    "IconPath": "SpriteOutput/AvatarRoundIcon/UI_Message_Contacts_Woolsey.png",
    "SignatureText": {
      "Hash": 371857150
    },
    "ContactsType": 2,
    "ContactsCamp": 99
  },
  "119": {
    "ID": 119,
    "Name": {
      "Hash": -465396002
    },
    "IconPath": "SpriteOutput/AvatarRoundIcon/UI_Message_Contacts_Anonymous.png",
    "SignatureText": {
      "Hash": 371857150
    },
    "ContactsType": 2,
    "ContactsCamp": 99
  },
  "120": {
    "ID": 120,
    "Name": {
      "Hash": -1675249586
    },
    "IconPath": "SpriteOutput/AvatarRoundIcon/UI_Message_DelicayExpress.png",
    "SignatureText": {
      "Hash": 371857150
    },
    "ContactsType": 2,
    "ContactsCamp": 99
  },
  "121": {
    "ID": 121,
    "Name": {
      "Hash": -109165645
    },
    "IconPath": "SpriteOutput/AvatarRoundIcon/UI_Message_Contacts_Uma.png",
    "SignatureText": {
      "Hash": 371857150
    },
    "ContactsType": 2,
    "ContactsCamp": 99
  },
  "122": {
    "ID": 122,
    "Name": {
      "Hash": -512450172
    },
    "IconPath": "SpriteOutput/AvatarRoundIcon/UI_Message_Contacts_LuxuryStore.png",
    "SignatureText": {
      "Hash": 371857150
    },
    "ContactsType": 2,
    "ContactsCamp": 99
  },
  "123": {
    "ID": 123,
    "Name": {
      "Hash": 1053633769
    },
    "IconPath": "SpriteOutput/AvatarRoundIcon/UI_Message_Contacts_Anonymous.png",
    "SignatureText": {
      "Hash": 371857150
    },
    "ContactsType": 2,
    "ContactsCamp": 99
  },
  "124": {
    "ID": 124,
    "Name": {
      "Hash": 294118882
    },
    "IconPath": "SpriteOutput/AvatarRoundIcon/UI_Message_Contacts_Anonymous.png",
    "SignatureText": {
      "Hash": 371857150
    },
    "ContactsType": 2,
    "ContactsCamp": 99
  },
  "125": {
    "ID": 125,
    "Name": {
      "Hash": 1860202823
    },
    "IconPath": "SpriteOutput/AvatarRoundIcon/Series/202002.png",
    "SignatureText": {
      "Hash": 371857150
    },
    "ContactsType": 2,
    "ContactsCamp": 99
  },
  "126": {
    "ID": 126,
    "Name": {
      "Hash": 1456918296
    },
    "IconPath": "SpriteOutput/AvatarRoundIcon/Series/202002.png",
    "SignatureText": {
      "Hash": 371857150
    },
    "ContactsType": 2,
    "ContactsCamp": 99
  },
  "127": {
    "ID": 127,
    "Name": {
      "Hash": -1271965059
    },
    "IconPath": "SpriteOutput/AvatarRoundIcon/Series/202002.png",
    "SignatureText": {
      "Hash": 371857150
    },
    "ContactsType": 2,
    "ContactsCamp": 99
  },
  "128": {
    "ID": 128,
    "Name": {
      "Hash": -2031479946
    },
    "IconPath": "SpriteOutput/AvatarRoundIcon/Series/202002.png",
    "SignatureText": {
      "Hash": 371857150
    },
    "ContactsType": 2,
    "ContactsCamp": 99
  },
  "129": {
    "ID": 129,
    "Name": {
      "Hash": -465396005
    },
    "IconPath": "SpriteOutput/AvatarRoundIcon/UI_Message_Contacts_Anonymous.png",
    "SignatureText": {
      "Hash": 371857150
    },
    "ContactsType": 2,
    "ContactsCamp": 99
  },
  "130": {
    "ID": 130,
    "Name": {
      "Hash": -1675249585
    },
    "IconPath": "SpriteOutput/AvatarRoundIcon/UI_Message_Contacts_Anonymous.png",
    "SignatureText": {
      "Hash": 371857150
    },
    "ContactsType": 2,
    "ContactsCamp": 99
  },
  "131": {
    "ID": 131,
    "Name": {
      "Hash": -109165644
    },
    "IconPath": "SpriteOutput/AvatarRoundIcon/UI_Message_Contacts_DreamOffice.png",
    "SignatureText": {
      "Hash": 371857150
    },
    "ContactsType": 2,
    "ContactsCamp": 99
  },
  "132": {
    "ID": 132,
    "Name": {
      "Hash": -512450171
    },
    "IconPath": "SpriteOutput/AvatarRoundIcon/UI_Message_Contacts_Anonymous.png",
    "SignatureText": {
      "Hash": 371857150
    },
    "ContactsType": 2,
    "ContactsCamp": 99
  },
  "133": {
    "ID": 133,
    "Name": {
      "Hash": 1053633770
    },
    "IconPath": "SpriteOutput/AvatarRoundIcon/UI_Message_Contacts_Sionbhan.png",
    "SignatureText": {
      "Hash": 371857150
    },
    "ContactsType": 2,
    "ContactsCamp": 11
  },
  "134": {
    "ID": 134,
    "Name": {
      "Hash": 294118883
    },
    "IconPath": "SpriteOutput/AvatarRoundIcon/UI_Message_Contacts_DesolaTheSecond.png",
    "SignatureText": {
      "Hash": 673878009
    },
    "ContactsType": 2,
    "ContactsCamp": 11
  },
  "135": {
    "ID": 135,
    "Name": {
      "Hash": 1860202824
    },
    "IconPath": "SpriteOutput/AvatarRoundIcon/UI_Message_Contacts_Anonymous.png",
    "SignatureText": {
      "Hash": 371857150
    },
    "ContactsType": 2,
    "ContactsCamp": 99
  },
  "136": {
    "ID": 136,
    "Name": {
      "Hash": 1456918297
    },
    "IconPath": "SpriteOutput/MonsterRoundIcon/Monster_3002030.png",
    "SignatureText": {
      "Hash": 371857150
    },
    "ContactsType": 2,
    "ContactsCamp": 11
  },
  "137": {
    "ID": 137,
    "Name": {
      "Hash": -1271965058
    },
    "IconPath": "SpriteOutput/MonsterRoundIcon/Monster_3001010.png",
    "SignatureText": {
      "Hash": 371857150
    },
    "ContactsType": 2,
    "ContactsCamp": 11
  },
  "138": {
    "ID": 138,
    "Name": {
      "Hash": -2031479945
    },
    "IconPath": "SpriteOutput/MonsterRoundIcon/Monster_3002010.png",
    "SignatureText": {
      "Hash": 371857150
    },
    "ContactsType": 2,
    "ContactsCamp": 11
  },
  "139": {
    "ID": 139,
    "Name": {
      "Hash": -465396004
    },
    "IconPath": "SpriteOutput/MonsterRoundIcon/Monster_3001020.png",
    "SignatureText": {
      "Hash": 371857150
    },
    "ContactsType": 2,
    "ContactsCamp": 11
  },
  "140": {
    "ID": 140,
    "Name": {
      "Hash": -1675249588
    },
    "IconPath": "SpriteOutput/AvatarRoundIcon/UI_Message_Group_Default.png",
    "SignatureText": {
      "Hash": 371857150
    },
    "ContactsType": 3,
    "ContactsCamp": 11
  },
  "141": {
    "ID": 141,
    "Name": {
      "Hash": -109165647
    },
    "IconPath": "SpriteOutput/AvatarRoundIcon/UI_Message_Contacts_AdvertBoard.png",
    "SignatureText": {
      "Hash": 371857150
    },
    "ContactsType": 2,
    "ContactsCamp": 11
  },
  "142": {
    "ID": 142,
    "Name": {
      "Hash": -512450174
    },
    "IconPath": "SpriteOutput/AvatarRoundIcon/1308.png",
    "SignatureText": {
      "Hash": 371857150
    },
    "ContactsType": 1,
    "ContactsCamp": 12
  },
  "145": {
    "ID": 145,
    "Name": {
      "Hash": 1860202821
    },
    "IconPath": "SpriteOutput/AvatarRoundIcon/UI_Message_Contacts_Anonymous.png",
    "SignatureText": {
      "Hash": 371857150
    },
    "ContactsType": 2,
    "ContactsCamp": 11
  },
  "146": {
    "ID": 146,
    "Name": {
      "Hash": 1456918294
    },
    "IconPath": "SpriteOutput/AvatarRoundIcon/UI_Message_Contacts_Anonymous.png",
    "SignatureText": {
      "Hash": 371857150
    },
    "ContactsType": 2,
    "ContactsCamp": 11
  },
  "148": {
    "ID": 148,
    "Name": {
      "Hash": -2031479948
    },
    "IconPath": "SpriteOutput/AvatarRoundIcon/UI_Message_Contacts_Jetta.png",
    "SignatureText": {
      "Hash": 371857150
    },
    "ContactsType": 2,
    "ContactsCamp": 2
  },
  "149": {
    "ID": 149,
    "Name": {
      "Hash": -465396007
    },
    "IconPath": "SpriteOutput/AvatarRoundIcon/UI_Message_Contacts_Anonymous.png",
    "SignatureText": {
      "Hash": 371857150
    },
    "ContactsType": 2,
    "ContactsCamp": 11
  },
  "150": {
    "ID": 150,
    "Name": {
      "Hash": -1675249587
    },
    "IconPath": "SpriteOutput/AvatarRoundIcon/UI_Message_Contacts_Aideen.png",
    "SignatureText": {
      "Hash": 371857150
    },
    "ContactsType": 2,
    "ContactsCamp": 11
  }
}