{
  "7001010": {
    "MonsterID": 7001010,
    "MonsterTemplateID": 7001010,
    "MonsterName": {
      "Hash": -98641229
    },
    "MonsterIntroduction": {
      "Hash": -612124506
    },
    "MonsterBattleIntroduction": {
      "Hash": 371857150
    },
    "HardLevelGroup": 1,
    "EliteGroup": 1,
    "AttackModifyRatio": {
      "Value": 1
    },
    "DefenceModifyRatio": {
      "Value": 1
    },
    "HPModifyRatio": {
      "Value": 1
    },
    "SpeedModifyRatio": {
      "Value": 1
    },
    "StanceModifyRatio": {
      "Value": 1
    },
    "SkillList": [
      700101001,
      700101002,
      700101003
    ],
    "CustomValues": [],
    "DynamicValues": [],
    "DebuffResist": [],
    "CustomValueTags": [],
    "StanceWeakList": [
      "Physical",
      "Fire",
      "Ice",
      "Thunder",
      "Wind",
      "Quantum",
      "Imaginary"
    ],
    "DamageTypeResistance": [],
    "AbilityNameList": [],
    "OverrideAIPath": "",
    "OverrideAISkillSequence": []
  },
  "7001011": {
    "MonsterID": 7001011,
    "MonsterTemplateID": 7001011,
    "MonsterName": {
      "Hash": -98641230
    },
    "MonsterIntroduction": {
      "Hash": -612124507
    },
    "MonsterBattleIntroduction": {
      "Hash": 371857150
    },
    "HardLevelGroup": 1,
    "EliteGroup": 1,
    "AttackModifyRatio": {
      "Value": 1
    },
    "DefenceModifyRatio": {
      "Value": 1
    },
    "HPModifyRatio": {
      "Value": 1
    },
    "SpeedModifyRatio": {
      "Value": 1
    },
    "StanceModifyRatio": {
      "Value": 1
    },
    "SkillList": [
      700101101,
      700101102
    ],
    "CustomValues": [],
    "DynamicValues": [],
    "DebuffResist": [],
    "CustomValueTags": [],
    "StanceWeakList": [
      "Physical",
      "Fire",
      "Ice",
      "Thunder",
      "Wind",
      "Quantum",
      "Imaginary"
    ],
    "DamageTypeResistance": [],
    "AbilityNameList": [],
    "OverrideAIPath": "",
    "OverrideAISkillSequence": []
  },
  "7001012": {
    "MonsterID": 7001012,
    "MonsterTemplateID": 7001012,
    "MonsterName": {
      "Hash": -98641231
    },
    "MonsterIntroduction": {
      "Hash": -612124508
    },
    "MonsterBattleIntroduction": {
      "Hash": 371857150
    },
    "HardLevelGroup": 1,
    "EliteGroup": 1,
    "AttackModifyRatio": {
      "Value": 1
    },
    "DefenceModifyRatio": {
      "Value": 1
    },
    "HPModifyRatio": {
      "Value": 1
    },
    "SpeedModifyRatio": {
      "Value": 1
    },
    "StanceModifyRatio": {
      "Value": 1
    },
    "SkillList": [
      700101201,
      700101202,
      700101203
    ],
    "CustomValues": [],
    "DynamicValues": [],
    "DebuffResist": [],
    "CustomValueTags": [],
    "StanceWeakList": [
      "Physical",
      "Fire",
      "Ice",
      "Thunder",
      "Wind",
      "Quantum",
      "Imaginary"
    ],
    "DamageTypeResistance": [],
    "AbilityNameList": [],
    "OverrideAIPath": "",
    "OverrideAISkillSequence": []
  },
  "7001013": {
    "MonsterID": 7001013,
    "MonsterTemplateID": 7001013,
    "MonsterName": {
      "Hash": -98641232
    },
    "MonsterIntroduction": {
      "Hash": -612124509
    },
    "MonsterBattleIntroduction": {
      "Hash": 371857150
    },
    "HardLevelGroup": 1,
    "EliteGroup": 1,
    "AttackModifyRatio": {
      "Value": 1
    },
    "DefenceModifyRatio": {
      "Value": 1
    },
    "HPModifyRatio": {
      "Value": 1
    },
    "SpeedModifyRatio": {
      "Value": 1
    },
    "StanceModifyRatio": {
      "Value": 1
    },
    "SkillList": [
      700101301,
      700101302
    ],
    "CustomValues": [],
    "DynamicValues": [],
    "DebuffResist": [],
    "CustomValueTags": [
      "Monster_Minion04"
    ],
    "StanceWeakList": [
      "Physical",
      "Fire",
      "Ice",
      "Thunder",
      "Wind",
      "Quantum",
      "Imaginary"
    ],
    "DamageTypeResistance": [],
    "AbilityNameList": [],
    "OverrideAIPath": "",
    "OverrideAISkillSequence": []
  },
  "7002010": {
    "MonsterID": 7002010,
    "MonsterTemplateID": 7002010,
    "MonsterName": {
      "Hash": 1729564738
    },
    "MonsterIntroduction": {
      "Hash": -1035612009
    },
    "MonsterBattleIntroduction": {
      "Hash": 371857150
    },
    "HardLevelGroup": 1,
    "EliteGroup": 1,
    "AttackModifyRatio": {
      "Value": 1
    },
    "DefenceModifyRatio": {
      "Value": 1
    },
    "HPModifyRatio": {
      "Value": 1
    },
    "SpeedModifyRatio": {
      "Value": 1
    },
    "StanceModifyRatio": {
      "Value": 1
    },
    "SkillList": [
      700201001,
      700201002,
      700201003
    ],
    "CustomValues": [
      {
        "MLMLDHKBPLM": "SummonID01",
        "PKPGBCJMDEK": 7002011
      }
    ],
    "DynamicValues": [],
    "DebuffResist": [],
    "CustomValueTags": [],
    "StanceWeakList": [
      "Physical",
      "Fire",
      "Ice",
      "Thunder",
      "Wind",
      "Quantum",
      "Imaginary"
    ],
    "DamageTypeResistance": [],
    "AbilityNameList": [],
    "OverrideAIPath": "",
    "OverrideAISkillSequence": []
  },
  "7002011": {
    "MonsterID": 7002011,
    "MonsterTemplateID": 7002011,
    "MonsterName": {
      "Hash": 1729564737
    },
    "MonsterIntroduction": {
      "Hash": -1035612010
    },
    "MonsterBattleIntroduction": {
      "Hash": 371857150
    },
    "HardLevelGroup": 1,
    "EliteGroup": 1,
    "AttackModifyRatio": {
      "Value": 1
    },
    "DefenceModifyRatio": {
      "Value": 1
    },
    "HPModifyRatio": {
      "Value": 1
    },
    "SpeedModifyRatio": {
      "Value": 1
    },
    "StanceModifyRatio": {
      "Value": 1
    },
    "SkillList": [
      700201101
    ],
    "CustomValues": [],
    "DynamicValues": [],
    "DebuffResist": [],
    "CustomValueTags": [],
    "StanceWeakList": [
      "Physical",
      "Fire",
      "Ice",
      "Thunder",
      "Wind",
      "Quantum",
      "Imaginary"
    ],
    "DamageTypeResistance": [],
    "AbilityNameList": [],
    "OverrideAIPath": "",
    "OverrideAISkillSequence": []
  },
  "7002020": {
    "MonsterID": 7002020,
    "MonsterTemplateID": 7002020,
    "MonsterName": {
      "Hash": 1326280211
    },
    "MonsterIntroduction": {
      "Hash": -632327482
    },
    "MonsterBattleIntroduction": {
      "Hash": 371857150
    },
    "HardLevelGroup": 1,
    "EliteGroup": 1,
    "AttackModifyRatio": {
      "Value": 1
    },
    "DefenceModifyRatio": {
      "Value": 1
    },
    "HPModifyRatio": {
      "Value": 1
    },
    "SpeedModifyRatio": {
      "Value": 1
    },
    "StanceModifyRatio": {
      "Value": 1
    },
    "SkillList": [
      700202001,
      700202002
    ],
    "CustomValues": [],
    "DynamicValues": [],
    "DebuffResist": [],
    "CustomValueTags": [],
    "StanceWeakList": [
      "Physical",
      "Fire",
      "Ice",
      "Thunder",
      "Wind",
      "Quantum",
      "Imaginary"
    ],
    "DamageTypeResistance": [],
    "AbilityNameList": [],
    "OverrideAIPath": "",
    "OverrideAISkillSequence": []
  },
  "7002030": {
    "MonsterID": 7002030,
    "MonsterTemplateID": 7002030,
    "MonsterName": {
      "Hash": -1402603144
    },
    "MonsterIntroduction": {
      "Hash": 2096555873
    },
    "MonsterBattleIntroduction": {
      "Hash": 371857150
    },
    "HardLevelGroup": 1,
    "EliteGroup": 1,
    "AttackModifyRatio": {
      "Value": 1
    },
    "DefenceModifyRatio": {
      "Value": 1
    },
    "HPModifyRatio": {
      "Value": 1
    },
    "SpeedModifyRatio": {
      "Value": 1
    },
    "StanceModifyRatio": {
      "Value": 1
    },
    "SkillList": [
      700203001,
      700203002
    ],
    "CustomValues": [],
    "DynamicValues": [],
    "DebuffResist": [],
    "CustomValueTags": [],
    "StanceWeakList": [
      "Physical",
      "Fire",
      "Ice",
      "Thunder",
      "Wind",
      "Quantum",
      "Imaginary"
    ],
    "DamageTypeResistance": [],
    "AbilityNameList": [],
    "OverrideAIPath": "",
    "OverrideAISkillSequence": []
  },
  "700203001": {
    "MonsterID": 700203001,
    "MonsterTemplateID": 7002030,
    "MonsterName": {
      "Hash": -1402603144
    },
    "MonsterIntroduction": {
      "Hash": 2096555873
    },
    "MonsterBattleIntroduction": {
      "Hash": 371857150
    },
    "HardLevelGroup": 1,
    "EliteGroup": 1,
    "AttackModifyRatio": {
      "Value": 0.4
    },
    "DefenceModifyRatio": {
      "Value": 1
    },
    "HPModifyRatio": {
      "Value": 0.8
    },
    "SpeedModifyRatio": {
      "Value": 1
    },
    "StanceModifyRatio": {
      "Value": 1
    },
    "SpeedModifyValue": {
      "Value": 8
    },
    "SkillList": [
      700203001,
      700203002
    ],
    "CustomValues": [],
    "DynamicValues": [],
    "DebuffResist": [],
    "CustomValueTags": [],
    "StanceWeakList": [
      "Physical",
      "Fire",
      "Ice",
      "Thunder",
      "Wind",
      "Quantum",
      "Imaginary"
    ],
    "DamageTypeResistance": [],
    "AbilityNameList": [],
    "OverrideAIPath": "",
    "OverrideAISkillSequence": []
  },
  "700203002": {
    "MonsterID": 700203002,
    "MonsterTemplateID": 7002030,
    "MonsterName": {
      "Hash": -1402603144
    },
    "MonsterIntroduction": {
      "Hash": 2096555873
    },
    "MonsterBattleIntroduction": {
      "Hash": 371857150
    },
    "HardLevelGroup": 1,
    "EliteGroup": 1,
    "AttackModifyRatio": {
      "Value": 0.5
    },
    "DefenceModifyRatio": {
      "Value": 1
    },
    "HPModifyRatio": {
      "Value": 0.6
    },
    "SpeedModifyRatio": {
      "Value": 1
    },
    "StanceModifyRatio": {
      "Value": 1
    },
    "SpeedModifyValue": {
      "Value": -20
    },
    "SkillList": [
      700203001,
      700203002
    ],
    "CustomValues": [],
    "DynamicValues": [],
    "DebuffResist": [],
    "CustomValueTags": [],
    "StanceWeakList": [
      "Physical",
      "Fire",
      "Ice",
      "Thunder",
      "Wind",
      "Quantum",
      "Imaginary"
    ],
    "DamageTypeResistance": [],
    "AbilityNameList": [],
    "OverrideAIPath": "",
    "OverrideAISkillSequence": []
  },
  "7002050": {
    "MonsterID": 7002050,
    "MonsterTemplateID": 7002050,
    "MonsterName": {
      "Hash": -596034090
    },
    "MonsterIntroduction": {
      "Hash": 1289986819
    },
    "MonsterBattleIntroduction": {
      "Hash": 371857150
    },
    "HardLevelGroup": 1,
    "EliteGroup": 1,
    "AttackModifyRatio": {
      "Value": 1
    },
    "DefenceModifyRatio": {
      "Value": 1
    },
    "HPModifyRatio": {
      "Value": 1
    },
    "SpeedModifyRatio": {
      "Value": 1
    },
    "StanceModifyRatio": {
      "Value": 1
    },
    "StanceModifyValue": {
      "Value": 1
    },
    "SkillList": [
      700205001,
      700205002,
      700205003
    ],
    "CustomValues": [],
    "DynamicValues": [],
    "DebuffResist": [],
    "CustomValueTags": [],
    "StanceWeakList": [
      "Physical",
      "Fire",
      "Ice",
      "Thunder",
      "Wind",
      "Quantum",
      "Imaginary"
    ],
    "DamageTypeResistance": [],
    "AbilityNameList": [],
    "OverrideAIPath": "",
    "OverrideAISkillSequence": []
  },
  "700205001": {
    "MonsterID": 700205001,
    "MonsterTemplateID": 7002050,
    "MonsterName": {
      "Hash": -596034090
    },
    "MonsterIntroduction": {
      "Hash": 1289986819
    },
    "MonsterBattleIntroduction": {
      "Hash": 371857150
    },
    "HardLevelGroup": 1,
    "EliteGroup": 1,
    "AttackModifyRatio": {
      "Value": 1
    },
    "DefenceModifyRatio": {
      "Value": 1
    },
    "HPModifyRatio": {
      "Value": 0.4
    },
    "SpeedModifyRatio": {
      "Value": 1
    },
    "StanceModifyRatio": {
      "Value": 1
    },
    "StanceModifyValue": {
      "Value": 1
    },
    "SkillList": [
      700205001,
      700205002,
      700205003
    ],
    "CustomValues": [],
    "DynamicValues": [],
    "DebuffResist": [],
    "CustomValueTags": [],
    "StanceWeakList": [
      "Physical",
      "Fire",
      "Ice",
      "Thunder",
      "Wind",
      "Quantum",
      "Imaginary"
    ],
    "DamageTypeResistance": [],
    "AbilityNameList": [],
    "OverrideAIPath": "",
    "OverrideAISkillSequence": []
  },
  "7002060": {
    "MonsterID": 7002060,
    "MonsterTemplateID": 7002060,
    "MonsterName": {
      "Hash": -999318617
    },
    "MonsterIntroduction": {
      "Hash": 1693271346
    },
    "MonsterBattleIntroduction": {
      "Hash": 371857150
    },
    "HardLevelGroup": 1,
    "EliteGroup": 1,
    "AttackModifyRatio": {
      "Value": 1
    },
    "DefenceModifyRatio": {
      "Value": 1
    },
    "HPModifyRatio": {
      "Value": 1
    },
    "SpeedModifyRatio": {
      "Value": 1
    },
    "StanceModifyRatio": {
      "Value": 1
    },
    "SkillList": [
      700206001,
      700206002,
      700206003
    ],
    "CustomValues": [],
    "DynamicValues": [],
    "DebuffResist": [],
    "CustomValueTags": [],
    "StanceWeakList": [
      "Physical",
      "Fire",
      "Ice",
      "Thunder",
      "Wind",
      "Quantum",
      "Imaginary"
    ],
    "DamageTypeResistance": [],
    "AbilityNameList": [],
    "OverrideAIPath": "",
    "OverrideAISkillSequence": []
  },
  "7002070": {
    "MonsterID": 7002070,
    "MonsterTemplateID": 7002070,
    "MonsterName": {
      "Hash": 566765324
    },
    "MonsterIntroduction": {
      "Hash": 127187405
    },
    "MonsterBattleIntroduction": {
      "Hash": 371857150
    },
    "HardLevelGroup": 1,
    "EliteGroup": 1,
    "AttackModifyRatio": {
      "Value": 1
    },
    "DefenceModifyRatio": {
      "Value": 1
    },
    "HPModifyRatio": {
      "Value": 1
    },
    "SpeedModifyRatio": {
      "Value": 1
    },
    "StanceModifyRatio": {
      "Value": 1
    },
    "SkillList": [
      700207001,
      700207002
    ],
    "CustomValues": [],
    "DynamicValues": [],
    "DebuffResist": [],
    "CustomValueTags": [],
    "StanceWeakList": [
      "Physical",
      "Fire",
      "Ice",
      "Thunder",
      "Wind",
      "Quantum",
      "Imaginary"
    ],
    "DamageTypeResistance": [],
    "AbilityNameList": [],
    "OverrideAIPath": "",
    "OverrideAISkillSequence": []
  },
  "700207001": {
    "MonsterID": 700207001,
    "MonsterTemplateID": 7002070,
    "MonsterName": {
      "Hash": 566765324
    },
    "MonsterIntroduction": {
      "Hash": 127187405
    },
    "MonsterBattleIntroduction": {
      "Hash": 371857150
    },
    "HardLevelGroup": 1,
    "EliteGroup": 1,
    "AttackModifyRatio": {
      "Value": 0.833333
    },
    "DefenceModifyRatio": {
      "Value": 1
    },
    "HPModifyRatio": {
      "Value": 1.16
    },
    "SpeedModifyRatio": {
      "Value": 1
    },
    "StanceModifyRatio": {
      "Value": 1
    },
    "SpeedModifyValue": {
      "Value": -2
    },
    "SkillList": [
      700207001,
      700207002
    ],
    "CustomValues": [],
    "DynamicValues": [],
    "DebuffResist": [],
    "CustomValueTags": [],
    "StanceWeakList": [
      "Physical",
      "Fire",
      "Ice",
      "Thunder",
      "Wind",
      "Quantum",
      "Imaginary"
    ],
    "DamageTypeResistance": [],
    "AbilityNameList": [],
    "OverrideAIPath": "",
    "OverrideAISkillSequence": []
  },
  "700207002": {
    "MonsterID": 700207002,
    "MonsterTemplateID": 7002070,
    "MonsterName": {
      "Hash": 566765324
    },
    "MonsterIntroduction": {
      "Hash": 127187405
    },
    "MonsterBattleIntroduction": {
      "Hash": 371857150
    },
    "HardLevelGroup": 1,
    "EliteGroup": 1,
    "AttackModifyRatio": {
      "Value": 0.833333
    },
    "DefenceModifyRatio": {
      "Value": 1
    },
    "HPModifyRatio": {
      "Value": 0.533333
    },
    "SpeedModifyRatio": {
      "Value": 1
    },
    "StanceModifyRatio": {
      "Value": 1
    },
    "SpeedModifyValue": {
      "Value": -25
    },
    "SkillList": [
      700207001,
      700207002
    ],
    "CustomValues": [],
    "DynamicValues": [],
    "DebuffResist": [],
    "CustomValueTags": [],
    "StanceWeakList": [
      "Physical",
      "Fire",
      "Ice",
      "Thunder",
      "Wind",
      "Quantum",
      "Imaginary"
    ],
    "DamageTypeResistance": [],
    "AbilityNameList": [],
    "OverrideAIPath": "",
    "OverrideAISkillSequence": []
  },
  "7002080": {
    "MonsterID": 7002080,
    "MonsterTemplateID": 7002080,
    "MonsterName": {
      "Hash": -192749563
    },
    "MonsterIntroduction": {
      "Hash": 886702292
    },
    "MonsterBattleIntroduction": {
      "Hash": 371857150
    },
    "HardLevelGroup": 1,
    "EliteGroup": 1,
    "AttackModifyRatio": {
      "Value": 1
    },
    "DefenceModifyRatio": {
      "Value": 1
    },
    "HPModifyRatio": {
      "Value": 1
    },
    "SpeedModifyRatio": {
      "Value": 1
    },
    "StanceModifyRatio": {
      "Value": 1
    },
    "SkillList": [
      700208001,
      700208002
    ],
    "CustomValues": [],
    "DynamicValues": [],
    "DebuffResist": [],
    "CustomValueTags": [],
    "StanceWeakList": [
      "Physical",
      "Fire",
      "Ice",
      "Thunder",
      "Wind",
      "Quantum",
      "Imaginary"
    ],
    "DamageTypeResistance": [],
    "AbilityNameList": [],
    "OverrideAIPath": "",
    "OverrideAISkillSequence": []
  },
  "7002090": {
    "MonsterID": 7002090,
    "MonsterTemplateID": 7002090,
    "MonsterName": {
      "Hash": 1373334378
    },
    "MonsterIntroduction": {
      "Hash": -679381649
    },
    "MonsterBattleIntroduction": {
      "Hash": 371857150
    },
    "HardLevelGroup": 1,
    "EliteGroup": 1,
    "AttackModifyRatio": {
      "Value": 1
    },
    "DefenceModifyRatio": {
      "Value": 1
    },
    "HPModifyRatio": {
      "Value": 1
    },
    "SpeedModifyRatio": {
      "Value": 1
    },
    "StanceModifyRatio": {
      "Value": 1
    },
    "SkillList": [
      700209001,
      700209002,
      700209003
    ],
    "CustomValues": [],
    "DynamicValues": [],
    "DebuffResist": [],
    "CustomValueTags": [],
    "StanceWeakList": [
      "Physical",
      "Fire",
      "Ice",
      "Thunder",
      "Wind",
      "Quantum",
      "Imaginary"
    ],
    "DamageTypeResistance": [],
    "AbilityNameList": [],
    "OverrideAIPath": "",
    "OverrideAISkillSequence": []
  },
  "700209001": {
    "MonsterID": 700209001,
    "MonsterTemplateID": 7002090,
    "MonsterName": {
      "Hash": 1373334378
    },
    "MonsterIntroduction": {
      "Hash": -679381649
    },
    "MonsterBattleIntroduction": {
      "Hash": 371857150
    },
    "HardLevelGroup": 1,
    "EliteGroup": 1,
    "AttackModifyRatio": {
      "Value": 0.357143
    },
    "DefenceModifyRatio": {
      "Value": 1
    },
    "HPModifyRatio": {
      "Value": 0.466667
    },
    "SpeedModifyRatio": {
      "Value": 1
    },
    "StanceModifyRatio": {
      "Value": 1
    },
    "SpeedModifyValue": {
      "Value": -20
    },
    "SkillList": [
      700209001,
      700209002,
      700209003
    ],
    "CustomValues": [],
    "DynamicValues": [],
    "DebuffResist": [],
    "CustomValueTags": [],
    "StanceWeakList": [
      "Physical",
      "Fire",
      "Ice",
      "Thunder",
      "Wind",
      "Quantum",
      "Imaginary"
    ],
    "DamageTypeResistance": [],
    "AbilityNameList": [],
    "OverrideAIPath": "",
    "OverrideAISkillSequence": []
  },
  "7002100": {
    "MonsterID": 7002100,
    "MonsterTemplateID": 7002100,
    "MonsterName": {
      "Hash": 163480828
    },
    "MonsterIntroduction": {
      "Hash": 530471963
    },
    "MonsterBattleIntroduction": {
      "Hash": 371857150
    },
    "HardLevelGroup": 1,
    "EliteGroup": 1,
    "AttackModifyRatio": {
      "Value": 1
    },
    "DefenceModifyRatio": {
      "Value": 1
    },
    "HPModifyRatio": {
      "Value": 1
    },
    "SpeedModifyRatio": {
      "Value": 1
    },
    "StanceModifyRatio": {
      "Value": 1
    },
    "SkillList": [
      700210001,
      700210002,
      700210003
    ],
    "CustomValues": [],
    "DynamicValues": [],
    "DebuffResist": [],
    "CustomValueTags": [
      "W1_Mecha01"
    ],
    "StanceWeakList": [
      "Physical",
      "Fire",
      "Ice",
      "Thunder",
      "Wind",
      "Quantum",
      "Imaginary"
    ],
    "DamageTypeResistance": [],
    "AbilityNameList": [],
    "OverrideAIPath": "",
    "OverrideAISkillSequence": []
  },
  "7002110": {
    "MonsterID": 7002110,
    "MonsterTemplateID": 7002110,
    "MonsterName": {
      "Hash": 1729564769
    },
    "MonsterIntroduction": {
      "Hash": -1035611978
    },
    "MonsterBattleIntroduction": {
      "Hash": 371857150
    },
    "HardLevelGroup": 1,
    "EliteGroup": 1,
    "AttackModifyRatio": {
      "Value": 1
    },
    "DefenceModifyRatio": {
      "Value": 1
    },
    "HPModifyRatio": {
      "Value": 1
    },
    "SpeedModifyRatio": {
      "Value": 1
    },
    "StanceModifyRatio": {
      "Value": 1
    },
    "SkillList": [
      700211001,
      700211002,
      700211003
    ],
    "CustomValues": [],
    "DynamicValues": [],
    "DebuffResist": [],
    "CustomValueTags": [
      "W1_Mecha01"
    ],
    "StanceWeakList": [
      "Physical",
      "Fire",
      "Ice",
      "Thunder",
      "Wind",
      "Quantum",
      "Imaginary"
    ],
    "DamageTypeResistance": [],
    "AbilityNameList": [],
    "OverrideAIPath": "",
    "OverrideAISkillSequence": []
  },
  "7002120": {
    "MonsterID": 7002120,
    "MonsterTemplateID": 7002120,
    "MonsterName": {
      "Hash": 1326280242
    },
    "MonsterIntroduction": {
      "Hash": -632327451
    },
    "MonsterBattleIntroduction": {
      "Hash": 371857150
    },
    "HardLevelGroup": 1,
    "EliteGroup": 1,
    "AttackModifyRatio": {
      "Value": 1
    },
    "DefenceModifyRatio": {
      "Value": 1
    },
    "HPModifyRatio": {
      "Value": 1
    },
    "SpeedModifyRatio": {
      "Value": 1
    },
    "StanceModifyRatio": {
      "Value": 1
    },
    "SkillList": [
      700212001,
      700212002,
      700212003
    ],
    "CustomValues": [],
    "DynamicValues": [],
    "DebuffResist": [],
    "CustomValueTags": [],
    "StanceWeakList": [
      "Physical",
      "Fire",
      "Ice",
      "Thunder",
      "Wind",
      "Quantum",
      "Imaginary"
    ],
    "DamageTypeResistance": [],
    "AbilityNameList": [],
    "OverrideAIPath": "",
    "OverrideAISkillSequence": []
  },
  "7002130": {
    "MonsterID": 7002130,
    "MonsterTemplateID": 7002130,
    "MonsterName": {
      "Hash": -1402603113
    },
    "MonsterIntroduction": {
      "Hash": 2096555904
    },
    "MonsterBattleIntroduction": {
      "Hash": 371857150
    },
    "HardLevelGroup": 1,
    "EliteGroup": 1,
    "AttackModifyRatio": {
      "Value": 1
    },
    "DefenceModifyRatio": {
      "Value": 1
    },
    "HPModifyRatio": {
      "Value": 1
    },
    "SpeedModifyRatio": {
      "Value": 1
    },
    "StanceModifyRatio": {
      "Value": 1
    },
    "SkillList": [
      700213001,
      700213002,
      700213003
    ],
    "CustomValues": [],
    "DynamicValues": [],
    "DebuffResist": [],
    "CustomValueTags": [],
    "StanceWeakList": [
      "Physical",
      "Fire",
      "Ice",
      "Thunder",
      "Wind",
      "Quantum",
      "Imaginary"
    ],
    "DamageTypeResistance": [],
    "AbilityNameList": [],
    "OverrideAIPath": "",
    "OverrideAISkillSequence": []
  },
  "7002140": {
    "MonsterID": 7002140,
    "MonsterTemplateID": 7002140,
    "MonsterName": {
      "Hash": 2132849296
    },
    "MonsterIntroduction": {
      "Hash": -1438896505
    },
    "MonsterBattleIntroduction": {
      "Hash": 371857150
    },
    "HardLevelGroup": 1,
    "EliteGroup": 1,
    "AttackModifyRatio": {
      "Value": 1
    },
    "DefenceModifyRatio": {
      "Value": 1
    },
    "HPModifyRatio": {
      "Value": 1
    },
    "SpeedModifyRatio": {
      "Value": 1
    },
    "StanceModifyRatio": {
      "Value": 1
    },
    "SkillList": [
      700214001,
      700214002
    ],
    "CustomValues": [],
    "DynamicValues": [],
    "DebuffResist": [],
    "CustomValueTags": [],
    "StanceWeakList": [
      "Physical",
      "Fire",
      "Ice",
      "Thunder",
      "Wind",
      "Quantum",
      "Imaginary"
    ],
    "DamageTypeResistance": [],
    "AbilityNameList": [],
    "OverrideAIPath": "",
    "OverrideAISkillSequence": []
  },
  "7003010": {
    "MonsterID": 7003010,
    "MonsterTemplateID": 7003010,
    "MonsterName": {
      "Hash": 183683773
    },
    "MonsterIntroduction": {
      "Hash": -894449508
    },
    "MonsterBattleIntroduction": {
      "Hash": 371857150
    },
    "HardLevelGroup": 1,
    "EliteGroup": 1,
    "AttackModifyRatio": {
      "Value": 1
    },
    "DefenceModifyRatio": {
      "Value": 1
    },
    "HPModifyRatio": {
      "Value": 1
    },
    "SpeedModifyRatio": {
      "Value": 1
    },
    "StanceModifyRatio": {
      "Value": 1
    },
    "SkillList": [
      700301001,
      700301002,
      700301003,
      700301004,
      700301005,
      700301006
    ],
    "CustomValues": [],
    "DynamicValues": [],
    "DebuffResist": [],
    "CustomValueTags": [],
    "StanceWeakList": [
      "Physical",
      "Fire",
      "Ice",
      "Thunder",
      "Wind",
      "Quantum",
      "Imaginary"
    ],
    "DamageTypeResistance": [],
    "AbilityNameList": [],
    "OverrideAIPath": "",
    "OverrideAISkillSequence": []
  },
  "7003020": {
    "MonsterID": 7003020,
    "MonsterTemplateID": 7003020,
    "MonsterName": {
      "Hash": -1382400168
    },
    "MonsterIntroduction": {
      "Hash": 671634433
    },
    "MonsterBattleIntroduction": {
      "Hash": 371857150
    },
    "HardLevelGroup": 1,
    "EliteGroup": 1,
    "AttackModifyRatio": {
      "Value": 1
    },
    "DefenceModifyRatio": {
      "Value": 1
    },
    "HPModifyRatio": {
      "Value": 1
    },
    "SpeedModifyRatio": {
      "Value": 1
    },
    "StanceModifyRatio": {
      "Value": 1
    },
    "SkillList": [
      700302001,
      700302002,
      700302003,
      700302004,
      700302005
    ],
    "CustomValues": [
      {
        "MLMLDHKBPLM": "W2_Mecha03_00_SummonID",
        "PKPGBCJMDEK": 700205001
      }
    ],
    "DynamicValues": [],
    "DebuffResist": [],
    "CustomValueTags": [],
    "StanceWeakList": [
      "Physical",
      "Fire",
      "Ice",
      "Thunder",
      "Wind",
      "Quantum",
      "Imaginary"
    ],
    "DamageTypeResistance": [],
    "AbilityNameList": [],
    "OverrideAIPath": "",
    "OverrideAISkillSequence": []
  },
  "7003030": {
    "MonsterID": 7003030,
    "MonsterTemplateID": 7003030,
    "MonsterName": {
      "Hash": 1346483187
    },
    "MonsterIntroduction": {
      "Hash": -2057248922
    },
    "MonsterBattleIntroduction": {
      "Hash": 371857150
    },
    "HardLevelGroup": 1,
    "EliteGroup": 1,
    "AttackModifyRatio": {
      "Value": 1
    },
    "DefenceModifyRatio": {
      "Value": 1
    },
    "HPModifyRatio": {
      "Value": 1
    },
    "SpeedModifyRatio": {
      "Value": 1
    },
    "StanceModifyRatio": {
      "Value": 1
    },
    "SkillList": [
      700303001,
      700303002,
      700303003,
      700303004
    ],
    "CustomValues": [],
    "DynamicValues": [],
    "DebuffResist": [],
    "CustomValueTags": [],
    "StanceWeakList": [
      "Physical",
      "Fire",
      "Ice",
      "Thunder",
      "Wind",
      "Quantum",
      "Imaginary"
    ],
    "DamageTypeResistance": [],
    "AbilityNameList": [],
    "OverrideAIPath": "",
    "OverrideAISkillSequence": []
  },
  "7003040": {
    "MonsterID": 7003040,
    "MonsterTemplateID": 7003040,
    "MonsterName": {
      "Hash": -575831114
    },
    "MonsterIntroduction": {
      "Hash": -134934621
    },
    "MonsterBattleIntroduction": {
      "Hash": 371857150
    },
    "HardLevelGroup": 1,
    "EliteGroup": 1,
    "AttackModifyRatio": {
      "Value": 1
    },
    "DefenceModifyRatio": {
      "Value": 1
    },
    "HPModifyRatio": {
      "Value": 1
    },
    "SpeedModifyRatio": {
      "Value": 1
    },
    "StanceModifyRatio": {
      "Value": 1
    },
    "SkillList": [
      700304001,
      700304002,
      700304003,
      700304004,
      700304005,
      700304006
    ],
    "CustomValues": [],
    "DynamicValues": [],
    "DebuffResist": [],
    "CustomValueTags": [],
    "StanceWeakList": [
      "Physical",
      "Fire",
      "Ice",
      "Thunder",
      "Wind",
      "Quantum",
      "Imaginary"
    ],
    "DamageTypeResistance": [],
    "AbilityNameList": [],
    "OverrideAIPath": "",
    "OverrideAISkillSequence": []
  },
  "7003060": {
    "MonsterID": 7003060,
    "MonsterTemplateID": 7003060,
    "MonsterName": {
      "Hash": 586968300
    },
    "MonsterIntroduction": {
      "Hash": -1297734035
    },
    "MonsterBattleIntroduction": {
      "Hash": 371857150
    },
    "HardLevelGroup": 1,
    "EliteGroup": 1,
    "AttackModifyRatio": {
      "Value": 1
    },
    "DefenceModifyRatio": {
      "Value": 1
    },
    "HPModifyRatio": {
      "Value": 1
    },
    "SpeedModifyRatio": {
      "Value": 1
    },
    "StanceModifyRatio": {
      "Value": 1
    },
    "SkillList": [
      700306001,
      700306002,
      700306003
    ],
    "CustomValues": [],
    "DynamicValues": [],
    "DebuffResist": [],
    "CustomValueTags": [],
    "StanceWeakList": [
      "Physical",
      "Fire",
      "Ice",
      "Thunder",
      "Wind",
      "Quantum",
      "Imaginary"
    ],
    "DamageTypeResistance": [],
    "AbilityNameList": [],
    "OverrideAIPath": "",
    "OverrideAISkillSequence": []
  },
  "7003070": {
    "MonsterID": 7003070,
    "MonsterTemplateID": 7003070,
    "MonsterName": {
      "Hash": -979115641
    },
    "MonsterIntroduction": {
      "Hash": 268349906
    },
    "MonsterBattleIntroduction": {
      "Hash": 371857150
    },
    "HardLevelGroup": 1,
    "EliteGroup": 1,
    "AttackModifyRatio": {
      "Value": 1
    },
    "DefenceModifyRatio": {
      "Value": 1
    },
    "HPModifyRatio": {
      "Value": 1
    },
    "SpeedModifyRatio": {
      "Value": 1
    },
    "StanceModifyRatio": {
      "Value": 1
    },
    "SkillList": [
      700307001,
      700307002,
      700307003,
      700307004
    ],
    "CustomValues": [],
    "DynamicValues": [],
    "DebuffResist": [],
    "CustomValueTags": [],
    "StanceWeakList": [
      "Physical",
      "Fire",
      "Ice",
      "Thunder",
      "Wind",
      "Quantum",
      "Imaginary"
    ],
    "DamageTypeResistance": [],
    "AbilityNameList": [],
    "OverrideAIPath": "",
    "OverrideAISkillSequence": []
  },
  "7003080": {
    "MonsterID": 7003080,
    "MonsterTemplateID": 7003080,
    "MonsterName": {
      "Hash": 1393537354
    },
    "MonsterIntroduction": {
      "Hash": -2104303089
    },
    "MonsterBattleIntroduction": {
      "Hash": 371857150
    },
    "HardLevelGroup": 1,
    "EliteGroup": 1,
    "AttackModifyRatio": {
      "Value": 1
    },
    "DefenceModifyRatio": {
      "Value": 1
    },
    "HPModifyRatio": {
      "Value": 1
    },
    "SpeedModifyRatio": {
      "Value": 1
    },
    "StanceModifyRatio": {
      "Value": 1
    },
    "SkillList": [
      700308001,
      700308002,
      700308003,
      700308004,
      700308005,
      700308006,
      700308007
    ],
    "CustomValues": [],
    "DynamicValues": [],
    "DebuffResist": [
      {
        "Key": "STAT_DOT_Burn",
        "Value": {
          "Value": 1
        }
      }
    ],
    "CustomValueTags": [
      "MonsterType_W1_Mecha2"
    ],
    "StanceWeakList": [
      "Physical",
      "Fire",
      "Ice",
      "Thunder",
      "Wind",
      "Quantum",
      "Imaginary"
    ],
    "DamageTypeResistance": [],
    "AbilityNameList": [],
    "OverrideAIPath": "",
    "OverrideAISkillSequence": []
  },
  "7003090": {
    "MonsterID": 7003090,
    "MonsterTemplateID": 7003090,
    "MonsterName": {
      "Hash": -172546587
    },
    "MonsterIntroduction": {
      "Hash": -538219148
    },
    "MonsterBattleIntroduction": {
      "Hash": 371857150
    },
    "HardLevelGroup": 1,
    "EliteGroup": 1,
    "AttackModifyRatio": {
      "Value": 1
    },
    "DefenceModifyRatio": {
      "Value": 1
    },
    "HPModifyRatio": {
      "Value": 1
    },
    "SpeedModifyRatio": {
      "Value": 1
    },
    "StanceModifyRatio": {
      "Value": 1
    },
    "SkillList": [
      700309001,
      700309002,
      700309003,
      700309004,
      700309005
    ],
    "CustomValues": [
      {
        "MLMLDHKBPLM": "Monster_RO_015_SummonID",
        "PKPGBCJMDEK": 1012021
      }
    ],
    "DynamicValues": [],
    "DebuffResist": [],
    "CustomValueTags": [
      "MonsterType_W1_Mecha2"
    ],
    "StanceWeakList": [
      "Physical",
      "Fire",
      "Ice",
      "Thunder",
      "Wind",
      "Quantum",
      "Imaginary"
    ],
    "DamageTypeResistance": [],
    "AbilityNameList": [],
    "OverrideAIPath": "",
    "OverrideAISkillSequence": []
  },
  "7003100": {
    "MonsterID": 7003100,
    "MonsterTemplateID": 7003100,
    "MonsterName": {
      "Hash": 1749767745
    },
    "MonsterIntroduction": {
      "Hash": 1834433878
    },
    "MonsterBattleIntroduction": {
      "Hash": 371857150
    },
    "HardLevelGroup": 1,
    "EliteGroup": 1,
    "AttackModifyRatio": {
      "Value": 1
    },
    "DefenceModifyRatio": {
      "Value": 1
    },
    "HPModifyRatio": {
      "Value": 1
    },
    "SpeedModifyRatio": {
      "Value": 1
    },
    "StanceModifyRatio": {
      "Value": 1
    },
    "SkillList": [
      700310001,
      700310002,
      700310003,
      700310004,
      700310005,
      700310006,
      700310007
    ],
    "CustomValues": [],
    "DynamicValues": [],
    "DebuffResist": [],
    "CustomValueTags": [],
    "StanceWeakList": [
      "Physical",
      "Fire",
      "Ice",
      "Thunder",
      "Wind",
      "Quantum",
      "Imaginary"
    ],
    "DamageTypeResistance": [],
    "AbilityNameList": [],
    "OverrideAIPath": "",
    "OverrideAISkillSequence": []
  },
  "7002040": {
    "MonsterID": 7002040,
    "MonsterTemplateID": 7002040,
    "MonsterName": {
      "Hash": 2132849265
    },
    "MonsterIntroduction": {
      "Hash": -1438896536
    },
    "MonsterBattleIntroduction": {
      "Hash": 371857150
    },
    "HardLevelGroup": 1,
    "EliteGroup": 1,
    "AttackModifyRatio": {
      "Value": 1
    },
    "DefenceModifyRatio": {
      "Value": 1
    },
    "HPModifyRatio": {
      "Value": 1
    },
    "SpeedModifyRatio": {
      "Value": 1
    },
    "StanceModifyRatio": {
      "Value": 1
    },
    "StanceModifyValue": {
      "Value": 1
    },
    "SkillList": [
      700204001,
      700204002,
      700204003
    ],
    "CustomValues": [],
    "DynamicValues": [],
    "DebuffResist": [],
    "CustomValueTags": [],
    "StanceWeakList": [
      "Physical",
      "Fire",
      "Ice",
      "Thunder",
      "Wind",
      "Quantum",
      "Imaginary"
    ],
    "DamageTypeResistance": [],
    "AbilityNameList": [],
    "OverrideAIPath": "",
    "OverrideAISkillSequence": []
  },
  "7003050": {
    "MonsterID": 7003050,
    "MonsterTemplateID": 7003050,
    "MonsterName": {
      "Hash": -2141915055
    },
    "MonsterIntroduction": {
      "Hash": 1431149320
    },
    "MonsterBattleIntroduction": {
      "Hash": 371857150
    },
    "HardLevelGroup": 1,
    "EliteGroup": 1,
    "AttackModifyRatio": {
      "Value": 1
    },
    "DefenceModifyRatio": {
      "Value": 1
    },
    "HPModifyRatio": {
      "Value": 1
    },
    "SpeedModifyRatio": {
      "Value": 1
    },
    "StanceModifyRatio": {
      "Value": 1
    },
    "SkillList": [
      700305001,
      700305002,
      700305003,
      700305004,
      700305005
    ],
    "CustomValues": [],
    "DynamicValues": [],
    "DebuffResist": [],
    "CustomValueTags": [],
    "StanceWeakList": [
      "Physical",
      "Fire",
      "Ice",
      "Thunder",
      "Wind",
      "Quantum",
      "Imaginary"
    ],
    "DamageTypeResistance": [],
    "AbilityNameList": [],
    "OverrideAIPath": "",
    "OverrideAISkillSequence": []
  }
}