{
  "7001010": {
    "MonsterTemplateID": 7001010,
    "MonsterName": {
      "Hash": -98641229
    },
    "MonsterBaseType": "",
    "Rank": "Minion",
    "JsonConfig": "Config/ConfigCharacter/Monster/Monster_AetherDivide_W2_Mecha01_00_Config.json",
    "IconPath": "SpriteOutput/MosterIcon/Monster_2011010.png",
    "RoundIconPath": "SpriteOutput/MonsterRoundIcon/Monster_2011010.png",
    "ImagePath": "SpriteOutput/MonsterFigure/Monster_2011010.png",
    "PrefabPath": "Characters/CharacterPrefabs/Monster/AetherDivide_W2_Mecha01_00/Monster_AetherDivide_W2_Mecha01_00.prefab",
    "ManikinPrefabPath": "Characters/CharacterPrefabs/Manikin/Monster/W2_Mecha01_00/Manikin_Monster_W2_Mecha01_00.prefab",
    "ManikinConfigPath": "Config/ConfigCharacter/Manikin/Monster/Manikin_Monster_W2_Mecha01_00_Config.json",
    "ManikinImagePath": "SpriteOutput/MonsterMiddleIcon/Monster_2011010.png",
    "NatureID": 1,
    "AttackBase": {
      "Value": 18
    },
    "HPBase": {
      "Value": 1395
    },
    "SpeedBase": {
      "Value": 95
    },
    "StanceBase": {
      "Value": 30
    },
    "MinimumFatigueRatio": {
      "Value": 0.2
    },
    "AIPath": "Config/ConfigAI/Monster_Common_SequenceThree_AI.json",
    "StanceCount": 1,
    "InitialDelayRatio": {
      "Value": 1
    },
    "AISkillSequence": [
      {
        "ILOCKGFGCIF": 700101001
      },
      {
        "ILOCKGFGCIF": 700101001
      },
      {
        "ILOCKGFGCIF": 700101001
      },
      {
        "ILOCKGFGCIF": 700101002
      }
    ],
    "NPCMonsterList": []
  },
  "7001011": {
    "MonsterTemplateID": 7001011,
    "MonsterName": {
      "Hash": -98641230
    },
    "MonsterBaseType": "",
    "Rank": "Minion",
    "JsonConfig": "Config/ConfigCharacter/Monster/Monster_AetherDivide_AML_Minion02_00_Config.json",
    "IconPath": "SpriteOutput/MosterIcon/Monster_8012010.png",
    "RoundIconPath": "SpriteOutput/MonsterRoundIcon/Monster_8012010.png",
    "ImagePath": "SpriteOutput/MonsterFigure/Monster_8012010.png",
    "PrefabPath": "Characters/CharacterPrefabs/Monster/AML_Minion02_00/Monster_AML_Minion02_00.prefab",
    "ManikinPrefabPath": "Characters/CharacterPrefabs/Manikin/Monster/AML_Minion02_00/Manikin_Monster_AML_Minion02_00.prefab",
    "ManikinConfigPath": "Config/ConfigCharacter/Manikin/Monster/Manikin_Monster_AML_Minion02_00_Config.json",
    "ManikinImagePath": "SpriteOutput/MonsterMiddleIcon/Monster_8012010.png",
    "NatureID": 1,
    "AttackBase": {
      "Value": 18
    },
    "HPBase": {
      "Value": 1116
    },
    "SpeedBase": {
      "Value": 133
    },
    "StanceBase": {
      "Value": 60
    },
    "MinimumFatigueRatio": {
      "Value": 0.2
    },
    "AIPath": "Config/ConfigAI/Monster_AetherDivide_AML_Minion02_AI.json",
    "StanceCount": 1,
    "InitialDelayRatio": {
      "Value": 1
    },
    "AISkillSequence": [
      {
        "ILOCKGFGCIF": 700101101
      },
      {
        "ILOCKGFGCIF": 700101101
      },
      {
        "ILOCKGFGCIF": 700101101
      },
      {
        "ILOCKGFGCIF": 700101102
      }
    ],
    "NPCMonsterList": []
  },
  "7001012": {
    "MonsterTemplateID": 7001012,
    "MonsterName": {
      "Hash": -98641231
    },
    "MonsterBaseType": "",
    "Rank": "Minion",
    "JsonConfig": "Config/ConfigCharacter/Monster/Monster_AetherDivide_AML_Minion04_00_Config.json",
    "IconPath": "SpriteOutput/MosterIcon/Monster_8012030.png",
    "RoundIconPath": "SpriteOutput/MonsterRoundIcon/Monster_8012030.png",
    "ImagePath": "SpriteOutput/MonsterFigure/Monster_8012030.png",
    "PrefabPath": "Characters/CharacterPrefabs/Monster/AML_Minion04_00/Monster_AML_Minion04_00.prefab",
    "ManikinPrefabPath": "Characters/CharacterPrefabs/Manikin/Monster/AML_Minion04_00/Manikin_Monster_AML_Minion04_00.prefab",
    "ManikinConfigPath": "Config/ConfigCharacter/Manikin/Monster/Manikin_Monster_AML_Minion04_00_Config.json",
    "ManikinImagePath": "SpriteOutput/MonsterMiddleIcon/Monster_8012030.png",
    "NatureID": 1,
    "AttackBase": {
      "Value": 18
    },
    "HPBase": {
      "Value": 1116
    },
    "SpeedBase": {
      "Value": 133
    },
    "StanceBase": {
      "Value": 90
    },
    "MinimumFatigueRatio": {
      "Value": 0.2
    },
    "AIPath": "Config/ConfigAI/Monster_Common_SequenceThree_AI.json",
    "StanceCount": 1,
    "InitialDelayRatio": {
      "Value": 1
    },
    "AISkillSequence": [
      {
        "ILOCKGFGCIF": 700101201
      },
      {
        "ILOCKGFGCIF": 700101201
      },
      {
        "ILOCKGFGCIF": 700101202
      }
    ],
    "NPCMonsterList": []
  },
  "7001013": {
    "MonsterTemplateID": 7001013,
    "MonsterName": {
      "Hash": -98641232
    },
    "MonsterBaseType": "",
    "Rank": "Minion",
    "JsonConfig": "Config/ConfigCharacter/Monster/Monster_AetherDivide_XP_Minion04_02_Config.json",
    "IconPath": "SpriteOutput/MosterIcon/Monster_8002050.png",
    "RoundIconPath": "SpriteOutput/MonsterRoundIcon/Monster_8002050.png",
    "ImagePath": "SpriteOutput/MonsterFigure/Monster_8002050.png",
    "PrefabPath": "Characters/CharacterPrefabs/Monster/XP_Minion04_01/Monster_XP_Minion04_01.prefab",
    "ManikinPrefabPath": "Characters/CharacterPrefabs/Manikin/Monster/XP_Minion04_01/Manikin_Monster_XP_Minion04_01.prefab",
    "ManikinConfigPath": "Config/ConfigCharacter/Manikin/Monster/Manikin_Monster_XP_Minion04_02_Config.json",
    "ManikinImagePath": "SpriteOutput/MonsterMiddleIcon/Monster_8002050.png",
    "NatureID": 1,
    "AttackBase": {
      "Value": 18
    },
    "HPBase": {
      "Value": 1116
    },
    "SpeedBase": {
      "Value": 90
    },
    "StanceBase": {
      "Value": 90
    },
    "MinimumFatigueRatio": {
      "Value": 0.2
    },
    "AIPath": "Config/ConfigAI/Monster_Common_SequenceThree_AI.json",
    "StanceCount": 1,
    "InitialDelayRatio": {
      "Value": 1
    },
    "AISkillSequence": [
      {
        "ILOCKGFGCIF": 700101301
      }
    ],
    "NPCMonsterList": []
  },
  "7002010": {
    "MonsterTemplateID": 7002010,
    "MonsterName": {
      "Hash": 1729564738
    },
    "MonsterBaseType": "",
    "Rank": "MinionLv2",
    "JsonConfig": "Config/ConfigCharacter/Monster/Monster_AetherDivide_W2_Beast01_01_Config.json",
    "IconPath": "SpriteOutput/MosterIcon/Monster_2022050.png",
    "RoundIconPath": "SpriteOutput/MonsterRoundIcon/Monster_2022050.png",
    "ImagePath": "SpriteOutput/MonsterFigure/Monster_2022050.png",
    "PrefabPath": "Characters/CharacterPrefabs/Monster/W2_Beast01_01/Monster_W2_Beast01_01.prefab",
    "ManikinPrefabPath": "Characters/CharacterPrefabs/Manikin/Monster/W2_Beast01_01/Manikin_Monster_W2_Beast01_01.prefab",
    "ManikinConfigPath": "Config/ConfigCharacter/Manikin/Monster/Manikin_Monster_W2_Beast01_01_Config.json",
    "ManikinImagePath": "SpriteOutput/MonsterMiddleIcon/Monster_2022050.png",
    "NatureID": 1,
    "AttackBase": {
      "Value": 18
    },
    "HPBase": {
      "Value": 1395
    },
    "SpeedBase": {
      "Value": 100
    },
    "StanceBase": {
      "Value": 60
    },
    "MinimumFatigueRatio": {
      "Value": 0.2
    },
    "AIPath": "Config/ConfigAI/Monster_Common_SequenceThree_AI.json",
    "StanceCount": 1,
    "InitialDelayRatio": {
      "Value": 1
    },
    "AISkillSequence": [
      {
        "ILOCKGFGCIF": 700201001
      },
      {
        "ILOCKGFGCIF": 700201002
      },
      {
        "ILOCKGFGCIF": 700201002
      },
      {
        "ILOCKGFGCIF": 700201003
      },
      {
        "ILOCKGFGCIF": 700201002
      },
      {
        "ILOCKGFGCIF": 700201001
      },
      {
        "ILOCKGFGCIF": 700201002
      },
      {
        "ILOCKGFGCIF": 700201003
      }
    ],
    "NPCMonsterList": []
  },
  "7002011": {
    "MonsterTemplateID": 7002011,
    "MonsterName": {
      "Hash": 1729564737
    },
    "MonsterBaseType": "",
    "Rank": "MinionLv2",
    "JsonConfig": "Config/ConfigCharacter/Monster/Monster_AetherDivide_W2_Beast01_02_Config.json",
    "IconPath": "SpriteOutput/MosterIcon/Monster_2022051.png",
    "RoundIconPath": "SpriteOutput/MonsterRoundIcon/Monster_2022051.png",
    "ImagePath": "SpriteOutput/MonsterFigure/BossIconTemporary.png",
    "PrefabPath": "Characters/CharacterPrefabs/Monster/W2_Beast01_02/Monster_W2_Beast01_02.prefab",
    "ManikinPrefabPath": "",
    "ManikinConfigPath": "",
    "ManikinImagePath": "",
    "NatureID": 1,
    "AttackBase": {
      "Value": 18
    },
    "HPBase": {
      "Value": 1395
    },
    "SpeedBase": {
      "Value": 100
    },
    "StanceBase": {
      "Value": 60
    },
    "MinimumFatigueRatio": {
      "Value": 0.2
    },
    "AIPath": "Config/ConfigAI/Monster_Common_SequenceThree_AI.json",
    "StanceCount": 1,
    "InitialDelayRatio": {
      "Value": 1
    },
    "AISkillSequence": [
      {
        "ILOCKGFGCIF": 700201101
      }
    ],
    "NPCMonsterList": []
  },
  "7002020": {
    "MonsterTemplateID": 7002020,
    "MonsterName": {
      "Hash": 1326280211
    },
    "MonsterBaseType": "",
    "Rank": "MinionLv2",
    "JsonConfig": "Config/ConfigCharacter/Monster/Monster_AetherDivide_W1_Soldier01_03_Config.json",
    "IconPath": "SpriteOutput/MosterIcon/Monster_1002020.png",
    "RoundIconPath": "SpriteOutput/MonsterRoundIcon/Monster_1002020.png",
    "ImagePath": "SpriteOutput/MonsterFigure/Monster_1002020.png",
    "PrefabPath": "Characters/CharacterPrefabs/Monster/W1_Soldier01_03/Monster_W1_Soldier01_03.prefab",
    "ManikinPrefabPath": "Characters/CharacterPrefabs/Manikin/Monster/W1_Soldier01_03/Manikin_Monster_W1_Soldier01_03.prefab",
    "ManikinConfigPath": "Config/ConfigCharacter/Manikin/Monster/Manikin_Monster_W1_Soldier01_03_Config.json",
    "ManikinImagePath": "SpriteOutput/MonsterMiddleIcon/Monster_1002020.png",
    "NatureID": 1,
    "AttackBase": {
      "Value": 18
    },
    "HPBase": {
      "Value": 1488
    },
    "SpeedBase": {
      "Value": 100
    },
    "StanceBase": {
      "Value": 60
    },
    "MinimumFatigueRatio": {
      "Value": 0.2
    },
    "AIPath": "Config/ConfigAI/Monster_AetherDivide_W1_Soldier01_03_AI.json",
    "StanceCount": 1,
    "InitialDelayRatio": {
      "Value": 1
    },
    "AISkillSequence": [],
    "NPCMonsterList": []
  },
  "7002030": {
    "MonsterTemplateID": 7002030,
    "MonsterName": {
      "Hash": -1402603144
    },
    "MonsterBaseType": "",
    "Rank": "MinionLv2",
    "JsonConfig": "Config/ConfigCharacter/Monster/Monster_AetherDivide_W1_Soldier01_01_Config.json",
    "IconPath": "SpriteOutput/MosterIcon/Monster_9002410.png",
    "RoundIconPath": "SpriteOutput/MonsterRoundIcon/Monster_9002410.png",
    "ImagePath": "SpriteOutput/MonsterFigure/Monster_1022020.png",
    "PrefabPath": "Characters/CharacterPrefabs/Monster/W1_Soldier01_01/Monster_W1_Soldier01_01.prefab",
    "ManikinPrefabPath": "Characters/CharacterPrefabs/Manikin/Monster/W1_Soldier01_01/Manikin_Monster_W1_Soldier01_01.prefab",
    "ManikinConfigPath": "Config/ConfigCharacter/Manikin/Monster/Manikin_Monster_W1_Soldier01_01_Config.json",
    "ManikinImagePath": "SpriteOutput/MonsterMiddleIcon/Monster_1022020.png",
    "NatureID": 1,
    "AttackBase": {
      "Value": 18
    },
    "HPBase": {
      "Value": 1395
    },
    "SpeedBase": {
      "Value": 100
    },
    "StanceBase": {
      "Value": 60
    },
    "MinimumFatigueRatio": {
      "Value": 0.2
    },
    "AIPath": "Config/ConfigAI/Monster_Common_SequenceThree_AI.json",
    "StanceCount": 1,
    "InitialDelayRatio": {
      "Value": 1
    },
    "AISkillSequence": [
      {
        "ILOCKGFGCIF": 700203001
      },
      {
        "ILOCKGFGCIF": 700203001
      },
      {
        "ILOCKGFGCIF": 700203002
      }
    ],
    "NPCMonsterList": []
  },
  "7002050": {
    "MonsterTemplateID": 7002050,
    "MonsterName": {
      "Hash": -596034090
    },
    "MonsterBaseType": "",
    "Rank": "MinionLv2",
    "JsonConfig": "Config/ConfigCharacter/Monster/Monster_AetherDivide_W2_Mecha02_00_Config.json",
    "IconPath": "SpriteOutput/MosterIcon/Monster_2012010.png",
    "RoundIconPath": "SpriteOutput/MonsterRoundIcon/Monster_2012010.png",
    "ImagePath": "SpriteOutput/MonsterFigure/Monster_2012010.png",
    "PrefabPath": "Characters/CharacterPrefabs/Monster/AetherDivide_W2_Mecha02_00/Monster_AetherDivide_W2_Mecha02_00.prefab",
    "ManikinPrefabPath": "",
    "ManikinConfigPath": "",
    "ManikinImagePath": "SpriteOutput/MonsterMiddleIcon/Monster_2012010.png",
    "NatureID": 1,
    "AttackBase": {
      "Value": 18
    },
    "HPBase": {
      "Value": 1860
    },
    "SpeedBase": {
      "Value": 100
    },
    "StanceBase": {
      "Value": 60
    },
    "MinimumFatigueRatio": {
      "Value": 0.2
    },
    "AIPath": "Config/ConfigAI/Monster_Common_SequenceThree_AI.json",
    "StanceCount": 1,
    "InitialDelayRatio": {
      "Value": 1
    },
    "AISkillSequence": [
      {
        "ILOCKGFGCIF": 700205001
      },
      {
        "ILOCKGFGCIF": 700205001
      },
      {
        "ILOCKGFGCIF": 700205002
      }
    ],
    "NPCMonsterList": []
  },
  "7002060": {
    "MonsterTemplateID": 7002060,
    "MonsterName": {
      "Hash": -999318617
    },
    "MonsterBaseType": "",
    "Rank": "MinionLv2",
    "JsonConfig": "Config/ConfigCharacter/Monster/Monster_AetherDivide_W1_Soldier04_00_Config.json",
    "IconPath": "SpriteOutput/MosterIcon/Monster_1002030.png",
    "RoundIconPath": "SpriteOutput/MonsterRoundIcon/Monster_1002030.png",
    "ImagePath": "SpriteOutput/MonsterFigure/Monster_1002030.png",
    "PrefabPath": "Characters/CharacterPrefabs/Monster/W1_Soldier04_00/Monster_W1_Soldier04_00.prefab",
    "ManikinPrefabPath": "",
    "ManikinConfigPath": "",
    "ManikinImagePath": "SpriteOutput/MonsterMiddleIcon/Monster_1002030.png",
    "NatureID": 1,
    "AttackBase": {
      "Value": 18
    },
    "HPBase": {
      "Value": 1116
    },
    "SpeedBase": {
      "Value": 90
    },
    "StanceBase": {
      "Value": 90
    },
    "MinimumFatigueRatio": {
      "Value": 0.2
    },
    "AIPath": "Config/ConfigAI/Monster_Common_SequenceThree_AI.json",
    "StanceCount": 1,
    "InitialDelayRatio": {
      "Value": 1
    },
    "AISkillSequence": [
      {
        "ILOCKGFGCIF": 700206001
      },
      {
        "ILOCKGFGCIF": 700206001
      },
      {
        "ILOCKGFGCIF": 700206001
      },
      {
        "ILOCKGFGCIF": 700206002
      }
    ],
    "NPCMonsterList": []
  },
  "7002070": {
    "MonsterTemplateID": 7002070,
    "MonsterName": {
      "Hash": 566765324
    },
    "MonsterBaseType": "",
    "Rank": "MinionLv2",
    "JsonConfig": "Config/ConfigCharacter/Monster/Monster_AetherDivide_XP_Minion02_00_Config.json",
    "IconPath": "SpriteOutput/MosterIcon/Monster_8002010.png",
    "RoundIconPath": "SpriteOutput/MonsterRoundIcon/Monster_8002010.png",
    "ImagePath": "SpriteOutput/MonsterFigure/Monster_8002010.png",
    "PrefabPath": "Characters/CharacterPrefabs/Monster/XP_Minion02_00/Monster_XP_Minion02_00.prefab",
    "ManikinPrefabPath": "",
    "ManikinConfigPath": "",
    "ManikinImagePath": "SpriteOutput/MonsterMiddleIcon/Monster_8002010.png",
    "NatureID": 1,
    "AttackBase": {
      "Value": 18
    },
    "HPBase": {
      "Value": 1395
    },
    "SpeedBase": {
      "Value": 110
    },
    "StanceBase": {
      "Value": 60
    },
    "MinimumFatigueRatio": {
      "Value": 0.2
    },
    "AIPath": "Config/ConfigAI/Monster_Common_SequenceThree_AI.json",
    "StanceCount": 1,
    "InitialDelayRatio": {
      "Value": 1
    },
    "AISkillSequence": [
      {
        "ILOCKGFGCIF": 700207001
      },
      {
        "ILOCKGFGCIF": 700207001
      },
      {
        "ILOCKGFGCIF": 700207001
      },
      {
        "ILOCKGFGCIF": 700207002
      }
    ],
    "NPCMonsterList": []
  },
  "7002080": {
    "MonsterTemplateID": 7002080,
    "MonsterName": {
      "Hash": -192749563
    },
    "MonsterBaseType": "",
    "Rank": "MinionLv2",
    "JsonConfig": "Config/ConfigCharacter/Monster/Monster_AetherDivide_W1_Soldier02_00_Config.json",
    "IconPath": "SpriteOutput/MosterIcon/Monster_1001020.png",
    "RoundIconPath": "SpriteOutput/MonsterRoundIcon/Monster_1001020.png",
    "ImagePath": "SpriteOutput/MonsterFigure/Monster_1002050.png",
    "PrefabPath": "Characters/CharacterPrefabs/Monster/W1_Soldier02_00/Monster_W1_Soldier02_00.prefab",
    "ManikinPrefabPath": "",
    "ManikinConfigPath": "",
    "ManikinImagePath": "SpriteOutput/MonsterMiddleIcon/Monster_1002050.png",
    "NatureID": 1,
    "AttackBase": {
      "Value": 18
    },
    "HPBase": {
      "Value": 1395
    },
    "SpeedBase": {
      "Value": 100
    },
    "StanceBase": {
      "Value": 60
    },
    "MinimumFatigueRatio": {
      "Value": 0.2
    },
    "AIPath": "Config/ConfigAI/Monster_Common_SequenceThree_AI.json",
    "StanceCount": 1,
    "InitialDelayRatio": {
      "Value": 1
    },
    "AISkillSequence": [
      {
        "ILOCKGFGCIF": 700208002
      },
      {
        "ILOCKGFGCIF": 700208001
      },
      {
        "ILOCKGFGCIF": 700208001
      },
      {
        "ILOCKGFGCIF": 700208001
      }
    ],
    "NPCMonsterList": []
  },
  "7002090": {
    "MonsterTemplateID": 7002090,
    "MonsterName": {
      "Hash": 1373334378
    },
    "MonsterBaseType": "",
    "Rank": "MinionLv2",
    "JsonConfig": "Config/ConfigCharacter/Monster/Monster_AetherDivide_W1_Soldier01_00_Config.json",
    "IconPath": "SpriteOutput/MosterIcon/Monster_1001010.png",
    "RoundIconPath": "SpriteOutput/MonsterRoundIcon/Monster_1001010.png",
    "ImagePath": "SpriteOutput/MonsterFigure/Monster_1002040.png",
    "PrefabPath": "Characters/CharacterPrefabs/Monster/AetherDivide_W1_Soldier01_00/Monster_AetherDivide_W1_Soldier01_00.prefab",
    "ManikinPrefabPath": "",
    "ManikinConfigPath": "",
    "ManikinImagePath": "SpriteOutput/MonsterMiddleIcon/Monster_1002040.png",
    "NatureID": 1,
    "AttackBase": {
      "Value": 18
    },
    "HPBase": {
      "Value": 1395
    },
    "SpeedBase": {
      "Value": 95
    },
    "StanceBase": {
      "Value": 60
    },
    "MinimumFatigueRatio": {
      "Value": 0.2
    },
    "AIPath": "Config/ConfigAI/Monster_Common_SequenceThree_AI.json",
    "StanceCount": 1,
    "InitialDelayRatio": {
      "Value": 1
    },
    "AISkillSequence": [
      {
        "ILOCKGFGCIF": 700209001
      },
      {
        "ILOCKGFGCIF": 700209001
      },
      {
        "ILOCKGFGCIF": 700209001
      },
      {
        "ILOCKGFGCIF": 700209002
      }
    ],
    "NPCMonsterList": []
  },
  "7002100": {
    "MonsterTemplateID": 7002100,
    "MonsterName": {
      "Hash": 163480828
    },
    "MonsterBaseType": "",
    "Rank": "MinionLv2",
    "JsonConfig": "Config/ConfigCharacter/Monster/Monster_AetherDivide_W1_Mecha01_00_Config.json",
    "IconPath": "SpriteOutput/MosterIcon/Monster_1012020.png",
    "RoundIconPath": "SpriteOutput/MonsterRoundIcon/Monster_1012020.png",
    "ImagePath": "SpriteOutput/MonsterFigure/Monster_1012020.png",
    "PrefabPath": "Characters/CharacterPrefabs/Monster/W1_Mecha01_00/Monster_W1_Mecha01_00.prefab",
    "ManikinPrefabPath": "Characters/CharacterPrefabs/Manikin/Monster/W1_Mecha01_00/Manikin_Monster_W1_Mecha01_00.prefab",
    "ManikinConfigPath": "Config/ConfigCharacter/Manikin/Monster/Manikin_Monster_W1_Mecha01_00_Config.json",
    "ManikinImagePath": "SpriteOutput/MonsterMiddleIcon/Monster_1012020.png",
    "NatureID": 1,
    "AttackBase": {
      "Value": 18
    },
    "HPBase": {
      "Value": 1395
    },
    "SpeedBase": {
      "Value": 100
    },
    "StanceBase": {
      "Value": 60
    },
    "MinimumFatigueRatio": {
      "Value": 0.2
    },
    "AIPath": "Config/ConfigAI/Monster_Common_SequenceThree_AI.json",
    "StanceCount": 1,
    "InitialDelayRatio": {
      "Value": 1
    },
    "AISkillSequence": [
      {
        "ILOCKGFGCIF": 700210001
      },
      {
        "ILOCKGFGCIF": 700210002
      },
      {
        "ILOCKGFGCIF": 700210003
      }
    ],
    "NPCMonsterList": []
  },
  "7002110": {
    "MonsterTemplateID": 7002110,
    "MonsterName": {
      "Hash": 1729564769
    },
    "MonsterBaseType": "",
    "Rank": "MinionLv2",
    "JsonConfig": "Config/ConfigCharacter/Monster/Monster_AetherDivide_W1_Mecha01_00_Config.json",
    "IconPath": "SpriteOutput/MosterIcon/Monster_1012020.png",
    "RoundIconPath": "SpriteOutput/MonsterRoundIcon/Monster_1012020.png",
    "ImagePath": "SpriteOutput/MonsterFigure/Monster_1012020.png",
    "PrefabPath": "Characters/CharacterPrefabs/Monster/W1_Mecha01_00/Monster_W1_Mecha01_00.prefab",
    "ManikinPrefabPath": "Characters/CharacterPrefabs/Manikin/Monster/W1_Mecha01_00/Manikin_Monster_W1_Mecha01_00.prefab",
    "ManikinConfigPath": "Config/ConfigCharacter/Manikin/Monster/Manikin_Monster_W1_Mecha01_00_Config.json",
    "ManikinImagePath": "SpriteOutput/MonsterMiddleIcon/Monster_1012020.png",
    "NatureID": 1,
    "AttackBase": {
      "Value": 18
    },
    "HPBase": {
      "Value": 1395
    },
    "SpeedBase": {
      "Value": 100
    },
    "StanceBase": {
      "Value": 60
    },
    "MinimumFatigueRatio": {
      "Value": 0.2
    },
    "AIPath": "Config/ConfigAI/Monster_Common_SequenceThree_AI.json",
    "StanceCount": 1,
    "InitialDelayRatio": {
      "Value": 1
    },
    "AISkillSequence": [
      {
        "ILOCKGFGCIF": 700211001
      },
      {
        "ILOCKGFGCIF": 700211002
      },
      {
        "ILOCKGFGCIF": 700211003
      }
    ],
    "NPCMonsterList": []
  },
  "7002120": {
    "MonsterTemplateID": 7002120,
    "MonsterName": {
      "Hash": 1326280242
    },
    "MonsterBaseType": "",
    "Rank": "MinionLv2",
    "JsonConfig": "Config/ConfigCharacter/Monster/Monster_AetherDivide_W1_Soldier02_01_Config.json",
    "IconPath": "SpriteOutput/MosterIcon/Monster_8032010.png",
    "RoundIconPath": "SpriteOutput/MonsterRoundIcon/Monster_8032010.png",
    "ImagePath": "SpriteOutput/MonsterFigure/Monster_8032010.png",
    "PrefabPath": "Characters/CharacterPrefabs/Monster/W1_Soldier02_01/Monster_W1_Soldier02_01.prefab",
    "ManikinPrefabPath": "Characters/CharacterPrefabs/Manikin/Monster/W1_Soldier02_01/Manikin_Monster_W1_Soldier02_01.prefab",
    "ManikinConfigPath": "Config/ConfigCharacter/Manikin/Monster/Manikin_Monster_W1_Soldier02_01_Config.json",
    "ManikinImagePath": "SpriteOutput/MonsterMiddleIcon/Monster_8032010.png",
    "NatureID": 1,
    "AttackBase": {
      "Value": 18
    },
    "HPBase": {
      "Value": 1209
    },
    "SpeedBase": {
      "Value": 100
    },
    "StanceBase": {
      "Value": 60
    },
    "MinimumFatigueRatio": {
      "Value": 0.2
    },
    "AIPath": "Config/ConfigAI/Monster_Common_SequenceThree_AI.json",
    "StanceCount": 1,
    "InitialDelayRatio": {
      "Value": 1
    },
    "AISkillSequence": [
      {
        "ILOCKGFGCIF": 700212001
      },
      {
        "ILOCKGFGCIF": 700212001
      },
      {
        "ILOCKGFGCIF": 700212002
      }
    ],
    "NPCMonsterList": []
  },
  "7002130": {
    "MonsterTemplateID": 7002130,
    "MonsterName": {
      "Hash": -1402603113
    },
    "MonsterBaseType": "",
    "Rank": "MinionLv2",
    "JsonConfig": "Config/ConfigCharacter/Monster/Monster_AetherDivide_W1_Soldier01_04_Config.json",
    "IconPath": "SpriteOutput/MosterIcon/Monster_8032020.png",
    "RoundIconPath": "SpriteOutput/MonsterRoundIcon/Monster_8032020.png",
    "ImagePath": "SpriteOutput/MonsterFigure/Monster_8032020.png",
    "PrefabPath": "Characters/CharacterPrefabs/Monster/W1_Soldier01_04/Monster_W1_Soldier01_04.prefab",
    "ManikinPrefabPath": "Characters/CharacterPrefabs/Manikin/Monster/W1_Soldier01_04/Manikin_Monster_W1_Soldier01_04.prefab",
    "ManikinConfigPath": "Config/ConfigCharacter/Manikin/Monster/Manikin_Monster_W1_Soldier01_04_Config.json",
    "ManikinImagePath": "SpriteOutput/MonsterMiddleIcon/Monster_8032020.png",
    "NatureID": 1,
    "AttackBase": {
      "Value": 18
    },
    "HPBase": {
      "Value": 1209
    },
    "SpeedBase": {
      "Value": 100
    },
    "StanceBase": {
      "Value": 90
    },
    "MinimumFatigueRatio": {
      "Value": 0.2
    },
    "AIPath": "Config/ConfigAI/Monster_Common_SequenceThree_AI.json",
    "StanceCount": 1,
    "InitialDelayRatio": {
      "Value": 1
    },
    "AISkillSequence": [
      {
        "ILOCKGFGCIF": 700213001
      },
      {
        "ILOCKGFGCIF": 700213001
      },
      {
        "ILOCKGFGCIF": 700213002
      }
    ],
    "NPCMonsterList": []
  },
  "7002140": {
    "MonsterTemplateID": 7002140,
    "MonsterName": {
      "Hash": 2132849296
    },
    "MonsterBaseType": "",
    "Rank": "MinionLv2",
    "JsonConfig": "Config/ConfigCharacter/Monster/Monster_AetherDivide_W1_Soldier01_02_Config.json",
    "IconPath": "SpriteOutput/MosterIcon/Monster_9002400.png",
    "RoundIconPath": "SpriteOutput/MonsterRoundIcon/Monster_9002400.png",
    "ImagePath": "SpriteOutput/MonsterFigure/Monster_1022010.png",
    "PrefabPath": "Characters/CharacterPrefabs/Monster/W1_Soldier01_02/Monster_W1_Soldier01_02.prefab",
    "ManikinPrefabPath": "Characters/CharacterPrefabs/Manikin/Monster/W1_Soldier01_02/Manikin_Monster_W1_Soldier01_02.prefab",
    "ManikinConfigPath": "Config/ConfigCharacter/Manikin/Monster/Manikin_Monster_W1_Soldier01_02_Config.json",
    "ManikinImagePath": "SpriteOutput/MonsterMiddleIcon/Monster_1022010.png",
    "NatureID": 1,
    "AttackBase": {
      "Value": 18
    },
    "HPBase": {
      "Value": 1395
    },
    "SpeedBase": {
      "Value": 100
    },
    "StanceBase": {
      "Value": 60
    },
    "MinimumFatigueRatio": {
      "Value": 0.2
    },
    "AIPath": "Config/ConfigAI/Monster_Common_SequenceThree_AI.json",
    "StanceCount": 1,
    "InitialDelayRatio": {
      "Value": 1
    },
    "AISkillSequence": [
      {
        "ILOCKGFGCIF": 700214001
      },
      {
        "ILOCKGFGCIF": 700214001
      },
      {
        "ILOCKGFGCIF": 700214001
      },
      {
        "ILOCKGFGCIF": 700214002
      }
    ],
    "NPCMonsterList": []
  },
  "7003010": {
    "MonsterTemplateID": 7003010,
    "MonsterName": {
      "Hash": 183683773
    },
    "MonsterBaseType": "",
    "Rank": "Elite",
    "JsonConfig": "Config/ConfigCharacter/Monster/Monster_AetherDivide_XP_Elite01_00_Config.json",
    "IconPath": "SpriteOutput/MosterIcon/Monster_8003020.png",
    "RoundIconPath": "SpriteOutput/MonsterRoundIcon/Monster_8003020.png",
    "ImagePath": "SpriteOutput/MonsterFigure/Monster_8003020.png",
    "PrefabPath": "Characters/CharacterPrefabs/Monster/XP_Elite01_00/Monster_XP_Elite01_00.prefab",
    "ManikinPrefabPath": "",
    "ManikinConfigPath": "",
    "ManikinImagePath": "SpriteOutput/MonsterMiddleIcon/Monster_8003020.png",
    "NatureID": 1,
    "AttackBase": {
      "Value": 18
    },
    "HPBase": {
      "Value": 2325
    },
    "SpeedBase": {
      "Value": 100
    },
    "StanceBase": {
      "Value": 360
    },
    "MinimumFatigueRatio": {
      "Value": 0.2
    },
    "AIPath": "Config/ConfigAI/Monster_Common_SequenceThree_AI.json",
    "StanceCount": 1,
    "InitialDelayRatio": {
      "Value": 1
    },
    "AISkillSequence": [
      {
        "ILOCKGFGCIF": 700301002
      },
      {
        "ILOCKGFGCIF": 700301003
      },
      {
        "ILOCKGFGCIF": 700301004
      },
      {
        "ILOCKGFGCIF": 700301005
      },
      {
        "ILOCKGFGCIF": 700301006
      }
    ],
    "NPCMonsterList": []
  },
  "7003020": {
    "MonsterTemplateID": 7003020,
    "MonsterName": {
      "Hash": -1382400168
    },
    "MonsterBaseType": "",
    "Rank": "Elite",
    "JsonConfig": "Config/ConfigCharacter/Monster/Monster_AetherDivide_W2_Mecha03_00_Config.json",
    "IconPath": "SpriteOutput/MosterIcon/Monster_2013010.png",
    "RoundIconPath": "SpriteOutput/MonsterRoundIcon/Monster_2013010.png",
    "ImagePath": "SpriteOutput/MonsterFigure/Monster_2013010.png",
    "PrefabPath": "Characters/CharacterPrefabs/Monster/W2_Mecha03_00/Monster_W2_Mecha03_00.prefab",
    "ManikinPrefabPath": "",
    "ManikinConfigPath": "",
    "ManikinImagePath": "SpriteOutput/MonsterMiddleIcon/Monster_2013010.png",
    "NatureID": 1,
    "AttackBase": {
      "Value": 18
    },
    "HPBase": {
      "Value": 2325
    },
    "SpeedBase": {
      "Value": 90
    },
    "StanceBase": {
      "Value": 300
    },
    "MinimumFatigueRatio": {
      "Value": 0.2
    },
    "AIPath": "Config/ConfigAI/Monster_AetherDivide_W2_Mecha03_00_AI.json",
    "StanceCount": 1,
    "InitialDelayRatio": {
      "Value": 1
    },
    "AISkillSequence": [],
    "NPCMonsterList": []
  },
  "7003030": {
    "MonsterTemplateID": 7003030,
    "MonsterName": {
      "Hash": 1346483187
    },
    "MonsterBaseType": "",
    "Rank": "Elite",
    "JsonConfig": "Config/ConfigCharacter/Monster/Monster_AetherDivide_W1_Soldier03_00_Config.json",
    "IconPath": "SpriteOutput/MosterIcon/Monster_1003010.png",
    "RoundIconPath": "SpriteOutput/MonsterRoundIcon/Monster_1003010.png",
    "ImagePath": "SpriteOutput/MonsterFigure/Monster_1003010.png",
    "PrefabPath": "Characters/CharacterPrefabs/Monster/W1_Soldier03_00/Monster_W1_Soldier03_00.prefab",
    "ManikinPrefabPath": "",
    "ManikinConfigPath": "",
    "ManikinImagePath": "SpriteOutput/MonsterMiddleIcon/Monster_1003010.png",
    "NatureID": 1,
    "AttackBase": {
      "Value": 18
    },
    "HPBase": {
      "Value": 2325
    },
    "SpeedBase": {
      "Value": 105
    },
    "StanceBase": {
      "Value": 240
    },
    "MinimumFatigueRatio": {
      "Value": 0.2
    },
    "AIPath": "Config/ConfigAI/Monster_Common_SequenceThree_AI.json",
    "StanceCount": 1,
    "InitialDelayRatio": {
      "Value": 1
    },
    "AISkillSequence": [
      {
        "ILOCKGFGCIF": 700303002
      },
      {
        "ILOCKGFGCIF": 700303001
      },
      {
        "ILOCKGFGCIF": 700303003
      },
      {
        "ILOCKGFGCIF": 700303001
      },
      {
        "ILOCKGFGCIF": 700303002
      },
      {
        "ILOCKGFGCIF": 700303003
      },
      {
        "ILOCKGFGCIF": 700303001
      },
      {
        "ILOCKGFGCIF": 700303001
      },
      {
        "ILOCKGFGCIF": 700303003
      }
    ],
    "NPCMonsterList": []
  },
  "7003040": {
    "MonsterTemplateID": 7003040,
    "MonsterName": {
      "Hash": -575831114
    },
    "MonsterBaseType": "",
    "Rank": "Elite",
    "JsonConfig": "Config/ConfigCharacter/Monster/Monster_AetherDivide_AML_Elite01_00_Config.json",
    "IconPath": "SpriteOutput/MosterIcon/Monster_8013010.png",
    "RoundIconPath": "SpriteOutput/MonsterRoundIcon/Monster_8013010.png",
    "ImagePath": "SpriteOutput/MonsterFigure/Monster_8013010.png",
    "PrefabPath": "Characters/CharacterPrefabs/Monster/AML_Elite01_00/Monster_AML_Elite01_00.prefab",
    "ManikinPrefabPath": "Characters/CharacterPrefabs/Manikin/Monster/AML_Elite01_00/Manikin_Monster_AML_Elite01_00.prefab",
    "ManikinConfigPath": "Config/ConfigCharacter/Manikin/Monster/Manikin_Monster_AML_Elite01_00_Config.json",
    "ManikinImagePath": "SpriteOutput/MonsterMiddleIcon/Monster_8013010.png",
    "NatureID": 1,
    "AttackBase": {
      "Value": 18
    },
    "HPBase": {
      "Value": 2325
    },
    "SpeedBase": {
      "Value": 120
    },
    "StanceBase": {
      "Value": 300
    },
    "MinimumFatigueRatio": {
      "Value": 0.2
    },
    "AIPath": "Config/ConfigAI/Monster_AetherDivide_AML_Elite01_00_AI.json",
    "StanceCount": 1,
    "InitialDelayRatio": {
      "Value": 1
    },
    "AISkillSequence": [
      {
        "ILOCKGFGCIF": 700304001
      },
      {
        "ILOCKGFGCIF": 700304004
      },
      {
        "ILOCKGFGCIF": 700304005
      },
      {
        "ILOCKGFGCIF": 700304003
      }
    ],
    "NPCMonsterList": []
  },
  "7003060": {
    "MonsterTemplateID": 7003060,
    "MonsterName": {
      "Hash": 586968300
    },
    "MonsterBaseType": "",
    "Rank": "Elite",
    "JsonConfig": "Config/ConfigCharacter/Monster/Monster_AetherDivide_W1_Mecha03_01_Config.json",
    "IconPath": "SpriteOutput/MosterIcon/Monster_1023020.png",
    "RoundIconPath": "SpriteOutput/MonsterRoundIcon/Monster_1023020.png",
    "ImagePath": "SpriteOutput/MonsterFigure/Monster_1023020.png",
    "PrefabPath": "Characters/CharacterPrefabs/Monster/W1_Mecha03_01/Monster_W1_Mecha03_01.prefab",
    "ManikinPrefabPath": "Characters/CharacterPrefabs/Manikin/Monster/W1_Mecha03_01/Manikin_Monster_W1_Mecha03_01.prefab",
    "ManikinConfigPath": "Config/ConfigCharacter/Manikin/Monster/Manikin_Monster_W1_Mecha03_01_Config.json",
    "ManikinImagePath": "SpriteOutput/MonsterMiddleIcon/Monster_1023020.png",
    "NatureID": 1,
    "AttackBase": {
      "Value": 18
    },
    "HPBase": {
      "Value": 2325
    },
    "SpeedBase": {
      "Value": 100
    },
    "StanceBase": {
      "Value": 300
    },
    "MinimumFatigueRatio": {
      "Value": 0.2
    },
    "AIPath": "Config/ConfigAI/Monster_AetherDivide_W1_Mecha03_01_AI.json",
    "StanceCount": 1,
    "InitialDelayRatio": {
      "Value": 1
    },
    "AISkillSequence": [
      {
        "ILOCKGFGCIF": 700306001
      },
      {
        "ILOCKGFGCIF": 700306001
      },
      {
        "ILOCKGFGCIF": 700306003
      },
      {
        "ILOCKGFGCIF": 700306002
      }
    ],
    "NPCMonsterList": []
  },
  "7003070": {
    "MonsterTemplateID": 7003070,
    "MonsterName": {
      "Hash": -979115641
    },
    "MonsterBaseType": "",
    "Rank": "Elite",
    "JsonConfig": "Config/ConfigCharacter/Monster/Monster_AetherDivide_W1_Mecha04_00_Config.json",
    "IconPath": "SpriteOutput/MosterIcon/Monster_1013020.png",
    "RoundIconPath": "SpriteOutput/MonsterRoundIcon/Monster_1013020.png",
    "ImagePath": "SpriteOutput/MonsterFigure/Monster_1013020.png",
    "PrefabPath": "Characters/CharacterPrefabs/Monster/W1_Mecha04_00/Monster_W1_Mecha04_00.prefab",
    "ManikinPrefabPath": "",
    "ManikinConfigPath": "",
    "ManikinImagePath": "SpriteOutput/MonsterMiddleIcon/Monster_1013020.png",
    "NatureID": 1,
    "AttackBase": {
      "Value": 18
    },
    "HPBase": {
      "Value": 2325
    },
    "SpeedBase": {
      "Value": 115
    },
    "StanceBase": {
      "Value": 300
    },
    "MinimumFatigueRatio": {
      "Value": 0.2
    },
    "AIPath": "Config/ConfigAI/Monster_Common_SequenceThree_AI.json",
    "StanceCount": 1,
    "InitialDelayRatio": {
      "Value": 1
    },
    "AISkillSequence": [
      {
        "ILOCKGFGCIF": 700307001
      },
      {
        "ILOCKGFGCIF": 700307001
      },
      {
        "ILOCKGFGCIF": 700307001
      },
      {
        "ILOCKGFGCIF": 700307002
      }
    ],
    "NPCMonsterList": []
  },
  "7003080": {
    "MonsterTemplateID": 7003080,
    "MonsterName": {
      "Hash": 1393537354
    },
    "MonsterBaseType": "",
    "Rank": "Elite",
    "JsonConfig": "Config/ConfigCharacter/Monster/Monster_AetherDivide_W1_Mecha04_01_Config.json",
    "IconPath": "SpriteOutput/MosterIcon/Monster_1023010.png",
    "RoundIconPath": "SpriteOutput/MonsterRoundIcon/Monster_1023010.png",
    "ImagePath": "SpriteOutput/MonsterFigure/Monster_1023010.png",
    "PrefabPath": "Characters/CharacterPrefabs/Monster/W1_Mecha04_01/Monster_W1_Mecha04_01.prefab",
    "ManikinPrefabPath": "Characters/CharacterPrefabs/Manikin/Monster/W1_Mecha04_01/Manikin_Monster_W1_Mecha04_01.prefab",
    "ManikinConfigPath": "Config/ConfigCharacter/Manikin/Monster/Manikin_Monster_W1_Mecha04_01_Config.json",
    "ManikinImagePath": "SpriteOutput/MonsterMiddleIcon/Monster_1023010.png",
    "NatureID": 1,
    "AttackBase": {
      "Value": 18
    },
    "HPBase": {
      "Value": 2325
    },
    "SpeedBase": {
      "Value": 100
    },
    "StanceBase": {
      "Value": 300
    },
    "MinimumFatigueRatio": {
      "Value": 0.2
    },
    "AIPath": "Config/ConfigAI/Monster_Common_SequenceThree_AI.json",
    "StanceCount": 1,
    "InitialDelayRatio": {
      "Value": 1
    },
    "AISkillSequence": [
      {
        "ILOCKGFGCIF": 700308002
      },
      {
        "ILOCKGFGCIF": 700308004
      },
      {
        "ILOCKGFGCIF": 700308005
      },
      {
        "ILOCKGFGCIF": 700308001
      },
      {
        "ILOCKGFGCIF": 700308007
      },
      {
        "ILOCKGFGCIF": 700308006
      }
    ],
    "NPCMonsterList": []
  },
  "7003090": {
    "MonsterTemplateID": 7003090,
    "MonsterName": {
      "Hash": -172546587
    },
    "MonsterBaseType": "",
    "Rank": "Elite",
    "JsonConfig": "Config/ConfigCharacter/Monster/Monster_AetherDivide_W1_Mecha03_00_Config.json",
    "IconPath": "SpriteOutput/MosterIcon/Monster_1013010.png",
    "RoundIconPath": "SpriteOutput/MonsterRoundIcon/Monster_1013010.png",
    "ImagePath": "SpriteOutput/MonsterFigure/Monster_1013010.png",
    "PrefabPath": "Characters/CharacterPrefabs/Monster/W1_Mecha03_00/Monster_W1_Mecha03_00.prefab",
    "ManikinPrefabPath": "Characters/CharacterPrefabs/Manikin/Monster/W1_Mecha03_00/Manikin_Monster_W1_Mecha03_00.prefab",
    "ManikinConfigPath": "Config/ConfigCharacter/Manikin/Monster/Manikin_Monster_W1_Mecha03_00_Config.json",
    "ManikinImagePath": "SpriteOutput/MonsterMiddleIcon/Monster_1013010.png",
    "NatureID": 1,
    "AttackBase": {
      "Value": 18
    },
    "HPBase": {
      "Value": 2325
    },
    "SpeedBase": {
      "Value": 120
    },
    "StanceBase": {
      "Value": 420
    },
    "MinimumFatigueRatio": {
      "Value": 0.2
    },
    "AIPath": "Config/ConfigAI/Monster_Common_SequenceThree_AI.json",
    "StanceCount": 1,
    "InitialDelayRatio": {
      "Value": 1
    },
    "AISkillSequence": [
      {
        "ILOCKGFGCIF": 700309005
      },
      {
        "ILOCKGFGCIF": 700309001
      },
      {
        "ILOCKGFGCIF": 700309005
      },
      {
        "ILOCKGFGCIF": 700309001
      },
      {
        "ILOCKGFGCIF": 700309003
      },
      {
        "ILOCKGFGCIF": 700309004
      }
    ],
    "NPCMonsterList": []
  },
  "7003100": {
    "MonsterTemplateID": 7003100,
    "MonsterName": {
      "Hash": 1749767745
    },
    "MonsterBaseType": "",
    "Rank": "Elite",
    "JsonConfig": "Config/ConfigCharacter/Monster/Monster_AetherDivide_W1_Mecha03_02_Config.json",
    "IconPath": "SpriteOutput/MosterIcon/Monster_8033010.png",
    "RoundIconPath": "SpriteOutput/MonsterRoundIcon/Monster_8033010.png",
    "ImagePath": "SpriteOutput/MonsterFigure/Monster_8033010.png",
    "PrefabPath": "Characters/CharacterPrefabs/Monster/W1_Mecha03_02/Monster_W1_Mecha03_02.prefab",
    "ManikinPrefabPath": "Characters/CharacterPrefabs/Manikin/Monster/W1_Mecha03_02/Manikin_Monster_W1_Mecha03_02.prefab",
    "ManikinConfigPath": "Config/ConfigCharacter/Manikin/Monster/Manikin_Monster_W1_Mecha03_02_Config.json",
    "ManikinImagePath": "SpriteOutput/MonsterMiddleIcon/Monster_8033010.png",
    "NatureID": 1,
    "AttackBase": {
      "Value": 18
    },
    "HPBase": {
      "Value": 2325
    },
    "SpeedBase": {
      "Value": 102
    },
    "StanceBase": {
      "Value": 420
    },
    "MinimumFatigueRatio": {
      "Value": 0.2
    },
    "AIPath": "Config/ConfigAI/Monster_AetherDivide_W1_Mecha03_02_AI.json",
    "StanceCount": 1,
    "InitialDelayRatio": {
      "Value": 1
    },
    "AISkillSequence": [
      {
        "ILOCKGFGCIF": 700310001
      },
      {
        "ILOCKGFGCIF": 700310001
      },
      {
        "ILOCKGFGCIF": 700310005
      },
      {
        "ILOCKGFGCIF": 700310004
      }
    ],
    "NPCMonsterList": []
  },
  "7002040": {
    "MonsterTemplateID": 7002040,
    "MonsterName": {
      "Hash": 2132849265
    },
    "MonsterBaseType": "",
    "Rank": "MinionLv2",
    "JsonConfig": "Config/ConfigCharacter/Monster/Monster_AetherDivide_W1_Mecha02_00_Config.json",
    "IconPath": "SpriteOutput/MosterIcon/Monster_1012010.png",
    "RoundIconPath": "SpriteOutput/MonsterRoundIcon/Monster_1012010.png",
    "ImagePath": "SpriteOutput/MonsterFigure/Monster_1012010.png",
    "PrefabPath": "Characters/CharacterPrefabs/Monster/W1_Mecha02_00/Monster_W1_Mecha02_00.prefab",
    "ManikinPrefabPath": "Characters/CharacterPrefabs/Manikin/Monster/W1_Mecha02_00/Manikin_Monster_W1_Mecha02_00.prefab",
    "ManikinConfigPath": "Config/ConfigCharacter/Manikin/Monster/Manikin_Monster_W1_Mecha02_00_Config.json",
    "ManikinImagePath": "SpriteOutput/MonsterMiddleIcon/Monster_1012010.png",
    "NatureID": 1,
    "AttackBase": {
      "Value": 18
    },
    "HPBase": {
      "Value": 1395
    },
    "SpeedBase": {
      "Value": 90
    },
    "StanceBase": {
      "Value": 60
    },
    "MinimumFatigueRatio": {
      "Value": 0.2
    },
    "AIPath": "Config/ConfigAI/Monster_AetherDivide_W1_Mecha02_00_AI.json",
    "StanceCount": 1,
    "InitialDelayRatio": {
      "Value": 1
    },
    "AISkillSequence": [],
    "NPCMonsterList": []
  },
  "7003050": {
    "MonsterTemplateID": 7003050,
    "MonsterName": {
      "Hash": -2141915055
    },
    "MonsterBaseType": "",
    "Rank": "Elite",
    "JsonConfig": "Config/ConfigCharacter/Monster/Monster_AetherDivide_XP_Elite02_01_Config.json",
    "IconPath": "SpriteOutput/MosterIcon/Monster_8003040.png",
    "RoundIconPath": "SpriteOutput/MonsterRoundIcon/Monster_8003040.png",
    "ImagePath": "SpriteOutput/MonsterFigure/Monster_8003040.png",
    "PrefabPath": "Characters/CharacterPrefabs/Monster/XP_Elite02_01/Monster_XP_Elite02_01.prefab",
    "ManikinPrefabPath": "Characters/CharacterPrefabs/Manikin/Monster/XP_Elite02_01/Manikin_Monster_XP_Elite02_01.prefab",
    "ManikinConfigPath": "Config/ConfigCharacter/Manikin/Monster/Manikin_Monster_XP_Elite02_01_Config.json",
    "ManikinImagePath": "SpriteOutput/MonsterMiddleIcon/Monster_8003040.png",
    "NatureID": 1,
    "AttackBase": {
      "Value": 18
    },
    "HPBase": {
      "Value": 2325
    },
    "SpeedBase": {
      "Value": 120
    },
    "StanceBase": {
      "Value": 300
    },
    "MinimumFatigueRatio": {
      "Value": 0.2
    },
    "AIPath": "Config/ConfigAI/Monster_Common_SequenceThree_AI.json",
    "StanceCount": 1,
    "InitialDelayRatio": {
      "Value": 1
    },
    "AISkillSequence": [
      {
        "ILOCKGFGCIF": 700305004
      },
      {
        "ILOCKGFGCIF": 700305001
      },
      {
        "ILOCKGFGCIF": 700305002
      },
      {
        "ILOCKGFGCIF": 700305003
      }
    ],
    "NPCMonsterList": []
  }
}