{
  "1001": {
    "ID": 1001,
    "Name": {
      "Hash": -587570848
    },
    "CategoryID": 1000,
    "ImgPath": "SpriteOutput/StoryReview/100010100.png",
    "ImgPath_F": "SpriteOutput/StoryReview/100010100.png",
    "ImgHeightSize": 287,
    "UnlockCondition": [
      {
        "Type": "FinishMainMission",
        "Param": "1000401"
      }
    ],
    "PerformanceID": 100010100,
    "isVideo": true,
    "ImgPathWall": "",
    "ImgPathWall_F": ""
  },
  "1002": {
    "ID": 1002,
    "Name": {
      "Hash": -587570851
    },
    "CategoryID": 1000,
    "ImgPath": "SpriteOutput/StoryReview/100010102.png",
    "ImgPath_F": "SpriteOutput/StoryReview/100010102.png",
    "ImgHeightSize": 232,
    "UnlockCondition": [
      {
        "Type": "FinishMainMission",
        "Param": "1000401"
      }
    ],
    "PerformanceID": 100010102,
    "ImgPathWall": "",
    "ImgPathWall_F": ""
  },
  "1003": {
    "ID": 1003,
    "Name": {
      "Hash": -587570850
    },
    "CategoryID": 1000,
    "ImgPath": "SpriteOutput/StoryReview/100010103.png",
    "ImgPath_F": "SpriteOutput/StoryReview/100010103.png",
    "ImgHeightSize": 180,
    "UnlockCondition": [
      {
        "Type": "FinishMainMission",
        "Param": "1000401"
      }
    ],
    "PerformanceID": 100010103,
    "ImgPathWall": "",
    "ImgPathWall_F": ""
  },
  "1004": {
    "ID": 1004,
    "Name": {
      "Hash": -587570845
    },
    "CategoryID": 1000,
    "ImgPath": "SpriteOutput/StoryReview/100010116.png",
    "ImgPath_F": "SpriteOutput/StoryReview/100010116.png",
    "ImgHeightSize": 232,
    "UnlockCondition": [
      {
        "Type": "FinishMainMission",
        "Param": "1000401"
      }
    ],
    "PerformanceID": 100010116,
    "ImgPathWall": "",
    "ImgPathWall_F": ""
  },
  "1005": {
    "ID": 1005,
    "Name": {
      "Hash": -587570844
    },
    "CategoryID": 1000,
    "ImgPath": "SpriteOutput/StoryReview/100020101.png",
    "ImgPath_F": "SpriteOutput/StoryReview/100020101.png",
    "ImgHeightSize": 180,
    "UnlockCondition": [
      {
        "Type": "FinishMainMission",
        "Param": "1000401"
      }
    ],
    "PerformanceID": 100020101,
    "ImgPathWall": "Stages/OriginalResPos/Chapter00/_dependencies/Texture/EffectTexture/DigiitalAlbumTex/CS_Chap00_Act250.png",
    "ImgPathWall_F": "Stages/OriginalResPos/Chapter00/_dependencies/Texture/EffectTexture/DigiitalAlbumTex/CS_Chap00_Act250.png"
  },
  "1006": {
    "ID": 1006,
    "Name": {
      "Hash": -587570847
    },
    "CategoryID": 1000,
    "ImgPath": "SpriteOutput/StoryReview/100020116.png",
    "ImgPath_F": "SpriteOutput/StoryReview/100020116.png",
    "ImgHeightSize": 287,
    "UnlockCondition": [
      {
        "Type": "FinishMainMission",
        "Param": "1000401"
      }
    ],
    "PerformanceID": 100020116,
    "ImgPathWall": "Stages/OriginalResPos/Chapter00/_dependencies/Texture/EffectTexture/DigiitalAlbumTex/CS_Chap00_Act260.png",
    "ImgPathWall_F": "Stages/OriginalResPos/Chapter00/_dependencies/Texture/EffectTexture/DigiitalAlbumTex/CS_Chap00_Act260.png"
  },
  "1007": {
    "ID": 1007,
    "Name": {
      "Hash": -587570846
    },
    "CategoryID": 1000,
    "ImgPath": "SpriteOutput/StoryReview/100020117.png",
    "ImgPath_F": "SpriteOutput/StoryReview/100020117.png",
    "ImgHeightSize": 180,
    "UnlockCondition": [
      {
        "Type": "FinishMainMission",
        "Param": "1000401"
      }
    ],
    "PerformanceID": 100020117,
    "isVideo": true,
    "ImgPathWall": "Stages/OriginalResPos/Chapter00/_dependencies/Texture/EffectTexture/DigiitalAlbumTex/CS_Chap00_Act270.png",
    "ImgPathWall_F": "Stages/OriginalResPos/Chapter00/_dependencies/Texture/EffectTexture/DigiitalAlbumTex/CS_Chap00_Act270.png"
  },
  "1008": {
    "ID": 1008,
    "Name": {
      "Hash": -587570857
    },
    "CategoryID": 1000,
    "ImgPath": "SpriteOutput/StoryReview/100030203.png",
    "ImgPath_F": "SpriteOutput/StoryReview/100030203.png",
    "ImgHeightSize": 287,
    "UnlockCondition": [
      {
        "Type": "FinishMainMission",
        "Param": "1000401"
      }
    ],
    "PerformanceID": 100030203,
    "ImgPathWall": "Stages/OriginalResPos/Chapter00/_dependencies/Texture/EffectTexture/DigiitalAlbumTex/CS_Chap00_Act280.png",
    "ImgPathWall_F": "Stages/OriginalResPos/Chapter00/_dependencies/Texture/EffectTexture/DigiitalAlbumTex/CS_Chap00_Act280.png"
  },
  "1009": {
    "ID": 1009,
    "Name": {
      "Hash": -587570856
    },
    "CategoryID": 1000,
    "ImgPath": "SpriteOutput/StoryReview/100040110.png",
    "ImgPath_F": "SpriteOutput/StoryReview/100040110.png",
    "ImgHeightSize": 232,
    "UnlockCondition": [
      {
        "Type": "FinishMainMission",
        "Param": "1000401"
      }
    ],
    "PerformanceID": 100040110,
    "ImgPathWall": "Stages/OriginalResPos/Chapter00/_dependencies/Texture/EffectTexture/DigiitalAlbumTex/CS_Chap00_Act290.png",
    "ImgPathWall_F": "Stages/OriginalResPos/Chapter00/_dependencies/Texture/EffectTexture/DigiitalAlbumTex/CS_Chap00_Act290_f.png"
  },
  "1010": {
    "ID": 1010,
    "Name": {
      "Hash": 2141312506
    },
    "CategoryID": 1000,
    "ImgPath": "SpriteOutput/StoryReview/1009.png",
    "ImgPath_F": "SpriteOutput/StoryReview/1009F.png",
    "ImgHeightSize": 287,
    "UnlockCondition": [
      {
        "Type": "FinishMainMission",
        "Param": "1000401"
      }
    ],
    "PerformanceID": 100040111,
    "isVideo": true,
    "ImgPathWall": "",
    "ImgPathWall_F": ""
  },
  "1011": {
    "ID": 1011,
    "Name": {
      "Hash": 2141312507
    },
    "CategoryID": 1000,
    "ImgPath": "SpriteOutput/StoryReview/100050201.png",
    "ImgPath_F": "SpriteOutput/StoryReview/100050201.png",
    "ImgHeightSize": 180,
    "UnlockCondition": [
      {
        "Type": "FinishMainMission",
        "Param": "1000511"
      }
    ],
    "PerformanceID": 100050201,
    "isVideo": true,
    "ImgPathWall": "Stages/OriginalResPos/Chapter00/_dependencies/Texture/EffectTexture/DigiitalAlbumTex/CS_Chap00_Act310.png",
    "ImgPathWall_F": "Stages/OriginalResPos/Chapter00/_dependencies/Texture/EffectTexture/DigiitalAlbumTex/CS_Chap00_Act310.png"
  },
  "1012": {
    "ID": 1012,
    "Name": {
      "Hash": 2141312504
    },
    "CategoryID": 1000,
    "ImgPath": "SpriteOutput/StoryReview/101000100.png",
    "ImgPath_F": "SpriteOutput/StoryReview/101000100.png",
    "ImgHeightSize": 232,
    "UnlockCondition": [
      {
        "Type": "FinishMainMission",
        "Param": "1010002"
      }
    ],
    "PerformanceID": 101000100,
    "isVideo": true,
    "ImgPathWall": "Stages/OriginalResPos/Chapter00/_dependencies/Texture/EffectTexture/DigiitalAlbumTex/CS_Chap01_Act010.png",
    "ImgPathWall_F": "Stages/OriginalResPos/Chapter00/_dependencies/Texture/EffectTexture/DigiitalAlbumTex/CS_Chap01_Act010.png"
  },
  "2001": {
    "ID": 2001,
    "Name": {
      "Hash": 998716069
    },
    "CategoryID": 2000,
    "ImgPath": "SpriteOutput/StoryReview/101000106.png",
    "ImgPath_F": "SpriteOutput/StoryReview/101000106.png",
    "ImgHeightSize": 232,
    "UnlockCondition": [
      {
        "Type": "FinishMainMission",
        "Param": "1010002"
      }
    ],
    "PerformanceID": 101000106,
    "isVideo": true,
    "ImgPathWall": "",
    "ImgPathWall_F": ""
  },
  "2002": {
    "ID": 2002,
    "Name": {
      "Hash": 998716066
    },
    "CategoryID": 2000,
    "ImgPath": "SpriteOutput/StoryReview/101010115.png",
    "ImgPath_F": "SpriteOutput/StoryReview/101010115.png",
    "ImgHeightSize": 180,
    "UnlockCondition": [
      {
        "Type": "FinishMainMission",
        "Param": "1010101"
      }
    ],
    "PerformanceID": 101010115,
    "ImgPathWall": "Stages/OriginalResPos/Chapter00/_dependencies/Texture/EffectTexture/DigiitalAlbumTex/CS_Chap01_Act030.png",
    "ImgPathWall_F": "Stages/OriginalResPos/Chapter00/_dependencies/Texture/EffectTexture/DigiitalAlbumTex/CS_Chap01_Act030.png"
  },
  "2003": {
    "ID": 2003,
    "Name": {
      "Hash": 998716067
    },
    "CategoryID": 2000,
    "ImgPath": "SpriteOutput/StoryReview/101020207.png",
    "ImgPath_F": "SpriteOutput/StoryReview/101020207.png",
    "ImgHeightSize": 287,
    "UnlockCondition": [
      {
        "Type": "FinishMainMission",
        "Param": "1010301"
      }
    ],
    "PerformanceID": 101020207,
    "ImgPathWall": "Stages/OriginalResPos/Chapter00/_dependencies/Texture/EffectTexture/DigiitalAlbumTex/CS_Chap01_Act040.png",
    "ImgPathWall_F": "Stages/OriginalResPos/Chapter00/_dependencies/Texture/EffectTexture/DigiitalAlbumTex/CS_Chap01_Act040.png"
  },
  "2004": {
    "ID": 2004,
    "Name": {
      "Hash": 998716072
    },
    "CategoryID": 2000,
    "ImgPath": "SpriteOutput/StoryReview/101030204.png",
    "ImgPath_F": "SpriteOutput/StoryReview/101030204.png",
    "ImgHeightSize": 180,
    "UnlockCondition": [
      {
        "Type": "FinishMainMission",
        "Param": "1010302"
      }
    ],
    "PerformanceID": 101030204,
    "ImgPathWall": "",
    "ImgPathWall_F": ""
  },
  "2005": {
    "ID": 2005,
    "Name": {
      "Hash": 998716073
    },
    "CategoryID": 2000,
    "ImgPath": "SpriteOutput/StoryReview/101030205.png",
    "ImgPath_F": "SpriteOutput/StoryReview/101030205.png",
    "ImgHeightSize": 232,
    "UnlockCondition": [
      {
        "Type": "FinishMainMission",
        "Param": "1010302"
      }
    ],
    "PerformanceID": 101030205,
    "ImgPathWall": "Stages/OriginalResPos/Chapter00/_dependencies/Texture/EffectTexture/DigiitalAlbumTex/CS_Chap01_Act060.png",
    "ImgPathWall_F": "Stages/OriginalResPos/Chapter00/_dependencies/Texture/EffectTexture/DigiitalAlbumTex/CS_Chap01_Act060.png"
  },
  "2006": {
    "ID": 2006,
    "Name": {
      "Hash": 998716070
    },
    "CategoryID": 2000,
    "ImgPath": "SpriteOutput/StoryReview/101030206.png",
    "ImgPath_F": "SpriteOutput/StoryReview/101030206.png",
    "ImgHeightSize": 287,
    "UnlockCondition": [
      {
        "Type": "FinishMainMission",
        "Param": "1010302"
      }
    ],
    "PerformanceID": 101030206,
    "ImgPathWall": "Stages/OriginalResPos/Chapter00/_dependencies/Texture/EffectTexture/DigiitalAlbumTex/CS_Chap01_Act070.png",
    "ImgPathWall_F": "Stages/OriginalResPos/Chapter00/_dependencies/Texture/EffectTexture/DigiitalAlbumTex/CS_Chap01_Act070.png"
  },
  "2007": {
    "ID": 2007,
    "Name": {
      "Hash": 998716071
    },
    "CategoryID": 2000,
    "ImgPath": "SpriteOutput/StoryReview/101040305.png",
    "ImgPath_F": "SpriteOutput/StoryReview/101040305.png",
    "ImgHeightSize": 232,
    "UnlockCondition": [
      {
        "Type": "FinishMainMission",
        "Param": "1010403"
      }
    ],
    "PerformanceID": 101040305,
    "ImgPathWall": "Stages/OriginalResPos/Chapter00/_dependencies/Texture/EffectTexture/DigiitalAlbumTex/CS_Chap01_Act080.png",
    "ImgPathWall_F": "Stages/OriginalResPos/Chapter00/_dependencies/Texture/EffectTexture/DigiitalAlbumTex/CS_Chap01_Act080.png"
  },
  "2008": {
    "ID": 2008,
    "Name": {
      "Hash": 998716060
    },
    "CategoryID": 2000,
    "ImgPath": "SpriteOutput/StoryReview/2008.png",
    "ImgPath_F": "SpriteOutput/StoryReview/2008.png",
    "ImgHeightSize": 287,
    "UnlockCondition": [
      {
        "Type": "FinishMainMission",
        "Param": "1010601"
      }
    ],
    "PerformanceID": 101060103,
    "isVideo": true,
    "ImgPathWall": "",
    "ImgPathWall_F": ""
  },
  "2009": {
    "ID": 2009,
    "Name": {
      "Hash": 998716061
    },
    "CategoryID": 2000,
    "ImgPath": "SpriteOutput/StoryReview/101090227.png",
    "ImgPath_F": "SpriteOutput/StoryReview/101090227.png",
    "ImgHeightSize": 180,
    "UnlockCondition": [
      {
        "Type": "FinishMainMission",
        "Param": "1010902"
      }
    ],
    "PerformanceID": 101090227,
    "ImgPathWall": "Stages/OriginalResPos/Chapter00/_dependencies/Texture/EffectTexture/DigiitalAlbumTex/CS_Chap01_Act100.png",
    "ImgPathWall_F": "Stages/OriginalResPos/Chapter00/_dependencies/Texture/EffectTexture/DigiitalAlbumTex/CS_Chap01_Act100.png"
  },
  "2010": {
    "ID": 2010,
    "Name": {
      "Hash": -1730167287
    },
    "CategoryID": 2000,
    "ImgPath": "SpriteOutput/StoryReview/101140102.png",
    "ImgPath_F": "SpriteOutput/StoryReview/101140102.png",
    "ImgHeightSize": 287,
    "UnlockCondition": [
      {
        "Type": "FinishMainMission",
        "Param": "1011401"
      }
    ],
    "PerformanceID": 101140102,
    "isVideo": true,
    "ImgPathWall": "Stages/OriginalResPos/Chapter00/_dependencies/Texture/EffectTexture/DigiitalAlbumTex/CS_Chap01_Act110.png",
    "ImgPathWall_F": "Stages/OriginalResPos/Chapter00/_dependencies/Texture/EffectTexture/DigiitalAlbumTex/CS_Chap01_Act110.png"
  },
  "2011": {
    "ID": 2011,
    "Name": {
      "Hash": -1730167286
    },
    "CategoryID": 2000,
    "ImgPath": "SpriteOutput/StoryReview/101140103.png",
    "ImgPath_F": "SpriteOutput/StoryReview/101140103.png",
    "ImgHeightSize": 180,
    "UnlockCondition": [
      {
        "Type": "FinishMainMission",
        "Param": "1011401"
      }
    ],
    "PerformanceID": 101140103,
    "isVideo": true,
    "ImgPathWall": "",
    "ImgPathWall_F": ""
  },
  "2012": {
    "ID": 2012,
    "Name": {
      "Hash": -1730167289
    },
    "CategoryID": 2000,
    "ImgPath": "SpriteOutput/StoryReview/101140105.png",
    "ImgPath_F": "SpriteOutput/StoryReview/101140105.png",
    "ImgHeightSize": 232,
    "UnlockCondition": [
      {
        "Type": "FinishMainMission",
        "Param": "1011401"
      }
    ],
    "PerformanceID": 101140105,
    "isVideo": true,
    "ImgPathWall": "Stages/OriginalResPos/Chapter00/_dependencies/Texture/EffectTexture/DigiitalAlbumTex/CS_Chap01_Act130.png",
    "ImgPathWall_F": "Stages/OriginalResPos/Chapter00/_dependencies/Texture/EffectTexture/DigiitalAlbumTex/CS_Chap01_Act130.png"
  },
  "2015": {
    "ID": 2015,
    "Name": {
      "Hash": -1730167282
    },
    "CategoryID": 2000,
    "ImgPath": "SpriteOutput/StoryReview/101140106.png",
    "ImgPath_F": "SpriteOutput/StoryReview/101140106.png",
    "ImgHeightSize": 180,
    "UnlockCondition": [
      {
        "Type": "FinishMainMission",
        "Param": "1011401"
      }
    ],
    "PerformanceID": 101140106,
    "ImgPathWall": "Stages/OriginalResPos/Chapter00/_dependencies/Texture/EffectTexture/DigiitalAlbumTex/CS_Chap01_Act140.png",
    "ImgPathWall_F": "Stages/OriginalResPos/Chapter00/_dependencies/Texture/EffectTexture/DigiitalAlbumTex/CS_Chap01_Act140.png"
  },
  "2013": {
    "ID": 2013,
    "Name": {
      "Hash": -1730167288
    },
    "CategoryID": 2000,
    "ImgPath": "SpriteOutput/StoryReview/101140202.png",
    "ImgPath_F": "SpriteOutput/StoryReview/101140202.png",
    "ImgHeightSize": 232,
    "UnlockCondition": [
      {
        "Type": "FinishMainMission",
        "Param": "1011402"
      }
    ],
    "PerformanceID": 101140202,
    "isVideo": true,
    "ImgPathWall": "",
    "ImgPathWall_F": ""
  },
  "2014": {
    "ID": 2014,
    "Name": {
      "Hash": -1730167283
    },
    "CategoryID": 2000,
    "ImgPath": "SpriteOutput/StoryReview/101140304.png",
    "ImgPath_F": "SpriteOutput/StoryReview/101140304.png",
    "ImgHeightSize": 287,
    "UnlockCondition": [
      {
        "Type": "FinishMainMission",
        "Param": "1011403"
      }
    ],
    "PerformanceID": 101140304,
    "isVideo": true,
    "ImgPathWall": "",
    "ImgPathWall_F": ""
  },
  "3001": {
    "ID": 3001,
    "Name": {
      "Hash": -305245846
    },
    "CategoryID": 3000,
    "ImgPath": "SpriteOutput/StoryReview/102010101.png",
    "ImgPath_F": "SpriteOutput/StoryReview/102010101.png",
    "ImgHeightSize": 287,
    "UnlockCondition": [
      {
        "Type": "FinishMainMission",
        "Param": "1020101"
      }
    ],
    "PerformanceID": 102010101,
    "isVideo": true,
    "ImgPathWall": "Stages/OriginalResPos/Chapter00/_dependencies/Texture/EffectTexture/DigiitalAlbumTex/CS_Chap02_Act420.png",
    "ImgPathWall_F": "Stages/OriginalResPos/Chapter00/_dependencies/Texture/EffectTexture/DigiitalAlbumTex/CS_Chap02_Act420.png"
  },
  "3002": {
    "ID": 3002,
    "Name": {
      "Hash": -305245849
    },
    "CategoryID": 3000,
    "ImgPath": "SpriteOutput/StoryReview/102010102.png",
    "ImgPath_F": "SpriteOutput/StoryReview/102010102.png",
    "ImgHeightSize": 287,
    "UnlockCondition": [
      {
        "Type": "FinishMainMission",
        "Param": "1020101"
      }
    ],
    "PerformanceID": 102010102,
    "ImgPathWall": "Stages/OriginalResPos/Chapter00/_dependencies/Texture/EffectTexture/DigiitalAlbumTex/CS_Chap02_Act430.png",
    "ImgPathWall_F": "Stages/OriginalResPos/Chapter00/_dependencies/Texture/EffectTexture/DigiitalAlbumTex/CS_Chap02_Act430.png"
  },
  "3003": {
    "ID": 3003,
    "Name": {
      "Hash": -305245848
    },
    "CategoryID": 3000,
    "ImgPath": "SpriteOutput/StoryReview/102010109.png",
    "ImgPath_F": "SpriteOutput/StoryReview/102010109.png",
    "ImgHeightSize": 232,
    "UnlockCondition": [
      {
        "Type": "FinishMainMission",
        "Param": "1020101"
      }
    ],
    "PerformanceID": 102010109,
    "isVideo": true,
    "ImgPathWall": "Stages/OriginalResPos/Chapter00/_dependencies/Texture/EffectTexture/DigiitalAlbumTex/CS_Chap02_Act450.png",
    "ImgPathWall_F": "Stages/OriginalResPos/Chapter00/_dependencies/Texture/EffectTexture/DigiitalAlbumTex/CS_Chap02_Act450.png"
  },
  "3004": {
    "ID": 3004,
    "Name": {
      "Hash": -305245843
    },
    "CategoryID": 3000,
    "ImgPath": "SpriteOutput/StoryReview/102010112.png",
    "ImgPath_F": "SpriteOutput/StoryReview/102010112.png",
    "ImgHeightSize": 180,
    "UnlockCondition": [
      {
        "Type": "FinishMainMission",
        "Param": "1020101"
      }
    ],
    "PerformanceID": 102010112,
    "ImgPathWall": "Stages/OriginalResPos/Chapter00/_dependencies/Texture/EffectTexture/DigiitalAlbumTex/CS_Chap02_Act410.png",
    "ImgPathWall_F": "Stages/OriginalResPos/Chapter00/_dependencies/Texture/EffectTexture/DigiitalAlbumTex/CS_Chap02_Act410.png"
  },
  "3005": {
    "ID": 3005,
    "Name": {
      "Hash": -305245842
    },
    "CategoryID": 3000,
    "ImgPath": "SpriteOutput/StoryReview/102040211.png",
    "ImgPath_F": "SpriteOutput/StoryReview/102040211.png",
    "ImgHeightSize": 180,
    "UnlockCondition": [
      {
        "Type": "FinishMainMission",
        "Param": "1021401"
      }
    ],
    "PerformanceID": 102040211,
    "ImgPathWall": "Stages/OriginalResPos/Chapter00/_dependencies/Texture/EffectTexture/DigiitalAlbumTex/CS_Chap02_Act510.png",
    "ImgPathWall_F": "Stages/OriginalResPos/Chapter00/_dependencies/Texture/EffectTexture/DigiitalAlbumTex/CS_Chap02_Act510.png"
  },
  "3006": {
    "ID": 3006,
    "Name": {
      "Hash": -305245845
    },
    "CategoryID": 3000,
    "ImgPath": "SpriteOutput/StoryReview/102070104.png",
    "ImgPath_F": "SpriteOutput/StoryReview/102070104.png",
    "ImgHeightSize": 232,
    "UnlockCondition": [
      {
        "Type": "FinishMainMission",
        "Param": "1020601"
      }
    ],
    "PerformanceID": 102060110,
    "isVideo": true,
    "ImgPathWall": "",
    "ImgPathWall_F": ""
  },
  "3007": {
    "ID": 3007,
    "Name": {
      "Hash": -305245844
    },
    "CategoryID": 3000,
    "ImgPath": "SpriteOutput/StoryReview/102070104.png",
    "ImgPath_F": "SpriteOutput/StoryReview/102070104.png",
    "ImgHeightSize": 287,
    "UnlockCondition": [
      {
        "Type": "FinishMainMission",
        "Param": "1020701"
      }
    ],
    "PerformanceID": 102070104,
    "isVideo": true,
    "ImgPathWall": "Stages/OriginalResPos/Chapter00/_dependencies/Texture/EffectTexture/DigiitalAlbumTex/CS_Chap02_Act460.png",
    "ImgPathWall_F": "Stages/OriginalResPos/Chapter00/_dependencies/Texture/EffectTexture/DigiitalAlbumTex/CS_Chap02_Act460.png"
  },
  "3008": {
    "ID": 3008,
    "Name": {
      "Hash": -305245855
    },
    "CategoryID": 3000,
    "ImgPath": "SpriteOutput/StoryReview/102080123.png",
    "ImgPath_F": "SpriteOutput/StoryReview/102080123.png",
    "ImgHeightSize": 232,
    "UnlockCondition": [
      {
        "Type": "FinishMainMission",
        "Param": "1020801"
      }
    ],
    "PerformanceID": 102080123,
    "isVideo": true,
    "ImgPathWall": "Stages/OriginalResPos/Chapter00/_dependencies/Texture/EffectTexture/DigiitalAlbumTex/CS_Chap02_Act470.png",
    "ImgPathWall_F": "Stages/OriginalResPos/Chapter00/_dependencies/Texture/EffectTexture/DigiitalAlbumTex/CS_Chap02_Act470.png"
  },
  "3009": {
    "ID": 3009,
    "Name": {
      "Hash": -305245854
    },
    "CategoryID": 3000,
    "ImgPath": "SpriteOutput/StoryReview/102100114.png",
    "ImgPath_F": "SpriteOutput/StoryReview/102100114.png",
    "ImgHeightSize": 180,
    "UnlockCondition": [
      {
        "Type": "FinishMainMission",
        "Param": "1021001"
      }
    ],
    "PerformanceID": 102100114,
    "isVideo": true,
    "ImgPathWall": "Stages/OriginalResPos/Chapter00/_dependencies/Texture/EffectTexture/DigiitalAlbumTex/CS_Chap02_Act480.png",
    "ImgPathWall_F": "Stages/OriginalResPos/Chapter00/_dependencies/Texture/EffectTexture/DigiitalAlbumTex/CS_Chap02_Act480.png"
  },
  "3010": {
    "ID": 3010,
    "Name": {
      "Hash": -1871329788
    },
    "CategoryID": 3000,
    "ImgPath": "SpriteOutput/StoryReview/102110199.png",
    "ImgPath_F": "SpriteOutput/StoryReview/102110199.png",
    "ImgHeightSize": 232,
    "UnlockCondition": [
      {
        "Type": "FinishMainMission",
        "Param": "1021101"
      }
    ],
    "PerformanceID": 102110199,
    "isVideo": true,
    "ImgPathWall": "Stages/OriginalResPos/Chapter00/_dependencies/Texture/EffectTexture/DigiitalAlbumTex/CS_Chap02_Act490.png",
    "ImgPathWall_F": "Stages/OriginalResPos/Chapter00/_dependencies/Texture/EffectTexture/DigiitalAlbumTex/CS_Chap02_Act490.png"
  },
  "3011": {
    "ID": 3011,
    "Name": {
      "Hash": -1871329787
    },
    "CategoryID": 3000,
    "ImgPath": "SpriteOutput/StoryReview/102110113.png",
    "ImgPath_F": "SpriteOutput/StoryReview/102110113.png",
    "ImgHeightSize": 287,
    "UnlockCondition": [
      {
        "Type": "FinishMainMission",
        "Param": "1021101"
      }
    ],
    "PerformanceID": 102110113,
    "ImgPathWall": "Stages/OriginalResPos/Chapter00/_dependencies/Texture/EffectTexture/DigiitalAlbumTex/CS_Chap02_Act500.png",
    "ImgPathWall_F": "Stages/OriginalResPos/Chapter00/_dependencies/Texture/EffectTexture/DigiitalAlbumTex/CS_Chap02_Act500.png"
  },
  "3012": {
    "ID": 3012,
    "Name": {
      "Hash": 371857150
    },
    "CategoryID": 3000,
    "ImgPath": "",
    "ImgPath_F": "",
    "UnlockCondition": [
      {
        "Type": "FinishMainMission",
        "Param": "1021201"
      }
    ],
    "isVideo": true,
    "ImgPathWall": "Stages/OriginalResPos/Chapter00/_dependencies/Texture/EffectTexture/DigiitalAlbumTex/CS_Chap02_Act550.png",
    "ImgPathWall_F": "Stages/OriginalResPos/Chapter00/_dependencies/Texture/EffectTexture/DigiitalAlbumTex/CS_Chap02_Act550.png"
  },
  "3013": {
    "ID": 3013,
    "Name": {
      "Hash": 371857150
    },
    "CategoryID": 3000,
    "ImgPath": "",
    "ImgPath_F": "",
    "UnlockCondition": [
      {
        "Type": "FinishMainMission",
        "Param": "1021201"
      }
    ],
    "isVideo": true,
    "ImgPathWall": "Stages/OriginalResPos/Chapter00/_dependencies/Texture/EffectTexture/DigiitalAlbumTex/CS_Chap02_Act560.png",
    "ImgPathWall_F": "Stages/OriginalResPos/Chapter00/_dependencies/Texture/EffectTexture/DigiitalAlbumTex/CS_Chap02_Act560.png"
  },
  "3014": {
    "ID": 3014,
    "Name": {
      "Hash": 371857150
    },
    "CategoryID": 3000,
    "ImgPath": "",
    "ImgPath_F": "",
    "UnlockCondition": [
      {
        "Type": "FinishMainMission",
        "Param": "1021501"
      }
    ],
    "isVideo": true,
    "ImgPathWall": "Stages/OriginalResPos/Chapter00/_dependencies/Texture/EffectTexture/DigiitalAlbumTex/CS_Chap02_Act570_m.png",
    "ImgPathWall_F": "Stages/OriginalResPos/Chapter00/_dependencies/Texture/EffectTexture/DigiitalAlbumTex/CS_Chap02_Act570_f.png"
  },
  "3015": {
    "ID": 3015,
    "Name": {
      "Hash": 371857150
    },
    "CategoryID": 3000,
    "ImgPath": "",
    "ImgPath_F": "",
    "UnlockCondition": [
      {
        "Type": "FinishMainMission",
        "Param": "1021501"
      }
    ],
    "isVideo": true,
    "ImgPathWall": "Stages/OriginalResPos/Chapter00/_dependencies/Texture/EffectTexture/DigiitalAlbumTex/CS_Chap02_Act580.png",
    "ImgPathWall_F": "Stages/OriginalResPos/Chapter00/_dependencies/Texture/EffectTexture/DigiitalAlbumTex/CS_Chap02_Act580.png"
  },
  "3016": {
    "ID": 3016,
    "Name": {
      "Hash": 371857150
    },
    "CategoryID": 3000,
    "ImgPath": "",
    "ImgPath_F": "",
    "UnlockCondition": [
      {
        "Type": "FinishMainMission",
        "Param": "1021201"
      }
    ],
    "isVideo": true,
    "ImgPathWall": "Stages/OriginalResPos/Chapter00/_dependencies/Texture/EffectTexture/DigiitalAlbumTex/CS_Chap02_Act590.png",
    "ImgPathWall_F": "Stages/OriginalResPos/Chapter00/_dependencies/Texture/EffectTexture/DigiitalAlbumTex/CS_Chap02_Act590.png"
  },
  "3017": {
    "ID": 3017,
    "Name": {
      "Hash": 371857150
    },
    "CategoryID": 3000,
    "ImgPath": "",
    "ImgPath_F": "",
    "UnlockCondition": [
      {
        "Type": "FinishMainMission",
        "Param": "1021702"
      }
    ],
    "isVideo": true,
    "ImgPathWall": "Stages/OriginalResPos/Chapter00/_dependencies/Texture/EffectTexture/DigiitalAlbumTex/CS_Chap02_Act620.png",
    "ImgPathWall_F": "Stages/OriginalResPos/Chapter00/_dependencies/Texture/EffectTexture/DigiitalAlbumTex/CS_Chap02_Act620.png"
  },
  "3018": {
    "ID": 3018,
    "Name": {
      "Hash": 371857150
    },
    "CategoryID": 3000,
    "ImgPath": "",
    "ImgPath_F": "",
    "UnlockCondition": [
      {
        "Type": "FinishMainMission",
        "Param": "1021702"
      }
    ],
    "isVideo": true,
    "ImgPathWall": "Stages/OriginalResPos/Chapter00/_dependencies/Texture/EffectTexture/DigiitalAlbumTex/CS_Chap02_Act630.png",
    "ImgPathWall_F": "Stages/OriginalResPos/Chapter00/_dependencies/Texture/EffectTexture/DigiitalAlbumTex/CS_Chap02_Act630.png"
  },
  "2016": {
    "ID": 2016,
    "Name": {
      "Hash": 371857150
    },
    "CategoryID": 2000,
    "ImgPath": "",
    "ImgPath_F": "",
    "UnlockCondition": [
      {
        "Type": "FinishMainMission",
        "Param": "2010203"
      }
    ],
    "isVideo": true,
    "ImgPathWall": "Stages/OriginalResPos/Chapter00/_dependencies/Texture/EffectTexture/DigiitalAlbumTex/CS_Chap01_Act170.png",
    "ImgPathWall_F": "Stages/OriginalResPos/Chapter00/_dependencies/Texture/EffectTexture/DigiitalAlbumTex/CS_Chap01_Act170.png"
  },
  "2017": {
    "ID": 2017,
    "Name": {
      "Hash": 371857150
    },
    "CategoryID": 2000,
    "ImgPath": "",
    "ImgPath_F": "",
    "UnlockCondition": [
      {
        "Type": "FinishMainMission",
        "Param": "2010203"
      }
    ],
    "isVideo": true,
    "ImgPathWall": "Stages/OriginalResPos/Chapter00/_dependencies/Texture/EffectTexture/DigiitalAlbumTex/CS_Chap01_Act180.png",
    "ImgPathWall_F": "Stages/OriginalResPos/Chapter00/_dependencies/Texture/EffectTexture/DigiitalAlbumTex/CS_Chap01_Act180.png"
  },
  "2018": {
    "ID": 2018,
    "Name": {
      "Hash": 371857150
    },
    "CategoryID": 2000,
    "ImgPath": "",
    "ImgPath_F": "",
    "UnlockCondition": [
      {
        "Type": "FinishMainMission",
        "Param": "2010203"
      }
    ],
    "isVideo": true,
    "ImgPathWall": "Stages/OriginalResPos/Chapter00/_dependencies/Texture/EffectTexture/DigiitalAlbumTex/CS_Chap01_Act190.png",
    "ImgPathWall_F": "Stages/OriginalResPos/Chapter00/_dependencies/Texture/EffectTexture/DigiitalAlbumTex/CS_Chap01_Act190.png"
  },
  "2019": {
    "ID": 2019,
    "Name": {
      "Hash": 371857150
    },
    "CategoryID": 2000,
    "ImgPath": "",
    "ImgPath_F": "",
    "UnlockCondition": [
      {
        "Type": "FinishMainMission",
        "Param": "2010203"
      }
    ],
    "isVideo": true,
    "ImgPathWall": "Stages/OriginalResPos/Chapter00/_dependencies/Texture/EffectTexture/DigiitalAlbumTex/CS_Chap01_Act200.png",
    "ImgPathWall_F": "Stages/OriginalResPos/Chapter00/_dependencies/Texture/EffectTexture/DigiitalAlbumTex/CS_Chap01_Act200.png"
  },
  "2020": {
    "ID": 2020,
    "Name": {
      "Hash": 371857150
    },
    "CategoryID": 2000,
    "ImgPath": "",
    "ImgPath_F": "",
    "UnlockCondition": [
      {
        "Type": "FinishMainMission",
        "Param": "2010203"
      }
    ],
    "isVideo": true,
    "ImgPathWall": "Stages/OriginalResPos/Chapter00/_dependencies/Texture/EffectTexture/DigiitalAlbumTex/CS_Chap01_Act210.png",
    "ImgPathWall_F": "Stages/OriginalResPos/Chapter00/_dependencies/Texture/EffectTexture/DigiitalAlbumTex/CS_Chap01_Act210.png"
  },
  "2021": {
    "ID": 2021,
    "Name": {
      "Hash": 371857150
    },
    "CategoryID": 2000,
    "ImgPath": "",
    "ImgPath_F": "",
    "UnlockCondition": [
      {
        "Type": "FinishMainMission",
        "Param": "8014106"
      }
    ],
    "isVideo": true,
    "ImgPathWall": "Stages/OriginalResPos/Chapter00/_dependencies/Texture/EffectTexture/DigiitalAlbumTex/CS_Chap01_Act220.png",
    "ImgPathWall_F": "Stages/OriginalResPos/Chapter00/_dependencies/Texture/EffectTexture/DigiitalAlbumTex/CS_Chap01_Act220.png"
  },
  "2022": {
    "ID": 2022,
    "Name": {
      "Hash": 371857150
    },
    "CategoryID": 2000,
    "ImgPath": "",
    "ImgPath_F": "",
    "UnlockCondition": [
      {
        "Type": "FinishMainMission",
        "Param": "8014106"
      }
    ],
    "isVideo": true,
    "ImgPathWall": "Stages/OriginalResPos/Chapter00/_dependencies/Texture/EffectTexture/DigiitalAlbumTex/CS_Chap01_Act221.png",
    "ImgPathWall_F": "Stages/OriginalResPos/Chapter00/_dependencies/Texture/EffectTexture/DigiitalAlbumTex/CS_Chap01_Act221.png"
  },
  "2023": {
    "ID": 2023,
    "Name": {
      "Hash": 371857150
    },
    "CategoryID": 2000,
    "ImgPath": "",
    "ImgPath_F": "",
    "UnlockCondition": [
      {
        "Type": "FinishMainMission",
        "Param": "8014106"
      }
    ],
    "isVideo": true,
    "ImgPathWall": "Stages/OriginalResPos/Chapter00/_dependencies/Texture/EffectTexture/DigiitalAlbumTex/CS_Chap01_Act222.png",
    "ImgPathWall_F": "Stages/OriginalResPos/Chapter00/_dependencies/Texture/EffectTexture/DigiitalAlbumTex/CS_Chap01_Act222.png"
  },
  "2024": {
    "ID": 2024,
    "Name": {
      "Hash": 371857150
    },
    "CategoryID": 2000,
    "ImgPath": "",
    "ImgPath_F": "",
    "UnlockCondition": [
      {
        "Type": "FinishMainMission",
        "Param": "8014106"
      }
    ],
    "isVideo": true,
    "ImgPathWall": "Stages/OriginalResPos/Chapter00/_dependencies/Texture/EffectTexture/DigiitalAlbumTex/CS_Chap01_Act223.png",
    "ImgPathWall_F": "Stages/OriginalResPos/Chapter00/_dependencies/Texture/EffectTexture/DigiitalAlbumTex/CS_Chap01_Act223.png"
  },
  "2025": {
    "ID": 2025,
    "Name": {
      "Hash": 371857150
    },
    "CategoryID": 2000,
    "ImgPath": "",
    "ImgPath_F": "",
    "UnlockCondition": [
      {
        "Type": "FinishMainMission",
        "Param": "8014106"
      }
    ],
    "isVideo": true,
    "ImgPathWall": "Stages/OriginalResPos/Chapter00/_dependencies/Texture/EffectTexture/DigiitalAlbumTex/CS_Chap01_Act224.png",
    "ImgPathWall_F": "Stages/OriginalResPos/Chapter00/_dependencies/Texture/EffectTexture/DigiitalAlbumTex/CS_Chap01_Act224.png"
  },
  "2026": {
    "ID": 2026,
    "Name": {
      "Hash": 371857150
    },
    "CategoryID": 2000,
    "ImgPath": "",
    "ImgPath_F": "",
    "UnlockCondition": [
      {
        "Type": "FinishMainMission",
        "Param": "8014106"
      }
    ],
    "isVideo": true,
    "ImgPathWall": "Stages/OriginalResPos/Chapter00/_dependencies/Texture/EffectTexture/DigiitalAlbumTex/CS_Chap01_Act230.png",
    "ImgPathWall_F": "Stages/OriginalResPos/Chapter00/_dependencies/Texture/EffectTexture/DigiitalAlbumTex/CS_Chap01_Act230.png"
  },
  "2027": {
    "ID": 2027,
    "Name": {
      "Hash": 371857150
    },
    "CategoryID": 2000,
    "ImgPath": "",
    "ImgPath_F": "",
    "UnlockCondition": [
      {
        "Type": "FinishMainMission",
        "Param": "8014106"
      }
    ],
    "isVideo": true,
    "ImgPathWall": "Stages/OriginalResPos/Chapter00/_dependencies/Texture/EffectTexture/DigiitalAlbumTex/CS_Chap01_Act240_m.png",
    "ImgPathWall_F": "Stages/OriginalResPos/Chapter00/_dependencies/Texture/EffectTexture/DigiitalAlbumTex/CS_Chap01_Act240_f.png"
  },
  "3019": {
    "ID": 3019,
    "Name": {
      "Hash": 371857150
    },
    "CategoryID": 3000,
    "ImgPath": "",
    "ImgPath_F": "",
    "UnlockCondition": [
      {
        "Type": "FinishMainMission",
        "Param": "2021001"
      }
    ],
    "isVideo": true,
    "ImgPathWall": "Stages/OriginalResPos/Chapter00/_dependencies/Texture/EffectTexture/DigiitalAlbumTex/CS_Chap02_Act640.png",
    "ImgPathWall_F": "Stages/OriginalResPos/Chapter00/_dependencies/Texture/EffectTexture/DigiitalAlbumTex/CS_Chap02_Act640.png"
  },
  "3020": {
    "ID": 3020,
    "Name": {
      "Hash": 371857150
    },
    "CategoryID": 3000,
    "ImgPath": "",
    "ImgPath_F": "",
    "UnlockCondition": [
      {
        "Type": "FinishMainMission",
        "Param": "2021001"
      }
    ],
    "isVideo": true,
    "ImgPathWall": "Stages/OriginalResPos/Chapter00/_dependencies/Texture/EffectTexture/DigiitalAlbumTex/CS_Chap02_Act650.png",
    "ImgPathWall_F": "Stages/OriginalResPos/Chapter00/_dependencies/Texture/EffectTexture/DigiitalAlbumTex/CS_Chap02_Act650.png"
  },
  "4001": {
    "ID": 4001,
    "Name": {
      "Hash": 371857150
    },
    "CategoryID": 4000,
    "ImgPath": "",
    "ImgPath_F": "",
    "UnlockCondition": [
      {
        "Type": "FinishMainMission",
        "Param": "2000801"
      }
    ],
    "isVideo": true,
    "ImgPathWall": "Stages/OriginalResPos/Chapter00/_dependencies/Texture/EffectTexture/DigiitalAlbumTex/CS_Chap03_Act010_m.png",
    "ImgPathWall_F": "Stages/OriginalResPos/Chapter00/_dependencies/Texture/EffectTexture/DigiitalAlbumTex/CS_Chap03_Act010_f.png"
  },
  "4002": {
    "ID": 4002,
    "Name": {
      "Hash": 371857150
    },
    "CategoryID": 4000,
    "ImgPath": "",
    "ImgPath_F": "",
    "UnlockCondition": [
      {
        "Type": "FinishMainMission",
        "Param": "2000801"
      }
    ],
    "isVideo": true,
    "ImgPathWall": "Stages/OriginalResPos/Chapter00/_dependencies/Texture/EffectTexture/DigiitalAlbumTex/CS_Chap03_Act020.png",
    "ImgPathWall_F": "Stages/OriginalResPos/Chapter00/_dependencies/Texture/EffectTexture/DigiitalAlbumTex/CS_Chap03_Act020.png"
  },
  "4003": {
    "ID": 4003,
    "Name": {
      "Hash": 371857150
    },
    "CategoryID": 4000,
    "ImgPath": "",
    "ImgPath_F": "",
    "UnlockCondition": [
      {
        "Type": "FinishMainMission",
        "Param": "2000801"
      }
    ],
    "isVideo": true,
    "ImgPathWall": "Stages/OriginalResPos/Chapter00/_dependencies/Texture/EffectTexture/DigiitalAlbumTex/CS_Chap03_Act030.png",
    "ImgPathWall_F": "Stages/OriginalResPos/Chapter00/_dependencies/Texture/EffectTexture/DigiitalAlbumTex/CS_Chap03_Act030.png"
  },
  "3021": {
    "ID": 3021,
    "Name": {
      "Hash": 371857150
    },
    "CategoryID": 3000,
    "ImgPath": "",
    "ImgPath_F": "",
    "UnlockCondition": [
      {
        "Type": "FinishMainMission",
        "Param": "2021705"
      }
    ],
    "isVideo": true,
    "ImgPathWall": "Stages/OriginalResPos/Chapter00/_dependencies/Texture/EffectTexture/DigiitalAlbumTex/CS_Chap02_Act660.png",
    "ImgPathWall_F": "Stages/OriginalResPos/Chapter00/_dependencies/Texture/EffectTexture/DigiitalAlbumTex/CS_Chap02_Act660.png"
  },
  "3022": {
    "ID": 3022,
    "Name": {
      "Hash": 371857150
    },
    "CategoryID": 3000,
    "ImgPath": "",
    "ImgPath_F": "",
    "UnlockCondition": [
      {
        "Type": "FinishMainMission",
        "Param": "2021705"
      }
    ],
    "isVideo": true,
    "ImgPathWall": "Stages/OriginalResPos/Chapter00/_dependencies/Texture/EffectTexture/DigiitalAlbumTex/CS_Chap02_Act670_m.png",
    "ImgPathWall_F": "Stages/OriginalResPos/Chapter00/_dependencies/Texture/EffectTexture/DigiitalAlbumTex/CS_Chap02_Act670_f.png"
  },
  "3023": {
    "ID": 3023,
    "Name": {
      "Hash": 371857150
    },
    "CategoryID": 3000,
    "ImgPath": "",
    "ImgPath_F": "",
    "UnlockCondition": [
      {
        "Type": "FinishMainMission",
        "Param": "2021705"
      }
    ],
    "isVideo": true,
    "ImgPathWall": "Stages/OriginalResPos/Chapter00/_dependencies/Texture/EffectTexture/DigiitalAlbumTex/CS_Chap02_Act680_m.png",
    "ImgPathWall_F": "Stages/OriginalResPos/Chapter00/_dependencies/Texture/EffectTexture/DigiitalAlbumTex/CS_Chap02_Act680_f.png"
  },
  "3024": {
    "ID": 3024,
    "Name": {
      "Hash": 371857150
    },
    "CategoryID": 3000,
    "ImgPath": "",
    "ImgPath_F": "",
    "UnlockCondition": [
      {
        "Type": "FinishMainMission",
        "Param": "2021705"
      }
    ],
    "isVideo": true,
    "ImgPathWall": "Stages/OriginalResPos/Chapter00/_dependencies/Texture/EffectTexture/DigiitalAlbumTex/CS_Chap02_Act690_m.png",
    "ImgPathWall_F": "Stages/OriginalResPos/Chapter00/_dependencies/Texture/EffectTexture/DigiitalAlbumTex/CS_Chap02_Act690_f.png"
  },
  "3025": {
    "ID": 3025,
    "Name": {
      "Hash": 371857150
    },
    "CategoryID": 3000,
    "ImgPath": "",
    "ImgPath_F": "",
    "UnlockCondition": [
      {
        "Type": "FinishMainMission",
        "Param": "2021705"
      }
    ],
    "isVideo": true,
    "ImgPathWall": "Stages/OriginalResPos/Chapter00/_dependencies/Texture/EffectTexture/DigiitalAlbumTex/CS_Chap02_Act700_m.png",
    "ImgPathWall_F": "Stages/OriginalResPos/Chapter00/_dependencies/Texture/EffectTexture/DigiitalAlbumTex/CS_Chap02_Act700_f.png"
  },
  "3026": {
    "ID": 3026,
    "Name": {
      "Hash": 371857150
    },
    "CategoryID": 3000,
    "ImgPath": "",
    "ImgPath_F": "",
    "UnlockCondition": [
      {
        "Type": "FinishMainMission",
        "Param": "2021705"
      }
    ],
    "isVideo": true,
    "ImgPathWall": "Stages/OriginalResPos/Chapter00/_dependencies/Texture/EffectTexture/DigiitalAlbumTex/CS_Chap02_Act701.png",
    "ImgPathWall_F": "Stages/OriginalResPos/Chapter00/_dependencies/Texture/EffectTexture/DigiitalAlbumTex/CS_Chap02_Act701.png"
  },
  "3027": {
    "ID": 3027,
    "Name": {
      "Hash": 371857150
    },
    "CategoryID": 3000,
    "ImgPath": "",
    "ImgPath_F": "",
    "UnlockCondition": [
      {
        "Type": "FinishMainMission",
        "Param": "8015104"
      }
    ],
    "isVideo": true,
    "ImgPathWall": "Stages/OriginalResPos/Chapter00/_dependencies/Texture/EffectTexture/DigiitalAlbumTex/CS_Chap02_Act710.png",
    "ImgPathWall_F": "Stages/OriginalResPos/Chapter00/_dependencies/Texture/EffectTexture/DigiitalAlbumTex/CS_Chap02_Act710.png"
  },
  "3028": {
    "ID": 3028,
    "Name": {
      "Hash": 371857150
    },
    "CategoryID": 3000,
    "ImgPath": "",
    "ImgPath_F": "",
    "UnlockCondition": [
      {
        "Type": "FinishMainMission",
        "Param": "8015104"
      }
    ],
    "isVideo": true,
    "ImgPathWall": "Stages/OriginalResPos/Chapter00/_dependencies/Texture/EffectTexture/DigiitalAlbumTex/CS_Chap02_Act720.png",
    "ImgPathWall_F": "Stages/OriginalResPos/Chapter00/_dependencies/Texture/EffectTexture/DigiitalAlbumTex/CS_Chap02_Act720.png"
  },
  "1013": {
    "ID": 1013,
    "Name": {
      "Hash": 371857150
    },
    "CategoryID": 1000,
    "ImgPath": "",
    "ImgPath_F": "",
    "UnlockCondition": [
      {
        "Type": "FinishMainMission",
        "Param": "2001001"
      }
    ],
    "isVideo": true,
    "ImgPathWall": "Stages/OriginalResPos/Chapter00/_dependencies/Texture/EffectTexture/DigiitalAlbumTex/CS_Chap00_Act330_m.png",
    "ImgPathWall_F": "Stages/OriginalResPos/Chapter00/_dependencies/Texture/EffectTexture/DigiitalAlbumTex/CS_Chap00_Act330_f.png"
  },
  "1014": {
    "ID": 1014,
    "Name": {
      "Hash": 371857150
    },
    "CategoryID": 1000,
    "ImgPath": "",
    "ImgPath_F": "",
    "UnlockCondition": [
      {
        "Type": "FinishMainMission",
        "Param": "2001001"
      }
    ],
    "isVideo": true,
    "ImgPathWall": "Stages/OriginalResPos/Chapter00/_dependencies/Texture/EffectTexture/DigiitalAlbumTex/CS_Chap00_Act340_m.png",
    "ImgPathWall_F": "Stages/OriginalResPos/Chapter00/_dependencies/Texture/EffectTexture/DigiitalAlbumTex/CS_Chap00_Act340_f.png"
  },
  "1015": {
    "ID": 1015,
    "Name": {
      "Hash": 371857150
    },
    "CategoryID": 1000,
    "ImgPath": "",
    "ImgPath_F": "",
    "UnlockCondition": [
      {
        "Type": "FinishMainMission",
        "Param": "2001001"
      }
    ],
    "isVideo": true,
    "ImgPathWall": "Stages/OriginalResPos/Chapter00/_dependencies/Texture/EffectTexture/DigiitalAlbumTex/CS_Chap00_Act350.png",
    "ImgPathWall_F": "Stages/OriginalResPos/Chapter00/_dependencies/Texture/EffectTexture/DigiitalAlbumTex/CS_Chap00_Act350.png"
  },
  "1016": {
    "ID": 1016,
    "Name": {
      "Hash": 371857150
    },
    "CategoryID": 1000,
    "ImgPath": "",
    "ImgPath_F": "",
    "UnlockCondition": [
      {
        "Type": "FinishMainMission",
        "Param": "2001001"
      }
    ],
    "isVideo": true,
    "ImgPathWall": "Stages/OriginalResPos/Chapter00/_dependencies/Texture/EffectTexture/DigiitalAlbumTex/CS_Chap00_Act360_m.png",
    "ImgPathWall_F": "Stages/OriginalResPos/Chapter00/_dependencies/Texture/EffectTexture/DigiitalAlbumTex/CS_Chap00_Act360_f.png"
  },
  "1017": {
    "ID": 1017,
    "Name": {
      "Hash": 371857150
    },
    "CategoryID": 1000,
    "ImgPath": "",
    "ImgPath_F": "",
    "UnlockCondition": [
      {
        "Type": "FinishMainMission",
        "Param": "2001001"
      }
    ],
    "isVideo": true,
    "ImgPathWall": "Stages/OriginalResPos/Chapter00/_dependencies/Texture/EffectTexture/DigiitalAlbumTex/CS_Chap00_Act361.png",
    "ImgPathWall_F": "Stages/OriginalResPos/Chapter00/_dependencies/Texture/EffectTexture/DigiitalAlbumTex/CS_Chap00_Act361.png"
  },
  "1018": {
    "ID": 1018,
    "Name": {
      "Hash": 371857150
    },
    "CategoryID": 1000,
    "ImgPath": "",
    "ImgPath_F": "",
    "UnlockCondition": [
      {
        "Type": "FinishMainMission",
        "Param": "2001001"
      }
    ],
    "isVideo": true,
    "ImgPathWall": "Stages/OriginalResPos/Chapter00/_dependencies/Texture/EffectTexture/DigiitalAlbumTex/CS_Chap00_Act370.png",
    "ImgPathWall_F": "Stages/OriginalResPos/Chapter00/_dependencies/Texture/EffectTexture/DigiitalAlbumTex/CS_Chap00_Act370.png"
  },
  "1019": {
    "ID": 1019,
    "Name": {
      "Hash": 371857150
    },
    "CategoryID": 1000,
    "ImgPath": "",
    "ImgPath_F": "",
    "UnlockCondition": [
      {
        "Type": "FinishMainMission",
        "Param": "2000901"
      }
    ],
    "isVideo": true,
    "ImgPathWall": "Stages/OriginalResPos/Chapter00/_dependencies/Texture/EffectTexture/DigiitalAlbumTex/CS_Chap00_Act380_m.png",
    "ImgPathWall_F": "Stages/OriginalResPos/Chapter00/_dependencies/Texture/EffectTexture/DigiitalAlbumTex/CS_Chap00_Act380_f.png"
  },
  "1020": {
    "ID": 1020,
    "Name": {
      "Hash": 371857150
    },
    "CategoryID": 1000,
    "ImgPath": "",
    "ImgPath_F": "",
    "UnlockCondition": [
      {
        "Type": "FinishMainMission",
        "Param": "2000901"
      }
    ],
    "isVideo": true,
    "ImgPathWall": "Stages/OriginalResPos/Chapter00/_dependencies/Texture/EffectTexture/DigiitalAlbumTex/CS_Chap00_Act390_m.png",
    "ImgPathWall_F": "Stages/OriginalResPos/Chapter00/_dependencies/Texture/EffectTexture/DigiitalAlbumTex/CS_Chap00_Act390_f.png"
  },
  "1021": {
    "ID": 1021,
    "Name": {
      "Hash": 371857150
    },
    "CategoryID": 1000,
    "ImgPath": "",
    "ImgPath_F": "",
    "UnlockCondition": [
      {
        "Type": "FinishMainMission",
        "Param": "2000901"
      }
    ],
    "isVideo": true,
    "ImgPathWall": "Stages/OriginalResPos/Chapter00/_dependencies/Texture/EffectTexture/DigiitalAlbumTex/CS_Chap00_Act400_m.png",
    "ImgPathWall_F": "Stages/OriginalResPos/Chapter00/_dependencies/Texture/EffectTexture/DigiitalAlbumTex/CS_Chap00_Act400_f.png"
  },
  "1022": {
    "ID": 1022,
    "Name": {
      "Hash": 371857150
    },
    "CategoryID": 1000,
    "ImgPath": "",
    "ImgPath_F": "",
    "UnlockCondition": [
      {
        "Type": "FinishMainMission",
        "Param": "2000901"
      }
    ],
    "isVideo": true,
    "ImgPathWall": "Stages/OriginalResPos/Chapter00/_dependencies/Texture/EffectTexture/DigiitalAlbumTex/CS_Chap00_Act410_m.png",
    "ImgPathWall_F": "Stages/OriginalResPos/Chapter00/_dependencies/Texture/EffectTexture/DigiitalAlbumTex/CS_Chap00_Act410_f.png"
  },
  "1023": {
    "ID": 1023,
    "Name": {
      "Hash": 371857150
    },
    "CategoryID": 1000,
    "ImgPath": "",
    "ImgPath_F": "",
    "UnlockCondition": [
      {
        "Type": "FinishMainMission",
        "Param": "2000901"
      }
    ],
    "isVideo": true,
    "ImgPathWall": "Stages/OriginalResPos/Chapter00/_dependencies/Texture/EffectTexture/DigiitalAlbumTex/CS_Chap00_Act411.png",
    "ImgPathWall_F": "Stages/OriginalResPos/Chapter00/_dependencies/Texture/EffectTexture/DigiitalAlbumTex/CS_Chap00_Act411.png"
  },
  "1024": {
    "ID": 1024,
    "Name": {
      "Hash": 371857150
    },
    "CategoryID": 1000,
    "ImgPath": "",
    "ImgPath_F": "",
    "UnlockCondition": [
      {
        "Type": "FinishMainMission",
        "Param": "2000901"
      }
    ],
    "isVideo": true,
    "ImgPathWall": "Stages/OriginalResPos/Chapter00/_dependencies/Texture/EffectTexture/DigiitalAlbumTex/CS_Chap00_Act420.png",
    "ImgPathWall_F": "Stages/OriginalResPos/Chapter00/_dependencies/Texture/EffectTexture/DigiitalAlbumTex/CS_Chap00_Act420.png"
  },
  "5001": {
    "ID": 5001,
    "Name": {
      "Hash": 371857150
    },
    "CategoryID": 5000,
    "ImgPath": "",
    "ImgPath_F": "",
    "UnlockCondition": [
      {
        "Type": "FinishMainMission",
        "Param": "1030101"
      }
    ],
    "isVideo": true,
    "ImgPathWall": "Stages/OriginalResPos/Chapter00/_dependencies/Texture/EffectTexture/DigiitalAlbumTex/CS_Chap03_Act040.png",
    "ImgPathWall_F": "Stages/OriginalResPos/Chapter00/_dependencies/Texture/EffectTexture/DigiitalAlbumTex/CS_Chap03_Act040.png"
  },
  "5002": {
    "ID": 5002,
    "Name": {
      "Hash": 371857150
    },
    "CategoryID": 5000,
    "ImgPath": "",
    "ImgPath_F": "",
    "UnlockCondition": [
      {
        "Type": "FinishMainMission",
        "Param": "1030102"
      }
    ],
    "isVideo": true,
    "ImgPathWall": "Stages/OriginalResPos/Chapter00/_dependencies/Texture/EffectTexture/DigiitalAlbumTex/CS_Chap03_Act050_m.png",
    "ImgPathWall_F": "Stages/OriginalResPos/Chapter00/_dependencies/Texture/EffectTexture/DigiitalAlbumTex/CS_Chap03_Act050_f.png"
  },
  "5003": {
    "ID": 5003,
    "Name": {
      "Hash": 371857150
    },
    "CategoryID": 5000,
    "ImgPath": "",
    "ImgPath_F": "",
    "UnlockCondition": [
      {
        "Type": "FinishMainMission",
        "Param": "1030201"
      }
    ],
    "isVideo": true,
    "ImgPathWall": "Stages/OriginalResPos/Chapter00/_dependencies/Texture/EffectTexture/DigiitalAlbumTex/CS_Chap03_Act060.png",
    "ImgPathWall_F": "Stages/OriginalResPos/Chapter00/_dependencies/Texture/EffectTexture/DigiitalAlbumTex/CS_Chap03_Act060.png"
  },
  "5004": {
    "ID": 5004,
    "Name": {
      "Hash": 371857150
    },
    "CategoryID": 5000,
    "ImgPath": "",
    "ImgPath_F": "",
    "UnlockCondition": [
      {
        "Type": "FinishMainMission",
        "Param": "1030201"
      }
    ],
    "isVideo": true,
    "ImgPathWall": "Stages/OriginalResPos/Chapter00/_dependencies/Texture/EffectTexture/DigiitalAlbumTex/CS_Chap03_Act070_m.png",
    "ImgPathWall_F": "Stages/OriginalResPos/Chapter00/_dependencies/Texture/EffectTexture/DigiitalAlbumTex/CS_Chap03_Act070_f.png"
  },
  "5005": {
    "ID": 5005,
    "Name": {
      "Hash": 371857150
    },
    "CategoryID": 5000,
    "ImgPath": "",
    "ImgPath_F": "",
    "UnlockCondition": [
      {
        "Type": "FinishMainMission",
        "Param": "1030201"
      }
    ],
    "isVideo": true,
    "ImgPathWall": "Stages/OriginalResPos/Chapter00/_dependencies/Texture/EffectTexture/DigiitalAlbumTex/CS_Chap03_Act080.png",
    "ImgPathWall_F": "Stages/OriginalResPos/Chapter00/_dependencies/Texture/EffectTexture/DigiitalAlbumTex/CS_Chap03_Act080.png"
  },
  "5006": {
    "ID": 5006,
    "Name": {
      "Hash": 371857150
    },
    "CategoryID": 5000,
    "ImgPath": "",
    "ImgPath_F": "",
    "UnlockCondition": [
      {
        "Type": "FinishMainMission",
        "Param": "1030304"
      }
    ],
    "isVideo": true,
    "ImgPathWall": "Stages/OriginalResPos/Chapter00/_dependencies/Texture/EffectTexture/DigiitalAlbumTex/CS_Chap03_Act090_m.png",
    "ImgPathWall_F": "Stages/OriginalResPos/Chapter00/_dependencies/Texture/EffectTexture/DigiitalAlbumTex/CS_Chap03_Act090_f.png"
  },
  "5007": {
    "ID": 5007,
    "Name": {
      "Hash": 371857150
    },
    "CategoryID": 5000,
    "ImgPath": "",
    "ImgPath_F": "",
    "UnlockCondition": [
      {
        "Type": "FinishMainMission",
        "Param": "1030501"
      }
    ],
    "isVideo": true,
    "ImgPathWall": "Stages/OriginalResPos/Chapter00/_dependencies/Texture/EffectTexture/DigiitalAlbumTex/CS_Chap03_Act100.png",
    "ImgPathWall_F": "Stages/OriginalResPos/Chapter00/_dependencies/Texture/EffectTexture/DigiitalAlbumTex/CS_Chap03_Act100.png"
  },
  "5008": {
    "ID": 5008,
    "Name": {
      "Hash": 371857150
    },
    "CategoryID": 5000,
    "ImgPath": "",
    "ImgPath_F": "",
    "UnlockCondition": [
      {
        "Type": "FinishMainMission",
        "Param": "1030501"
      }
    ],
    "isVideo": true,
    "ImgPathWall": "Stages/OriginalResPos/Chapter00/_dependencies/Texture/EffectTexture/DigiitalAlbumTex/CS_Chap03_Act110_m.png",
    "ImgPathWall_F": "Stages/OriginalResPos/Chapter00/_dependencies/Texture/EffectTexture/DigiitalAlbumTex/CS_Chap03_Act110_f.png"
  },
  "5009": {
    "ID": 5009,
    "Name": {
      "Hash": 371857150
    },
    "CategoryID": 5000,
    "ImgPath": "",
    "ImgPath_F": "",
    "UnlockCondition": [
      {
        "Type": "FinishMainMission",
        "Param": "1030501"
      }
    ],
    "isVideo": true,
    "ImgPathWall": "Stages/OriginalResPos/Chapter00/_dependencies/Texture/EffectTexture/DigiitalAlbumTex/CS_Chap03_Act120.png",
    "ImgPathWall_F": "Stages/OriginalResPos/Chapter00/_dependencies/Texture/EffectTexture/DigiitalAlbumTex/CS_Chap03_Act120.png"
  },
  "5010": {
    "ID": 5010,
    "Name": {
      "Hash": 371857150
    },
    "CategoryID": 5000,
    "ImgPath": "",
    "ImgPath_F": "",
    "UnlockCondition": [
      {
        "Type": "FinishMainMission",
        "Param": "1030501"
      }
    ],
    "isVideo": true,
    "ImgPathWall": "Stages/OriginalResPos/Chapter00/_dependencies/Texture/EffectTexture/DigiitalAlbumTex/CS_Chap03_Act130_m.png",
    "ImgPathWall_F": "Stages/OriginalResPos/Chapter00/_dependencies/Texture/EffectTexture/DigiitalAlbumTex/CS_Chap03_Act130_f.png"
  },
  "5013": {
    "ID": 5013,
    "Name": {
      "Hash": 371857150
    },
    "CategoryID": 5000,
    "ImgPath": "",
    "ImgPath_F": "",
    "UnlockCondition": [
      {
        "Type": "FinishMainMission",
        "Param": "1030702"
      }
    ],
    "isVideo": true,
    "ImgPathWall": "Stages/OriginalResPos/Chapter00/_dependencies/Texture/EffectTexture/DigiitalAlbumTex/CS_Chap03_Act160_m.png",
    "ImgPathWall_F": "Stages/OriginalResPos/Chapter00/_dependencies/Texture/EffectTexture/DigiitalAlbumTex/CS_Chap03_Act160_f.png"
  },
  "5014": {
    "ID": 5014,
    "Name": {
      "Hash": 371857150
    },
    "CategoryID": 5000,
    "ImgPath": "",
    "ImgPath_F": "",
    "UnlockCondition": [
      {
        "Type": "FinishMainMission",
        "Param": "1030702"
      }
    ],
    "isVideo": true,
    "ImgPathWall": "Stages/OriginalResPos/Chapter00/_dependencies/Texture/EffectTexture/DigiitalAlbumTex/CS_Chap03_Act170_m.png",
    "ImgPathWall_F": "Stages/OriginalResPos/Chapter00/_dependencies/Texture/EffectTexture/DigiitalAlbumTex/CS_Chap03_Act170_f.png"
  },
  "5015": {
    "ID": 5015,
    "Name": {
      "Hash": 371857150
    },
    "CategoryID": 5000,
    "ImgPath": "",
    "ImgPath_F": "",
    "UnlockCondition": [
      {
        "Type": "FinishMainMission",
        "Param": "1030901"
      }
    ],
    "isVideo": true,
    "ImgPathWall": "Stages/OriginalResPos/Chapter00/_dependencies/Texture/EffectTexture/DigiitalAlbumTex/CS_Chap03_Act190.png",
    "ImgPathWall_F": "Stages/OriginalResPos/Chapter00/_dependencies/Texture/EffectTexture/DigiitalAlbumTex/CS_Chap03_Act190.png"
  },
  "5016": {
    "ID": 5016,
    "Name": {
      "Hash": 371857150
    },
    "CategoryID": 5000,
    "ImgPath": "",
    "ImgPath_F": "",
    "UnlockCondition": [
      {
        "Type": "FinishMainMission",
        "Param": "1030901"
      }
    ],
    "isVideo": true,
    "ImgPathWall": "Stages/OriginalResPos/Chapter00/_dependencies/Texture/EffectTexture/DigiitalAlbumTex/CS_Chap03_Act191.png",
    "ImgPathWall_F": "Stages/OriginalResPos/Chapter00/_dependencies/Texture/EffectTexture/DigiitalAlbumTex/CS_Chap03_Act191.png"
  },
  "5017": {
    "ID": 5017,
    "Name": {
      "Hash": 371857150
    },
    "CategoryID": 5000,
    "ImgPath": "",
    "ImgPath_F": "",
    "UnlockCondition": [
      {
        "Type": "FinishMainMission",
        "Param": "1031101"
      }
    ],
    "isVideo": true,
    "ImgPathWall": "Stages/OriginalResPos/Chapter00/_dependencies/Texture/EffectTexture/DigiitalAlbumTex/CS_Chap03_Act200.png",
    "ImgPathWall_F": "Stages/OriginalResPos/Chapter00/_dependencies/Texture/EffectTexture/DigiitalAlbumTex/CS_Chap03_Act200.png"
  },
  "5018": {
    "ID": 5018,
    "Name": {
      "Hash": 371857150
    },
    "CategoryID": 5000,
    "ImgPath": "",
    "ImgPath_F": "",
    "UnlockCondition": [
      {
        "Type": "FinishMainMission",
        "Param": "1031801"
      }
    ],
    "isVideo": true,
    "ImgPathWall": "Stages/OriginalResPos/Chapter00/_dependencies/Texture/EffectTexture/DigiitalAlbumTex/CS_Chap03_Act210_m.png",
    "ImgPathWall_F": "Stages/OriginalResPos/Chapter00/_dependencies/Texture/EffectTexture/DigiitalAlbumTex/CS_Chap03_Act210_f.png"
  },
  "5019": {
    "ID": 5019,
    "Name": {
      "Hash": 371857150
    },
    "CategoryID": 5000,
    "ImgPath": "",
    "ImgPath_F": "",
    "UnlockCondition": [
      {
        "Type": "FinishMainMission",
        "Param": "1031801"
      }
    ],
    "isVideo": true,
    "ImgPathWall": "Stages/OriginalResPos/Chapter00/_dependencies/Texture/EffectTexture/DigiitalAlbumTex/CS_Chap03_Act220.png",
    "ImgPathWall_F": "Stages/OriginalResPos/Chapter00/_dependencies/Texture/EffectTexture/DigiitalAlbumTex/CS_Chap03_Act220.png"
  },
  "5020": {
    "ID": 5020,
    "Name": {
      "Hash": 371857150
    },
    "CategoryID": 5000,
    "ImgPath": "",
    "ImgPath_F": "",
    "UnlockCondition": [
      {
        "Type": "FinishMainMission",
        "Param": "1031801"
      }
    ],
    "isVideo": true,
    "ImgPathWall": "Stages/OriginalResPos/Chapter00/_dependencies/Texture/EffectTexture/DigiitalAlbumTex/CS_Chap03_Act230.png",
    "ImgPathWall_F": "Stages/OriginalResPos/Chapter00/_dependencies/Texture/EffectTexture/DigiitalAlbumTex/CS_Chap03_Act230.png"
  },
  "5021": {
    "ID": 5021,
    "Name": {
      "Hash": 371857150
    },
    "CategoryID": 5000,
    "ImgPath": "",
    "ImgPath_F": "",
    "UnlockCondition": [
      {
        "Type": "FinishMainMission",
        "Param": "1031901"
      }
    ],
    "isVideo": true,
    "ImgPathWall": "Stages/OriginalResPos/Chapter00/_dependencies/Texture/EffectTexture/DigiitalAlbumTex/CS_Chap03_Act240.png",
    "ImgPathWall_F": "Stages/OriginalResPos/Chapter00/_dependencies/Texture/EffectTexture/DigiitalAlbumTex/CS_Chap03_Act240.png"
  },
  "5022": {
    "ID": 5022,
    "Name": {
      "Hash": 371857150
    },
    "CategoryID": 5000,
    "ImgPath": "",
    "ImgPath_F": "",
    "UnlockCondition": [
      {
        "Type": "FinishMainMission",
        "Param": "1032001"
      }
    ],
    "isVideo": true,
    "ImgPathWall": "Stages/OriginalResPos/Chapter00/_dependencies/Texture/EffectTexture/DigiitalAlbumTex/CS_Chap03_Act250.png",
    "ImgPathWall_F": "Stages/OriginalResPos/Chapter00/_dependencies/Texture/EffectTexture/DigiitalAlbumTex/CS_Chap03_Act250.png"
  },
  "5031": {
    "ID": 5031,
    "Name": {
      "Hash": 371857150
    },
    "CategoryID": 5000,
    "ImgPath": "",
    "ImgPath_F": "",
    "UnlockCondition": [
      {
        "Type": "FinishMainMission",
        "Param": "1032501"
      }
    ],
    "isVideo": true,
    "ImgPathWall": "Stages/OriginalResPos/Chapter00/_dependencies/Texture/EffectTexture/DigiitalAlbumTex/CS_Chap03_Act300_m.png",
    "ImgPathWall_F": "Stages/OriginalResPos/Chapter00/_dependencies/Texture/EffectTexture/DigiitalAlbumTex/CS_Chap03_Act300_f.png"
  },
  "5032": {
    "ID": 5032,
    "Name": {
      "Hash": 371857150
    },
    "CategoryID": 5000,
    "ImgPath": "",
    "ImgPath_F": "",
    "UnlockCondition": [
      {
        "Type": "FinishMainMission",
        "Param": "1032801"
      }
    ],
    "isVideo": true,
    "ImgPathWall": "Stages/OriginalResPos/Chapter00/_dependencies/Texture/EffectTexture/DigiitalAlbumTex/CS_Chap03_Act320.png",
    "ImgPathWall_F": "Stages/OriginalResPos/Chapter00/_dependencies/Texture/EffectTexture/DigiitalAlbumTex/CS_Chap03_Act320.png"
  },
  "5033": {
    "ID": 5033,
    "Name": {
      "Hash": 371857150
    },
    "CategoryID": 5000,
    "ImgPath": "",
    "ImgPath_F": "",
    "UnlockCondition": [
      {
        "Type": "FinishMainMission",
        "Param": "1032801"
      }
    ],
    "isVideo": true,
    "ImgPathWall": "Stages/OriginalResPos/Chapter00/_dependencies/Texture/EffectTexture/DigiitalAlbumTex/CS_Chap03_Act330.png",
    "ImgPathWall_F": "Stages/OriginalResPos/Chapter00/_dependencies/Texture/EffectTexture/DigiitalAlbumTex/CS_Chap03_Act330.png"
  },
  "5034": {
    "ID": 5034,
    "Name": {
      "Hash": 371857150
    },
    "CategoryID": 5000,
    "ImgPath": "",
    "ImgPath_F": "",
    "UnlockCondition": [
      {
        "Type": "FinishMainMission",
        "Param": "1032902"
      }
    ],
    "isVideo": true,
    "ImgPathWall": "Stages/OriginalResPos/Chapter00/_dependencies/Texture/EffectTexture/DigiitalAlbumTex/CS_Chap03_Act340.png",
    "ImgPathWall_F": "Stages/OriginalResPos/Chapter00/_dependencies/Texture/EffectTexture/DigiitalAlbumTex/CS_Chap03_Act340.png"
  },
  "5035": {
    "ID": 5035,
    "Name": {
      "Hash": 371857150
    },
    "CategoryID": 5000,
    "ImgPath": "",
    "ImgPath_F": "",
    "UnlockCondition": [
      {
        "Type": "FinishMainMission",
        "Param": "1032902"
      }
    ],
    "isVideo": true,
    "ImgPathWall": "Stages/OriginalResPos/Chapter00/_dependencies/Texture/EffectTexture/DigiitalAlbumTex/CS_Chap03_Act350_m.png",
    "ImgPathWall_F": "Stages/OriginalResPos/Chapter00/_dependencies/Texture/EffectTexture/DigiitalAlbumTex/CS_Chap03_Act350_f.png"
  },
  "5036": {
    "ID": 5036,
    "Name": {
      "Hash": 371857150
    },
    "CategoryID": 5000,
    "ImgPath": "",
    "ImgPath_F": "",
    "UnlockCondition": [
      {
        "Type": "FinishMainMission",
        "Param": "1032902"
      }
    ],
    "isVideo": true,
    "ImgPathWall": "Stages/OriginalResPos/Chapter00/_dependencies/Texture/EffectTexture/DigiitalAlbumTex/CS_Chap03_Act360.png",
    "ImgPathWall_F": "Stages/OriginalResPos/Chapter00/_dependencies/Texture/EffectTexture/DigiitalAlbumTex/CS_Chap03_Act360.png"
  },
  "5037": {
    "ID": 5037,
    "Name": {
      "Hash": 371857150
    },
    "CategoryID": 5000,
    "ImgPath": "",
    "ImgPath_F": "",
    "UnlockCondition": [
      {
        "Type": "FinishMainMission",
        "Param": "1033101"
      }
    ],
    "isVideo": true,
    "ImgPathWall": "Stages/OriginalResPos/Chapter00/_dependencies/Texture/EffectTexture/DigiitalAlbumTex/CS_Chap03_Act380.png",
    "ImgPathWall_F": "Stages/OriginalResPos/Chapter00/_dependencies/Texture/EffectTexture/DigiitalAlbumTex/CS_Chap03_Act380.png"
  },
  "5038": {
    "ID": 5038,
    "Name": {
      "Hash": 371857150
    },
    "CategoryID": 5000,
    "ImgPath": "",
    "ImgPath_F": "",
    "UnlockCondition": [
      {
        "Type": "FinishMainMission",
        "Param": "1033101"
      }
    ],
    "isVideo": true,
    "ImgPathWall": "Stages/OriginalResPos/Chapter00/_dependencies/Texture/EffectTexture/DigiitalAlbumTex/CS_Chap03_Act390.png",
    "ImgPathWall_F": "Stages/OriginalResPos/Chapter00/_dependencies/Texture/EffectTexture/DigiitalAlbumTex/CS_Chap03_Act390.png"
  },
  "5039": {
    "ID": 5039,
    "Name": {
      "Hash": 371857150
    },
    "CategoryID": 5000,
    "ImgPath": "",
    "ImgPath_F": "",
    "UnlockCondition": [
      {
        "Type": "FinishMainMission",
        "Param": "1033101"
      }
    ],
    "isVideo": true,
    "ImgPathWall": "Stages/OriginalResPos/Chapter00/_dependencies/Texture/EffectTexture/DigiitalAlbumTex/CS_Chap03_Act400.png",
    "ImgPathWall_F": "Stages/OriginalResPos/Chapter00/_dependencies/Texture/EffectTexture/DigiitalAlbumTex/CS_Chap03_Act400.png"
  },
  "5040": {
    "ID": 5040,
    "Name": {
      "Hash": 371857150
    },
    "CategoryID": 5000,
    "ImgPath": "",
    "ImgPath_F": "",
    "UnlockCondition": [
      {
        "Type": "FinishMainMission",
        "Param": "1033101"
      }
    ],
    "isVideo": true,
    "ImgPathWall": "Stages/OriginalResPos/Chapter00/_dependencies/Texture/EffectTexture/DigiitalAlbumTex/CS_Chap03_Act410.png",
    "ImgPathWall_F": "Stages/OriginalResPos/Chapter00/_dependencies/Texture/EffectTexture/DigiitalAlbumTex/CS_Chap03_Act410.png"
  },
  "5041": {
    "ID": 5041,
    "Name": {
      "Hash": 371857150
    },
    "CategoryID": 5000,
    "ImgPath": "",
    "ImgPath_F": "",
    "UnlockCondition": [
      {
        "Type": "FinishMainMission",
        "Param": "1032902"
      }
    ],
    "isVideo": true,
    "ImgPathWall": "Stages/OriginalResPos/Chapter00/_dependencies/Texture/EffectTexture/DigiitalAlbumTex/CS_Chap03_Act420.png",
    "ImgPathWall_F": "Stages/OriginalResPos/Chapter00/_dependencies/Texture/EffectTexture/DigiitalAlbumTex/CS_Chap03_Act420.png"
  }
}