{
  "12000": {
    "GKOGJPDANCE": 12000,
    "NFPAICKGMBC": [
      1203001,
      1203101,
      1203201,
      1204001,
      1204101,
      1204201,
      1204301,
      1204401,
      1204501,
      1204601,
      1205001,
      1205101,
      1205201,
      1205301,
      1205401,
      1205501,
      1205601,
      1205701
    ]
  },
  "12001": {
    "GKOGJPDANCE": 12001,
    "NFPAICKGMBC": [
      1205001,
      1205101,
      1205201,
      1205301,
      1205401,
      1205501,
      1205601,
      1205701
    ]
  },
  "12002": {
    "GKOGJPDANCE": 12002,
    "NFPAICKGMBC": [
      1204001,
      1204101,
      1204201,
      1204301,
      1204401,
      1204501,
      1204601
    ]
  },
  "12003": {
    "GKOGJPDANCE": 12003,
    "NFPAICKGMBC": [
      1203001,
      1203101,
      1203201
    ]
  },
  "12004": {
    "GKOGJPDANCE": 12004,
    "NFPAICKGMBC": [
      1202001
    ]
  },
  "12005": {
    "GKOGJPDANCE": 12005,
    "NFPAICKGMBC": [
      1202101,
      1202201,
      1202301
    ]
  },
  "12006": {
    "GKOGJPDANCE": 12006,
    "NFPAICKGMBC": [
      1204001,
      1204101,
      1204201
    ]
  },
  "12007": {
    "GKOGJPDANCE": 12007,
    "NFPAICKGMBC": [
      1203001,
      1203101
    ]
  },
  "12008": {
    "GKOGJPDANCE": 12008,
    "NFPAICKGMBC": [
      1203001,
      1203101,
      1203201
    ]
  },
  "12011": {
    "GKOGJPDANCE": 12011,
    "NFPAICKGMBC": [
      1205002,
      1205102,
      1205202,
      1205302,
      1205402,
      1205502,
      1205602,
      1205702
    ]
  },
  "12012": {
    "GKOGJPDANCE": 12012,
    "NFPAICKGMBC": [
      1204002,
      1204102,
      1204202,
      1204302,
      1204402,
      1204502,
      1204602
    ]
  },
  "12013": {
    "GKOGJPDANCE": 12013,
    "NFPAICKGMBC": [
      1203002,
      1203102,
      1203202
    ]
  },
  "12021": {
    "GKOGJPDANCE": 12021,
    "NFPAICKGMBC": [
      1202401
    ]
  },
  "12022": {
    "GKOGJPDANCE": 12022,
    "NFPAICKGMBC": [
      1202501
    ]
  },
  "12023": {
    "GKOGJPDANCE": 12023,
    "NFPAICKGMBC": [
      1202601
    ]
  },
  "12024": {
    "GKOGJPDANCE": 12024,
    "NFPAICKGMBC": [
      1202701
    ]
  },
  "12100": {
    "GKOGJPDANCE": 12100,
    "NFPAICKGMBC": [
      1213001,
      1213101,
      1213201,
      1214001,
      1214101,
      1214201,
      1214301,
      1214401,
      1214501,
      1214601,
      1215001,
      1215101,
      1215201,
      1215301,
      1215401,
      1215501,
      1215601,
      1215701
    ]
  },
  "12101": {
    "GKOGJPDANCE": 12101,
    "NFPAICKGMBC": [
      1215001,
      1215101,
      1215201,
      1215301,
      1215401,
      1215501,
      1215601,
      1215701
    ]
  },
  "12102": {
    "GKOGJPDANCE": 12102,
    "NFPAICKGMBC": [
      1214001,
      1214101,
      1214201,
      1214301,
      1214401,
      1214501,
      1214601
    ]
  },
  "12103": {
    "GKOGJPDANCE": 12103,
    "NFPAICKGMBC": [
      1213001,
      1213101,
      1213201
    ]
  },
  "12104": {
    "GKOGJPDANCE": 12104,
    "NFPAICKGMBC": [
      1212001
    ]
  },
  "12105": {
    "GKOGJPDANCE": 12105,
    "NFPAICKGMBC": [
      1212101,
      1212201,
      1212301
    ]
  },
  "12106": {
    "GKOGJPDANCE": 12106,
    "NFPAICKGMBC": [
      1214001,
      1214101,
      1214201
    ]
  },
  "12107": {
    "GKOGJPDANCE": 12107,
    "NFPAICKGMBC": [
      1213001,
      1213101
    ]
  },
  "12108": {
    "GKOGJPDANCE": 12108,
    "NFPAICKGMBC": [
      1213001,
      1213101,
      1213201
    ]
  },
  "12111": {
    "GKOGJPDANCE": 12111,
    "NFPAICKGMBC": [
      1215002,
      1215102,
      1215202,
      1215302,
      1215402,
      1215502,
      1215602,
      1215702
    ]
  },
  "12112": {
    "GKOGJPDANCE": 12112,
    "NFPAICKGMBC": [
      1214002,
      1214102,
      1214202,
      1214302,
      1214402,
      1214502,
      1214602
    ]
  },
  "12113": {
    "GKOGJPDANCE": 12113,
    "NFPAICKGMBC": [
      1213002,
      1213102,
      1213202
    ]
  },
  "12121": {
    "GKOGJPDANCE": 12121,
    "NFPAICKGMBC": [
      1212401
    ]
  },
  "12122": {
    "GKOGJPDANCE": 12122,
    "NFPAICKGMBC": [
      1212501
    ]
  },
  "12123": {
    "GKOGJPDANCE": 12123,
    "NFPAICKGMBC": [
      1212601
    ]
  },
  "12124": {
    "GKOGJPDANCE": 12124,
    "NFPAICKGMBC": [
      1212701
    ]
  },
  "12200": {
    "GKOGJPDANCE": 12200,
    "NFPAICKGMBC": [
      1223001,
      1223101,
      1223201,
      1224001,
      1224101,
      1224201,
      1224301,
      1224401,
      1224501,
      1224601,
      1225001,
      1225101,
      1225201,
      1225301,
      1225401,
      1225501,
      1225601,
      1225701
    ]
  },
  "12201": {
    "GKOGJPDANCE": 12201,
    "NFPAICKGMBC": [
      1225001,
      1225101,
      1225201,
      1225301,
      1225401,
      1225501,
      1225601,
      1225701
    ]
  },
  "12202": {
    "GKOGJPDANCE": 12202,
    "NFPAICKGMBC": [
      1224001,
      1224101,
      1224201,
      1224301,
      1224401,
      1224501,
      1224601
    ]
  },
  "12203": {
    "GKOGJPDANCE": 12203,
    "NFPAICKGMBC": [
      1223001,
      1223101,
      1223201
    ]
  },
  "12204": {
    "GKOGJPDANCE": 12204,
    "NFPAICKGMBC": [
      1222001
    ]
  },
  "12205": {
    "GKOGJPDANCE": 12205,
    "NFPAICKGMBC": [
      1222101,
      1222201,
      1222301
    ]
  },
  "12206": {
    "GKOGJPDANCE": 12206,
    "NFPAICKGMBC": [
      1224001,
      1224101,
      1224201
    ]
  },
  "12207": {
    "GKOGJPDANCE": 12207,
    "NFPAICKGMBC": [
      1223001,
      1223101
    ]
  },
  "12208": {
    "GKOGJPDANCE": 12208,
    "NFPAICKGMBC": [
      1223001,
      1223101,
      1223201
    ]
  },
  "12211": {
    "GKOGJPDANCE": 12211,
    "NFPAICKGMBC": [
      1225002,
      1225102,
      1225202,
      1225302,
      1225402,
      1225502,
      1225602,
      1225702
    ]
  },
  "12212": {
    "GKOGJPDANCE": 12212,
    "NFPAICKGMBC": [
      1224002,
      1224102,
      1224202,
      1224302,
      1224402,
      1224502,
      1224602
    ]
  },
  "12213": {
    "GKOGJPDANCE": 12213,
    "NFPAICKGMBC": [
      1223002,
      1223102,
      1223202
    ]
  },
  "12221": {
    "GKOGJPDANCE": 12221,
    "NFPAICKGMBC": [
      1222401
    ]
  },
  "12222": {
    "GKOGJPDANCE": 12222,
    "NFPAICKGMBC": [
      1222501
    ]
  },
  "12223": {
    "GKOGJPDANCE": 12223,
    "NFPAICKGMBC": [
      1222601
    ]
  },
  "12224": {
    "GKOGJPDANCE": 12224,
    "NFPAICKGMBC": [
      1222701
    ]
  },
  "12300": {
    "GKOGJPDANCE": 12300,
    "NFPAICKGMBC": [
      1233001,
      1233101,
      1233201,
      1234001,
      1234101,
      1234201,
      1234301,
      1234401,
      1234501,
      1234601,
      1235001,
      1235101,
      1235201,
      1235301,
      1235401,
      1235501,
      1235601,
      1235701
    ]
  },
  "12301": {
    "GKOGJPDANCE": 12301,
    "NFPAICKGMBC": [
      1235001,
      1235101,
      1235201,
      1235301,
      1235401,
      1235501,
      1235601,
      1235701
    ]
  },
  "12302": {
    "GKOGJPDANCE": 12302,
    "NFPAICKGMBC": [
      1234001,
      1234101,
      1234201,
      1234301,
      1234401,
      1234501,
      1234601
    ]
  },
  "12303": {
    "GKOGJPDANCE": 12303,
    "NFPAICKGMBC": [
      1233001,
      1233101,
      1233201
    ]
  },
  "12304": {
    "GKOGJPDANCE": 12304,
    "NFPAICKGMBC": [
      1232001
    ]
  },
  "12305": {
    "GKOGJPDANCE": 12305,
    "NFPAICKGMBC": [
      1232101,
      1232201,
      1232301
    ]
  },
  "12306": {
    "GKOGJPDANCE": 12306,
    "NFPAICKGMBC": [
      1234001,
      1234101,
      1234201
    ]
  },
  "12307": {
    "GKOGJPDANCE": 12307,
    "NFPAICKGMBC": [
      1233001,
      1233101
    ]
  },
  "12308": {
    "GKOGJPDANCE": 12308,
    "NFPAICKGMBC": [
      1233001,
      1233101,
      1233201
    ]
  },
  "12311": {
    "GKOGJPDANCE": 12311,
    "NFPAICKGMBC": [
      1235002,
      1235102,
      1235202,
      1235302,
      1235402,
      1235502,
      1235602,
      1235702
    ]
  },
  "12312": {
    "GKOGJPDANCE": 12312,
    "NFPAICKGMBC": [
      1234002,
      1234102,
      1234202,
      1234302,
      1234402,
      1234502,
      1234602
    ]
  },
  "12313": {
    "GKOGJPDANCE": 12313,
    "NFPAICKGMBC": [
      1233002,
      1233102,
      1233202
    ]
  },
  "12321": {
    "GKOGJPDANCE": 12321,
    "NFPAICKGMBC": [
      1232401
    ]
  },
  "12322": {
    "GKOGJPDANCE": 12322,
    "NFPAICKGMBC": [
      1232501
    ]
  },
  "12323": {
    "GKOGJPDANCE": 12323,
    "NFPAICKGMBC": [
      1232601
    ]
  },
  "12324": {
    "GKOGJPDANCE": 12324,
    "NFPAICKGMBC": [
      1232701
    ]
  },
  "12400": {
    "GKOGJPDANCE": 12400,
    "NFPAICKGMBC": [
      1243001,
      1243101,
      1243201,
      1244001,
      1244101,
      1244201,
      1244301,
      1244401,
      1244501,
      1244601,
      1245001,
      1245101,
      1245201,
      1245301,
      1245401,
      1245501,
      1245601,
      1245701
    ]
  },
  "12401": {
    "GKOGJPDANCE": 12401,
    "NFPAICKGMBC": [
      1245001,
      1245101,
      1245201,
      1245301,
      1245401,
      1245501,
      1245601,
      1245701
    ]
  },
  "12402": {
    "GKOGJPDANCE": 12402,
    "NFPAICKGMBC": [
      1244001,
      1244101,
      1244201,
      1244301,
      1244401,
      1244501,
      1244601
    ]
  },
  "12403": {
    "GKOGJPDANCE": 12403,
    "NFPAICKGMBC": [
      1243001,
      1243101,
      1243201
    ]
  },
  "12404": {
    "GKOGJPDANCE": 12404,
    "NFPAICKGMBC": [
      1242001
    ]
  },
  "12405": {
    "GKOGJPDANCE": 12405,
    "NFPAICKGMBC": [
      1242101,
      1242201,
      1242301
    ]
  },
  "12406": {
    "GKOGJPDANCE": 12406,
    "NFPAICKGMBC": [
      1244001,
      1244101,
      1244201
    ]
  },
  "12407": {
    "GKOGJPDANCE": 12407,
    "NFPAICKGMBC": [
      1243001,
      1243101
    ]
  },
  "12408": {
    "GKOGJPDANCE": 12408,
    "NFPAICKGMBC": [
      1243001,
      1243101,
      1243201
    ]
  },
  "12411": {
    "GKOGJPDANCE": 12411,
    "NFPAICKGMBC": [
      1245002,
      1245102,
      1245202,
      1245302,
      1245402,
      1245502,
      1245602,
      1245702
    ]
  },
  "12412": {
    "GKOGJPDANCE": 12412,
    "NFPAICKGMBC": [
      1244002,
      1244102,
      1244202,
      1244302,
      1244402,
      1244502,
      1244602
    ]
  },
  "12413": {
    "GKOGJPDANCE": 12413,
    "NFPAICKGMBC": [
      1243002,
      1243102,
      1243202
    ]
  },
  "12421": {
    "GKOGJPDANCE": 12421,
    "NFPAICKGMBC": [
      1242401
    ]
  },
  "12422": {
    "GKOGJPDANCE": 12422,
    "NFPAICKGMBC": [
      1242501
    ]
  },
  "12423": {
    "GKOGJPDANCE": 12423,
    "NFPAICKGMBC": [
      1242601
    ]
  },
  "12424": {
    "GKOGJPDANCE": 12424,
    "NFPAICKGMBC": [
      1242701
    ]
  },
  "12500": {
    "GKOGJPDANCE": 12500,
    "NFPAICKGMBC": [
      1253001,
      1253101,
      1253201,
      1254001,
      1254101,
      1254201,
      1254301,
      1254401,
      1254501,
      1254601,
      1255001,
      1255101,
      1255201,
      1255301,
      1255401,
      1255501,
      1255601,
      1255701
    ]
  },
  "12501": {
    "GKOGJPDANCE": 12501,
    "NFPAICKGMBC": [
      1255001,
      1255101,
      1255201,
      1255301,
      1255401,
      1255501,
      1255601,
      1255701
    ]
  },
  "12502": {
    "GKOGJPDANCE": 12502,
    "NFPAICKGMBC": [
      1254001,
      1254101,
      1254201,
      1254301,
      1254401,
      1254501,
      1254601
    ]
  },
  "12503": {
    "GKOGJPDANCE": 12503,
    "NFPAICKGMBC": [
      1253001,
      1253101,
      1253201
    ]
  },
  "12504": {
    "GKOGJPDANCE": 12504,
    "NFPAICKGMBC": [
      1252001
    ]
  },
  "12505": {
    "GKOGJPDANCE": 12505,
    "NFPAICKGMBC": [
      1252101,
      1252201,
      1252301
    ]
  },
  "12506": {
    "GKOGJPDANCE": 12506,
    "NFPAICKGMBC": [
      1254001,
      1254101,
      1254201
    ]
  },
  "12507": {
    "GKOGJPDANCE": 12507,
    "NFPAICKGMBC": [
      1253001,
      1253101
    ]
  },
  "12508": {
    "GKOGJPDANCE": 12508,
    "NFPAICKGMBC": [
      1253001,
      1253101,
      1253201
    ]
  },
  "12511": {
    "GKOGJPDANCE": 12511,
    "NFPAICKGMBC": [
      1255002,
      1255102,
      1255202,
      1255302,
      1255402,
      1255502,
      1255602,
      1255702
    ]
  },
  "12512": {
    "GKOGJPDANCE": 12512,
    "NFPAICKGMBC": [
      1254002,
      1254102,
      1254202,
      1254302,
      1254402,
      1254502,
      1254602
    ]
  },
  "12513": {
    "GKOGJPDANCE": 12513,
    "NFPAICKGMBC": [
      1253002,
      1253102,
      1253202
    ]
  },
  "12521": {
    "GKOGJPDANCE": 12521,
    "NFPAICKGMBC": [
      1252401
    ]
  },
  "12522": {
    "GKOGJPDANCE": 12522,
    "NFPAICKGMBC": [
      1252501
    ]
  },
  "12523": {
    "GKOGJPDANCE": 12523,
    "NFPAICKGMBC": [
      1252601
    ]
  },
  "12524": {
    "GKOGJPDANCE": 12524,
    "NFPAICKGMBC": [
      1252701
    ]
  },
  "12600": {
    "GKOGJPDANCE": 12600,
    "NFPAICKGMBC": [
      1263001,
      1263101,
      1263201,
      1264001,
      1264101,
      1264201,
      1264301,
      1264401,
      1264501,
      1264601,
      1265001,
      1265101,
      1265201,
      1265301,
      1265401,
      1265501,
      1265601,
      1265701
    ]
  },
  "12601": {
    "GKOGJPDANCE": 12601,
    "NFPAICKGMBC": [
      1265001,
      1265101,
      1265201,
      1265301,
      1265401,
      1265501,
      1265601,
      1265701
    ]
  },
  "12602": {
    "GKOGJPDANCE": 12602,
    "NFPAICKGMBC": [
      1264001,
      1264101,
      1264201,
      1264301,
      1264401,
      1264501,
      1264601
    ]
  },
  "12603": {
    "GKOGJPDANCE": 12603,
    "NFPAICKGMBC": [
      1263001,
      1263101,
      1263201
    ]
  },
  "12604": {
    "GKOGJPDANCE": 12604,
    "NFPAICKGMBC": [
      1262001
    ]
  },
  "12605": {
    "GKOGJPDANCE": 12605,
    "NFPAICKGMBC": [
      1262101,
      1262201,
      1262301
    ]
  },
  "12606": {
    "GKOGJPDANCE": 12606,
    "NFPAICKGMBC": [
      1264001,
      1264101,
      1264201
    ]
  },
  "12607": {
    "GKOGJPDANCE": 12607,
    "NFPAICKGMBC": [
      1263001,
      1263101
    ]
  },
  "12608": {
    "GKOGJPDANCE": 12608,
    "NFPAICKGMBC": [
      1263001,
      1263101,
      1263201
    ]
  },
  "12611": {
    "GKOGJPDANCE": 12611,
    "NFPAICKGMBC": [
      1265002,
      1265102,
      1265202,
      1265302,
      1265402,
      1265502,
      1265602,
      1265702
    ]
  },
  "12612": {
    "GKOGJPDANCE": 12612,
    "NFPAICKGMBC": [
      1264002,
      1264102,
      1264202,
      1264302,
      1264402,
      1264502,
      1264602
    ]
  },
  "12613": {
    "GKOGJPDANCE": 12613,
    "NFPAICKGMBC": [
      1263002,
      1263102,
      1263202
    ]
  },
  "12621": {
    "GKOGJPDANCE": 12621,
    "NFPAICKGMBC": [
      1262401
    ]
  },
  "12622": {
    "GKOGJPDANCE": 12622,
    "NFPAICKGMBC": [
      1262501
    ]
  },
  "12623": {
    "GKOGJPDANCE": 12623,
    "NFPAICKGMBC": [
      1262601
    ]
  },
  "12624": {
    "GKOGJPDANCE": 12624,
    "NFPAICKGMBC": [
      1262701
    ]
  },
  "12700": {
    "GKOGJPDANCE": 12700,
    "NFPAICKGMBC": [
      1273001,
      1273101,
      1273201,
      1274001,
      1274101,
      1274201,
      1274301,
      1274401,
      1274501,
      1274601,
      1275001,
      1275101,
      1275201,
      1275301,
      1275401,
      1275501,
      1275601,
      1275701
    ]
  },
  "12701": {
    "GKOGJPDANCE": 12701,
    "NFPAICKGMBC": [
      1275001,
      1275101,
      1275201,
      1275301,
      1275401,
      1275501,
      1275601,
      1275701
    ]
  },
  "12702": {
    "GKOGJPDANCE": 12702,
    "NFPAICKGMBC": [
      1274001,
      1274101,
      1274201,
      1274301,
      1274401,
      1274501,
      1274601
    ]
  },
  "12703": {
    "GKOGJPDANCE": 12703,
    "NFPAICKGMBC": [
      1273001,
      1273101,
      1273201
    ]
  },
  "12704": {
    "GKOGJPDANCE": 12704,
    "NFPAICKGMBC": [
      1272001
    ]
  },
  "12705": {
    "GKOGJPDANCE": 12705,
    "NFPAICKGMBC": [
      1272101,
      1272201,
      1272301
    ]
  },
  "12706": {
    "GKOGJPDANCE": 12706,
    "NFPAICKGMBC": [
      1274001,
      1274101,
      1274201
    ]
  },
  "12707": {
    "GKOGJPDANCE": 12707,
    "NFPAICKGMBC": [
      1273001,
      1273101
    ]
  },
  "12708": {
    "GKOGJPDANCE": 12708,
    "NFPAICKGMBC": [
      1273001,
      1273101,
      1273201
    ]
  },
  "12711": {
    "GKOGJPDANCE": 12711,
    "NFPAICKGMBC": [
      1275002,
      1275102,
      1275202,
      1275302,
      1275402,
      1275502,
      1275602,
      1275702
    ]
  },
  "12712": {
    "GKOGJPDANCE": 12712,
    "NFPAICKGMBC": [
      1274002,
      1274102,
      1274202,
      1274302,
      1274402,
      1274502,
      1274602
    ]
  },
  "12713": {
    "GKOGJPDANCE": 12713,
    "NFPAICKGMBC": [
      1273002,
      1273102,
      1273202
    ]
  },
  "12721": {
    "GKOGJPDANCE": 12721,
    "NFPAICKGMBC": [
      1272401
    ]
  },
  "12722": {
    "GKOGJPDANCE": 12722,
    "NFPAICKGMBC": [
      1272501
    ]
  },
  "12723": {
    "GKOGJPDANCE": 12723,
    "NFPAICKGMBC": [
      1272601
    ]
  },
  "12724": {
    "GKOGJPDANCE": 12724,
    "NFPAICKGMBC": [
      1272701
    ]
  },
  "12800": {
    "GKOGJPDANCE": 12800,
    "NFPAICKGMBC": [
      1283001,
      1283101,
      1283201,
      1284001,
      1284101,
      1284201,
      1284301,
      1284401,
      1284501,
      1284601,
      1285001,
      1285101,
      1285201,
      1285301,
      1285401,
      1285501,
      1285601,
      1285701
    ]
  },
  "12801": {
    "GKOGJPDANCE": 12801,
    "NFPAICKGMBC": [
      1285001,
      1285101,
      1285201,
      1285301,
      1285401,
      1285501,
      1285601,
      1285701
    ]
  },
  "12802": {
    "GKOGJPDANCE": 12802,
    "NFPAICKGMBC": [
      1284001,
      1284101,
      1284201,
      1284301,
      1284401,
      1284501,
      1284601
    ]
  },
  "12803": {
    "GKOGJPDANCE": 12803,
    "NFPAICKGMBC": [
      1283001,
      1283101,
      1283201
    ]
  },
  "12804": {
    "GKOGJPDANCE": 12804,
    "NFPAICKGMBC": [
      1282001
    ]
  },
  "12805": {
    "GKOGJPDANCE": 12805,
    "NFPAICKGMBC": [
      1282101,
      1282201,
      1282301
    ]
  },
  "12806": {
    "GKOGJPDANCE": 12806,
    "NFPAICKGMBC": [
      1284001,
      1284101,
      1284201
    ]
  },
  "12807": {
    "GKOGJPDANCE": 12807,
    "NFPAICKGMBC": [
      1283001,
      1283101
    ]
  },
  "12808": {
    "GKOGJPDANCE": 12808,
    "NFPAICKGMBC": [
      1283001,
      1283101,
      1283201
    ]
  },
  "12811": {
    "GKOGJPDANCE": 12811,
    "NFPAICKGMBC": [
      1285002,
      1285102,
      1285202,
      1285302,
      1285402,
      1285502,
      1285602,
      1285702
    ]
  },
  "12812": {
    "GKOGJPDANCE": 12812,
    "NFPAICKGMBC": [
      1284002,
      1284102,
      1284202,
      1284302,
      1284402,
      1284502,
      1284602
    ]
  },
  "12813": {
    "GKOGJPDANCE": 12813,
    "NFPAICKGMBC": [
      1283002,
      1283102,
      1283202
    ]
  },
  "12823": {
    "GKOGJPDANCE": 12823,
    "NFPAICKGMBC": [
      1282601
    ]
  },
  "12824": {
    "GKOGJPDANCE": 12824,
    "NFPAICKGMBC": [
      1282701
    ]
  },
  "1200": {
    "GKOGJPDANCE": 1200,
    "NFPAICKGMBC": [
      12001,
      12002,
      12003
    ]
  },
  "1210": {
    "GKOGJPDANCE": 1210,
    "NFPAICKGMBC": [
      12101,
      12102,
      12103
    ]
  },
  "1220": {
    "GKOGJPDANCE": 1220,
    "NFPAICKGMBC": [
      12201,
      12202,
      12203
    ]
  },
  "1230": {
    "GKOGJPDANCE": 1230,
    "NFPAICKGMBC": [
      12301,
      12302,
      12303
    ]
  },
  "1240": {
    "GKOGJPDANCE": 1240,
    "NFPAICKGMBC": [
      12401,
      12402,
      12403
    ]
  },
  "1250": {
    "GKOGJPDANCE": 1250,
    "NFPAICKGMBC": [
      12501,
      12502,
      12503
    ]
  },
  "1260": {
    "GKOGJPDANCE": 1260,
    "NFPAICKGMBC": [
      12601,
      12602,
      12603
    ]
  },
  "1270": {
    "GKOGJPDANCE": 1270,
    "NFPAICKGMBC": [
      12701,
      12702,
      12703
    ]
  },
  "1280": {
    "GKOGJPDANCE": 1280,
    "NFPAICKGMBC": [
      12801,
      12802,
      12803
    ]
  },
  "1201": {
    "GKOGJPDANCE": 1201,
    "NFPAICKGMBC": [
      12001,
      12002,
      12008
    ]
  },
  "1211": {
    "GKOGJPDANCE": 1211,
    "NFPAICKGMBC": [
      12101,
      12102,
      12108
    ]
  },
  "1221": {
    "GKOGJPDANCE": 1221,
    "NFPAICKGMBC": [
      12201,
      12202,
      12208
    ]
  },
  "1231": {
    "GKOGJPDANCE": 1231,
    "NFPAICKGMBC": [
      12301,
      12302,
      12308
    ]
  },
  "1241": {
    "GKOGJPDANCE": 1241,
    "NFPAICKGMBC": [
      12401,
      12402,
      12408
    ]
  },
  "1251": {
    "GKOGJPDANCE": 1251,
    "NFPAICKGMBC": [
      12501,
      12502,
      12508
    ]
  },
  "1261": {
    "GKOGJPDANCE": 1261,
    "NFPAICKGMBC": [
      12601,
      12602,
      12608
    ]
  },
  "1271": {
    "GKOGJPDANCE": 1271,
    "NFPAICKGMBC": [
      12701,
      12702,
      12708
    ]
  },
  "1281": {
    "GKOGJPDANCE": 1281,
    "NFPAICKGMBC": [
      12801,
      12802,
      12808
    ]
  },
  "1202": {
    "GKOGJPDANCE": 1202,
    "NFPAICKGMBC": [
      12011,
      12012,
      12013
    ]
  },
  "1212": {
    "GKOGJPDANCE": 1212,
    "NFPAICKGMBC": [
      12111,
      12112,
      12113
    ]
  },
  "1222": {
    "GKOGJPDANCE": 1222,
    "NFPAICKGMBC": [
      12211,
      12212,
      12213
    ]
  },
  "1232": {
    "GKOGJPDANCE": 1232,
    "NFPAICKGMBC": [
      12311,
      12312,
      12313
    ]
  },
  "1242": {
    "GKOGJPDANCE": 1242,
    "NFPAICKGMBC": [
      12411,
      12412,
      12413
    ]
  },
  "1252": {
    "GKOGJPDANCE": 1252,
    "NFPAICKGMBC": [
      12511,
      12512,
      12513
    ]
  },
  "1262": {
    "GKOGJPDANCE": 1262,
    "NFPAICKGMBC": [
      12611,
      12612,
      12613
    ]
  },
  "1272": {
    "GKOGJPDANCE": 1272,
    "NFPAICKGMBC": [
      12711,
      12712,
      12713
    ]
  },
  "1282": {
    "GKOGJPDANCE": 1282,
    "NFPAICKGMBC": [
      12811,
      12812,
      12813
    ]
  },
  "1203": {
    "GKOGJPDANCE": 1203,
    "NFPAICKGMBC": [
      12012,
      12013
    ]
  },
  "1213": {
    "GKOGJPDANCE": 1213,
    "NFPAICKGMBC": [
      12112,
      12113
    ]
  },
  "1223": {
    "GKOGJPDANCE": 1223,
    "NFPAICKGMBC": [
      12212,
      12213
    ]
  },
  "1233": {
    "GKOGJPDANCE": 1233,
    "NFPAICKGMBC": [
      12312,
      12313
    ]
  },
  "1243": {
    "GKOGJPDANCE": 1243,
    "NFPAICKGMBC": [
      12412,
      12413
    ]
  },
  "1253": {
    "GKOGJPDANCE": 1253,
    "NFPAICKGMBC": [
      12512,
      12513
    ]
  },
  "1263": {
    "GKOGJPDANCE": 1263,
    "NFPAICKGMBC": [
      12612,
      12613
    ]
  },
  "1273": {
    "GKOGJPDANCE": 1273,
    "NFPAICKGMBC": [
      12712,
      12713
    ]
  },
  "1283": {
    "GKOGJPDANCE": 1283,
    "NFPAICKGMBC": [
      12812,
      12813
    ]
  },
  "1204": {
    "GKOGJPDANCE": 1204,
    "NFPAICKGMBC": [
      12002,
      12003
    ]
  },
  "1214": {
    "GKOGJPDANCE": 1214,
    "NFPAICKGMBC": [
      12102,
      12103
    ]
  },
  "1224": {
    "GKOGJPDANCE": 1224,
    "NFPAICKGMBC": [
      12202,
      12203
    ]
  },
  "1234": {
    "GKOGJPDANCE": 1234,
    "NFPAICKGMBC": [
      12302,
      12303
    ]
  },
  "1244": {
    "GKOGJPDANCE": 1244,
    "NFPAICKGMBC": [
      12402,
      12403
    ]
  },
  "1254": {
    "GKOGJPDANCE": 1254,
    "NFPAICKGMBC": [
      12502,
      12503
    ]
  },
  "1264": {
    "GKOGJPDANCE": 1264,
    "NFPAICKGMBC": [
      12602,
      12603
    ]
  },
  "1274": {
    "GKOGJPDANCE": 1274,
    "NFPAICKGMBC": [
      12702,
      12703
    ]
  },
  "1284": {
    "GKOGJPDANCE": 1284,
    "NFPAICKGMBC": [
      12802,
      12803
    ]
  },
  "100001": {
    "GKOGJPDANCE": 100001,
    "NFPAICKGMBC": [
      12001,
      12101,
      12201,
      12301,
      12401,
      12501,
      12601,
      12701,
      12801
    ]
  },
  "100002": {
    "GKOGJPDANCE": 100002,
    "NFPAICKGMBC": [
      12002,
      12102,
      12202,
      12302,
      12402,
      12502,
      12602,
      12702,
      12802
    ]
  },
  "100003": {
    "GKOGJPDANCE": 100003,
    "NFPAICKGMBC": [
      12003,
      12103,
      12203,
      12303,
      12403,
      12503,
      12603,
      12703,
      12803
    ]
  },
  "100004": {
    "GKOGJPDANCE": 100004,
    "NFPAICKGMBC": [
      100001,
      100002,
      100003
    ]
  },
  "100005": {
    "GKOGJPDANCE": 100005,
    "NFPAICKGMBC": [
      100001,
      100002
    ]
  },
  "100006": {
    "GKOGJPDANCE": 100006,
    "NFPAICKGMBC": [
      12005,
      12105,
      12205,
      12305,
      12405,
      12505,
      12605,
      12705,
      12805
    ]
  },
  "100007": {
    "GKOGJPDANCE": 100007,
    "NFPAICKGMBC": [
      12004,
      12104,
      12204,
      12304,
      12404,
      12504,
      12604,
      12704,
      12804
    ]
  },
  "100008": {
    "GKOGJPDANCE": 100008,
    "NFPAICKGMBC": [
      100003,
      100006
    ]
  },
  "100009": {
    "GKOGJPDANCE": 100009,
    "NFPAICKGMBC": [
      12006,
      12106,
      12206,
      12306,
      12406,
      12506,
      12606,
      12706,
      12806
    ]
  },
  "100011": {
    "GKOGJPDANCE": 100011,
    "NFPAICKGMBC": [
      12011,
      12111,
      12211,
      12311,
      12411,
      12511,
      12611,
      12711,
      12811
    ]
  },
  "100012": {
    "GKOGJPDANCE": 100012,
    "NFPAICKGMBC": [
      12012,
      12112,
      12212,
      12312,
      12412,
      12512,
      12612,
      12712,
      12812
    ]
  },
  "100013": {
    "GKOGJPDANCE": 100013,
    "NFPAICKGMBC": [
      12013,
      12113,
      12213,
      12313,
      12413,
      12513,
      12613,
      12713,
      12813
    ]
  },
  "100014": {
    "GKOGJPDANCE": 100014,
    "NFPAICKGMBC": [
      100011,
      100012,
      100013
    ]
  },
  "100110": {
    "GKOGJPDANCE": 100110,
    "NFPAICKGMBC": [
      100111,
      100112,
      100113
    ]
  },
  "100120": {
    "GKOGJPDANCE": 100120,
    "NFPAICKGMBC": [
      100121,
      100122,
      100123
    ]
  },
  "100210": {
    "GKOGJPDANCE": 100210,
    "NFPAICKGMBC": [
      100211,
      100212,
      100213
    ]
  },
  "100220": {
    "GKOGJPDANCE": 100220,
    "NFPAICKGMBC": [
      100221,
      100222,
      100223
    ]
  },
  "100230": {
    "GKOGJPDANCE": 100230,
    "NFPAICKGMBC": [
      100231,
      100232,
      100233
    ]
  },
  "100240": {
    "GKOGJPDANCE": 100240,
    "NFPAICKGMBC": [
      100241,
      100242,
      100243
    ]
  },
  "100310": {
    "GKOGJPDANCE": 100310,
    "NFPAICKGMBC": [
      100311,
      100312,
      100313
    ]
  },
  "100320": {
    "GKOGJPDANCE": 100320,
    "NFPAICKGMBC": [
      100321,
      100322,
      100323
    ]
  },
  "100410": {
    "GKOGJPDANCE": 100410,
    "NFPAICKGMBC": [
      100411,
      100412,
      100413
    ]
  },
  "100420": {
    "GKOGJPDANCE": 100420,
    "NFPAICKGMBC": [
      100421,
      100422,
      100423
    ]
  },
  "100430": {
    "GKOGJPDANCE": 100430,
    "NFPAICKGMBC": [
      100431,
      100432,
      100433
    ]
  },
  "100440": {
    "GKOGJPDANCE": 100440,
    "NFPAICKGMBC": [
      100441,
      100442,
      100443
    ]
  },
  "100450": {
    "GKOGJPDANCE": 100450,
    "NFPAICKGMBC": [
      100451,
      100452,
      100453
    ]
  },
  "100460": {
    "GKOGJPDANCE": 100460,
    "NFPAICKGMBC": [
      100461,
      100462,
      100463
    ]
  },
  "100510": {
    "GKOGJPDANCE": 100510,
    "NFPAICKGMBC": [
      100511,
      100512,
      100513
    ]
  },
  "100520": {
    "GKOGJPDANCE": 100520,
    "NFPAICKGMBC": [
      100521,
      100522,
      100523
    ]
  },
  "100610": {
    "GKOGJPDANCE": 100610,
    "NFPAICKGMBC": [
      100611,
      100612,
      100613
    ]
  },
  "100620": {
    "GKOGJPDANCE": 100620,
    "NFPAICKGMBC": [
      100621,
      100622,
      100623
    ]
  },
  "100810": {
    "GKOGJPDANCE": 100810,
    "NFPAICKGMBC": [
      100812,
      100813
    ]
  },
  "100111": {
    "GKOGJPDANCE": 100111,
    "NFPAICKGMBC": [
      100001
    ]
  },
  "100112": {
    "GKOGJPDANCE": 100112,
    "NFPAICKGMBC": [
      100002
    ]
  },
  "100113": {
    "GKOGJPDANCE": 100113,
    "NFPAICKGMBC": [
      100003
    ]
  },
  "100121": {
    "GKOGJPDANCE": 100121,
    "NFPAICKGMBC": [
      100001
    ]
  },
  "100122": {
    "GKOGJPDANCE": 100122,
    "NFPAICKGMBC": [
      100002
    ]
  },
  "100123": {
    "GKOGJPDANCE": 100123,
    "NFPAICKGMBC": [
      100003
    ]
  },
  "100211": {
    "GKOGJPDANCE": 100211,
    "NFPAICKGMBC": [
      100001
    ]
  },
  "100212": {
    "GKOGJPDANCE": 100212,
    "NFPAICKGMBC": [
      100002
    ]
  },
  "100213": {
    "GKOGJPDANCE": 100213,
    "NFPAICKGMBC": [
      100003
    ]
  },
  "100221": {
    "GKOGJPDANCE": 100221,
    "NFPAICKGMBC": [
      100001
    ]
  },
  "100222": {
    "GKOGJPDANCE": 100222,
    "NFPAICKGMBC": [
      100002
    ]
  },
  "100223": {
    "GKOGJPDANCE": 100223,
    "NFPAICKGMBC": [
      100003
    ]
  },
  "100231": {
    "GKOGJPDANCE": 100231,
    "NFPAICKGMBC": [
      100011
    ]
  },
  "100232": {
    "GKOGJPDANCE": 100232,
    "NFPAICKGMBC": [
      100012
    ]
  },
  "100233": {
    "GKOGJPDANCE": 100233,
    "NFPAICKGMBC": [
      100013
    ]
  },
  "100241": {
    "GKOGJPDANCE": 100241,
    "NFPAICKGMBC": [
      100011
    ]
  },
  "100242": {
    "GKOGJPDANCE": 100242,
    "NFPAICKGMBC": [
      100012
    ]
  },
  "100243": {
    "GKOGJPDANCE": 100243,
    "NFPAICKGMBC": [
      100013
    ]
  },
  "100311": {
    "GKOGJPDANCE": 100311,
    "NFPAICKGMBC": [
      100001
    ]
  },
  "100312": {
    "GKOGJPDANCE": 100312,
    "NFPAICKGMBC": [
      100002
    ]
  },
  "100313": {
    "GKOGJPDANCE": 100313,
    "NFPAICKGMBC": [
      100003
    ]
  },
  "100321": {
    "GKOGJPDANCE": 100321,
    "NFPAICKGMBC": [
      100001
    ]
  },
  "100322": {
    "GKOGJPDANCE": 100322,
    "NFPAICKGMBC": [
      100002
    ]
  },
  "100323": {
    "GKOGJPDANCE": 100323,
    "NFPAICKGMBC": [
      100003
    ]
  },
  "100411": {
    "GKOGJPDANCE": 100411,
    "NFPAICKGMBC": [
      100001
    ]
  },
  "100412": {
    "GKOGJPDANCE": 100412,
    "NFPAICKGMBC": [
      100002
    ]
  },
  "100413": {
    "GKOGJPDANCE": 100413,
    "NFPAICKGMBC": [
      100003
    ]
  },
  "100421": {
    "GKOGJPDANCE": 100421,
    "NFPAICKGMBC": [
      100001
    ]
  },
  "100422": {
    "GKOGJPDANCE": 100422,
    "NFPAICKGMBC": [
      100002
    ]
  },
  "100423": {
    "GKOGJPDANCE": 100423,
    "NFPAICKGMBC": [
      100003
    ]
  },
  "100431": {
    "GKOGJPDANCE": 100431,
    "NFPAICKGMBC": [
      100001
    ]
  },
  "100432": {
    "GKOGJPDANCE": 100432,
    "NFPAICKGMBC": [
      100002
    ]
  },
  "100433": {
    "GKOGJPDANCE": 100433,
    "NFPAICKGMBC": [
      100003
    ]
  },
  "100441": {
    "GKOGJPDANCE": 100441,
    "NFPAICKGMBC": [
      100011
    ]
  },
  "100442": {
    "GKOGJPDANCE": 100442,
    "NFPAICKGMBC": [
      100012
    ]
  },
  "100443": {
    "GKOGJPDANCE": 100443,
    "NFPAICKGMBC": [
      100013
    ]
  },
  "100451": {
    "GKOGJPDANCE": 100451,
    "NFPAICKGMBC": [
      100011
    ]
  },
  "100452": {
    "GKOGJPDANCE": 100452,
    "NFPAICKGMBC": [
      100012
    ]
  },
  "100453": {
    "GKOGJPDANCE": 100453,
    "NFPAICKGMBC": [
      100013
    ]
  },
  "100461": {
    "GKOGJPDANCE": 100461,
    "NFPAICKGMBC": [
      100011
    ]
  },
  "100462": {
    "GKOGJPDANCE": 100462,
    "NFPAICKGMBC": [
      100012
    ]
  },
  "100463": {
    "GKOGJPDANCE": 100463,
    "NFPAICKGMBC": [
      100013
    ]
  },
  "100511": {
    "GKOGJPDANCE": 100511,
    "NFPAICKGMBC": [
      100001
    ]
  },
  "100512": {
    "GKOGJPDANCE": 100512,
    "NFPAICKGMBC": [
      100002
    ]
  },
  "100513": {
    "GKOGJPDANCE": 100513,
    "NFPAICKGMBC": [
      100003
    ]
  },
  "100521": {
    "GKOGJPDANCE": 100521,
    "NFPAICKGMBC": [
      100001
    ]
  },
  "100522": {
    "GKOGJPDANCE": 100522,
    "NFPAICKGMBC": [
      100002
    ]
  },
  "100523": {
    "GKOGJPDANCE": 100523,
    "NFPAICKGMBC": [
      100003
    ]
  },
  "100611": {
    "GKOGJPDANCE": 100611,
    "NFPAICKGMBC": [
      100001
    ]
  },
  "100612": {
    "GKOGJPDANCE": 100612,
    "NFPAICKGMBC": [
      100002
    ]
  },
  "100613": {
    "GKOGJPDANCE": 100613,
    "NFPAICKGMBC": [
      100003
    ]
  },
  "100621": {
    "GKOGJPDANCE": 100621,
    "NFPAICKGMBC": [
      100001
    ]
  },
  "100622": {
    "GKOGJPDANCE": 100622,
    "NFPAICKGMBC": [
      100002
    ]
  },
  "100623": {
    "GKOGJPDANCE": 100623,
    "NFPAICKGMBC": [
      100003
    ]
  },
  "100812": {
    "GKOGJPDANCE": 100812,
    "NFPAICKGMBC": [
      100006
    ]
  },
  "100813": {
    "GKOGJPDANCE": 100813,
    "NFPAICKGMBC": [
      100007
    ]
  },
  "101000": {
    "GKOGJPDANCE": 101000,
    "NFPAICKGMBC": [
      101001,
      101002,
      101003
    ]
  },
  "101001": {
    "GKOGJPDANCE": 101001,
    "NFPAICKGMBC": [
      100001
    ]
  },
  "101002": {
    "GKOGJPDANCE": 101002,
    "NFPAICKGMBC": [
      100002
    ]
  },
  "101003": {
    "GKOGJPDANCE": 101003,
    "NFPAICKGMBC": [
      100003
    ]
  },
  "101010": {
    "GKOGJPDANCE": 101010,
    "NFPAICKGMBC": [
      101011,
      101012,
      101013
    ]
  },
  "101011": {
    "GKOGJPDANCE": 101011,
    "NFPAICKGMBC": [
      100001
    ]
  },
  "101012": {
    "GKOGJPDANCE": 101012,
    "NFPAICKGMBC": [
      100002
    ]
  },
  "101013": {
    "GKOGJPDANCE": 101013,
    "NFPAICKGMBC": [
      100003
    ]
  },
  "200001": {
    "GKOGJPDANCE": 200001,
    "NFPAICKGMBC": [
      12001,
      12101,
      12201,
      12301,
      12401,
      12501,
      12601,
      12701
    ]
  },
  "200002": {
    "GKOGJPDANCE": 200002,
    "NFPAICKGMBC": [
      12002,
      12102,
      12202,
      12302,
      12402,
      12502,
      12602,
      12702
    ]
  },
  "200003": {
    "GKOGJPDANCE": 200003,
    "NFPAICKGMBC": [
      12003,
      12103,
      12203,
      12303,
      12403,
      12503,
      12603,
      12703
    ]
  },
  "200004": {
    "GKOGJPDANCE": 200004,
    "NFPAICKGMBC": [
      200001,
      200002,
      200003
    ]
  },
  "200005": {
    "GKOGJPDANCE": 200005,
    "NFPAICKGMBC": [
      200001,
      200002
    ]
  },
  "200006": {
    "GKOGJPDANCE": 200006,
    "NFPAICKGMBC": [
      12005,
      12105,
      12205,
      12305,
      12405,
      12505,
      12605,
      12705
    ]
  },
  "200007": {
    "GKOGJPDANCE": 200007,
    "NFPAICKGMBC": [
      12004,
      12104,
      12204,
      12304,
      12404,
      12504,
      12604,
      12704
    ]
  },
  "200008": {
    "GKOGJPDANCE": 200008,
    "NFPAICKGMBC": [
      200003,
      200006
    ]
  },
  "200009": {
    "GKOGJPDANCE": 200009,
    "NFPAICKGMBC": [
      12006,
      12106,
      12206,
      12306,
      12406,
      12506,
      12606,
      12706
    ]
  },
  "200011": {
    "GKOGJPDANCE": 200011,
    "NFPAICKGMBC": [
      12011,
      12111,
      12211,
      12311,
      12411,
      12511,
      12611,
      12711
    ]
  },
  "200012": {
    "GKOGJPDANCE": 200012,
    "NFPAICKGMBC": [
      12012,
      12112,
      12212,
      12312,
      12412,
      12512,
      12612,
      12712
    ]
  },
  "200013": {
    "GKOGJPDANCE": 200013,
    "NFPAICKGMBC": [
      12013,
      12113,
      12213,
      12313,
      12413,
      12513,
      12613,
      12713
    ]
  },
  "200014": {
    "GKOGJPDANCE": 200014,
    "NFPAICKGMBC": [
      200011,
      200012,
      200013
    ]
  },
  "200021": {
    "GKOGJPDANCE": 200021,
    "NFPAICKGMBC": [
      12001,
      12101,
      12201,
      12301,
      12401,
      12501,
      12601
    ]
  },
  "200022": {
    "GKOGJPDANCE": 200022,
    "NFPAICKGMBC": [
      12002,
      12102,
      12202,
      12302,
      12402,
      12502,
      12602
    ]
  },
  "200023": {
    "GKOGJPDANCE": 200023,
    "NFPAICKGMBC": [
      12003,
      12103,
      12203,
      12303,
      12403,
      12503,
      12603
    ]
  },
  "200031": {
    "GKOGJPDANCE": 200031,
    "NFPAICKGMBC": [
      12011,
      12111,
      12211,
      12311,
      12411,
      12511,
      12611
    ]
  },
  "200032": {
    "GKOGJPDANCE": 200032,
    "NFPAICKGMBC": [
      12012,
      12112,
      12212,
      12312,
      12412,
      12512,
      12612
    ]
  },
  "200033": {
    "GKOGJPDANCE": 200033,
    "NFPAICKGMBC": [
      12013,
      12113,
      12213,
      12313,
      12413,
      12513,
      12613
    ]
  },
  "200110": {
    "GKOGJPDANCE": 200110,
    "NFPAICKGMBC": [
      200111,
      200112,
      200113
    ]
  },
  "200120": {
    "GKOGJPDANCE": 200120,
    "NFPAICKGMBC": [
      200121,
      200122,
      200123
    ]
  },
  "200210": {
    "GKOGJPDANCE": 200210,
    "NFPAICKGMBC": [
      200211,
      200212,
      200213
    ]
  },
  "200220": {
    "GKOGJPDANCE": 200220,
    "NFPAICKGMBC": [
      200221,
      200222,
      200223
    ]
  },
  "200230": {
    "GKOGJPDANCE": 200230,
    "NFPAICKGMBC": [
      200231,
      200232,
      200233
    ]
  },
  "200240": {
    "GKOGJPDANCE": 200240,
    "NFPAICKGMBC": [
      200241,
      200242,
      200243
    ]
  },
  "200310": {
    "GKOGJPDANCE": 200310,
    "NFPAICKGMBC": [
      200311,
      200312,
      200313
    ]
  },
  "200320": {
    "GKOGJPDANCE": 200320,
    "NFPAICKGMBC": [
      200321,
      200322,
      200323
    ]
  },
  "200410": {
    "GKOGJPDANCE": 200410,
    "NFPAICKGMBC": [
      200411,
      200412,
      200413
    ]
  },
  "200420": {
    "GKOGJPDANCE": 200420,
    "NFPAICKGMBC": [
      200421,
      200422,
      200423
    ]
  },
  "200430": {
    "GKOGJPDANCE": 200430,
    "NFPAICKGMBC": [
      200431,
      200432,
      200433
    ]
  },
  "200440": {
    "GKOGJPDANCE": 200440,
    "NFPAICKGMBC": [
      200441,
      200442,
      200443
    ]
  },
  "200450": {
    "GKOGJPDANCE": 200450,
    "NFPAICKGMBC": [
      200451,
      200452,
      200453
    ]
  },
  "200460": {
    "GKOGJPDANCE": 200460,
    "NFPAICKGMBC": [
      200461,
      200462,
      200463
    ]
  },
  "200510": {
    "GKOGJPDANCE": 200510,
    "NFPAICKGMBC": [
      200511,
      200512,
      200513
    ]
  },
  "200520": {
    "GKOGJPDANCE": 200520,
    "NFPAICKGMBC": [
      200521,
      200522,
      200523
    ]
  },
  "200530": {
    "GKOGJPDANCE": 200530,
    "NFPAICKGMBC": [
      200531,
      200532,
      200533
    ]
  },
  "200540": {
    "GKOGJPDANCE": 200540,
    "NFPAICKGMBC": [
      200541,
      200542,
      200543
    ]
  },
  "200550": {
    "GKOGJPDANCE": 200550,
    "NFPAICKGMBC": [
      200551,
      200552,
      200553
    ]
  },
  "200560": {
    "GKOGJPDANCE": 200560,
    "NFPAICKGMBC": [
      200561,
      200562,
      200563
    ]
  },
  "200610": {
    "GKOGJPDANCE": 200610,
    "NFPAICKGMBC": [
      200611,
      200612,
      200613
    ]
  },
  "200620": {
    "GKOGJPDANCE": 200620,
    "NFPAICKGMBC": [
      200621,
      200622,
      200623
    ]
  },
  "200630": {
    "GKOGJPDANCE": 200630,
    "NFPAICKGMBC": [
      200631,
      200632,
      200633
    ]
  },
  "200720": {
    "GKOGJPDANCE": 200720,
    "NFPAICKGMBC": [
      200721,
      200722,
      200723
    ]
  },
  "200810": {
    "GKOGJPDANCE": 200810,
    "NFPAICKGMBC": [
      200812,
      200813
    ]
  },
  "200111": {
    "GKOGJPDANCE": 200111,
    "NFPAICKGMBC": [
      200021
    ]
  },
  "200112": {
    "GKOGJPDANCE": 200112,
    "NFPAICKGMBC": [
      200022
    ]
  },
  "200113": {
    "GKOGJPDANCE": 200113,
    "NFPAICKGMBC": [
      200023
    ]
  },
  "200121": {
    "GKOGJPDANCE": 200121,
    "NFPAICKGMBC": [
      200021
    ]
  },
  "200122": {
    "GKOGJPDANCE": 200122,
    "NFPAICKGMBC": [
      200022
    ]
  },
  "200123": {
    "GKOGJPDANCE": 200123,
    "NFPAICKGMBC": [
      200023
    ]
  },
  "200211": {
    "GKOGJPDANCE": 200211,
    "NFPAICKGMBC": [
      200021
    ]
  },
  "200212": {
    "GKOGJPDANCE": 200212,
    "NFPAICKGMBC": [
      200022
    ]
  },
  "200213": {
    "GKOGJPDANCE": 200213,
    "NFPAICKGMBC": [
      200023
    ]
  },
  "200221": {
    "GKOGJPDANCE": 200221,
    "NFPAICKGMBC": [
      200021
    ]
  },
  "200222": {
    "GKOGJPDANCE": 200222,
    "NFPAICKGMBC": [
      200022
    ]
  },
  "200223": {
    "GKOGJPDANCE": 200223,
    "NFPAICKGMBC": [
      200023
    ]
  },
  "200231": {
    "GKOGJPDANCE": 200231,
    "NFPAICKGMBC": [
      200031
    ]
  },
  "200232": {
    "GKOGJPDANCE": 200232,
    "NFPAICKGMBC": [
      200032
    ]
  },
  "200233": {
    "GKOGJPDANCE": 200233,
    "NFPAICKGMBC": [
      200033
    ]
  },
  "200241": {
    "GKOGJPDANCE": 200241,
    "NFPAICKGMBC": [
      200031
    ]
  },
  "200242": {
    "GKOGJPDANCE": 200242,
    "NFPAICKGMBC": [
      200032
    ]
  },
  "200243": {
    "GKOGJPDANCE": 200243,
    "NFPAICKGMBC": [
      200033
    ]
  },
  "200311": {
    "GKOGJPDANCE": 200311,
    "NFPAICKGMBC": [
      200001
    ]
  },
  "200312": {
    "GKOGJPDANCE": 200312,
    "NFPAICKGMBC": [
      200002
    ]
  },
  "200313": {
    "GKOGJPDANCE": 200313,
    "NFPAICKGMBC": [
      200003
    ]
  },
  "200321": {
    "GKOGJPDANCE": 200321,
    "NFPAICKGMBC": [
      200001
    ]
  },
  "200322": {
    "GKOGJPDANCE": 200322,
    "NFPAICKGMBC": [
      200002
    ]
  },
  "200323": {
    "GKOGJPDANCE": 200323,
    "NFPAICKGMBC": [
      200003
    ]
  },
  "200411": {
    "GKOGJPDANCE": 200411,
    "NFPAICKGMBC": [
      200021
    ]
  },
  "200412": {
    "GKOGJPDANCE": 200412,
    "NFPAICKGMBC": [
      200022
    ]
  },
  "200413": {
    "GKOGJPDANCE": 200413,
    "NFPAICKGMBC": [
      200023
    ]
  },
  "200421": {
    "GKOGJPDANCE": 200421,
    "NFPAICKGMBC": [
      200021
    ]
  },
  "200422": {
    "GKOGJPDANCE": 200422,
    "NFPAICKGMBC": [
      200022
    ]
  },
  "200423": {
    "GKOGJPDANCE": 200423,
    "NFPAICKGMBC": [
      200023
    ]
  },
  "200431": {
    "GKOGJPDANCE": 200431,
    "NFPAICKGMBC": [
      200021
    ]
  },
  "200432": {
    "GKOGJPDANCE": 200432,
    "NFPAICKGMBC": [
      200022
    ]
  },
  "200433": {
    "GKOGJPDANCE": 200433,
    "NFPAICKGMBC": [
      200023
    ]
  },
  "200441": {
    "GKOGJPDANCE": 200441,
    "NFPAICKGMBC": [
      200031
    ]
  },
  "200442": {
    "GKOGJPDANCE": 200442,
    "NFPAICKGMBC": [
      200032
    ]
  },
  "200443": {
    "GKOGJPDANCE": 200443,
    "NFPAICKGMBC": [
      200033
    ]
  },
  "200451": {
    "GKOGJPDANCE": 200451,
    "NFPAICKGMBC": [
      200031
    ]
  },
  "200452": {
    "GKOGJPDANCE": 200452,
    "NFPAICKGMBC": [
      200032
    ]
  },
  "200453": {
    "GKOGJPDANCE": 200453,
    "NFPAICKGMBC": [
      200033
    ]
  },
  "200461": {
    "GKOGJPDANCE": 200461,
    "NFPAICKGMBC": [
      200031
    ]
  },
  "200462": {
    "GKOGJPDANCE": 200462,
    "NFPAICKGMBC": [
      200032
    ]
  },
  "200463": {
    "GKOGJPDANCE": 200463,
    "NFPAICKGMBC": [
      200033
    ]
  },
  "200511": {
    "GKOGJPDANCE": 200511,
    "NFPAICKGMBC": [
      200001
    ]
  },
  "200512": {
    "GKOGJPDANCE": 200512,
    "NFPAICKGMBC": [
      200002
    ]
  },
  "200513": {
    "GKOGJPDANCE": 200513,
    "NFPAICKGMBC": [
      200003
    ]
  },
  "200521": {
    "GKOGJPDANCE": 200521,
    "NFPAICKGMBC": [
      200001
    ]
  },
  "200522": {
    "GKOGJPDANCE": 200522,
    "NFPAICKGMBC": [
      200002
    ]
  },
  "200523": {
    "GKOGJPDANCE": 200523,
    "NFPAICKGMBC": [
      200003
    ]
  },
  "200531": {
    "GKOGJPDANCE": 200531,
    "NFPAICKGMBC": [
      200001
    ]
  },
  "200532": {
    "GKOGJPDANCE": 200532,
    "NFPAICKGMBC": [
      200002
    ]
  },
  "200533": {
    "GKOGJPDANCE": 200533,
    "NFPAICKGMBC": [
      200003
    ]
  },
  "200541": {
    "GKOGJPDANCE": 200541,
    "NFPAICKGMBC": [
      200011
    ]
  },
  "200542": {
    "GKOGJPDANCE": 200542,
    "NFPAICKGMBC": [
      200012
    ]
  },
  "200543": {
    "GKOGJPDANCE": 200543,
    "NFPAICKGMBC": [
      200013
    ]
  },
  "200551": {
    "GKOGJPDANCE": 200551,
    "NFPAICKGMBC": [
      200011
    ]
  },
  "200552": {
    "GKOGJPDANCE": 200552,
    "NFPAICKGMBC": [
      200012
    ]
  },
  "200553": {
    "GKOGJPDANCE": 200553,
    "NFPAICKGMBC": [
      200013
    ]
  },
  "200561": {
    "GKOGJPDANCE": 200561,
    "NFPAICKGMBC": [
      200011
    ]
  },
  "200562": {
    "GKOGJPDANCE": 200562,
    "NFPAICKGMBC": [
      200012
    ]
  },
  "200563": {
    "GKOGJPDANCE": 200563,
    "NFPAICKGMBC": [
      200013
    ]
  },
  "200611": {
    "GKOGJPDANCE": 200611,
    "NFPAICKGMBC": [
      200021
    ]
  },
  "200612": {
    "GKOGJPDANCE": 200612,
    "NFPAICKGMBC": [
      200022
    ]
  },
  "200613": {
    "GKOGJPDANCE": 200613,
    "NFPAICKGMBC": [
      200023
    ]
  },
  "200621": {
    "GKOGJPDANCE": 200621,
    "NFPAICKGMBC": [
      200021
    ]
  },
  "200622": {
    "GKOGJPDANCE": 200622,
    "NFPAICKGMBC": [
      200022
    ]
  },
  "200623": {
    "GKOGJPDANCE": 200623,
    "NFPAICKGMBC": [
      200023
    ]
  },
  "200631": {
    "GKOGJPDANCE": 200631,
    "NFPAICKGMBC": [
      200021
    ]
  },
  "200632": {
    "GKOGJPDANCE": 200632,
    "NFPAICKGMBC": [
      200022
    ]
  },
  "200633": {
    "GKOGJPDANCE": 200633,
    "NFPAICKGMBC": [
      200023
    ]
  },
  "200721": {
    "GKOGJPDANCE": 200721,
    "NFPAICKGMBC": [
      200021
    ]
  },
  "200722": {
    "GKOGJPDANCE": 200722,
    "NFPAICKGMBC": [
      200022
    ]
  },
  "200723": {
    "GKOGJPDANCE": 200723,
    "NFPAICKGMBC": [
      200023
    ]
  },
  "200812": {
    "GKOGJPDANCE": 200812,
    "NFPAICKGMBC": [
      200006
    ]
  },
  "200813": {
    "GKOGJPDANCE": 200813,
    "NFPAICKGMBC": [
      200007
    ]
  },
  "201000": {
    "GKOGJPDANCE": 201000,
    "NFPAICKGMBC": [
      201001,
      201002,
      201003
    ]
  },
  "201001": {
    "GKOGJPDANCE": 201001,
    "NFPAICKGMBC": [
      200001
    ]
  },
  "201002": {
    "GKOGJPDANCE": 201002,
    "NFPAICKGMBC": [
      200002
    ]
  },
  "201003": {
    "GKOGJPDANCE": 201003,
    "NFPAICKGMBC": [
      200003
    ]
  },
  "201010": {
    "GKOGJPDANCE": 201010,
    "NFPAICKGMBC": [
      201011,
      201012,
      201013
    ]
  },
  "201011": {
    "GKOGJPDANCE": 201011,
    "NFPAICKGMBC": [
      200001
    ]
  },
  "201012": {
    "GKOGJPDANCE": 201012,
    "NFPAICKGMBC": [
      200002
    ]
  },
  "201013": {
    "GKOGJPDANCE": 201013,
    "NFPAICKGMBC": [
      200003
    ]
  },
  "210000": {
    "GKOGJPDANCE": 210000,
    "NFPAICKGMBC": [
      2000101,
      2000201,
      2000301,
      2000401,
      2000501,
      2000601,
      2000701,
      2000801
    ]
  },
  "210001": {
    "GKOGJPDANCE": 210001,
    "NFPAICKGMBC": [
      210000
    ]
  },
  "300001": {
    "GKOGJPDANCE": 300001,
    "NFPAICKGMBC": [
      12001,
      12101,
      12201,
      12301,
      12401,
      12501,
      12601,
      12701,
      12801
    ]
  },
  "300002": {
    "GKOGJPDANCE": 300002,
    "NFPAICKGMBC": [
      12002,
      12102,
      12202,
      12302,
      12402,
      12502,
      12602,
      12702,
      12802
    ]
  },
  "300003": {
    "GKOGJPDANCE": 300003,
    "NFPAICKGMBC": [
      12003,
      12103,
      12203,
      12303,
      12403,
      12503,
      12603,
      12703,
      12803
    ]
  },
  "300004": {
    "GKOGJPDANCE": 300004,
    "NFPAICKGMBC": [
      300001,
      300002,
      300003
    ]
  },
  "300005": {
    "GKOGJPDANCE": 300005,
    "NFPAICKGMBC": [
      300001,
      300002
    ]
  },
  "300006": {
    "GKOGJPDANCE": 300006,
    "NFPAICKGMBC": [
      12005,
      12105,
      12205,
      12305,
      12405,
      12505,
      12605,
      12705,
      12805
    ]
  },
  "300007": {
    "GKOGJPDANCE": 300007,
    "NFPAICKGMBC": [
      12004,
      12104,
      12204,
      12304,
      12404,
      12504,
      12604,
      12704,
      12804
    ]
  },
  "300008": {
    "GKOGJPDANCE": 300008,
    "NFPAICKGMBC": [
      300003,
      300006
    ]
  },
  "300009": {
    "GKOGJPDANCE": 300009,
    "NFPAICKGMBC": [
      12006,
      12106,
      12206,
      12306,
      12406,
      12506,
      12606,
      12706,
      12806
    ]
  },
  "300011": {
    "GKOGJPDANCE": 300011,
    "NFPAICKGMBC": [
      12011,
      12111,
      12211,
      12311,
      12411,
      12511,
      12611,
      12711,
      12811
    ]
  },
  "300012": {
    "GKOGJPDANCE": 300012,
    "NFPAICKGMBC": [
      12012,
      12112,
      12212,
      12312,
      12412,
      12512,
      12612,
      12712,
      12812
    ]
  },
  "300013": {
    "GKOGJPDANCE": 300013,
    "NFPAICKGMBC": [
      12013,
      12113,
      12213,
      12313,
      12413,
      12513,
      12613,
      12713,
      12813
    ]
  },
  "300014": {
    "GKOGJPDANCE": 300014,
    "NFPAICKGMBC": [
      300011,
      300012,
      300013
    ]
  },
  "300110": {
    "GKOGJPDANCE": 300110,
    "NFPAICKGMBC": [
      300111,
      300112,
      300113
    ]
  },
  "300120": {
    "GKOGJPDANCE": 300120,
    "NFPAICKGMBC": [
      300121,
      300122,
      300123
    ]
  },
  "300210": {
    "GKOGJPDANCE": 300210,
    "NFPAICKGMBC": [
      300211,
      300212,
      300213
    ]
  },
  "300220": {
    "GKOGJPDANCE": 300220,
    "NFPAICKGMBC": [
      300221,
      300222,
      300223
    ]
  },
  "300230": {
    "GKOGJPDANCE": 300230,
    "NFPAICKGMBC": [
      300231,
      300232,
      300233
    ]
  },
  "300240": {
    "GKOGJPDANCE": 300240,
    "NFPAICKGMBC": [
      300241,
      300242,
      300243
    ]
  },
  "300310": {
    "GKOGJPDANCE": 300310,
    "NFPAICKGMBC": [
      300311,
      300312,
      300313
    ]
  },
  "300320": {
    "GKOGJPDANCE": 300320,
    "NFPAICKGMBC": [
      300321,
      300322,
      300323
    ]
  },
  "300410": {
    "GKOGJPDANCE": 300410,
    "NFPAICKGMBC": [
      300411,
      300412,
      300413
    ]
  },
  "300420": {
    "GKOGJPDANCE": 300420,
    "NFPAICKGMBC": [
      300421,
      300422,
      300423
    ]
  },
  "300430": {
    "GKOGJPDANCE": 300430,
    "NFPAICKGMBC": [
      300431,
      300432,
      300433
    ]
  },
  "300440": {
    "GKOGJPDANCE": 300440,
    "NFPAICKGMBC": [
      300441,
      300442,
      300443
    ]
  },
  "300450": {
    "GKOGJPDANCE": 300450,
    "NFPAICKGMBC": [
      300451,
      300452,
      300453
    ]
  },
  "300460": {
    "GKOGJPDANCE": 300460,
    "NFPAICKGMBC": [
      300461,
      300462,
      300463
    ]
  },
  "300510": {
    "GKOGJPDANCE": 300510,
    "NFPAICKGMBC": [
      300511,
      300512,
      300513
    ]
  },
  "300520": {
    "GKOGJPDANCE": 300520,
    "NFPAICKGMBC": [
      300521,
      300522,
      300523
    ]
  },
  "300530": {
    "GKOGJPDANCE": 300530,
    "NFPAICKGMBC": [
      300531,
      300532,
      300533
    ]
  },
  "300540": {
    "GKOGJPDANCE": 300540,
    "NFPAICKGMBC": [
      300541,
      300542,
      300543
    ]
  },
  "300550": {
    "GKOGJPDANCE": 300550,
    "NFPAICKGMBC": [
      300551,
      300552,
      300553
    ]
  },
  "300560": {
    "GKOGJPDANCE": 300560,
    "NFPAICKGMBC": [
      300561,
      300562,
      300563
    ]
  },
  "300610": {
    "GKOGJPDANCE": 300610,
    "NFPAICKGMBC": [
      300611,
      300612,
      300613
    ]
  },
  "300620": {
    "GKOGJPDANCE": 300620,
    "NFPAICKGMBC": [
      300621,
      300622,
      300623
    ]
  },
  "300630": {
    "GKOGJPDANCE": 300630,
    "NFPAICKGMBC": [
      300631,
      300632,
      300633
    ]
  },
  "300720": {
    "GKOGJPDANCE": 300720,
    "NFPAICKGMBC": [
      300721,
      300722,
      300723
    ]
  },
  "300810": {
    "GKOGJPDANCE": 300810,
    "NFPAICKGMBC": [
      300812,
      300813
    ]
  },
  "300920": {
    "GKOGJPDANCE": 300920,
    "NFPAICKGMBC": [
      300921,
      300922,
      300923
    ]
  },
  "300111": {
    "GKOGJPDANCE": 300111,
    "NFPAICKGMBC": [
      300001
    ]
  },
  "300112": {
    "GKOGJPDANCE": 300112,
    "NFPAICKGMBC": [
      300002
    ]
  },
  "300113": {
    "GKOGJPDANCE": 300113,
    "NFPAICKGMBC": [
      300003
    ]
  },
  "300121": {
    "GKOGJPDANCE": 300121,
    "NFPAICKGMBC": [
      300001
    ]
  },
  "300122": {
    "GKOGJPDANCE": 300122,
    "NFPAICKGMBC": [
      300002
    ]
  },
  "300123": {
    "GKOGJPDANCE": 300123,
    "NFPAICKGMBC": [
      300003
    ]
  },
  "300211": {
    "GKOGJPDANCE": 300211,
    "NFPAICKGMBC": [
      300001
    ]
  },
  "300212": {
    "GKOGJPDANCE": 300212,
    "NFPAICKGMBC": [
      300002
    ]
  },
  "300213": {
    "GKOGJPDANCE": 300213,
    "NFPAICKGMBC": [
      300003
    ]
  },
  "300221": {
    "GKOGJPDANCE": 300221,
    "NFPAICKGMBC": [
      300001
    ]
  },
  "300222": {
    "GKOGJPDANCE": 300222,
    "NFPAICKGMBC": [
      300002
    ]
  },
  "300223": {
    "GKOGJPDANCE": 300223,
    "NFPAICKGMBC": [
      300003
    ]
  },
  "300231": {
    "GKOGJPDANCE": 300231,
    "NFPAICKGMBC": [
      300011
    ]
  },
  "300232": {
    "GKOGJPDANCE": 300232,
    "NFPAICKGMBC": [
      300012
    ]
  },
  "300233": {
    "GKOGJPDANCE": 300233,
    "NFPAICKGMBC": [
      300013
    ]
  },
  "300241": {
    "GKOGJPDANCE": 300241,
    "NFPAICKGMBC": [
      300011
    ]
  },
  "300242": {
    "GKOGJPDANCE": 300242,
    "NFPAICKGMBC": [
      300012
    ]
  },
  "300243": {
    "GKOGJPDANCE": 300243,
    "NFPAICKGMBC": [
      300013
    ]
  },
  "300311": {
    "GKOGJPDANCE": 300311,
    "NFPAICKGMBC": [
      300001
    ]
  },
  "300312": {
    "GKOGJPDANCE": 300312,
    "NFPAICKGMBC": [
      300002
    ]
  },
  "300313": {
    "GKOGJPDANCE": 300313,
    "NFPAICKGMBC": [
      300003
    ]
  },
  "300321": {
    "GKOGJPDANCE": 300321,
    "NFPAICKGMBC": [
      300001
    ]
  },
  "300322": {
    "GKOGJPDANCE": 300322,
    "NFPAICKGMBC": [
      300002
    ]
  },
  "300323": {
    "GKOGJPDANCE": 300323,
    "NFPAICKGMBC": [
      300003
    ]
  },
  "300411": {
    "GKOGJPDANCE": 300411,
    "NFPAICKGMBC": [
      300001
    ]
  },
  "300412": {
    "GKOGJPDANCE": 300412,
    "NFPAICKGMBC": [
      300002
    ]
  },
  "300413": {
    "GKOGJPDANCE": 300413,
    "NFPAICKGMBC": [
      300003
    ]
  },
  "300421": {
    "GKOGJPDANCE": 300421,
    "NFPAICKGMBC": [
      300001
    ]
  },
  "300422": {
    "GKOGJPDANCE": 300422,
    "NFPAICKGMBC": [
      300002
    ]
  },
  "300423": {
    "GKOGJPDANCE": 300423,
    "NFPAICKGMBC": [
      300003
    ]
  },
  "300431": {
    "GKOGJPDANCE": 300431,
    "NFPAICKGMBC": [
      300001
    ]
  },
  "300432": {
    "GKOGJPDANCE": 300432,
    "NFPAICKGMBC": [
      300002
    ]
  },
  "300433": {
    "GKOGJPDANCE": 300433,
    "NFPAICKGMBC": [
      300003
    ]
  },
  "300441": {
    "GKOGJPDANCE": 300441,
    "NFPAICKGMBC": [
      300011
    ]
  },
  "300442": {
    "GKOGJPDANCE": 300442,
    "NFPAICKGMBC": [
      300012
    ]
  },
  "300443": {
    "GKOGJPDANCE": 300443,
    "NFPAICKGMBC": [
      300013
    ]
  },
  "300451": {
    "GKOGJPDANCE": 300451,
    "NFPAICKGMBC": [
      300011
    ]
  },
  "300452": {
    "GKOGJPDANCE": 300452,
    "NFPAICKGMBC": [
      300012
    ]
  },
  "300453": {
    "GKOGJPDANCE": 300453,
    "NFPAICKGMBC": [
      300013
    ]
  },
  "300461": {
    "GKOGJPDANCE": 300461,
    "NFPAICKGMBC": [
      300011
    ]
  },
  "300462": {
    "GKOGJPDANCE": 300462,
    "NFPAICKGMBC": [
      300012
    ]
  },
  "300463": {
    "GKOGJPDANCE": 300463,
    "NFPAICKGMBC": [
      300013
    ]
  },
  "300511": {
    "GKOGJPDANCE": 300511,
    "NFPAICKGMBC": [
      300001
    ]
  },
  "300512": {
    "GKOGJPDANCE": 300512,
    "NFPAICKGMBC": [
      300002
    ]
  },
  "300513": {
    "GKOGJPDANCE": 300513,
    "NFPAICKGMBC": [
      300003
    ]
  },
  "300521": {
    "GKOGJPDANCE": 300521,
    "NFPAICKGMBC": [
      300001
    ]
  },
  "300522": {
    "GKOGJPDANCE": 300522,
    "NFPAICKGMBC": [
      300002
    ]
  },
  "300523": {
    "GKOGJPDANCE": 300523,
    "NFPAICKGMBC": [
      300003
    ]
  },
  "300531": {
    "GKOGJPDANCE": 300531,
    "NFPAICKGMBC": [
      300001
    ]
  },
  "300532": {
    "GKOGJPDANCE": 300532,
    "NFPAICKGMBC": [
      300002
    ]
  },
  "300533": {
    "GKOGJPDANCE": 300533,
    "NFPAICKGMBC": [
      300003
    ]
  },
  "300541": {
    "GKOGJPDANCE": 300541,
    "NFPAICKGMBC": [
      300011
    ]
  },
  "300542": {
    "GKOGJPDANCE": 300542,
    "NFPAICKGMBC": [
      300012
    ]
  },
  "300543": {
    "GKOGJPDANCE": 300543,
    "NFPAICKGMBC": [
      300013
    ]
  },
  "300551": {
    "GKOGJPDANCE": 300551,
    "NFPAICKGMBC": [
      300011
    ]
  },
  "300552": {
    "GKOGJPDANCE": 300552,
    "NFPAICKGMBC": [
      300012
    ]
  },
  "300553": {
    "GKOGJPDANCE": 300553,
    "NFPAICKGMBC": [
      300013
    ]
  },
  "300561": {
    "GKOGJPDANCE": 300561,
    "NFPAICKGMBC": [
      300011
    ]
  },
  "300562": {
    "GKOGJPDANCE": 300562,
    "NFPAICKGMBC": [
      300012
    ]
  },
  "300563": {
    "GKOGJPDANCE": 300563,
    "NFPAICKGMBC": [
      300013
    ]
  },
  "300611": {
    "GKOGJPDANCE": 300611,
    "NFPAICKGMBC": [
      300001
    ]
  },
  "300612": {
    "GKOGJPDANCE": 300612,
    "NFPAICKGMBC": [
      300002
    ]
  },
  "300613": {
    "GKOGJPDANCE": 300613,
    "NFPAICKGMBC": [
      300003
    ]
  },
  "300621": {
    "GKOGJPDANCE": 300621,
    "NFPAICKGMBC": [
      300001
    ]
  },
  "300622": {
    "GKOGJPDANCE": 300622,
    "NFPAICKGMBC": [
      300002
    ]
  },
  "300623": {
    "GKOGJPDANCE": 300623,
    "NFPAICKGMBC": [
      300003
    ]
  },
  "300631": {
    "GKOGJPDANCE": 300631,
    "NFPAICKGMBC": [
      300001
    ]
  },
  "300632": {
    "GKOGJPDANCE": 300632,
    "NFPAICKGMBC": [
      300002
    ]
  },
  "300633": {
    "GKOGJPDANCE": 300633,
    "NFPAICKGMBC": [
      300003
    ]
  },
  "300721": {
    "GKOGJPDANCE": 300721,
    "NFPAICKGMBC": [
      300001
    ]
  },
  "300722": {
    "GKOGJPDANCE": 300722,
    "NFPAICKGMBC": [
      300002
    ]
  },
  "300723": {
    "GKOGJPDANCE": 300723,
    "NFPAICKGMBC": [
      300003
    ]
  },
  "300812": {
    "GKOGJPDANCE": 300812,
    "NFPAICKGMBC": [
      300006
    ]
  },
  "300813": {
    "GKOGJPDANCE": 300813,
    "NFPAICKGMBC": [
      300007
    ]
  },
  "300921": {
    "GKOGJPDANCE": 300921,
    "NFPAICKGMBC": [
      12001,
      12201,
      12301,
      12401,
      12501,
      12601,
      12701,
      12801
    ]
  },
  "300922": {
    "GKOGJPDANCE": 300922,
    "NFPAICKGMBC": [
      12002,
      12202,
      12302,
      12402,
      12502,
      12602,
      12702,
      12802
    ]
  },
  "300923": {
    "GKOGJPDANCE": 300923,
    "NFPAICKGMBC": [
      12003,
      12203,
      12303,
      12403,
      12503,
      12603,
      12703,
      12803
    ]
  },
  "301000": {
    "GKOGJPDANCE": 301000,
    "NFPAICKGMBC": [
      301001,
      301002,
      301003
    ]
  },
  "301001": {
    "GKOGJPDANCE": 301001,
    "NFPAICKGMBC": [
      300001
    ]
  },
  "301002": {
    "GKOGJPDANCE": 301002,
    "NFPAICKGMBC": [
      300002
    ]
  },
  "301003": {
    "GKOGJPDANCE": 301003,
    "NFPAICKGMBC": [
      300003
    ]
  },
  "301010": {
    "GKOGJPDANCE": 301010,
    "NFPAICKGMBC": [
      301011,
      301012,
      301013
    ]
  },
  "301011": {
    "GKOGJPDANCE": 301011,
    "NFPAICKGMBC": [
      300001
    ]
  },
  "301012": {
    "GKOGJPDANCE": 301012,
    "NFPAICKGMBC": [
      300002
    ]
  },
  "301013": {
    "GKOGJPDANCE": 301013,
    "NFPAICKGMBC": [
      300003
    ]
  },
  "9001": {
    "GKOGJPDANCE": 9001,
    "NFPAICKGMBC": [
      1205302,
      1204402,
      1205102
    ]
  },
  "9002": {
    "GKOGJPDANCE": 9002,
    "NFPAICKGMBC": [
      1205502,
      1203002,
      1205402
    ]
  },
  "9003": {
    "GKOGJPDANCE": 9003,
    "NFPAICKGMBC": [
      1203002,
      1203102,
      1204002,
      1204502
    ]
  },
  "9004": {
    "GKOGJPDANCE": 9004,
    "NFPAICKGMBC": [
      1203002,
      1203102,
      1204002,
      1204502
    ]
  },
  "9101": {
    "GKOGJPDANCE": 9101,
    "NFPAICKGMBC": [
      1213102,
      1214602,
      1215202
    ]
  },
  "9102": {
    "GKOGJPDANCE": 9102,
    "NFPAICKGMBC": [
      1213102,
      1214202,
      1215102,
      1215502
    ]
  },
  "9103": {
    "GKOGJPDANCE": 9103,
    "NFPAICKGMBC": [
      1213202,
      1215602,
      1215702
    ]
  },
  "9104": {
    "GKOGJPDANCE": 9104,
    "NFPAICKGMBC": [
      1264302,
      1265302,
      1265402
    ]
  },
  "9105": {
    "GKOGJPDANCE": 9105,
    "NFPAICKGMBC": [
      1213002,
      1214302,
      1265502
    ]
  },
  "9106": {
    "GKOGJPDANCE": 9106,
    "NFPAICKGMBC": [
      1213002,
      1214002,
      1265602,
      1265702
    ]
  },
  "9200": {
    "GKOGJPDANCE": 9200,
    "NFPAICKGMBC": [
      1265701,
      1204301,
      1214401,
      1215201
    ]
  }
}