{
  "101": {
    "ScoringGroupID": 101,
    "ScoreName": {
      "Hash": 371857150
    },
    "DisplayType": "Normal",
    "ScoringIDList": [
      90001
    ]
  },
  "102": {
    "ScoringGroupID": 102,
    "ScoreName": {
      "Hash": -749092482
    },
    "DisplayType": "Normal",
    "ScoringIDList": [
      80002,
      80003
    ]
  },
  "201": {
    "ScoringGroupID": 201,
    "ScoreName": {
      "Hash": 2120953374
    },
    "DisplayType": "Normal",
    "ScoringIDList": [
      10001
    ]
  },
  "202": {
    "ScoringGroupID": 202,
    "ScoreName": {
      "Hash": -1770729395
    },
    "DisplayType": "Normal",
    "ScoringIDList": [
      10002
    ]
  },
  "203": {
    "ScoringGroupID": 203,
    "ScoreName": {
      "Hash": 371857150
    },
    "DisplayType": "Normal",
    "ScoringIDList": []
  },
  "204": {
    "ScoringGroupID": 204,
    "ScoreName": {
      "Hash": 371857150
    },
    "DisplayType": "Normal",
    "ScoringIDList": []
  },
  "205": {
    "ScoringGroupID": 205,
    "ScoreName": {
      "Hash": 371857150
    },
    "DisplayType": "Normal",
    "ScoringIDList": []
  },
  "902": {
    "ScoringGroupID": 902,
    "ScoreName": {
      "Hash": -1878392490
    },
    "DisplayType": "Countdown",
    "ScoringIDList": [
      90004,
      90005
    ]
  },
  "903": {
    "ScoringGroupID": 903,
    "ScoreName": {
      "Hash": -312308549
    },
    "DisplayType": "Normal",
    "ScoringIDList": [
      90006,
      90008
    ]
  },
  "904": {
    "ScoringGroupID": 904,
    "ScoreName": {
      "Hash": -715593076
    },
    "DisplayType": "Normal",
    "ScoringIDList": [
      90007,
      90008
    ]
  },
  "905": {
    "ScoringGroupID": 905,
    "ScoreName": {
      "Hash": 850490865
    },
    "DisplayType": "Normal",
    "ScoringIDList": [
      90009,
      90010,
      90011
    ]
  }
}