{
  "1031101": {
    "StoryLineID": 1031101,
    "TrialAvatarList": [
      1021304
    ],
    "InitTrialAvatarList": [
      1021304
    ],
    "CaptainAvatarID": 1021304
  },
  "1031102": {
    "StoryLineID": 1031102,
    "TrialAvatarList": [
      1031305
    ],
    "InitTrialAvatarList": [
      1031305
    ],
    "CaptainAvatarID": 1031305
  },
  "1031401": {
    "StoryLineID": 1031401,
    "TrialAvatarList": [
      1021304
    ],
    "InitTrialAvatarList": [
      1021304
    ],
    "CaptainAvatarID": 1021304
  },
  "1031601": {
    "StoryLineID": 1031601,
    "TrialAvatarList": [
      1021308
    ],
    "InitTrialAvatarList": [
      1021308
    ],
    "CaptainAvatarID": 1021308
  },
  "1031701": {
    "StoryLineID": 1031701,
    "TrialAvatarList": [
      1021304
    ],
    "InitTrialAvatarList": [
      1021304
    ],
    "CaptainAvatarID": 1021304
  },
  "1032601": {
    "StoryLineID": 1032601,
    "TrialAvatarList": [
      1021309
    ],
    "InitTrialAvatarList": [
      1021309
    ],
    "CaptainAvatarID": 1021309
  },
  "1032602": {
    "StoryLineID": 1032602,
    "TrialAvatarList": [
      1021315
    ],
    "InitTrialAvatarList": [
      1021315
    ],
    "CaptainAvatarID": 1021315
  },
  "1032301": {
    "StoryLineID": 1032301,
    "TrialAvatarList": [
      1021309
    ],
    "InitTrialAvatarList": [
      1021309
    ],
    "CaptainAvatarID": 1021309
  }
}