{
  "599000101": {
    "TalkSentenceID": 599000101,
    "VoiceIDList": [
      502000001,
      502000002
    ]
  },
  "599000201": {
    "TalkSentenceID": 599000201,
    "VoiceIDList": [
      502000003,
      502000004
    ]
  },
  "500012101": {
    "TalkSentenceID": 500012101,
    "VoiceIDList": [
      500012101,
      500012102
    ]
  },
  "500012201": {
    "TalkSentenceID": 500012201,
    "VoiceIDList": [
      500012201,
      500012202
    ]
  },
  "500012021": {
    "TalkSentenceID": 500012021,
    "VoiceIDList": [
      500012021,
      500012022
    ]
  },
  "510010102": {
    "TalkSentenceID": 510010102,
    "VoiceIDList": [
      510010101,
      510010102
    ]
  },
  "500201301": {
    "TalkSentenceID": 500201301,
    "VoiceIDList": [
      510010101,
      510010102
    ]
  },
  "510010202": {
    "TalkSentenceID": 510010202,
    "VoiceIDList": [
      510010201,
      510010202
    ]
  },
  "510010302": {
    "TalkSentenceID": 510010302,
    "VoiceIDList": [
      510010301,
      510010302
    ]
  },
  "510010318": {
    "TalkSentenceID": 510010318,
    "VoiceIDList": [
      510010317,
      510010318
    ]
  },
  "510010402": {
    "TalkSentenceID": 510010402,
    "VoiceIDList": [
      510010401,
      510010402
    ]
  },
  "500204301": {
    "TalkSentenceID": 500204301,
    "VoiceIDList": [
      510010401,
      510010402
    ]
  },
  "510010602": {
    "TalkSentenceID": 510010602,
    "VoiceIDList": [
      510010601,
      510010602
    ]
  },
  "500010702": {
    "TalkSentenceID": 500010702,
    "VoiceIDList": [
      500010701,
      500010702
    ]
  },
  "500207101": {
    "TalkSentenceID": 500207101,
    "VoiceIDList": [
      500010701,
      500010702
    ]
  },
  "500207401": {
    "TalkSentenceID": 500207401,
    "VoiceIDList": [
      500207401,
      500207402
    ]
  },
  "500010809": {
    "TalkSentenceID": 500010809,
    "VoiceIDList": [
      500010801,
      500010802
    ]
  },
  "510010902": {
    "TalkSentenceID": 510010902,
    "VoiceIDList": [
      510010901,
      510010902
    ]
  },
  "500209401": {
    "TalkSentenceID": 500209401,
    "VoiceIDList": [
      510010901,
      510010902
    ]
  },
  "510011002": {
    "TalkSentenceID": 510011002,
    "VoiceIDList": [
      510011001,
      510011002
    ]
  },
  "510011102": {
    "TalkSentenceID": 510011102,
    "VoiceIDList": [
      510011101,
      510011102
    ]
  },
  "510011202": {
    "TalkSentenceID": 510011202,
    "VoiceIDList": [
      510011201,
      510011202
    ]
  },
  "510011302": {
    "TalkSentenceID": 510011302,
    "VoiceIDList": [
      510011301,
      510011302
    ]
  },
  "500213303": {
    "TalkSentenceID": 500213303,
    "VoiceIDList": [
      510011301,
      510011302
    ]
  },
  "500011402": {
    "TalkSentenceID": 500011402,
    "VoiceIDList": [
      500011401,
      500011402
    ]
  },
  "500214401": {
    "TalkSentenceID": 500214401,
    "VoiceIDList": [
      500011401,
      500011402
    ]
  },
  "510011502": {
    "TalkSentenceID": 510011502,
    "VoiceIDList": [
      510011501,
      510011502
    ]
  },
  "510011602": {
    "TalkSentenceID": 510011602,
    "VoiceIDList": [
      510011601,
      510011602
    ]
  },
  "500217301": {
    "TalkSentenceID": 500217301,
    "VoiceIDList": [
      500217301,
      500217302
    ]
  },
  "500218301": {
    "TalkSentenceID": 500218301,
    "VoiceIDList": [
      500218301,
      500218302
    ]
  },
  "510011902": {
    "TalkSentenceID": 510011902,
    "VoiceIDList": [
      510011901,
      510011902
    ]
  },
  "500002401": {
    "TalkSentenceID": 500002401,
    "VoiceIDList": [
      500002401,
      500002402
    ]
  },
  "500002335": {
    "TalkSentenceID": 500002335,
    "VoiceIDList": [
      500002331,
      500002332
    ]
  },
  "200074301": {
    "TalkSentenceID": 200074301,
    "VoiceIDList": [
      200074301,
      200074302
    ]
  },
  "501029129": {
    "TalkSentenceID": 501029129,
    "VoiceIDList": [
      501030001,
      501030002
    ]
  },
  "501030034": {
    "TalkSentenceID": 501030034,
    "VoiceIDList": [
      501030003,
      501030004
    ]
  },
  "501029445": {
    "TalkSentenceID": 501029445,
    "VoiceIDList": [
      501030005,
      501030006
    ]
  },
  "501029942": {
    "TalkSentenceID": 501029942,
    "VoiceIDList": [
      501030007,
      501030008
    ]
  },
  "501029237": {
    "TalkSentenceID": 501029237,
    "VoiceIDList": [
      501030009,
      501030010
    ]
  },
  "501029301": {
    "TalkSentenceID": 501029301,
    "VoiceIDList": [
      501030011,
      501030012
    ]
  },
  "501029304": {
    "TalkSentenceID": 501029304,
    "VoiceIDList": [
      501030011,
      501030012
    ]
  },
  "501030236": {
    "TalkSentenceID": 501030236,
    "VoiceIDList": [
      501030013,
      501030014
    ]
  },
  "501030333": {
    "TalkSentenceID": 501030333,
    "VoiceIDList": [
      501030015,
      501030016
    ]
  },
  "501030466": {
    "TalkSentenceID": 501030466,
    "VoiceIDList": [
      501030017,
      501030018
    ]
  },
  "501023543": {
    "TalkSentenceID": 501023543,
    "VoiceIDList": [
      501023543,
      501023544
    ]
  },
  "501023664": {
    "TalkSentenceID": 501023664,
    "VoiceIDList": [
      501030019,
      501030020
    ]
  },
  "501023750": {
    "TalkSentenceID": 501023750,
    "VoiceIDList": [
      501030021,
      501030022
    ]
  },
  "501023871": {
    "TalkSentenceID": 501023871,
    "VoiceIDList": [
      501030023,
      501030024
    ]
  },
  "501024077": {
    "TalkSentenceID": 501024077,
    "VoiceIDList": [
      501030025,
      501030026
    ]
  },
  "501024180": {
    "TalkSentenceID": 501024180,
    "VoiceIDList": [
      501030027,
      501030028
    ]
  },
  "501024272": {
    "TalkSentenceID": 501024272,
    "VoiceIDList": [
      501030029,
      501030030
    ]
  },
  "501026739": {
    "TalkSentenceID": 501026739,
    "VoiceIDList": [
      501030031,
      501030032
    ]
  },
  "501024490": {
    "TalkSentenceID": 501024490,
    "VoiceIDList": [
      501030033,
      501030034
    ]
  },
  "501026845": {
    "TalkSentenceID": 501026845,
    "VoiceIDList": [
      501030035,
      501030036
    ]
  },
  "501029701": {
    "TalkSentenceID": 501029701,
    "VoiceIDList": [
      501030037,
      501030038
    ]
  },
  "501026935": {
    "TalkSentenceID": 501026935,
    "VoiceIDList": [
      501030039,
      501030040
    ]
  },
  "501026939": {
    "TalkSentenceID": 501026939,
    "VoiceIDList": [
      501030041,
      501030042
    ]
  },
  "501027048": {
    "TalkSentenceID": 501027048,
    "VoiceIDList": [
      501030043,
      501030044
    ]
  },
  "501027142": {
    "TalkSentenceID": 501027142,
    "VoiceIDList": [
      501030045,
      501030046
    ]
  },
  "501023980": {
    "TalkSentenceID": 501023980,
    "VoiceIDList": [
      501030047,
      501030048
    ]
  },
  "501027229": {
    "TalkSentenceID": 501027229,
    "VoiceIDList": [
      501030049,
      501030050
    ]
  },
  "501027319": {
    "TalkSentenceID": 501027319,
    "VoiceIDList": [
      501030051,
      501030052
    ]
  },
  "501027427": {
    "TalkSentenceID": 501027427,
    "VoiceIDList": [
      501030053,
      501030054
    ]
  },
  "501028736": {
    "TalkSentenceID": 501028736,
    "VoiceIDList": [
      501030055,
      501030056
    ]
  },
  "501029644": {
    "TalkSentenceID": 501029644,
    "VoiceIDList": [
      501030057,
      501030058
    ]
  },
  "501029854": {
    "TalkSentenceID": 501029854,
    "VoiceIDList": [
      501030059,
      501030060
    ]
  },
  "501030527": {
    "TalkSentenceID": 501030527,
    "VoiceIDList": [
      501030061,
      501030062
    ]
  },
  "501027633": {
    "TalkSentenceID": 501027633,
    "VoiceIDList": [
      501030065,
      501030066
    ]
  },
  "501027729": {
    "TalkSentenceID": 501027729,
    "VoiceIDList": [
      501030067,
      501030068
    ]
  },
  "501027835": {
    "TalkSentenceID": 501027835,
    "VoiceIDList": [
      501030069,
      501030070
    ]
  },
  "501027943": {
    "TalkSentenceID": 501027943,
    "VoiceIDList": [
      501030071,
      501030072
    ]
  },
  "501028039": {
    "TalkSentenceID": 501028039,
    "VoiceIDList": [
      501030073,
      501030074
    ]
  },
  "501028243": {
    "TalkSentenceID": 501028243,
    "VoiceIDList": [
      501030075,
      501030076
    ]
  },
  "501028333": {
    "TalkSentenceID": 501028333,
    "VoiceIDList": [
      501030077,
      501030078
    ]
  },
  "501028863": {
    "TalkSentenceID": 501028863,
    "VoiceIDList": [
      501030079,
      501030080
    ]
  },
  "501028949": {
    "TalkSentenceID": 501028949,
    "VoiceIDList": [
      501030081,
      501030082
    ]
  },
  "501029047": {
    "TalkSentenceID": 501029047,
    "VoiceIDList": [
      501030083,
      501030084
    ]
  },
  "501028445": {
    "TalkSentenceID": 501028445,
    "VoiceIDList": [
      501030085,
      501030086
    ]
  },
  "501028536": {
    "TalkSentenceID": 501028536,
    "VoiceIDList": [
      501030087,
      501030088
    ]
  },
  "501028635": {
    "TalkSentenceID": 501028635,
    "VoiceIDList": [
      501030089
    ]
  },
  "501028651": {
    "TalkSentenceID": 501028651,
    "VoiceIDList": [
      501030090
    ]
  },
  "501030659": {
    "TalkSentenceID": 501030659,
    "VoiceIDList": [
      501030091,
      501030092
    ]
  },
  "501190301": {
    "TalkSentenceID": 501190301,
    "VoiceIDList": [
      501030093,
      501030094
    ]
  },
  "501190211": {
    "TalkSentenceID": 501190211,
    "VoiceIDList": [
      501030095,
      501030096
    ]
  },
  "501190111": {
    "TalkSentenceID": 501190111,
    "VoiceIDList": [
      501030097,
      501030098
    ]
  },
  "404003090": {
    "TalkSentenceID": 404003090,
    "VoiceIDList": [
      501030099,
      501030100
    ]
  },
  "501030948": {
    "TalkSentenceID": 501030948,
    "VoiceIDList": [
      501030101,
      501030102
    ]
  },
  "501031009": {
    "TalkSentenceID": 501031009,
    "VoiceIDList": [
      501030099,
      501030100
    ]
  },
  "501031111": {
    "TalkSentenceID": 501031111,
    "VoiceIDList": [
      501031101,
      501031102
    ]
  },
  "501031249": {
    "TalkSentenceID": 501031249,
    "VoiceIDList": [
      501031201,
      501031202
    ]
  },
  "501031305": {
    "TalkSentenceID": 501031305,
    "VoiceIDList": [
      501031301,
      501031302
    ]
  },
  "501031406": {
    "TalkSentenceID": 501031406,
    "VoiceIDList": [
      501031401,
      501031402
    ]
  },
  "502101301": {
    "TalkSentenceID": 502101301,
    "VoiceIDList": [
      502030001,
      502030002
    ]
  },
  "502102301": {
    "TalkSentenceID": 502102301,
    "VoiceIDList": [
      502030003,
      502030004
    ]
  },
  "502103301": {
    "TalkSentenceID": 502103301,
    "VoiceIDList": [
      502030005,
      502030006
    ]
  },
  "502104301": {
    "TalkSentenceID": 502104301,
    "VoiceIDList": [
      502030007,
      502030008
    ]
  },
  "502105301": {
    "TalkSentenceID": 502105301,
    "VoiceIDList": [
      502030009,
      502030010
    ]
  },
  "502106301": {
    "TalkSentenceID": 502106301,
    "VoiceIDList": [
      502030011,
      502030012
    ]
  },
  "502107301": {
    "TalkSentenceID": 502107301,
    "VoiceIDList": [
      502030013,
      502030014
    ]
  },
  "502108301": {
    "TalkSentenceID": 502108301,
    "VoiceIDList": [
      502030015,
      502030016
    ]
  },
  "502109301": {
    "TalkSentenceID": 502109301,
    "VoiceIDList": [
      502030017,
      502030018
    ]
  },
  "502110301": {
    "TalkSentenceID": 502110301,
    "VoiceIDList": [
      502030019,
      502030020
    ]
  },
  "502112301": {
    "TalkSentenceID": 502112301,
    "VoiceIDList": [
      502030021,
      502030022
    ]
  },
  "502113510": {
    "TalkSentenceID": 502113510,
    "VoiceIDList": [
      502030023,
      502030024
    ]
  },
  "502114301": {
    "TalkSentenceID": 502114301,
    "VoiceIDList": [
      502030025,
      502030026
    ]
  },
  "502115301": {
    "TalkSentenceID": 502115301,
    "VoiceIDList": [
      502030027,
      502030028
    ]
  },
  "502116301": {
    "TalkSentenceID": 502116301,
    "VoiceIDList": [
      502030029,
      502030030
    ]
  },
  "502117301": {
    "TalkSentenceID": 502117301,
    "VoiceIDList": [
      502030031,
      502030032
    ]
  },
  "502123401": {
    "TalkSentenceID": 502123401,
    "VoiceIDList": [
      502030033,
      502030034
    ]
  },
  "502119301": {
    "TalkSentenceID": 502119301,
    "VoiceIDList": [
      502030035,
      502030036
    ]
  },
  "502120301": {
    "TalkSentenceID": 502120301,
    "VoiceIDList": [
      502030037,
      502030038
    ]
  },
  "502121301": {
    "TalkSentenceID": 502121301,
    "VoiceIDList": [
      502030039,
      502030040
    ]
  },
  "502122301": {
    "TalkSentenceID": 502122301,
    "VoiceIDList": [
      502030041,
      502030042
    ]
  },
  "502013151": {
    "TalkSentenceID": 502013151,
    "VoiceIDList": [
      502030043,
      502030044
    ]
  },
  "502021101": {
    "TalkSentenceID": 502021101,
    "VoiceIDList": [
      502030045,
      502030046
    ]
  },
  "502022144": {
    "TalkSentenceID": 502022144,
    "VoiceIDList": [
      502030047,
      502030048
    ]
  },
  "502014155": {
    "TalkSentenceID": 502014155,
    "VoiceIDList": [
      502030049,
      502030050
    ]
  },
  "502015136": {
    "TalkSentenceID": 502015136,
    "VoiceIDList": [
      502030051,
      502030052
    ]
  },
  "502016137": {
    "TalkSentenceID": 502016137,
    "VoiceIDList": [
      502030053,
      502030054
    ]
  },
  "502023156": {
    "TalkSentenceID": 502023156,
    "VoiceIDList": [
      502030055,
      502030056
    ]
  },
  "502026147": {
    "TalkSentenceID": 502026147,
    "VoiceIDList": [
      502030057,
      502030058
    ]
  },
  "502024134": {
    "TalkSentenceID": 502024134,
    "VoiceIDList": [
      502030059,
      502030060
    ]
  },
  "502017153": {
    "TalkSentenceID": 502017153,
    "VoiceIDList": [
      502030061
    ]
  },
  "502017301": {
    "TalkSentenceID": 502017301,
    "VoiceIDList": [
      502030062
    ]
  },
  "502018101": {
    "TalkSentenceID": 502018101,
    "VoiceIDList": [
      502030063,
      502030064
    ]
  },
  "502019153": {
    "TalkSentenceID": 502019153,
    "VoiceIDList": [
      502030065
    ]
  },
  "502019154": {
    "TalkSentenceID": 502019154,
    "VoiceIDList": [
      502030066
    ]
  },
  "502025145": {
    "TalkSentenceID": 502025145,
    "VoiceIDList": [
      502030067,
      502030068
    ]
  },
  "502020136": {
    "TalkSentenceID": 502020136,
    "VoiceIDList": [
      502030069,
      502030070
    ]
  },
  "502032164": {
    "TalkSentenceID": 502032164,
    "VoiceIDList": [
      502030071,
      502030072
    ]
  },
  "502033151": {
    "TalkSentenceID": 502033151,
    "VoiceIDList": [
      502030073,
      502030074
    ]
  },
  "502034149": {
    "TalkSentenceID": 502034149,
    "VoiceIDList": [
      502030075,
      502030076
    ]
  },
  "502027153": {
    "TalkSentenceID": 502027153,
    "VoiceIDList": [
      502030077,
      502030078
    ]
  },
  "502028136": {
    "TalkSentenceID": 502028136,
    "VoiceIDList": [
      502030079,
      502030080
    ]
  },
  "502029143": {
    "TalkSentenceID": 502029143,
    "VoiceIDList": [
      502030081
    ]
  },
  "502029144": {
    "TalkSentenceID": 502029144,
    "VoiceIDList": [
      502030082
    ]
  },
  "502030143": {
    "TalkSentenceID": 502030143,
    "VoiceIDList": [
      502030083,
      502030084
    ]
  },
  "502031130": {
    "TalkSentenceID": 502031130,
    "VoiceIDList": [
      502030085,
      502030086
    ]
  },
  "502041202": {
    "TalkSentenceID": 502041202,
    "VoiceIDList": [
      502030087,
      502030088
    ]
  },
  "502050202": {
    "TalkSentenceID": 502050202,
    "VoiceIDList": [
      502030089,
      502030090
    ]
  },
  "502051202": {
    "TalkSentenceID": 502051202,
    "VoiceIDList": [
      502030091,
      502030092
    ]
  },
  "502042202": {
    "TalkSentenceID": 502042202,
    "VoiceIDList": [
      502030093,
      502030094
    ]
  },
  "502071302": {
    "TalkSentenceID": 502071302,
    "VoiceIDList": [
      502030095,
      502030096
    ]
  },
  "502052302": {
    "TalkSentenceID": 502052302,
    "VoiceIDList": [
      502030097,
      502030098
    ]
  },
  "502053302": {
    "TalkSentenceID": 502053302,
    "VoiceIDList": [
      502030099,
      502030100
    ]
  },
  "502054302": {
    "TalkSentenceID": 502054302,
    "VoiceIDList": [
      502030101,
      502030102
    ]
  },
  "502055402": {
    "TalkSentenceID": 502055402,
    "VoiceIDList": [
      502030103,
      502030104
    ]
  },
  "502056302": {
    "TalkSentenceID": 502056302,
    "VoiceIDList": [
      502030105,
      502030106
    ]
  },
  "502070302": {
    "TalkSentenceID": 502070302,
    "VoiceIDList": [
      502030107,
      502030108
    ]
  },
  "502064102": {
    "TalkSentenceID": 502064102,
    "VoiceIDList": [
      502030109,
      502030110
    ]
  },
  "502062202": {
    "TalkSentenceID": 502062202,
    "VoiceIDList": [
      502030111,
      502030112
    ]
  },
  "502058301": {
    "TalkSentenceID": 502058301,
    "VoiceIDList": [
      502030113,
      502030114
    ]
  },
  "502060302": {
    "TalkSentenceID": 502060302,
    "VoiceIDList": [
      502030115,
      502030116
    ]
  },
  "502061302": {
    "TalkSentenceID": 502061302,
    "VoiceIDList": [
      502030117,
      502030118
    ]
  },
  "502065102": {
    "TalkSentenceID": 502065102,
    "VoiceIDList": [
      502030119,
      502030120
    ]
  },
  "502066102": {
    "TalkSentenceID": 502066102,
    "VoiceIDList": [
      502030121,
      502030122
    ]
  },
  "502037202": {
    "TalkSentenceID": 502037202,
    "VoiceIDList": [
      502030123,
      502030124
    ]
  },
  "502038202": {
    "TalkSentenceID": 502038202,
    "VoiceIDList": [
      502030125,
      502030126
    ]
  },
  "502039202": {
    "TalkSentenceID": 502039202,
    "VoiceIDList": [
      502030127,
      502030128
    ]
  },
  "502040202": {
    "TalkSentenceID": 502040202,
    "VoiceIDList": [
      502030129,
      502030130
    ]
  },
  "502043202": {
    "TalkSentenceID": 502043202,
    "VoiceIDList": [
      502030131,
      502030132
    ]
  },
  "502044202": {
    "TalkSentenceID": 502044202,
    "VoiceIDList": [
      502030133,
      502030134
    ]
  },
  "502045202": {
    "TalkSentenceID": 502045202,
    "VoiceIDList": [
      502030135,
      502030136
    ]
  },
  "502046202": {
    "TalkSentenceID": 502046202,
    "VoiceIDList": [
      502030137,
      502030138
    ]
  },
  "502047202": {
    "TalkSentenceID": 502047202,
    "VoiceIDList": [
      502030139,
      502030140
    ]
  },
  "502048202": {
    "TalkSentenceID": 502048202,
    "VoiceIDList": [
      502030141,
      502030142
    ]
  },
  "502049202": {
    "TalkSentenceID": 502049202,
    "VoiceIDList": [
      502030143,
      502030144
    ]
  },
  "502063102": {
    "TalkSentenceID": 502063102,
    "VoiceIDList": [
      502030145,
      502030146
    ]
  },
  "502086202": {
    "TalkSentenceID": 502086202,
    "VoiceIDList": [
      502030147,
      502030148
    ]
  },
  "502087202": {
    "TalkSentenceID": 502087202,
    "VoiceIDList": [
      502030149,
      502030150
    ]
  },
  "502085102": {
    "TalkSentenceID": 502085102,
    "VoiceIDList": [
      502030151,
      502030152
    ]
  },
  "502084202": {
    "TalkSentenceID": 502084202,
    "VoiceIDList": [
      502030153,
      502030154
    ]
  },
  "502057102": {
    "TalkSentenceID": 502057102,
    "VoiceIDList": [
      502030156
    ]
  },
  "502059102": {
    "TalkSentenceID": 502059102,
    "VoiceIDList": [
      502030157,
      502030158
    ]
  },
  "502090202": {
    "TalkSentenceID": 502090202,
    "VoiceIDList": [
      502030159,
      502030160
    ]
  },
  "502088110": {
    "TalkSentenceID": 502088110,
    "VoiceIDList": [
      502030161,
      502030162
    ]
  },
  "502089202": {
    "TalkSentenceID": 502089202,
    "VoiceIDList": [
      502030163,
      502030164
    ]
  },
  "502035101": {
    "TalkSentenceID": 502035101,
    "VoiceIDList": [
      502030165,
      502030166
    ]
  },
  "502100101": {
    "TalkSentenceID": 502100101,
    "VoiceIDList": [
      502100101,
      502100102
    ]
  },
  "502100103": {
    "TalkSentenceID": 502100103,
    "VoiceIDList": [
      502100101,
      502100102
    ]
  },
  "502100341": {
    "TalkSentenceID": 502100341,
    "VoiceIDList": [
      502101170,
      502101171
    ]
  },
  "502100641": {
    "TalkSentenceID": 502100641,
    "VoiceIDList": [
      502101172,
      502101173
    ]
  },
  "502100841": {
    "TalkSentenceID": 502100841,
    "VoiceIDList": [
      502101174,
      502101175
    ]
  },
  "502101041": {
    "TalkSentenceID": 502101041,
    "VoiceIDList": [
      502101176,
      502101177
    ]
  },
  "502200401": {
    "TalkSentenceID": 502200401,
    "VoiceIDList": [
      502101178,
      502101179
    ]
  },
  "500014002": {
    "TalkSentenceID": 500014002,
    "VoiceIDList": [
      500014001,
      500014002
    ]
  },
  "500014302": {
    "TalkSentenceID": 500014302,
    "VoiceIDList": [
      500014301,
      500014302
    ]
  },
  "500014503": {
    "TalkSentenceID": 500014503,
    "VoiceIDList": [
      500014501,
      500014502
    ]
  },
  "500014803": {
    "TalkSentenceID": 500014803,
    "VoiceIDList": [
      500014801,
      500014802
    ]
  },
  "500015102": {
    "TalkSentenceID": 500015102,
    "VoiceIDList": [
      500015101,
      500015102
    ]
  },
  "500015402": {
    "TalkSentenceID": 500015402,
    "VoiceIDList": [
      500015401,
      500015402
    ]
  },
  "500015702": {
    "TalkSentenceID": 500015702,
    "VoiceIDList": [
      500015701,
      500015702
    ]
  },
  "500016002": {
    "TalkSentenceID": 500016002,
    "VoiceIDList": [
      500016001,
      500016002
    ]
  },
  "500016302": {
    "TalkSentenceID": 500016302,
    "VoiceIDList": [
      500016301,
      500016302
    ]
  },
  "500016502": {
    "TalkSentenceID": 500016502,
    "VoiceIDList": [
      500016501,
      500016502
    ]
  },
  "500016802": {
    "TalkSentenceID": 500016802,
    "VoiceIDList": [
      500016801,
      500016802
    ]
  },
  "500017102": {
    "TalkSentenceID": 500017102,
    "VoiceIDList": [
      500017101,
      500017102
    ]
  },
  "500017402": {
    "TalkSentenceID": 500017402,
    "VoiceIDList": [
      500017401,
      500017402
    ]
  },
  "500017602": {
    "TalkSentenceID": 500017602,
    "VoiceIDList": [
      500017801,
      500017802
    ]
  },
  "500017802": {
    "TalkSentenceID": 500017802,
    "VoiceIDList": [
      500017801,
      500017802
    ]
  },
  "500018102": {
    "TalkSentenceID": 500018102,
    "VoiceIDList": [
      500018101,
      500018102
    ]
  },
  "500018402": {
    "TalkSentenceID": 500018402,
    "VoiceIDList": [
      500018401,
      500018402
    ]
  },
  "500018702": {
    "TalkSentenceID": 500018702,
    "VoiceIDList": [
      500018701,
      500018702
    ]
  },
  "503001061": {
    "TalkSentenceID": 503001061,
    "VoiceIDList": [
      503001001,
      503001002
    ]
  },
  "503001081": {
    "TalkSentenceID": 503001081,
    "VoiceIDList": [
      503001005,
      503001006
    ]
  },
  "503001111": {
    "TalkSentenceID": 503001111,
    "VoiceIDList": [
      503001003,
      503001004
    ]
  },
  "503001141": {
    "TalkSentenceID": 503001141,
    "VoiceIDList": [
      503001007,
      503001008
    ]
  },
  "503007091": {
    "TalkSentenceID": 503007091,
    "VoiceIDList": [
      503007001,
      503007002
    ]
  },
  "503007101": {
    "TalkSentenceID": 503007101,
    "VoiceIDList": [
      503007005,
      503007006
    ]
  },
  "503007121": {
    "TalkSentenceID": 503007121,
    "VoiceIDList": [
      503007003,
      503007004
    ]
  },
  "503007131": {
    "TalkSentenceID": 503007131,
    "VoiceIDList": [
      503007007,
      503007008
    ]
  },
  "503020056": {
    "TalkSentenceID": 503020056,
    "VoiceIDList": [
      503020001,
      503020002
    ]
  },
  "503020081": {
    "TalkSentenceID": 503020081,
    "VoiceIDList": [
      503020005,
      503020006
    ]
  },
  "503020101": {
    "TalkSentenceID": 503020101,
    "VoiceIDList": [
      503020003,
      503020004
    ]
  },
  "503020121": {
    "TalkSentenceID": 503020121,
    "VoiceIDList": [
      503020007,
      503020008
    ]
  },
  "503026061": {
    "TalkSentenceID": 503026061,
    "VoiceIDList": [
      503026001,
      503026002
    ]
  },
  "503026081": {
    "TalkSentenceID": 503026081,
    "VoiceIDList": [
      503026005,
      503026006
    ]
  },
  "503026101": {
    "TalkSentenceID": 503026101,
    "VoiceIDList": [
      503026003,
      503026004
    ]
  },
  "503026121": {
    "TalkSentenceID": 503026121,
    "VoiceIDList": [
      503026007,
      503026008
    ]
  },
  "503027056": {
    "TalkSentenceID": 503027056,
    "VoiceIDList": [
      503027001,
      503027002
    ]
  },
  "503027071": {
    "TalkSentenceID": 503027071,
    "VoiceIDList": [
      503027005,
      503027006
    ]
  },
  "503027091": {
    "TalkSentenceID": 503027091,
    "VoiceIDList": [
      503027003,
      503027004
    ]
  },
  "503027111": {
    "TalkSentenceID": 503027111,
    "VoiceIDList": [
      503027007,
      503027008
    ]
  },
  "503017061": {
    "TalkSentenceID": 503017061,
    "VoiceIDList": [
      503017007,
      503017008
    ]
  },
  "503017081": {
    "TalkSentenceID": 503017081,
    "VoiceIDList": [
      503017005,
      503017006
    ]
  },
  "503017101": {
    "TalkSentenceID": 503017101,
    "VoiceIDList": [
      503017001,
      503017002
    ]
  },
  "503017121": {
    "TalkSentenceID": 503017121,
    "VoiceIDList": [
      503017003,
      503017004
    ]
  },
  "503006061": {
    "TalkSentenceID": 503006061,
    "VoiceIDList": [
      503006001,
      503006002
    ]
  },
  "503006071": {
    "TalkSentenceID": 503006071,
    "VoiceIDList": [
      503006005,
      503006006
    ]
  },
  "503006081": {
    "TalkSentenceID": 503006081,
    "VoiceIDList": [
      503006003,
      503006004
    ]
  },
  "503006091": {
    "TalkSentenceID": 503006091,
    "VoiceIDList": [
      503006007,
      503006008
    ]
  },
  "503023061": {
    "TalkSentenceID": 503023061,
    "VoiceIDList": [
      503023001,
      503023002
    ]
  },
  "503023081": {
    "TalkSentenceID": 503023081,
    "VoiceIDList": [
      503023007,
      503023008
    ]
  },
  "503023111": {
    "TalkSentenceID": 503023111,
    "VoiceIDList": [
      503023003,
      503023004
    ]
  },
  "503023131": {
    "TalkSentenceID": 503023131,
    "VoiceIDList": [
      503023005,
      503023006
    ]
  },
  "503024061": {
    "TalkSentenceID": 503024061,
    "VoiceIDList": [
      503024001,
      503024002
    ]
  },
  "503024081": {
    "TalkSentenceID": 503024081,
    "VoiceIDList": [
      503024007,
      503024008
    ]
  },
  "503024101": {
    "TalkSentenceID": 503024101,
    "VoiceIDList": [
      503024005,
      503024006
    ]
  },
  "503024121": {
    "TalkSentenceID": 503024121,
    "VoiceIDList": [
      503024003,
      503024004
    ]
  },
  "503025081": {
    "TalkSentenceID": 503025081,
    "VoiceIDList": [
      503025001,
      503025002
    ]
  },
  "503025087": {
    "TalkSentenceID": 503025087,
    "VoiceIDList": [
      503025005,
      503025006
    ]
  },
  "503025101": {
    "TalkSentenceID": 503025101,
    "VoiceIDList": [
      503025003,
      503025004
    ]
  },
  "503025121": {
    "TalkSentenceID": 503025121,
    "VoiceIDList": [
      503025007,
      503025008
    ]
  },
  "503015090": {
    "TalkSentenceID": 503015090,
    "VoiceIDList": [
      503015007,
      503015008
    ]
  },
  "503015096": {
    "TalkSentenceID": 503015096,
    "VoiceIDList": [
      503015001,
      503015002
    ]
  },
  "503015121": {
    "TalkSentenceID": 503015121,
    "VoiceIDList": [
      503015005,
      503015006
    ]
  },
  "503015141": {
    "TalkSentenceID": 503015141,
    "VoiceIDList": [
      503015003,
      503015004
    ]
  },
  "503021056": {
    "TalkSentenceID": 503021056,
    "VoiceIDList": [
      503021001,
      503021002
    ]
  },
  "503021081": {
    "TalkSentenceID": 503021081,
    "VoiceIDList": [
      503021003,
      503021004
    ]
  },
  "503021101": {
    "TalkSentenceID": 503021101,
    "VoiceIDList": [
      503021005,
      503021006
    ]
  },
  "503021121": {
    "TalkSentenceID": 503021121,
    "VoiceIDList": [
      503021007,
      503021008
    ]
  },
  "503003081": {
    "TalkSentenceID": 503003081,
    "VoiceIDList": [
      503003001,
      503003002
    ]
  },
  "503003091": {
    "TalkSentenceID": 503003091,
    "VoiceIDList": [
      503003007,
      503003008
    ]
  },
  "503003111": {
    "TalkSentenceID": 503003111,
    "VoiceIDList": [
      503003003,
      503003004
    ]
  },
  "503003131": {
    "TalkSentenceID": 503003131,
    "VoiceIDList": [
      503003005,
      503003006
    ]
  },
  "503005101": {
    "TalkSentenceID": 503005101,
    "VoiceIDList": [
      503005001,
      503005002
    ]
  },
  "503005111": {
    "TalkSentenceID": 503005111,
    "VoiceIDList": [
      503005007,
      503005008
    ]
  },
  "503005131": {
    "TalkSentenceID": 503005131,
    "VoiceIDList": [
      503005003,
      503005004
    ]
  },
  "503005141": {
    "TalkSentenceID": 503005141,
    "VoiceIDList": [
      503005005,
      503005006
    ]
  },
  "503008076": {
    "TalkSentenceID": 503008076,
    "VoiceIDList": [
      503008001,
      503008002
    ]
  },
  "503008081": {
    "TalkSentenceID": 503008081,
    "VoiceIDList": [
      503008005,
      503008006
    ]
  },
  "503008091": {
    "TalkSentenceID": 503008091,
    "VoiceIDList": [
      503008003,
      503008004
    ]
  },
  "503008101": {
    "TalkSentenceID": 503008101,
    "VoiceIDList": [
      503008007,
      503008008
    ]
  },
  "503030021": {
    "TalkSentenceID": 503030021,
    "VoiceIDList": [
      503030027,
      503030028
    ]
  },
  "503030221": {
    "TalkSentenceID": 503030221,
    "VoiceIDList": [
      503030033,
      503030034
    ]
  },
  "503030331": {
    "TalkSentenceID": 503030331,
    "VoiceIDList": [
      503030037,
      503030038
    ]
  },
  "503030441": {
    "TalkSentenceID": 503030441,
    "VoiceIDList": [
      503030021,
      503030022
    ]
  },
  "503030521": {
    "TalkSentenceID": 503030521,
    "VoiceIDList": [
      503030041,
      503030042
    ]
  },
  "503030621": {
    "TalkSentenceID": 503030621,
    "VoiceIDList": [
      503030029,
      503030030
    ]
  },
  "503030721": {
    "TalkSentenceID": 503030721,
    "VoiceIDList": [
      503030035,
      503030036
    ]
  },
  "503030801": {
    "TalkSentenceID": 503030801,
    "VoiceIDList": [
      503030039,
      503030040
    ]
  },
  "503002046": {
    "TalkSentenceID": 503002046,
    "VoiceIDList": [
      503030047,
      503030048
    ]
  },
  "503002061": {
    "TalkSentenceID": 503002061,
    "VoiceIDList": [
      503030045,
      503030046
    ]
  },
  "503002081": {
    "TalkSentenceID": 503002081,
    "VoiceIDList": [
      503030049,
      503030050
    ]
  },
  "503002091": {
    "TalkSentenceID": 503002091,
    "VoiceIDList": [
      503030051,
      503030052
    ]
  },
  "503004071": {
    "TalkSentenceID": 503004071,
    "VoiceIDList": [
      503030059,
      503030060
    ]
  },
  "503004081": {
    "TalkSentenceID": 503004081,
    "VoiceIDList": [
      503030053,
      503030054
    ]
  },
  "503004101": {
    "TalkSentenceID": 503004101,
    "VoiceIDList": [
      503030055,
      503030056
    ]
  },
  "503004111": {
    "TalkSentenceID": 503004111,
    "VoiceIDList": [
      503030057,
      503030058
    ]
  },
  "503010073": {
    "TalkSentenceID": 503010073,
    "VoiceIDList": [
      503030061,
      503030062
    ]
  },
  "503010081": {
    "TalkSentenceID": 503010081,
    "VoiceIDList": [
      503030063,
      503030064
    ]
  },
  "503010093": {
    "TalkSentenceID": 503010093,
    "VoiceIDList": [
      503030065,
      503030066
    ]
  },
  "503010111": {
    "TalkSentenceID": 503010111,
    "VoiceIDList": [
      503030067,
      503030068
    ]
  },
  "503011071": {
    "TalkSentenceID": 503011071,
    "VoiceIDList": [
      503030069,
      503030070
    ]
  },
  "503011079": {
    "TalkSentenceID": 503011079,
    "VoiceIDList": [
      503030073,
      503030074
    ]
  },
  "503011121": {
    "TalkSentenceID": 503011121,
    "VoiceIDList": [
      503030071,
      503030072
    ]
  },
  "503011161": {
    "TalkSentenceID": 503011161,
    "VoiceIDList": [
      503030075,
      503030076
    ]
  },
  "503013071": {
    "TalkSentenceID": 503013071,
    "VoiceIDList": [
      503030081,
      503030082
    ]
  },
  "503013081": {
    "TalkSentenceID": 503013081,
    "VoiceIDList": [
      503030077,
      503030078
    ]
  },
  "503013091": {
    "TalkSentenceID": 503013091,
    "VoiceIDList": [
      503030083,
      503030084
    ]
  },
  "503013106": {
    "TalkSentenceID": 503013106,
    "VoiceIDList": [
      503030079,
      503030080
    ]
  },
  "503014071": {
    "TalkSentenceID": 503014071,
    "VoiceIDList": [
      503030089,
      503030090
    ]
  },
  "503014081": {
    "TalkSentenceID": 503014081,
    "VoiceIDList": [
      503030085,
      503030086
    ]
  },
  "503014111": {
    "TalkSentenceID": 503014111,
    "VoiceIDList": [
      503030091,
      503030092
    ]
  },
  "503014141": {
    "TalkSentenceID": 503014141,
    "VoiceIDList": [
      503030087,
      503030088
    ]
  },
  "503016086": {
    "TalkSentenceID": 503016086,
    "VoiceIDList": [
      503030093,
      503030094
    ]
  },
  "503016096": {
    "TalkSentenceID": 503016096,
    "VoiceIDList": [
      503030097,
      503030098
    ]
  },
  "503016111": {
    "TalkSentenceID": 503016111,
    "VoiceIDList": [
      503030095,
      503030096
    ]
  },
  "503016131": {
    "TalkSentenceID": 503016131,
    "VoiceIDList": [
      503030099,
      503030100
    ]
  },
  "503022061": {
    "TalkSentenceID": 503022061,
    "VoiceIDList": [
      503030103,
      503030104
    ]
  },
  "503022081": {
    "TalkSentenceID": 503022081,
    "VoiceIDList": [
      503030107,
      503030108
    ]
  },
  "503022111": {
    "TalkSentenceID": 503022111,
    "VoiceIDList": [
      503030105,
      503030106
    ]
  },
  "503022141": {
    "TalkSentenceID": 503022141,
    "VoiceIDList": [
      503030101,
      503030102
    ]
  },
  "503012191": {
    "TalkSentenceID": 503012191,
    "VoiceIDList": [
      503030115,
      503030116
    ]
  },
  "503012211": {
    "TalkSentenceID": 503012211,
    "VoiceIDList": [
      503030111,
      503030112
    ]
  },
  "503012241": {
    "TalkSentenceID": 503012241,
    "VoiceIDList": [
      503030113,
      503030114
    ]
  },
  "503012271": {
    "TalkSentenceID": 503012271,
    "VoiceIDList": [
      503030109,
      503030110
    ]
  },
  "413030401": {
    "TalkSentenceID": 413030401,
    "VoiceIDList": [
      503030117,
      503030118
    ]
  },
  "413030601": {
    "TalkSentenceID": 413030601,
    "VoiceIDList": [
      503030119,
      503030120
    ]
  },
  "413030801": {
    "TalkSentenceID": 413030801,
    "VoiceIDList": [
      503030121,
      503030122
    ]
  },
  "413031101": {
    "TalkSentenceID": 413031101,
    "VoiceIDList": [
      503030123,
      503030124
    ]
  },
  "503009071": {
    "TalkSentenceID": 503009071,
    "VoiceIDList": [
      503030131,
      503030132
    ]
  },
  "503009081": {
    "TalkSentenceID": 503009081,
    "VoiceIDList": [
      503030125,
      503030126
    ]
  },
  "503009131": {
    "TalkSentenceID": 503009131,
    "VoiceIDList": [
      503030129,
      503030130
    ]
  },
  "503009201": {
    "TalkSentenceID": 503009201,
    "VoiceIDList": [
      503030127,
      503030128
    ]
  },
  "503031001": {
    "TalkSentenceID": 503031001,
    "VoiceIDList": [
      503030043,
      503030044
    ]
  },
  "503018302": {
    "TalkSentenceID": 503018302,
    "VoiceIDList": [
      503030133,
      503030134
    ]
  },
  "503018502": {
    "TalkSentenceID": 503018502,
    "VoiceIDList": [
      503030135,
      503030136
    ]
  },
  "503018702": {
    "TalkSentenceID": 503018702,
    "VoiceIDList": [
      503030137,
      503030138
    ]
  },
  "503018902": {
    "TalkSentenceID": 503018902,
    "VoiceIDList": [
      503030139,
      503030140
    ]
  },
  "503033016": {
    "TalkSentenceID": 503033016,
    "VoiceIDList": [
      103052522,
      103052523
    ]
  },
  "503033046": {
    "TalkSentenceID": 503033046,
    "VoiceIDList": [
      103052524,
      103052525
    ]
  },
  "503033036": {
    "TalkSentenceID": 503033036,
    "VoiceIDList": [
      103052526,
      103052527
    ]
  },
  "503033026": {
    "TalkSentenceID": 503033026,
    "VoiceIDList": [
      103052528,
      103052529
    ]
  },
  "413081601": {
    "TalkSentenceID": 413081601,
    "VoiceIDList": [
      424030101,
      424030102
    ]
  },
  "413081201": {
    "TalkSentenceID": 413081201,
    "VoiceIDList": [
      424030103,
      424030104
    ]
  },
  "413081801": {
    "TalkSentenceID": 413081801,
    "VoiceIDList": [
      424030105,
      424030106
    ]
  },
  "413082001": {
    "TalkSentenceID": 413082001,
    "VoiceIDList": [
      424030107,
      424030108
    ]
  },
  "413041201": {
    "TalkSentenceID": 413041201,
    "VoiceIDList": [
      424030109,
      424030110
    ]
  },
  "413041701": {
    "TalkSentenceID": 413041701,
    "VoiceIDList": [
      424030111,
      424030112
    ]
  },
  "413041001": {
    "TalkSentenceID": 413041001,
    "VoiceIDList": [
      424030113,
      424030114
    ]
  },
  "413041501": {
    "TalkSentenceID": 413041501,
    "VoiceIDList": [
      424030115,
      424030116
    ]
  },
  "413051401": {
    "TalkSentenceID": 413051401,
    "VoiceIDList": [
      424030117,
      424030118
    ]
  },
  "413050901": {
    "TalkSentenceID": 413050901,
    "VoiceIDList": [
      424030119,
      424030120
    ]
  },
  "413051201": {
    "TalkSentenceID": 413051201,
    "VoiceIDList": [
      424030121,
      424030122
    ]
  },
  "413051701": {
    "TalkSentenceID": 413051701,
    "VoiceIDList": [
      424030123,
      424030124
    ]
  },
  "413101101": {
    "TalkSentenceID": 413101101,
    "VoiceIDList": [
      424030125
    ]
  },
  "413101301": {
    "TalkSentenceID": 413101301,
    "VoiceIDList": [
      424030127
    ]
  },
  "413101501": {
    "TalkSentenceID": 413101501,
    "VoiceIDList": [
      424030129
    ]
  },
  "413101701": {
    "TalkSentenceID": 413101701,
    "VoiceIDList": [
      424030131
    ]
  },
  "413021501": {
    "TalkSentenceID": 413021501,
    "VoiceIDList": [
      424030133,
      424030134
    ]
  },
  "413021201": {
    "TalkSentenceID": 413021201,
    "VoiceIDList": [
      424030135,
      424030136
    ]
  },
  "413021801": {
    "TalkSentenceID": 413021801,
    "VoiceIDList": [
      424030137,
      424030138
    ]
  },
  "413022001": {
    "TalkSentenceID": 413022001,
    "VoiceIDList": [
      424030139,
      424030140
    ]
  },
  "413091501": {
    "TalkSentenceID": 413091501,
    "VoiceIDList": [
      424030141,
      424030142
    ]
  },
  "413091701": {
    "TalkSentenceID": 413091701,
    "VoiceIDList": [
      424030143,
      424030144
    ]
  },
  "413092001": {
    "TalkSentenceID": 413092001,
    "VoiceIDList": [
      424030145,
      424030146
    ]
  },
  "413091301": {
    "TalkSentenceID": 413091301,
    "VoiceIDList": [
      424030147,
      424030148
    ]
  },
  "413111001": {
    "TalkSentenceID": 413111001,
    "VoiceIDList": [
      424030151,
      424030152
    ]
  },
  "413111201": {
    "TalkSentenceID": 413111201,
    "VoiceIDList": [
      424030149,
      424030150
    ]
  },
  "413111401": {
    "TalkSentenceID": 413111401,
    "VoiceIDList": [
      424030155,
      424030156
    ]
  },
  "413111601": {
    "TalkSentenceID": 413111601,
    "VoiceIDList": [
      424030153,
      424030154
    ]
  },
  "413121301": {
    "TalkSentenceID": 413121301,
    "VoiceIDList": [
      424030157,
      424030158
    ]
  },
  "413121501": {
    "TalkSentenceID": 413121501,
    "VoiceIDList": [
      424030163,
      424030164
    ]
  },
  "413121701": {
    "TalkSentenceID": 413121701,
    "VoiceIDList": [
      424030161,
      424030162
    ]
  },
  "413121901": {
    "TalkSentenceID": 413121901,
    "VoiceIDList": [
      424030159,
      424030160
    ]
  },
  "413131601": {
    "TalkSentenceID": 413131601,
    "VoiceIDList": [
      424030165,
      424030166
    ]
  },
  "413131301": {
    "TalkSentenceID": 413131301,
    "VoiceIDList": [
      424030167,
      424030168
    ]
  },
  "413132001": {
    "TalkSentenceID": 413132001,
    "VoiceIDList": [
      424030169,
      424030170
    ]
  },
  "413131801": {
    "TalkSentenceID": 413131801,
    "VoiceIDList": [
      424030171,
      424030172
    ]
  },
  "413011701": {
    "TalkSentenceID": 413011701,
    "VoiceIDList": [
      424030173,
      424030174
    ]
  },
  "413011301": {
    "TalkSentenceID": 413011301,
    "VoiceIDList": [
      424030175,
      424030176
    ]
  },
  "413010901": {
    "TalkSentenceID": 413010901,
    "VoiceIDList": [
      424030177,
      424030178
    ]
  },
  "413011101": {
    "TalkSentenceID": 413011101,
    "VoiceIDList": [
      424030179,
      424030180
    ]
  },
  "413140901": {
    "TalkSentenceID": 413140901,
    "VoiceIDList": [
      424030181,
      424030182
    ]
  },
  "413141101": {
    "TalkSentenceID": 413141101,
    "VoiceIDList": [
      424030183,
      424030184
    ]
  },
  "413140601": {
    "TalkSentenceID": 413140601,
    "VoiceIDList": [
      424030185,
      424030186
    ]
  },
  "413141301": {
    "TalkSentenceID": 413141301,
    "VoiceIDList": [
      424030187,
      424030188
    ]
  },
  "413071601": {
    "TalkSentenceID": 413071601,
    "VoiceIDList": [
      424030190
    ]
  },
  "413071901": {
    "TalkSentenceID": 413071901,
    "VoiceIDList": [
      424030192
    ]
  },
  "413071301": {
    "TalkSentenceID": 413071301,
    "VoiceIDList": [
      424030194
    ]
  },
  "413071801": {
    "TalkSentenceID": 413071801,
    "VoiceIDList": [
      424030196
    ]
  },
  "413061101": {
    "TalkSentenceID": 413061101,
    "VoiceIDList": [
      424030197,
      424030198
    ]
  },
  "413061301": {
    "TalkSentenceID": 413061301,
    "VoiceIDList": [
      424030199,
      424030200
    ]
  },
  "413061601": {
    "TalkSentenceID": 413061601,
    "VoiceIDList": [
      424030201,
      424030202
    ]
  },
  "413061801": {
    "TalkSentenceID": 413061801,
    "VoiceIDList": [
      424030203,
      424030204
    ]
  },
  "413160901": {
    "TalkSentenceID": 413160901,
    "VoiceIDList": [
      424030205,
      424030206
    ]
  },
  "413160601": {
    "TalkSentenceID": 413160601,
    "VoiceIDList": [
      424030207,
      424030208
    ]
  },
  "413161401": {
    "TalkSentenceID": 413161401,
    "VoiceIDList": [
      424030209,
      424030210
    ]
  },
  "413161101": {
    "TalkSentenceID": 413161101,
    "VoiceIDList": [
      424030211,
      424030212
    ]
  },
  "413120201": {
    "TalkSentenceID": 413120201,
    "VoiceIDList": [
      424030213,
      424030214
    ]
  },
  "413110501": {
    "TalkSentenceID": 413110501,
    "VoiceIDList": [
      424030215,
      424030216
    ]
  },
  "203019901": {
    "TalkSentenceID": 203019901,
    "VoiceIDList": [
      424030217,
      424030218
    ]
  },
  "413130701": {
    "TalkSentenceID": 413130701,
    "VoiceIDList": [
      424030219,
      424030220
    ]
  },
  "413010201": {
    "TalkSentenceID": 413010201,
    "VoiceIDList": [
      424030221,
      424030222
    ]
  },
  "413140201": {
    "TalkSentenceID": 413140201,
    "VoiceIDList": [
      424030223,
      424030224
    ]
  },
  "413070201": {
    "TalkSentenceID": 413070201,
    "VoiceIDList": [
      424030225,
      424030226
    ]
  },
  "413060201": {
    "TalkSentenceID": 413060201,
    "VoiceIDList": [
      424030227,
      424030228
    ]
  },
  "413160201": {
    "TalkSentenceID": 413160201,
    "VoiceIDList": [
      424030229,
      424030230
    ]
  },
  "503019302": {
    "TalkSentenceID": 503019302,
    "VoiceIDList": [
      424030231,
      424030232
    ]
  },
  "503019502": {
    "TalkSentenceID": 503019502,
    "VoiceIDList": [
      424030233,
      424030234
    ]
  },
  "503019802": {
    "TalkSentenceID": 503019802,
    "VoiceIDList": [
      424030235,
      424030236
    ]
  },
  "503019932": {
    "TalkSentenceID": 503019932,
    "VoiceIDList": [
      424030237,
      424030238
    ]
  },
  "413090124": {
    "TalkSentenceID": 413090124,
    "VoiceIDList": [
      413090124,
      413090125
    ]
  },
  "413100302": {
    "TalkSentenceID": 413100302,
    "VoiceIDList": [
      413100302,
      413100303
    ]
  },
  "413020501": {
    "TalkSentenceID": 413020501,
    "VoiceIDList": [
      424030245,
      424030246
    ]
  },
  "413040401": {
    "TalkSentenceID": 413040401,
    "VoiceIDList": [
      424030247,
      424030248
    ]
  },
  "413080301": {
    "TalkSentenceID": 413080301,
    "VoiceIDList": [
      424030249,
      424030250
    ]
  },
  "413050401": {
    "TalkSentenceID": 413050401,
    "VoiceIDList": [
      413050101,
      413050102
    ]
  },
  "503040001": {
    "TalkSentenceID": 503040001,
    "VoiceIDList": [
      503040001,
      503040002
    ]
  },
  "503040003": {
    "TalkSentenceID": 503040003,
    "VoiceIDList": [
      503040003,
      503040004
    ]
  },
  "503040005": {
    "TalkSentenceID": 503040005,
    "VoiceIDList": [
      503040005,
      503040006
    ]
  },
  "503040007": {
    "TalkSentenceID": 503040007,
    "VoiceIDList": [
      503040007,
      503040008
    ]
  },
  "503040009": {
    "TalkSentenceID": 503040009,
    "VoiceIDList": [
      503040009,
      503040010
    ]
  },
  "503040011": {
    "TalkSentenceID": 503040011,
    "VoiceIDList": [
      503040011,
      503040012
    ]
  },
  "503040013": {
    "TalkSentenceID": 503040013,
    "VoiceIDList": [
      503040013,
      503040014
    ]
  },
  "503040015": {
    "TalkSentenceID": 503040015,
    "VoiceIDList": [
      503040015,
      503040016
    ]
  },
  "503040017": {
    "TalkSentenceID": 503040017,
    "VoiceIDList": [
      503040017,
      503040018
    ]
  },
  "413220201": {
    "TalkSentenceID": 413220201,
    "VoiceIDList": [
      503040019,
      503040020
    ]
  },
  "503040021": {
    "TalkSentenceID": 503040021,
    "VoiceIDList": [
      503040021,
      503040022
    ]
  },
  "503040023": {
    "TalkSentenceID": 503040023,
    "VoiceIDList": [
      503040023,
      503040024
    ]
  },
  "503040025": {
    "TalkSentenceID": 503040025,
    "VoiceIDList": [
      503040025,
      503040026
    ]
  },
  "503040027": {
    "TalkSentenceID": 503040027,
    "VoiceIDList": [
      503040027,
      503040028
    ]
  },
  "503040029": {
    "TalkSentenceID": 503040029,
    "VoiceIDList": [
      503040029,
      503040030
    ]
  },
  "503040031": {
    "TalkSentenceID": 503040031,
    "VoiceIDList": [
      503040031,
      503040032
    ]
  },
  "503040033": {
    "TalkSentenceID": 503040033,
    "VoiceIDList": [
      503040033,
      503040034
    ]
  },
  "503040035": {
    "TalkSentenceID": 503040035,
    "VoiceIDList": [
      503040035,
      503040036
    ]
  },
  "503040037": {
    "TalkSentenceID": 503040037,
    "VoiceIDList": [
      503040037,
      503040038
    ]
  },
  "503040039": {
    "TalkSentenceID": 503040039,
    "VoiceIDList": [
      503040039,
      503040040
    ]
  },
  "503047061": {
    "TalkSentenceID": 503047061,
    "VoiceIDList": [
      503040041,
      503040042
    ]
  },
  "503047151": {
    "TalkSentenceID": 503047151,
    "VoiceIDList": [
      503040043,
      503040044
    ]
  },
  "503047081": {
    "TalkSentenceID": 503047081,
    "VoiceIDList": [
      503040045,
      503040046
    ]
  },
  "503047131": {
    "TalkSentenceID": 503047131,
    "VoiceIDList": [
      503040047,
      503040048
    ]
  },
  "503040049": {
    "TalkSentenceID": 503040049,
    "VoiceIDList": [
      503040049,
      503040050
    ]
  },
  "503040041": {
    "TalkSentenceID": 503040041,
    "VoiceIDList": [
      503040051,
      503040052
    ]
  },
  "503040043": {
    "TalkSentenceID": 503040043,
    "VoiceIDList": [
      503040053,
      503040054
    ]
  },
  "503040045": {
    "TalkSentenceID": 503040045,
    "VoiceIDList": [
      503040055,
      503040056
    ]
  },
  "503040047": {
    "TalkSentenceID": 503040047,
    "VoiceIDList": [
      503040057,
      503040058
    ]
  },
  "503040059": {
    "TalkSentenceID": 503040059,
    "VoiceIDList": [
      503040059,
      503040060
    ]
  },
  "503040061": {
    "TalkSentenceID": 503040061,
    "VoiceIDList": [
      503040061,
      503040062
    ]
  },
  "503040063": {
    "TalkSentenceID": 503040063,
    "VoiceIDList": [
      503040063,
      503040064
    ]
  },
  "503040065": {
    "TalkSentenceID": 503040065,
    "VoiceIDList": [
      503040065,
      503040066
    ]
  },
  "503040067": {
    "TalkSentenceID": 503040067,
    "VoiceIDList": [
      503040067,
      503040068
    ]
  },
  "503040069": {
    "TalkSentenceID": 503040069,
    "VoiceIDList": [
      503040069,
      503040070
    ]
  },
  "503040070": {
    "TalkSentenceID": 503040070,
    "VoiceIDList": [
      503040071,
      503040072
    ]
  },
  "503042061": {
    "TalkSentenceID": 503042061,
    "VoiceIDList": [
      503040073,
      503040074
    ]
  },
  "503042111": {
    "TalkSentenceID": 503042111,
    "VoiceIDList": [
      503040075,
      503040076
    ]
  },
  "503042081": {
    "TalkSentenceID": 503042081,
    "VoiceIDList": [
      503040077,
      503040078
    ]
  },
  "503042141": {
    "TalkSentenceID": 503042141,
    "VoiceIDList": [
      503040079,
      503040080
    ]
  },
  "503045061": {
    "TalkSentenceID": 503045061,
    "VoiceIDList": [
      503040081,
      503040082
    ]
  },
  "503045131": {
    "TalkSentenceID": 503045131,
    "VoiceIDList": [
      503040083,
      503040084
    ]
  },
  "503045081": {
    "TalkSentenceID": 503045081,
    "VoiceIDList": [
      503040085,
      503040086
    ]
  },
  "503045161": {
    "TalkSentenceID": 503045161,
    "VoiceIDList": [
      503040087,
      503040088
    ]
  },
  "503046061": {
    "TalkSentenceID": 503046061,
    "VoiceIDList": [
      503040089,
      503040090
    ]
  },
  "503046131": {
    "TalkSentenceID": 503046131,
    "VoiceIDList": [
      503040091,
      503040092
    ]
  },
  "503046081": {
    "TalkSentenceID": 503046081,
    "VoiceIDList": [
      503040093,
      503040094
    ]
  },
  "503046151": {
    "TalkSentenceID": 503046151,
    "VoiceIDList": [
      503040095,
      503040096
    ]
  },
  "503040071": {
    "TalkSentenceID": 503040071,
    "VoiceIDList": [
      503040097,
      503040098
    ]
  },
  "503040121": {
    "TalkSentenceID": 503040121,
    "VoiceIDList": [
      503040099,
      503040100
    ]
  },
  "503040091": {
    "TalkSentenceID": 503040091,
    "VoiceIDList": [
      503040101,
      503040102
    ]
  },
  "503040051": {
    "TalkSentenceID": 503040051,
    "VoiceIDList": [
      503040103,
      503040104
    ]
  },
  "503041051": {
    "TalkSentenceID": 503041051,
    "VoiceIDList": [
      503040105,
      503040106
    ]
  },
  "503041101": {
    "TalkSentenceID": 503041101,
    "VoiceIDList": [
      503040107,
      503040108
    ]
  },
  "503041071": {
    "TalkSentenceID": 503041071,
    "VoiceIDList": [
      503040109,
      503040110
    ]
  },
  "503041121": {
    "TalkSentenceID": 503041121,
    "VoiceIDList": [
      503040111,
      503040112
    ]
  },
  "503048111": {
    "TalkSentenceID": 503048111,
    "VoiceIDList": [
      503040113,
      503040114
    ]
  },
  "503048151": {
    "TalkSentenceID": 503048151,
    "VoiceIDList": [
      503040115,
      503040116
    ]
  },
  "503048131": {
    "TalkSentenceID": 503048131,
    "VoiceIDList": [
      503040117,
      503040118
    ]
  },
  "503048171": {
    "TalkSentenceID": 503048171,
    "VoiceIDList": [
      503040119,
      503040120
    ]
  },
  "503040122": {
    "TalkSentenceID": 503040122,
    "VoiceIDList": [
      503040121,
      503040122
    ]
  },
  "503040123": {
    "TalkSentenceID": 503040123,
    "VoiceIDList": [
      503040123,
      503040124
    ]
  },
  "503040125": {
    "TalkSentenceID": 503040125,
    "VoiceIDList": [
      503040125,
      503040126
    ]
  },
  "503040127": {
    "TalkSentenceID": 503040127,
    "VoiceIDList": [
      503040127,
      503040128
    ]
  },
  "413210202": {
    "TalkSentenceID": 413210202,
    "VoiceIDList": [
      503040129,
      503040130
    ]
  },
  "413211301": {
    "TalkSentenceID": 413211301,
    "VoiceIDList": [
      503040131,
      503040132
    ]
  },
  "413211701": {
    "TalkSentenceID": 413211701,
    "VoiceIDList": [
      503040133,
      503040134
    ]
  },
  "413211101": {
    "TalkSentenceID": 413211101,
    "VoiceIDList": [
      503040135,
      503040136
    ]
  },
  "413211501": {
    "TalkSentenceID": 413211501,
    "VoiceIDList": [
      503040137,
      503040138
    ]
  },
  "503040139": {
    "TalkSentenceID": 503040139,
    "VoiceIDList": [
      503040139,
      503040140
    ]
  },
  "503040141": {
    "TalkSentenceID": 503040141,
    "VoiceIDList": [
      503040141,
      503040142
    ]
  },
  "503040143": {
    "TalkSentenceID": 503040143,
    "VoiceIDList": [
      503040143,
      503040144
    ]
  },
  "503040145": {
    "TalkSentenceID": 503040145,
    "VoiceIDList": [
      503040145,
      503040146
    ]
  },
  "503040147": {
    "TalkSentenceID": 503040147,
    "VoiceIDList": [
      503040147,
      503040148
    ]
  },
  "503038043": {
    "TalkSentenceID": 503038043,
    "VoiceIDList": [
      503040149,
      503040150
    ]
  },
  "503038055": {
    "TalkSentenceID": 503038055,
    "VoiceIDList": [
      503040151,
      503040152
    ]
  },
  "503038048": {
    "TalkSentenceID": 503038048,
    "VoiceIDList": [
      503040153,
      503040154
    ]
  },
  "503038063": {
    "TalkSentenceID": 503038063,
    "VoiceIDList": [
      503040155,
      503040156
    ]
  },
  "503039036": {
    "TalkSentenceID": 503039036,
    "VoiceIDList": [
      503040157,
      503040158
    ]
  },
  "503039050": {
    "TalkSentenceID": 503039050,
    "VoiceIDList": [
      503040159,
      503040160
    ]
  },
  "503039039": {
    "TalkSentenceID": 503039039,
    "VoiceIDList": [
      503040161,
      503040162
    ]
  },
  "503039067": {
    "TalkSentenceID": 503039067,
    "VoiceIDList": [
      503040163,
      503040164
    ]
  },
  "503043027": {
    "TalkSentenceID": 503043027,
    "VoiceIDList": [
      503040165,
      503040166
    ]
  },
  "503043036": {
    "TalkSentenceID": 503043036,
    "VoiceIDList": [
      503040167,
      503040168
    ]
  },
  "503043030": {
    "TalkSentenceID": 503043030,
    "VoiceIDList": [
      503040169,
      503040170
    ]
  },
  "503043052": {
    "TalkSentenceID": 503043052,
    "VoiceIDList": [
      503040171,
      503040172
    ]
  },
  "503044045": {
    "TalkSentenceID": 503044045,
    "VoiceIDList": [
      503040173,
      503040174
    ]
  },
  "503044060": {
    "TalkSentenceID": 503044060,
    "VoiceIDList": [
      503040175,
      503040176
    ]
  },
  "503044048": {
    "TalkSentenceID": 503044048,
    "VoiceIDList": [
      503040177,
      503040178
    ]
  },
  "503044067": {
    "TalkSentenceID": 503044067,
    "VoiceIDList": [
      503040179,
      503040180
    ]
  },
  "413200202": {
    "TalkSentenceID": 413200202,
    "VoiceIDList": [
      413200202,
      413200203
    ]
  },
  "413200902": {
    "TalkSentenceID": 413200902,
    "VoiceIDList": [
      413200902,
      413200903
    ]
  },
  "413200702": {
    "TalkSentenceID": 413200702,
    "VoiceIDList": [
      413200702,
      413200703
    ]
  },
  "413201502": {
    "TalkSentenceID": 413201502,
    "VoiceIDList": [
      413201502,
      413201503
    ]
  },
  "413201202": {
    "TalkSentenceID": 413201202,
    "VoiceIDList": [
      413201202,
      413201203
    ]
  },
  "503052032": {
    "TalkSentenceID": 503052032,
    "VoiceIDList": [
      503052001,
      503052002
    ]
  },
  "503052047": {
    "TalkSentenceID": 503052047,
    "VoiceIDList": [
      503052001,
      503052002
    ]
  },
  "503052040": {
    "TalkSentenceID": 503052040,
    "VoiceIDList": [
      503052001,
      503052002
    ]
  },
  "503052056": {
    "TalkSentenceID": 503052056,
    "VoiceIDList": [
      503052001,
      503052002
    ]
  },
  "503053077": {
    "TalkSentenceID": 503053077,
    "VoiceIDList": [
      503053001,
      503053002
    ]
  },
  "503053064": {
    "TalkSentenceID": 503053064,
    "VoiceIDList": [
      503053003,
      503053004
    ]
  },
  "503053056": {
    "TalkSentenceID": 503053056,
    "VoiceIDList": [
      503053005,
      503053006
    ]
  },
  "503053048": {
    "TalkSentenceID": 503053048,
    "VoiceIDList": [
      503053007,
      503053008
    ]
  },
  "503054035": {
    "TalkSentenceID": 503054035,
    "VoiceIDList": [
      503054001,
      503054002
    ]
  },
  "503054049": {
    "TalkSentenceID": 503054049,
    "VoiceIDList": [
      503054003,
      503054004
    ]
  },
  "503054041": {
    "TalkSentenceID": 503054041,
    "VoiceIDList": [
      503054005,
      503054006
    ]
  },
  "503054060": {
    "TalkSentenceID": 503054060,
    "VoiceIDList": [
      503054007,
      503054008
    ]
  },
  "503055077": {
    "TalkSentenceID": 503055077,
    "VoiceIDList": [
      503055001,
      503055002
    ]
  },
  "503055065": {
    "TalkSentenceID": 503055065,
    "VoiceIDList": [
      503055003,
      503055004
    ]
  },
  "503055059": {
    "TalkSentenceID": 503055059,
    "VoiceIDList": [
      503055005,
      503055006
    ]
  },
  "503055050": {
    "TalkSentenceID": 503055050,
    "VoiceIDList": [
      503055007,
      503055008
    ]
  },
  "503056034": {
    "TalkSentenceID": 503056034,
    "VoiceIDList": [
      503056001,
      503056002
    ]
  },
  "503056084": {
    "TalkSentenceID": 503056084,
    "VoiceIDList": [
      503056003,
      503056004
    ]
  },
  "503056053": {
    "TalkSentenceID": 503056053,
    "VoiceIDList": [
      503056005,
      503056006
    ]
  },
  "503056038": {
    "TalkSentenceID": 503056038,
    "VoiceIDList": [
      503056007,
      503056008
    ]
  },
  "503057033": {
    "TalkSentenceID": 503057033,
    "VoiceIDList": [
      503057001,
      503057002
    ]
  },
  "503057048": {
    "TalkSentenceID": 503057048,
    "VoiceIDList": [
      503057003,
      503057004
    ]
  },
  "503057040": {
    "TalkSentenceID": 503057040,
    "VoiceIDList": [
      503057005,
      503057006
    ]
  },
  "503057055": {
    "TalkSentenceID": 503057055,
    "VoiceIDList": [
      503057007,
      503057008
    ]
  },
  "503058040": {
    "TalkSentenceID": 503058040,
    "VoiceIDList": [
      503058001,
      503058002
    ]
  },
  "503058032": {
    "TalkSentenceID": 503058032,
    "VoiceIDList": [
      503058003,
      503058004
    ]
  },
  "503058055": {
    "TalkSentenceID": 503058055,
    "VoiceIDList": [
      503058005,
      503058006
    ]
  },
  "503058063": {
    "TalkSentenceID": 503058063,
    "VoiceIDList": [
      503058007,
      503058008
    ]
  },
  "503072046": {
    "TalkSentenceID": 503072046,
    "VoiceIDList": [
      503059001,
      503059002
    ]
  },
  "503072059": {
    "TalkSentenceID": 503072059,
    "VoiceIDList": [
      503059003,
      503059004
    ]
  },
  "503072066": {
    "TalkSentenceID": 503072066,
    "VoiceIDList": [
      503059005,
      503059006
    ]
  },
  "503072040": {
    "TalkSentenceID": 503072040,
    "VoiceIDList": [
      503059007,
      503059008
    ]
  },
  "503059071": {
    "TalkSentenceID": 503059071,
    "VoiceIDList": [
      503060007,
      503060008
    ]
  },
  "503059081": {
    "TalkSentenceID": 503059081,
    "VoiceIDList": [
      503060001,
      503060002
    ]
  },
  "503059101": {
    "TalkSentenceID": 503059101,
    "VoiceIDList": [
      503060005,
      503060006
    ]
  },
  "503059121": {
    "TalkSentenceID": 503059121,
    "VoiceIDList": [
      503060003,
      503060004
    ]
  },
  "503060061": {
    "TalkSentenceID": 503060061,
    "VoiceIDList": [
      503060103,
      503060104
    ]
  },
  "503060081": {
    "TalkSentenceID": 503060081,
    "VoiceIDList": [
      503060107,
      503060108
    ]
  },
  "503060101": {
    "TalkSentenceID": 503060101,
    "VoiceIDList": [
      503060105,
      503060106
    ]
  },
  "503060121": {
    "TalkSentenceID": 503060121,
    "VoiceIDList": [
      503060109,
      503060110
    ]
  },
  "503061061": {
    "TalkSentenceID": 503061061,
    "VoiceIDList": [
      503060033,
      503060034
    ]
  },
  "503061081": {
    "TalkSentenceID": 503061081,
    "VoiceIDList": [
      503060037,
      503060038
    ]
  },
  "503061111": {
    "TalkSentenceID": 503061111,
    "VoiceIDList": [
      503060035,
      503060036
    ]
  },
  "503061131": {
    "TalkSentenceID": 503061131,
    "VoiceIDList": [
      503060039,
      503060040
    ]
  },
  "503062086": {
    "TalkSentenceID": 503062086,
    "VoiceIDList": [
      503060041,
      503060042
    ]
  },
  "503062096": {
    "TalkSentenceID": 503062096,
    "VoiceIDList": [
      503060045,
      503060046
    ]
  },
  "503062106": {
    "TalkSentenceID": 503062106,
    "VoiceIDList": [
      503060043,
      503060044
    ]
  },
  "503062131": {
    "TalkSentenceID": 503062131,
    "VoiceIDList": [
      503060047,
      503060048
    ]
  },
  "503063061": {
    "TalkSentenceID": 503063061,
    "VoiceIDList": [
      503060049,
      503060050
    ]
  },
  "503063081": {
    "TalkSentenceID": 503063081,
    "VoiceIDList": [
      503060053,
      503060054
    ]
  },
  "503063101": {
    "TalkSentenceID": 503063101,
    "VoiceIDList": [
      503060051,
      503060052
    ]
  },
  "503063131": {
    "TalkSentenceID": 503063131,
    "VoiceIDList": [
      503060055,
      503060056
    ]
  },
  "503064061": {
    "TalkSentenceID": 503064061,
    "VoiceIDList": [
      503060063,
      503060064
    ]
  },
  "503064081": {
    "TalkSentenceID": 503064081,
    "VoiceIDList": [
      503060057,
      503060058
    ]
  },
  "503064102": {
    "TalkSentenceID": 503064102,
    "VoiceIDList": [
      503060059,
      503060060
    ]
  },
  "503064121": {
    "TalkSentenceID": 503064121,
    "VoiceIDList": [
      503060061,
      503060062
    ]
  },
  "503065061": {
    "TalkSentenceID": 503065061,
    "VoiceIDList": [
      503060069,
      503060070
    ]
  },
  "503065081": {
    "TalkSentenceID": 503065081,
    "VoiceIDList": [
      503060065,
      503060066
    ]
  },
  "503065101": {
    "TalkSentenceID": 503065101,
    "VoiceIDList": [
      503060067,
      503060068
    ]
  },
  "503065121": {
    "TalkSentenceID": 503065121,
    "VoiceIDList": [
      503060071,
      503060072
    ]
  },
  "503066061": {
    "TalkSentenceID": 503066061,
    "VoiceIDList": [
      503060079,
      503060080
    ]
  },
  "503066081": {
    "TalkSentenceID": 503066081,
    "VoiceIDList": [
      503060073,
      503060074
    ]
  },
  "503066101": {
    "TalkSentenceID": 503066101,
    "VoiceIDList": [
      503060075,
      503060076
    ]
  },
  "503066121": {
    "TalkSentenceID": 503066121,
    "VoiceIDList": [
      503060077,
      503060078
    ]
  },
  "503067066": {
    "TalkSentenceID": 503067066,
    "VoiceIDList": [
      503060089,
      503060090
    ]
  },
  "503067081": {
    "TalkSentenceID": 503067081,
    "VoiceIDList": [
      503060093,
      503060094
    ]
  },
  "503067111": {
    "TalkSentenceID": 503067111,
    "VoiceIDList": [
      503060091,
      503060092
    ]
  },
  "503067131": {
    "TalkSentenceID": 503067131,
    "VoiceIDList": [
      503060095,
      503060096
    ]
  },
  "503068071": {
    "TalkSentenceID": 503068071,
    "VoiceIDList": [
      503060097,
      503060098
    ]
  },
  "503068091": {
    "TalkSentenceID": 503068091,
    "VoiceIDList": [
      503060097,
      503060098
    ]
  },
  "503068111": {
    "TalkSentenceID": 503068111,
    "VoiceIDList": [
      503060097,
      503060098
    ]
  },
  "503068141": {
    "TalkSentenceID": 503068141,
    "VoiceIDList": [
      503060097,
      503060098
    ]
  },
  "503069071": {
    "TalkSentenceID": 503069071,
    "VoiceIDList": [
      503060099,
      503060100
    ]
  },
  "503069091": {
    "TalkSentenceID": 503069091,
    "VoiceIDList": [
      503060099,
      503060100
    ]
  },
  "503069111": {
    "TalkSentenceID": 503069111,
    "VoiceIDList": [
      503060099,
      503060100
    ]
  },
  "503069131": {
    "TalkSentenceID": 503069131,
    "VoiceIDList": [
      503060099,
      503060100
    ]
  },
  "503071061": {
    "TalkSentenceID": 503071061,
    "VoiceIDList": [
      503060025,
      503060026
    ]
  },
  "503071081": {
    "TalkSentenceID": 503071081,
    "VoiceIDList": [
      503060029,
      503060030
    ]
  },
  "503071101": {
    "TalkSentenceID": 503071101,
    "VoiceIDList": [
      503060027,
      503060028
    ]
  },
  "503071121": {
    "TalkSentenceID": 503071121,
    "VoiceIDList": [
      503060031,
      503060032
    ]
  },
  "503073081": {
    "TalkSentenceID": 503073081,
    "VoiceIDList": [
      503060101,
      503060102
    ]
  },
  "503073111": {
    "TalkSentenceID": 503073111,
    "VoiceIDList": [
      503060101,
      503060102
    ]
  },
  "503073141": {
    "TalkSentenceID": 503073141,
    "VoiceIDList": [
      503060101,
      503060102
    ]
  },
  "503073162": {
    "TalkSentenceID": 503073162,
    "VoiceIDList": [
      503060101,
      503060102
    ]
  },
  "503074041": {
    "TalkSentenceID": 503074041,
    "VoiceIDList": [
      503060009,
      503060010
    ]
  },
  "503075101": {
    "TalkSentenceID": 503075101,
    "VoiceIDList": [
      503060081,
      503060082
    ]
  },
  "503075121": {
    "TalkSentenceID": 503075121,
    "VoiceIDList": [
      503060087,
      503060088
    ]
  },
  "503075141": {
    "TalkSentenceID": 503075141,
    "VoiceIDList": [
      503060083,
      503060084
    ]
  },
  "503075161": {
    "TalkSentenceID": 503075161,
    "VoiceIDList": [
      503060085,
      503060086
    ]
  },
  "413230301": {
    "TalkSentenceID": 413230301,
    "VoiceIDList": [
      413230701,
      413230702
    ]
  },
  "413230901": {
    "TalkSentenceID": 413230901,
    "VoiceIDList": [
      413230901,
      413230902
    ]
  },
  "413230701": {
    "TalkSentenceID": 413230701,
    "VoiceIDList": [
      413230701,
      413230702
    ]
  },
  "413231101": {
    "TalkSentenceID": 413231101,
    "VoiceIDList": [
      413231101,
      413231102
    ]
  },
  "413231301": {
    "TalkSentenceID": 413231301,
    "VoiceIDList": [
      413231301,
      413231302
    ]
  }
}