{
  "TravelBrochure_Show_World": {
    "ConstValueName": "TravelBrochure_Show_World",
    "Value": {
      "IntValue": 401
    }
  },
  "TravelBrochure_Item_ID": {
    "ConstValueName": "TravelBrochure_Item_ID",
    "Value": {
      "IntValue": 222000
    }
  },
  "Player_NoInput_Timeout": {
    "ConstValueName": "Player_NoInput_Timeout",
    "Value": {
      "IntValue": 60
    }
  },
  "Player_Input_Time": {
    "ConstValueName": "Player_Input_Time",
    "Value": {
      "IntValue": 10
    }
  },
  "Player_Input_Count": {
    "ConstValueName": "Player_Input_Count",
    "Value": {
      "IntValue": 5
    }
  },
  "PasterAchievement_Quest_ID": {
    "ConstValueName": "PasterAchievement_Quest_ID",
    "Value": {
      "ArrayValue": [
        {
          "IntValue": 1003100
        },
        {
          "IntValue": 1003101
        },
        {
          "IntValue": 1003102
        },
        {
          "IntValue": 1003103
        },
        {
          "IntValue": 1003104
        },
        {
          "IntValue": 1003105
        },
        {
          "IntValue": 1003106
        },
        {
          "IntValue": 1003107
        },
        {
          "IntValue": 1003108
        },
        {
          "IntValue": 1003109
        },
        {
          "IntValue": 1003110
        }
      ]
    }
  },
  "Player_NoInput_ChatList": {
    "ConstValueName": "Player_NoInput_ChatList",
    "Value": {
      "ArrayValue": [
        {
          "StringValue": "UIText_TravelBrochure_Player_NoInput_ChatList01"
        },
        {
          "StringValue": "UIText_TravelBrochure_Player_NoInput_ChatList02"
        }
      ]
    }
  },
  "Player_Input_ChatList": {
    "ConstValueName": "Player_Input_ChatList",
    "Value": {
      "ArrayValue": [
        {
          "StringValue": "UIText_TravelBrochure_Player_Input_ChatList01"
        },
        {
          "StringValue": "UIText_TravelBrochure_Player_Input_ChatList02"
        }
      ]
    }
  },
  "Player_PasterPage_NoInput_ChatList": {
    "ConstValueName": "Player_PasterPage_NoInput_ChatList",
    "Value": {
      "ArrayValue": [
        {
          "StringValue": "UIText_TravelBrochure_Player_PasterPage_NoInput_ChatList01"
        },
        {
          "StringValue": "UIText_TravelBrochure_Player_PasterPage_NoInput_ChatList02"
        }
      ]
    }
  },
  "TravelBrochure_ToBeContinued": {
    "ConstValueName": "TravelBrochure_ToBeContinued",
    "Value": {
      "IntValue": 1
    }
  },
  "TravelBrochure_Weightlessness": {
    "ConstValueName": "TravelBrochure_Weightlessness",
    "Value": {
      "ArrayValue": [
        {
          "IntValue": 7
        },
        {
          "IntValue": 8
        }
      ]
    }
  },
  "TravelBrochure_UnlockStoryline": {
    "ConstValueName": "TravelBrochure_UnlockStoryline",
    "Value": {
      "ArrayValue": [
        {
          "IntValue": 0
        }
      ]
    }
  }
}