{
  "1": {
    "VideoID": 1,
    "VideoPath": "CS_Chap01_Act010.usm",
    "IsPlayerInvolved": true,
    "CaptionPath": "Config/CutSceneCaption/CS_Chap01_Act010_Caption.json",
    "Encryption": true
  },
  "2": {
    "VideoID": 2,
    "VideoPath": "CS_Chap01_Act020.usm",
    "IsPlayerInvolved": true,
    "CaptionPath": "Config/CutSceneCaption/CS_Chap01_Act020_Caption.json",
    "Encryption": true
  },
  "3": {
    "VideoID": 3,
    "VideoPath": "CS_Chap01_Act110.usm",
    "IsPlayerInvolved": true,
    "CaptionPath": "Config/CutSceneCaption/CS_Chap01_Act110_Caption.json",
    "Encryption": true
  },
  "4": {
    "VideoID": 4,
    "VideoPath": "CS_Chap01_Act120.usm",
    "IsPlayerInvolved": true,
    "CaptionPath": "",
    "Encryption": true
  },
  "5": {
    "VideoID": 5,
    "VideoPath": "CS_Chap01_Act130.usm",
    "IsPlayerInvolved": true,
    "CaptionPath": "Config/CutSceneCaption/CS_Chap01_Act130_Caption.json",
    "Encryption": true
  },
  "7": {
    "VideoID": 7,
    "VideoPath": "CS_Chap01_Act150.usm",
    "IsPlayerInvolved": true,
    "CaptionPath": "Config/CutSceneCaption/CS_Chap01_Act150_Caption.json",
    "Encryption": true
  },
  "8": {
    "VideoID": 8,
    "VideoPath": "CS_Chap00_Act210.usm",
    "CaptionPath": "Config/CutSceneCaption/CS_Chap00_Act210_Caption.json",
    "Encryption": true
  },
  "16": {
    "VideoID": 16,
    "VideoPath": "CS_Chap00_Act270.usm",
    "IsPlayerInvolved": true,
    "CaptionPath": "Config/CutSceneCaption/CS_Chap00_Act270_Caption.json",
    "Encryption": true
  },
  "21": {
    "VideoID": 21,
    "VideoPath": "CS_Chap00_Act300.usm",
    "IsPlayerInvolved": true,
    "CaptionPath": "Config/CutSceneCaption/CS_Chap00_Act300_Caption.json",
    "Encryption": true
  },
  "100": {
    "VideoID": 100,
    "VideoPath": "CS_Chap01_Act3010.usm",
    "CaptionPath": "Config/CutSceneCaption/CS_Chap01_Act3010_Caption.json",
    "Encryption": true
  },
  "101": {
    "VideoID": 101,
    "VideoPath": "CS_Chap01_Act3020.usm",
    "CaptionPath": "Config/CutSceneCaption/CS_Chap01_Act3020_Caption.json",
    "Encryption": true
  },
  "102": {
    "VideoID": 102,
    "VideoPath": "CS_Chap01_Act3030.usm",
    "CaptionPath": "Config/CutSceneCaption/CS_Chap01_Act3030_Caption.json",
    "Encryption": true
  },
  "310": {
    "VideoID": 310,
    "VideoPath": "CS_Chap00_Act310.usm",
    "IsPlayerInvolved": true,
    "CaptionPath": "Config/CutSceneCaption/CS_Chap00_Act310_Caption.json",
    "Encryption": true
  },
  "320": {
    "VideoID": 320,
    "VideoPath": "CS_Chap00_Act320.usm",
    "IsPlayerInvolved": true,
    "CaptionPath": "Config/CutSceneCaption/CS_Chap00_Act320_Caption.json",
    "Encryption": true
  },
  "301": {
    "VideoID": 301,
    "VideoPath": "CS_Chap00_Act3010.usm",
    "CaptionPath": "Config/CutSceneCaption/CS_Chap00_Act3010_Caption.json",
    "Encryption": true
  },
  "302": {
    "VideoID": 302,
    "VideoPath": "CS_Chap00_Act3020.usm",
    "CaptionPath": "Config/CutSceneCaption/CS_Chap00_Act3020_Caption.json",
    "Encryption": true
  },
  "330": {
    "VideoID": 330,
    "VideoPath": "CS_Chap00_Act330.usm",
    "IsPlayerInvolved": true,
    "CaptionPath": "",
    "Encryption": true
  },
  "340": {
    "VideoID": 340,
    "VideoPath": "CS_Chap00_Act340.usm",
    "IsPlayerInvolved": true,
    "CaptionPath": "",
    "Encryption": true
  },
  "350": {
    "VideoID": 350,
    "VideoPath": "CS_Chap00_Act350.usm",
    "IsPlayerInvolved": true,
    "CaptionPath": "Config/CutSceneCaption/CS_Chap00_Act350_Caption.json",
    "Encryption": true
  },
  "360": {
    "VideoID": 360,
    "VideoPath": "CS_Chap00_Act360.usm",
    "IsPlayerInvolved": true,
    "CaptionPath": "",
    "Encryption": true
  },
  "361": {
    "VideoID": 361,
    "VideoPath": "CS_Chap00_Act361.usm",
    "IsPlayerInvolved": true,
    "CaptionPath": "Config/CutSceneCaption/CS_Chap00_Act361_Caption.json",
    "Encryption": true
  },
  "370": {
    "VideoID": 370,
    "VideoPath": "CS_Chap00_Act370.usm",
    "CaptionPath": "",
    "Encryption": true
  },
  "380": {
    "VideoID": 380,
    "VideoPath": "CS_Chap00_Act380.usm",
    "IsPlayerInvolved": true,
    "CaptionPath": "Config/CutSceneCaption/CS_Chap00_Act380_Caption.json",
    "Encryption": true
  },
  "390": {
    "VideoID": 390,
    "VideoPath": "CS_Chap00_Act390.usm",
    "IsPlayerInvolved": true,
    "CaptionPath": "Config/CutSceneCaption/CS_Chap00_Act390_Caption.json",
    "Encryption": true
  },
  "400": {
    "VideoID": 400,
    "VideoPath": "CS_Chap00_Act400.usm",
    "IsPlayerInvolved": true,
    "CaptionPath": "",
    "Encryption": true
  },
  "410": {
    "VideoID": 410,
    "VideoPath": "CS_Chap00_Act410.usm",
    "IsPlayerInvolved": true,
    "CaptionPath": "",
    "Encryption": true
  },
  "411": {
    "VideoID": 411,
    "VideoPath": "CS_Chap00_Act411.usm",
    "CaptionPath": "Config/CutSceneCaption/CS_Chap00_Act411_Caption.json",
    "Encryption": true
  },
  "420": {
    "VideoID": 420,
    "VideoPath": "CS_Chap00_Act420.usm",
    "CaptionPath": "Config/CutSceneCaption/CS_Chap00_Act420_Caption.json",
    "Encryption": true
  },
  "1160": {
    "VideoID": 1160,
    "VideoPath": "CS_Chap01_Act160.usm",
    "CaptionPath": "Config/CutSceneCaption/CS_Chap01_Act160_Caption.json",
    "Encryption": true
  },
  "1170": {
    "VideoID": 1170,
    "VideoPath": "CS_Chap01_Act170.usm",
    "CaptionPath": "Config/CutSceneCaption/CS_Chap01_Act170_Caption.json",
    "Encryption": true
  },
  "1180": {
    "VideoID": 1180,
    "VideoPath": "CS_Chap01_Act180.usm",
    "CaptionPath": "Config/CutSceneCaption/CS_Chap01_Act180_Caption.json",
    "Encryption": true
  },
  "1190": {
    "VideoID": 1190,
    "VideoPath": "CS_Chap01_Act190.usm",
    "IsPlayerInvolved": true,
    "CaptionPath": "Config/CutSceneCaption/CS_Chap01_Act190_Caption.json",
    "Encryption": true
  },
  "1200": {
    "VideoID": 1200,
    "VideoPath": "CS_Chap01_Act200.usm",
    "CaptionPath": "Config/CutSceneCaption/CS_Chap01_Act200_Caption.json",
    "Encryption": true
  },
  "1210": {
    "VideoID": 1210,
    "VideoPath": "CS_Chap01_Act210.usm",
    "IsPlayerInvolved": true,
    "CaptionPath": "Config/CutSceneCaption/CS_Chap01_Act210_Caption.json",
    "Encryption": true
  },
  "1220": {
    "VideoID": 1220,
    "VideoPath": "CS_Chap01_Act220.usm",
    "IsPlayerInvolved": true,
    "CaptionPath": "",
    "Encryption": true
  },
  "1221": {
    "VideoID": 1221,
    "VideoPath": "CS_Chap01_Act221.usm",
    "IsPlayerInvolved": true,
    "CaptionPath": "",
    "Encryption": true
  },
  "1222": {
    "VideoID": 1222,
    "VideoPath": "CS_Chap01_Act222.usm",
    "CaptionPath": "",
    "Encryption": true
  },
  "1223": {
    "VideoID": 1223,
    "VideoPath": "CS_Chap01_Act223.usm",
    "IsPlayerInvolved": true,
    "CaptionPath": "",
    "Encryption": true
  },
  "1224": {
    "VideoID": 1224,
    "VideoPath": "CS_Chap01_Act224.usm",
    "IsPlayerInvolved": true,
    "CaptionPath": "",
    "Encryption": true
  },
  "1230": {
    "VideoID": 1230,
    "VideoPath": "CS_Chap01_Act230.usm",
    "IsPlayerInvolved": true,
    "CaptionPath": "",
    "Encryption": true
  },
  "1240": {
    "VideoID": 1240,
    "VideoPath": "CS_Chap01_Act240.usm",
    "IsPlayerInvolved": true,
    "CaptionPath": "Config/CutSceneCaption/CS_Chap01_Act240_Caption.json",
    "Encryption": true
  },
  "2302": {
    "VideoID": 2302,
    "VideoPath": "CS_Chap02_Act3020.usm",
    "CaptionPath": "Config/CutSceneCaption/CS_Chap02_Act3020_Caption.json",
    "Encryption": true
  },
  "1304": {
    "VideoID": 1304,
    "VideoPath": "CS_Chap01_Act3040.usm",
    "CaptionPath": "Config/CutSceneCaption/CS_Chap01_Act3040_Caption.json",
    "Encryption": true
  },
  "2420": {
    "VideoID": 2420,
    "VideoPath": "CS_Chap02_Act420.usm",
    "CaptionPath": "Config/CutSceneCaption/CS_Chap02_Act420_Caption.json",
    "Encryption": true
  },
  "2440": {
    "VideoID": 2440,
    "VideoPath": "CS_Chap02_Act440.usm",
    "IsPlayerInvolved": true,
    "CaptionPath": "Config/CutSceneCaption/CS_Chap02_Act440_Caption.json",
    "Encryption": true
  },
  "2450": {
    "VideoID": 2450,
    "VideoPath": "CS_Chap02_Act450.usm",
    "IsPlayerInvolved": true,
    "CaptionPath": "Config/CutSceneCaption/CS_Chap02_Act450_Caption.json",
    "Encryption": true
  },
  "2460": {
    "VideoID": 2460,
    "VideoPath": "CS_Chap02_Act460.usm",
    "CaptionPath": "Config/CutSceneCaption/CS_Chap02_Act460_Caption.json",
    "Encryption": true
  },
  "2480": {
    "VideoID": 2480,
    "VideoPath": "CS_Chap02_Act480.usm",
    "IsPlayerInvolved": true,
    "CaptionPath": "Config/CutSceneCaption/CS_Chap02_Act480_Caption.json",
    "Encryption": true
  },
  "2490": {
    "VideoID": 2490,
    "VideoPath": "CS_Chap02_Act490.usm",
    "IsPlayerInvolved": true,
    "CaptionPath": "Config/CutSceneCaption/CS_Chap02_Act490_Caption.json",
    "Encryption": true
  },
  "2530": {
    "VideoID": 2530,
    "VideoPath": "CS_Chap02_Act530.usm",
    "CaptionPath": "",
    "Encryption": true
  },
  "2550": {
    "VideoID": 2550,
    "VideoPath": "CS_Chap02_Act550.usm",
    "CaptionPath": "Config/CutSceneCaption/CS_Chap02_Act550_Caption.json",
    "Encryption": true
  },
  "2560": {
    "VideoID": 2560,
    "VideoPath": "CS_Chap02_Act560.usm",
    "CaptionPath": "",
    "Encryption": true
  },
  "2570": {
    "VideoID": 2570,
    "VideoPath": "CS_Chap02_Act570.usm",
    "IsPlayerInvolved": true,
    "CaptionPath": "",
    "Encryption": true
  },
  "2580": {
    "VideoID": 2580,
    "VideoPath": "CS_Chap02_Act580.usm",
    "IsPlayerInvolved": true,
    "CaptionPath": "Config/CutSceneCaption/CS_Chap02_Act580_Caption.json",
    "Encryption": true
  },
  "2620": {
    "VideoID": 2620,
    "VideoPath": "CS_Chap02_Act620.usm",
    "IsPlayerInvolved": true,
    "CaptionPath": "",
    "Encryption": true
  },
  "2630": {
    "VideoID": 2630,
    "VideoPath": "CS_Chap02_Act630.usm",
    "CaptionPath": "Config/CutSceneCaption/CS_Chap02_Act630_Caption.json",
    "Encryption": true
  },
  "2640": {
    "VideoID": 2640,
    "VideoPath": "CS_Chap02_Act640.usm",
    "CaptionPath": "Config/CutSceneCaption/CS_Chap02_Act640_Caption.json",
    "Encryption": true
  },
  "2660": {
    "VideoID": 2660,
    "VideoPath": "CS_Chap02_Act660.usm",
    "CaptionPath": "Config/CutSceneCaption/CS_Chap02_Act660_Caption.json",
    "Encryption": true
  },
  "2670": {
    "VideoID": 2670,
    "VideoPath": "CS_Chap02_Act670.usm",
    "IsPlayerInvolved": true,
    "CaptionPath": "Config/CutSceneCaption/CS_Chap02_Act670_Caption.json",
    "Encryption": true
  },
  "2680": {
    "VideoID": 2680,
    "VideoPath": "CS_Chap02_Act680.usm",
    "IsPlayerInvolved": true,
    "CaptionPath": "Config/CutSceneCaption/CS_Chap02_Act680_Caption.json",
    "Encryption": true
  },
  "2690": {
    "VideoID": 2690,
    "VideoPath": "CS_Chap02_Act690.usm",
    "IsPlayerInvolved": true,
    "CaptionPath": "Config/CutSceneCaption/CS_Chap02_Act690_Caption.json",
    "Encryption": true
  },
  "2700": {
    "VideoID": 2700,
    "VideoPath": "CS_Chap02_Act700.usm",
    "IsPlayerInvolved": true,
    "CaptionPath": "Config/CutSceneCaption/CS_Chap02_Act700_Caption.json",
    "Encryption": true
  },
  "2701": {
    "VideoID": 2701,
    "VideoPath": "CS_Chap02_Act701.usm",
    "IsPlayerInvolved": true,
    "CaptionPath": "Config/CutSceneCaption/CS_Chap02_Act701_Caption.json",
    "Encryption": true
  },
  "2710": {
    "VideoID": 2710,
    "VideoPath": "CS_Chap02_Act710.usm",
    "CaptionPath": "",
    "Encryption": true
  },
  "2720": {
    "VideoID": 2720,
    "VideoPath": "CS_Chap02_Act720.usm",
    "CaptionPath": "Config/CutSceneCaption/CS_Chap02_Act720_Caption.json",
    "Encryption": true
  },
  "2730": {
    "VideoID": 2730,
    "VideoPath": "CS_Chap02_Act730.usm",
    "CaptionPath": "",
    "Encryption": true
  },
  "2740": {
    "VideoID": 2740,
    "VideoPath": "CS_Chap02_Act740.usm",
    "CaptionPath": "",
    "Encryption": true
  },
  "2750": {
    "VideoID": 2750,
    "VideoPath": "CS_Chap02_Act750.usm",
    "CaptionPath": "",
    "Encryption": true
  },
  "2760": {
    "VideoID": 2760,
    "VideoPath": "CS_Chap02_Act760.usm",
    "CaptionPath": "",
    "Encryption": true
  },
  "3010": {
    "VideoID": 3010,
    "VideoPath": "CS_Chap03_Act010.usm",
    "IsPlayerInvolved": true,
    "CaptionPath": "Config/CutSceneCaption/CS_Chap03_Act010_Caption.json",
    "Encryption": true
  },
  "3020": {
    "VideoID": 3020,
    "VideoPath": "CS_Chap03_Act020.usm",
    "IsPlayerInvolved": true,
    "CaptionPath": "Config/CutSceneCaption/CS_Chap03_Act020_Caption.json",
    "Encryption": true
  },
  "3030": {
    "VideoID": 3030,
    "VideoPath": "CS_Chap03_Act030.usm",
    "IsPlayerInvolved": true,
    "CaptionPath": "Config/CutSceneCaption/CS_Chap03_Act030_Caption.json",
    "Encryption": true
  },
  "3040": {
    "VideoID": 3040,
    "VideoPath": "CS_Chap03_Act040.usm",
    "IsPlayerInvolved": true,
    "CaptionPath": "Config/CutSceneCaption/CS_Chap03_Act040_Caption.json",
    "Encryption": true
  },
  "3050": {
    "VideoID": 3050,
    "VideoPath": "CS_Chap03_Act050.usm",
    "IsPlayerInvolved": true,
    "CaptionPath": "Config/CutSceneCaption/CS_Chap03_Act050_Caption.json",
    "Encryption": true
  },
  "3060": {
    "VideoID": 3060,
    "VideoPath": "CS_Chap03_Act060.usm",
    "IsPlayerInvolved": true,
    "CaptionPath": "Config/CutSceneCaption/CS_Chap03_Act060_Caption.json",
    "Encryption": true
  },
  "3070": {
    "VideoID": 3070,
    "VideoPath": "CS_Chap03_Act070.usm",
    "IsPlayerInvolved": true,
    "CaptionPath": "Config/CutSceneCaption/CS_Chap03_Act070_Caption.json",
    "Encryption": true
  },
  "3080": {
    "VideoID": 3080,
    "VideoPath": "CS_Chap03_Act080.usm",
    "IsPlayerInvolved": true,
    "CaptionPath": "",
    "Encryption": true
  },
  "3090": {
    "VideoID": 3090,
    "VideoPath": "CS_Chap03_Act090.usm",
    "IsPlayerInvolved": true,
    "CaptionPath": "Config/CutSceneCaption/CS_Chap03_Act090_Caption.json",
    "Encryption": true
  },
  "3100": {
    "VideoID": 3100,
    "VideoPath": "CS_Chap03_Act100.usm",
    "IsPlayerInvolved": true,
    "CaptionPath": "Config/CutSceneCaption/CS_Chap03_Act100_Caption.json",
    "Encryption": true
  },
  "3110": {
    "VideoID": 3110,
    "VideoPath": "CS_Chap03_Act110.usm",
    "IsPlayerInvolved": true,
    "CaptionPath": "",
    "Encryption": true
  },
  "3120": {
    "VideoID": 3120,
    "VideoPath": "CS_Chap03_Act120.usm",
    "IsPlayerInvolved": true,
    "CaptionPath": "Config/CutSceneCaption/CS_Chap03_Act120_Caption.json",
    "Encryption": true
  },
  "3130": {
    "VideoID": 3130,
    "VideoPath": "CS_Chap03_Act130.usm",
    "IsPlayerInvolved": true,
    "CaptionPath": "Config/CutSceneCaption/CS_Chap03_Act130_Caption.json",
    "Encryption": true
  },
  "3140": {
    "VideoID": 3140,
    "VideoPath": "CS_Chap03_Act140.usm",
    "CaptionPath": "",
    "Encryption": true
  },
  "3150": {
    "VideoID": 3150,
    "VideoPath": "CS_Chap03_Act150.usm",
    "IsPlayerInvolved": true,
    "CaptionPath": "Config/CutSceneCaption/CS_Chap03_Act150_Caption.json",
    "Encryption": true
  },
  "3160": {
    "VideoID": 3160,
    "VideoPath": "CS_Chap03_Act160.usm",
    "IsPlayerInvolved": true,
    "CaptionPath": "Config/CutSceneCaption/CS_Chap03_Act160_Caption.json",
    "Encryption": true
  },
  "3170": {
    "VideoID": 3170,
    "VideoPath": "CS_Chap03_Act170.usm",
    "IsPlayerInvolved": true,
    "CaptionPath": "Config/CutSceneCaption/CS_Chap03_Act170_Caption.json",
    "Encryption": true
  },
  "3180": {
    "VideoID": 3180,
    "VideoPath": "CS_Chap03_Act180.usm",
    "IsPlayerInvolved": true,
    "CaptionPath": "Config/CutSceneCaption/CS_Chap03_Act180_Caption.json",
    "Encryption": true
  },
  "3301": {
    "VideoID": 3301,
    "VideoPath": "CS_Chap03_Act3010.usm",
    "CaptionPath": "Config/CutSceneCaption/CS_Chap03_Act3010_Caption.json",
    "Encryption": true
  },
  "3302": {
    "VideoID": 3302,
    "VideoPath": "CS_Chap03_Act3020.usm",
    "CaptionPath": "Config/CutSceneCaption/CS_Chap03_Act3020_Caption.json",
    "Encryption": true
  },
  "3190": {
    "VideoID": 3190,
    "VideoPath": "CS_Chap03_Act190.usm",
    "CaptionPath": "Config/CutSceneCaption/CS_Chap03_Act190_Caption.json",
    "Encryption": true
  },
  "3191": {
    "VideoID": 3191,
    "VideoPath": "CS_Chap03_Act191.usm",
    "CaptionPath": "Config/CutSceneCaption/CS_Chap03_Act191_Caption.json",
    "Encryption": true
  },
  "3200": {
    "VideoID": 3200,
    "VideoPath": "CS_Chap03_Act200.usm",
    "CaptionPath": "Config/CutSceneCaption/CS_Chap03_Act200_Caption.json",
    "Encryption": true
  },
  "3210": {
    "VideoID": 3210,
    "VideoPath": "CS_Chap03_Act210.usm",
    "IsPlayerInvolved": true,
    "CaptionPath": "Config/CutSceneCaption/CS_Chap03_Act210_Caption.json",
    "Encryption": true
  },
  "3220": {
    "VideoID": 3220,
    "VideoPath": "CS_Chap03_Act220.usm",
    "IsPlayerInvolved": true,
    "CaptionPath": "Config/CutSceneCaption/CS_Chap03_Act220_Caption.json",
    "Encryption": true
  },
  "3230": {
    "VideoID": 3230,
    "VideoPath": "CS_Chap03_Act230.usm",
    "IsPlayerInvolved": true,
    "CaptionPath": "Config/CutSceneCaption/CS_Chap03_Act230_Caption.json",
    "Encryption": true
  },
  "3240": {
    "VideoID": 3240,
    "VideoPath": "CS_Chap03_Act240.usm",
    "CaptionPath": "Config/CutSceneCaption/CS_Chap03_Act240_Caption.json",
    "Encryption": true
  },
  "3250": {
    "VideoID": 3250,
    "VideoPath": "CS_Chap03_Act250.usm",
    "IsPlayerInvolved": true,
    "CaptionPath": "Config/CutSceneCaption/CS_Chap03_Act250_Caption.json",
    "Encryption": true
  },
  "3260": {
    "VideoID": 3260,
    "VideoPath": "CS_Chap03_Act260.usm",
    "CaptionPath": "Config/CutSceneCaption/CS_Chap03_Act260_Caption.json",
    "Encryption": true
  },
  "3270": {
    "VideoID": 3270,
    "VideoPath": "CS_Chap03_Act270.usm",
    "CaptionPath": "",
    "Encryption": true
  },
  "3280": {
    "VideoID": 3280,
    "VideoPath": "CS_Chap03_Act280.usm",
    "CaptionPath": "",
    "Encryption": true
  },
  "3290": {
    "VideoID": 3290,
    "VideoPath": "CS_Chap03_Act290.usm",
    "CaptionPath": "",
    "Encryption": true
  },
  "3291": {
    "VideoID": 3291,
    "VideoPath": "CS_Chap03_Act291.usm",
    "CaptionPath": "",
    "Encryption": true
  },
  "3292": {
    "VideoID": 3292,
    "VideoPath": "CS_Chap03_Act292.usm",
    "CaptionPath": "",
    "Encryption": true
  },
  "3293": {
    "VideoID": 3293,
    "VideoPath": "CS_Chap03_Act293.usm",
    "CaptionPath": "",
    "Encryption": true
  },
  "3294": {
    "VideoID": 3294,
    "VideoPath": "CS_Chap03_Act294.usm",
    "CaptionPath": "",
    "Encryption": true
  },
  "3295": {
    "VideoID": 3295,
    "VideoPath": "CS_Chap03_Act295.usm",
    "CaptionPath": "",
    "Encryption": true
  },
  "3296": {
    "VideoID": 3296,
    "VideoPath": "CS_Chap03_Act296.usm",
    "CaptionPath": "",
    "Encryption": true
  },
  "3297": {
    "VideoID": 3297,
    "VideoPath": "CS_Chap03_Act297.usm",
    "CaptionPath": "",
    "Encryption": true
  },
  "3298": {
    "VideoID": 3298,
    "VideoPath": "CS_Chap03_Act298.usm",
    "CaptionPath": "",
    "Encryption": true
  },
  "3300": {
    "VideoID": 3300,
    "VideoPath": "CS_Chap03_Act300.usm",
    "IsPlayerInvolved": true,
    "CaptionPath": "Config/CutSceneCaption/CS_Chap03_Act300_Caption.json",
    "Encryption": true
  },
  "3320": {
    "VideoID": 3320,
    "VideoPath": "CS_Chap03_Act320.usm",
    "IsPlayerInvolved": true,
    "CaptionPath": "Config/CutSceneCaption/CS_Chap03_Act320_Caption.json",
    "Encryption": true
  },
  "3330": {
    "VideoID": 3330,
    "VideoPath": "CS_Chap03_Act330.usm",
    "IsPlayerInvolved": true,
    "CaptionPath": "Config/CutSceneCaption/CS_Chap03_Act330_Caption.json",
    "Encryption": true
  },
  "3340": {
    "VideoID": 3340,
    "VideoPath": "CS_Chap03_Act340.usm",
    "IsPlayerInvolved": true,
    "CaptionPath": "Config/CutSceneCaption/CS_Chap03_Act340_Caption.json",
    "Encryption": true
  },
  "3350": {
    "VideoID": 3350,
    "VideoPath": "CS_Chap03_Act350.usm",
    "IsPlayerInvolved": true,
    "CaptionPath": "Config/CutSceneCaption/CS_Chap03_Act350_Caption.json",
    "Encryption": true
  },
  "3360": {
    "VideoID": 3360,
    "VideoPath": "CS_Chap03_Act360.usm",
    "IsPlayerInvolved": true,
    "CaptionPath": "Config/CutSceneCaption/CS_Chap03_Act360_Caption.json",
    "Encryption": true
  },
  "3370": {
    "VideoID": 3370,
    "VideoPath": "CS_Chap03_Act370.usm",
    "IsPlayerInvolved": true,
    "CaptionPath": "Config/CutSceneCaption/CS_Chap03_Act370_Caption.json",
    "Encryption": true
  },
  "3380": {
    "VideoID": 3380,
    "VideoPath": "CS_Chap03_Act380.usm",
    "IsPlayerInvolved": true,
    "CaptionPath": "Config/CutSceneCaption/CS_Chap03_Act380_Caption.json",
    "Encryption": true
  },
  "3390": {
    "VideoID": 3390,
    "VideoPath": "CS_Chap03_Act390.usm",
    "IsPlayerInvolved": true,
    "CaptionPath": "Config/CutSceneCaption/CS_Chap03_Act390_Caption.json",
    "Encryption": true
  },
  "3400": {
    "VideoID": 3400,
    "VideoPath": "CS_Chap03_Act400.usm",
    "CaptionPath": "Config/CutSceneCaption/CS_Chap03_Act400_Caption.json",
    "Encryption": true
  },
  "3410": {
    "VideoID": 3410,
    "VideoPath": "CS_Chap03_Act410.usm",
    "IsPlayerInvolved": true,
    "CaptionPath": "Config/CutSceneCaption/CS_Chap03_Act410_Caption.json",
    "Encryption": true
  },
  "3420": {
    "VideoID": 3420,
    "VideoPath": "CS_Chap03_Act420.usm",
    "CaptionPath": "",
    "Encryption": true
  },
  "3421": {
    "VideoID": 3421,
    "VideoPath": "CS_Chap03_Act3030.usm",
    "CaptionPath": "Config/CutSceneCaption/CS_Chap03_Act3030_Caption.json",
    "Encryption": true
  },
  "3422": {
    "VideoID": 3422,
    "VideoPath": "CS_Chap03_Act3040.usm",
    "CaptionPath": "Config/CutSceneCaption/CS_Chap03_Act3040_Caption.json",
    "Encryption": true
  },
  "3423": {
    "VideoID": 3423,
    "VideoPath": "CS_Chap03_Act3050.usm",
    "CaptionPath": "Config/CutSceneCaption/CS_Chap03_Act3050_Caption.json",
    "Encryption": true
  }
}