{
  "OnInitSequece": [
    {
      "TaskList": []
    }
  ],
  "OnStartSequece": [
    {
      "TaskList": [
        {
          "$type": "RPG.GameCore.CaptureNPCToCharacter",
          "GroupID": {
            "IsDynamic": false,
            "FixedValue": {
              "Value": 3
            }
          },
          "GroupNpcID": {
            "IsDynamic": false,
            "FixedValue": {
              "Value": 400001
            }
          },
          "CharacterUniqueName": {
            "Value": "Pam_001"
          }
        },
        {
          "$type": "RPG.GameCore.CaptureLocalPlayer",
          "CharacterUniqueName": "LocalPlayer"
        }
      ]
    },
    {
      "TaskList": [
        {
          "$type": "RPG.GameCore.LevelPerformanceInitialize",
          "CreateCharacterList": [],
          "EntityVisiableList": []
        },
        {
          "$type": "RPG.GameCore.AdvNpcFaceToPlayer",
          "FinishImmadiate": true
        },
        {
          "$type": "RPG.GameCore.CharacterSteerTo",
          "CharacterUniqueName": "Pam_001",
          "TargetCharacterUniqueName": "LocalPlayer"
        },
        {
          "$type": "RPG.GameCore.PlaySimpleTalk",
          "SimpleTalkList": [
            {
              "TalkSentenceID": 100009911,
              "ProtectTime": 0.3
            }
          ]
        },
        {
          "$type": "RPG.GameCore.WaitSimpleTalkFinish"
        },
        {
          "$type": "RPG.GameCore.ReleaseCharacter",
          "CharacterUniqueName": "LocalPlayer"
        },
        {
          "$type": "RPG.GameCore.VerifyInteractingEntity",
          "GroupID": 3,
          "ConfigID": 400001
        },
        {
          "$type": "RPG.GameCore.PlayOptionTalk",
          "OptionList": [
            {
              "TalkSentenceID": 100009915,
              "OptionIconType": "HealHPIcon",
              "TriggerCustomString": "TalkSentence_100009902"
            },
            {
              "TalkSentenceID": 100009916,
              "OptionIconType": "ShopIcon",
              "TriggerCustomString": "TalkSentence_100009903"
            },
            {
              "TalkSentenceID": 100009918,
              "OptionIconType": "LevelIcon",
              "TriggerCustomString": "TalkSentence_100009904"
            },
            {
              "TalkSentenceID": 100009917,
              "OptionIconType": "Synthesis",
              "TriggerCustomString": "TalkSentence_100009905"
            },
            {
              "TalkSentenceID": 100009919,
              "OptionIconType": "ChatOutIcon",
              "TriggerCustomString": "TalkSentence_100009906"
            }
          ]
        }
      ]
    },
    {
      "TaskList": [
        {
          "$type": "RPG.GameCore.WaitCustomString",
          "CustomString": {
            "Value": "TalkSentence_100009902"
          }
        },
        {
          "$type": "RPG.GameCore.ShowTalkUI"
        },
        {
          "$type": "RPG.GameCore.ConfirmCheckpointRecover",
          "OnCancel": [
            {
              "$type": "RPG.GameCore.EndPerformance"
            }
          ]
        },
        {
          "$type": "RPG.GameCore.RecoverAllCharactersHP"
        },
        {
          "$type": "RPG.GameCore.EndPerformance"
        }
      ]
    },
    {
      "TaskList": [
        {
          "$type": "RPG.GameCore.WaitCustomString",
          "CustomString": {
            "Value": "TalkSentence_100009903"
          }
        },
        {
          "$type": "RPG.GameCore.ShowShop",
          "ShopType": 2
        },
        {
          "$type": "RPG.GameCore.EndPerformance"
        }
      ]
    },
    {
      "TaskList": [
        {
          "$type": "RPG.GameCore.WaitCustomString",
          "CustomString": {
            "Value": "TalkSentence_100009904"
          }
        },
        {
          "$type": "RPG.GameCore.TriggerCustomString",
          "CustomString": {
            "Value": "401990102_over"
          }
        },
        {
          "$type": "RPG.GameCore.CharacterTriggerAnimState",
          "CharacterUniqueName": {
            "Value": "Pam_001"
          },
          "AnimStateName": "HandOver01BS",
          "NormalizedTransitionDuration": 0.25
        },
        {
          "$type": "RPG.GameCore.ShowUI",
          "Name": "Ui.LevelReward.LevelRewardPage",
          "WaitForExit": true
        },
        {
          "$type": "RPG.GameCore.CharacterTriggerAnimState",
          "CharacterUniqueName": {
            "Value": "Pam_001"
          },
          "AnimStateName": "HandOver01AS",
          "NormalizedTransitionDuration": 0.25
        },
        {
          "$type": "RPG.GameCore.EndPerformance"
        }
      ]
    },
    {
      "TaskList": [
        {
          "$type": "RPG.GameCore.WaitCustomString",
          "CustomString": {
            "Value": "TalkSentence_100009905"
          }
        },
        {
          "$type": "RPG.GameCore.ShowUI",
          "Name": "Ui.ItemCompose.ItemComposePage",
          "WaitForExit": true
        },
        {
          "$type": "RPG.GameCore.EndPerformance"
        }
      ]
    },
    {
      "TaskList": [
        {
          "$type": "RPG.GameCore.WaitCustomString",
          "CustomString": {
            "Value": "TalkSentence_100009906"
          }
        },
        {
          "$type": "RPG.GameCore.EndPerformance"
        }
      ]
    },
    {
      "TaskList": [
        {
          "$type": "RPG.GameCore.WaitPerformanceEnd"
        },
        {
          "$type": "RPG.GameCore.ReleaseCharacter",
          "CharacterUniqueName": "Pam_001"
        },
        {
          "$type": "RPG.GameCore.FinishLevelGraph"
        }
      ]
    }
  ]
}