{
  "OnInitSequece": [],
  "OnStartSequece": [
    {
      "TaskList": [
        {
          "$type": "RPG.GameCore.LevelPerformanceInitialize",
          "PerformanceType": "D",
          "CreateCharacterList": [],
          "EntityVisiableList": [],
          "PropVisiableList": [],
          "MarkStreamingItems": []
        },
        {
          "$type": "RPG.GameCore.PerformanceTransition",
          "CreateNpcList": [],
          "CaptureNpcList": [
            {
              "GroupID": {
                "IsDynamic": false,
                "FixedValue": {
                  "Value": 81
                }
              },
              "GroupNpcID": {
                "IsDynamic": false,
                "FixedValue": {
                  "Value": 400005
                }
              },
              "CharacterUniqueName": {
                "Value": "ZS_202160111"
              }
            },
            {
              "GroupID": {
                "IsDynamic": false,
                "FixedValue": {
                  "Value": 81
                }
              },
              "GroupNpcID": {
                "IsDynamic": false,
                "FixedValue": {
                  "Value": 400006
                }
              },
              "CharacterUniqueName": {
                "Value": "WYKN_202160111"
              }
            },
            {
              "GroupID": {
                "IsDynamic": false,
                "FixedValue": {
                  "Value": 81
                }
              },
              "GroupNpcID": {
                "IsDynamic": false,
                "FixedValue": {
                  "Value": 400007
                }
              },
              "CharacterUniqueName": {
                "Value": "NSZY_202160111"
              }
            },
            {
              "GroupID": {
                "IsDynamic": false,
                "FixedValue": {
                  "Value": 81
                }
              },
              "GroupNpcID": {
                "IsDynamic": false,
                "FixedValue": {
                  "Value": 400008
                }
              },
              "CharacterUniqueName": {
                "Value": "NN_202160111"
              }
            },
            {
              "GroupID": {
                "IsDynamic": false,
                "FixedValue": {
                  "Value": 81
                }
              },
              "GroupNpcID": {
                "IsDynamic": false,
                "FixedValue": {
                  "Value": 400009
                }
              },
              "CharacterUniqueName": {
                "Value": "TDLK_202160111"
              }
            }
          ],
          "DestroyNpcList": [],
          "CreateProp": {
            "GroupID": {
              "IsDynamic": false,
              "FixedValue": {
                "Value": 0
              }
            },
            "GroupPropID": {
              "IsDynamic": false,
              "FixedValue": {
                "Value": 0
              }
            },
            "TaskEnabled": false
          },
          "DestroyProp": {
            "TargetType": {
              "$type": "RPG.GameCore.TargetFetchAdvPropEx"
            },
            "ID": {
              "IsDynamic": false,
              "FixedValue": {
                "Value": 0
              }
            },
            "GroupID": {
              "IsDynamic": false,
              "FixedValue": {
                "Value": 0
              }
            },
            "TaskEnabled": false
          },
          "ActiveVirtualCamera": {
            "AreaName": "LevelArea_P20231_F20231001_G81",
            "AnchorName": "Anchor2"
          },
          "ActiveTemplateVirtualCamera": {
            "TaskEnabled": false
          },
          "SwitchCharacterAnchor": {
            "IsLocalPlayer": true,
            "CharacterUniqueName": "LocalPlayer",
            "AreaName": {
              "Value": "LevelArea_P20231_F20231001_G81"
            },
            "AnchorName": {
              "Value": "Anchor3"
            }
          },
          "AdvNpcFaceToPlayer": {
            "GroupID": 81,
            "GroupNpcID": 400009,
            "TryFaceToFace": false,
            "PlayerLookAtNpc": false,
            "FinishImmadiate": true
          },
          "WaitStreamingFinish": true
        },
        {
          "$type": "RPG.GameCore.PlayAndWaitSimpleTalk",
          "SimpleTalkList": [
            {
              "TalkSentenceID": 202251102,
              "ProtectTime": 0.3
            }
          ]
        },
        {
          "$type": "RPG.GameCore.CharacterTriggerFreeStyle",
          "CharacterUniqueName": "TDLK_202160111",
          "StoryAvatarID": "NPC_Lady",
          "StoryMotionID": 100020200
        },
        {
          "$type": "RPG.GameCore.PlayAndWaitSimpleTalk",
          "SimpleTalkList": [
            {
              "TalkSentenceID": 202251103,
              "ProtectTime": 0.3
            }
          ]
        },
        {
          "$type": "RPG.GameCore.PlayOptionTalk",
          "OptionList": [
            {
              "TalkSentenceID": 202251104,
              "OptionIconType": "ChatContinueIcon",
              "TriggerCustomString": "TalkSentence_202251105"
            },
            {
              "TalkSentenceID": 202251106,
              "OptionIconType": "ChatContinueIcon",
              "TriggerCustomString": "TalkSentence_202251107"
            }
          ]
        }
      ]
    },
    {
      "TaskList": [
        {
          "$type": "RPG.GameCore.WaitCustomString",
          "CustomString": {
            "Value": "TalkSentence_202251105"
          }
        },
        {
          "$type": "RPG.GameCore.AdvEntityFaceTo",
          "SourceType": {
            "$type": "RPG.GameCore.TargetFetchAdvLocalPlayer"
          },
          "TargetType": {
            "$type": "RPG.GameCore.TargetFetchAdvNpcEx",
            "FetchType": "SingleNpcByNpcID",
            "SingleNpcID": {
              "GroupID": {
                "IsDynamic": false,
                "FixedValue": {
                  "Value": 81
                }
              },
              "GroupNpcID": {
                "IsDynamic": false,
                "FixedValue": {
                  "Value": 400005
                }
              }
            }
          },
          "ForceToStandBy": true
        },
        {
          "$type": "RPG.GameCore.AdvEntityFaceTo",
          "SourceType": {
            "$type": "RPG.GameCore.TargetFetchAdvNpcEx",
            "FetchType": "SingleNpcByNpcID",
            "SingleNpcID": {
              "GroupID": {
                "IsDynamic": false,
                "FixedValue": {
                  "Value": 81
                }
              },
              "GroupNpcID": {
                "IsDynamic": false,
                "FixedValue": {
                  "Value": 400005
                }
              }
            }
          },
          "TargetType": {
            "$type": "RPG.GameCore.TargetFetchAdvLocalPlayer"
          },
          "ForceToStandBy": true
        },
        {
          "$type": "RPG.GameCore.PlayAndWaitSimpleTalk",
          "SimpleTalkList": [
            {
              "TalkSentenceID": 202251105,
              "ProtectTime": 0.3
            }
          ]
        },
        {
          "$type": "RPG.GameCore.TriggerCustomString",
          "CustomString": {
            "Value": "TalkSentence_202251108"
          }
        }
      ]
    },
    {
      "TaskList": [
        {
          "$type": "RPG.GameCore.WaitCustomString",
          "CustomString": {
            "Value": "TalkSentence_202251107"
          }
        },
        {
          "$type": "RPG.GameCore.AdvEntityFaceTo",
          "SourceType": {
            "$type": "RPG.GameCore.TargetFetchAdvLocalPlayer"
          },
          "TargetType": {
            "$type": "RPG.GameCore.TargetFetchAdvNpcEx",
            "FetchType": "SingleNpcByNpcID",
            "SingleNpcID": {
              "GroupID": {
                "IsDynamic": false,
                "FixedValue": {
                  "Value": 81
                }
              },
              "GroupNpcID": {
                "IsDynamic": false,
                "FixedValue": {
                  "Value": 400005
                }
              }
            }
          },
          "ForceToStandBy": true
        },
        {
          "$type": "RPG.GameCore.CharacterTriggerFreeStyle",
          "CharacterUniqueName": "LocalPlayer",
          "StoryAvatarID": "NPC_Player",
          "StoryMotionID": 201
        },
        {
          "$type": "RPG.GameCore.AdvEntityFaceTo",
          "SourceType": {
            "$type": "RPG.GameCore.TargetFetchAdvNpcEx",
            "FetchType": "SingleNpcByNpcID",
            "SingleNpcID": {
              "GroupID": {
                "IsDynamic": false,
                "FixedValue": {
                  "Value": 81
                }
              },
              "GroupNpcID": {
                "IsDynamic": false,
                "FixedValue": {
                  "Value": 400005
                }
              }
            }
          },
          "TargetType": {
            "$type": "RPG.GameCore.TargetFetchAdvLocalPlayer"
          },
          "ForceToStandBy": true
        },
        {
          "$type": "RPG.GameCore.PlayAndWaitSimpleTalk",
          "SimpleTalkList": [
            {
              "TalkSentenceID": 202251107,
              "ProtectTime": 0.3
            }
          ]
        },
        {
          "$type": "RPG.GameCore.TriggerCustomString",
          "CustomString": {
            "Value": "TalkSentence_202251108"
          }
        }
      ]
    },
    {
      "TaskList": [
        {
          "$type": "RPG.GameCore.WaitCustomString",
          "CustomString": {
            "Value": "TalkSentence_202251108"
          }
        },
        {
          "$type": "RPG.GameCore.AdvEntityFaceTo",
          "SourceType": {
            "$type": "RPG.GameCore.TargetFetchAdvNpcEx",
            "FetchType": "SingleNpcByNpcID",
            "SingleNpcID": {
              "GroupID": {
                "IsDynamic": false,
                "FixedValue": {
                  "Value": 81
                }
              },
              "GroupNpcID": {
                "IsDynamic": false,
                "FixedValue": {
                  "Value": 400006
                }
              }
            }
          },
          "TargetType": {
            "$type": "RPG.GameCore.TargetFetchAdvLocalPlayer"
          },
          "ForceToStandBy": true
        },
        {
          "$type": "RPG.GameCore.PlayAndWaitSimpleTalk",
          "SimpleTalkList": [
            {
              "TalkSentenceID": 202251108,
              "ProtectTime": 0.3
            }
          ]
        },
        {
          "$type": "RPG.GameCore.AdvEntityFaceTo",
          "SourceType": {
            "$type": "RPG.GameCore.TargetFetchAdvNpcEx",
            "FetchType": "SingleNpcByNpcID",
            "SingleNpcID": {
              "GroupID": {
                "IsDynamic": false,
                "FixedValue": {
                  "Value": 81
                }
              },
              "GroupNpcID": {
                "IsDynamic": false,
                "FixedValue": {
                  "Value": 400005
                }
              }
            }
          },
          "TargetType": {
            "$type": "RPG.GameCore.TargetFetchAdvNpcEx",
            "FetchType": "SingleNpcByNpcID",
            "SingleNpcID": {
              "GroupID": {
                "IsDynamic": false,
                "FixedValue": {
                  "Value": 81
                }
              },
              "GroupNpcID": {
                "IsDynamic": false,
                "FixedValue": {
                  "Value": 400006
                }
              }
            }
          },
          "ForceToStandBy": true
        },
        {
          "$type": "RPG.GameCore.CharacterTriggerFreeStyle",
          "CharacterUniqueName": "ZS_202160111",
          "StoryAvatarID": "NPC_Lady",
          "StoryMotionID": 100020200
        },
        {
          "$type": "RPG.GameCore.AdvEntityFaceTo",
          "SourceType": {
            "$type": "RPG.GameCore.TargetFetchAdvLocalPlayer"
          },
          "TargetType": {
            "$type": "RPG.GameCore.TargetFetchAdvNpcEx",
            "FetchType": "SingleNpcByNpcID",
            "SingleNpcID": {
              "GroupID": {
                "IsDynamic": false,
                "FixedValue": {
                  "Value": 81
                }
              },
              "GroupNpcID": {
                "IsDynamic": false,
                "FixedValue": {
                  "Value": 400006
                }
              }
            }
          },
          "ForceToStandBy": true
        },
        {
          "$type": "RPG.GameCore.PlayAndWaitSimpleTalk",
          "SimpleTalkList": [
            {
              "TalkSentenceID": 202251109,
              "ProtectTime": 0.3
            }
          ]
        },
        {
          "$type": "RPG.GameCore.PlayOptionTalk",
          "OptionList": [
            {
              "TalkSentenceID": 202251110,
              "OptionIconType": "ChatContinueIcon",
              "TriggerCustomString": "TalkSentence_202251113"
            },
            {
              "TalkSentenceID": 202251111,
              "OptionIconType": "ChatContinueIcon",
              "TriggerCustomString": "TalkSentence_202251113"
            },
            {
              "TalkSentenceID": 202251112,
              "OptionIconType": "ChatContinueIcon",
              "TriggerCustomString": "TalkSentence_202251113"
            }
          ]
        }
      ]
    },
    {
      "TaskList": [
        {
          "$type": "RPG.GameCore.WaitCustomString",
          "CustomString": {
            "Value": "TalkSentence_202251113"
          }
        },
        {
          "$type": "RPG.GameCore.CharacterTriggerFreeStyle",
          "CharacterUniqueName": "LocalPlayer",
          "StoryAvatarID": "NPC_Player",
          "StoryMotionID": 200
        },
        {
          "$type": "RPG.GameCore.AdvEntityFaceTo",
          "SourceType": {
            "$type": "RPG.GameCore.TargetFetchAdvNpcEx",
            "FetchType": "SingleNpcByNpcID",
            "SingleNpcID": {
              "GroupID": {
                "IsDynamic": false,
                "FixedValue": {
                  "Value": 81
                }
              },
              "GroupNpcID": {
                "IsDynamic": false,
                "FixedValue": {
                  "Value": 400009
                }
              }
            }
          },
          "TargetType": {
            "$type": "RPG.GameCore.TargetFetchAdvLocalPlayer"
          },
          "ForceToStandBy": true
        },
        {
          "$type": "RPG.GameCore.CharacterTriggerFreeStyle",
          "CharacterUniqueName": "WYKN_202160111",
          "StoryAvatarID": "NPC_Lady",
          "StoryMotionID": 100020232
        },
        {
          "$type": "RPG.GameCore.PlayAndWaitSimpleTalk",
          "SimpleTalkList": [
            {
              "TalkSentenceID": 202251113,
              "ProtectTime": 0.3
            }
          ]
        },
        {
          "$type": "RPG.GameCore.AdvEntityFaceTo",
          "SourceType": {
            "$type": "RPG.GameCore.TargetFetchAdvNpcEx",
            "FetchType": "SingleNpcByNpcID",
            "SingleNpcID": {
              "GroupID": {
                "IsDynamic": false,
                "FixedValue": {
                  "Value": 81
                }
              },
              "GroupNpcID": {
                "IsDynamic": false,
                "FixedValue": {
                  "Value": 400009
                }
              }
            }
          },
          "TargetType": {
            "$type": "RPG.GameCore.TargetFetchAdvNpcEx",
            "FetchType": "SingleNpcByNpcID",
            "SingleNpcID": {
              "GroupID": {
                "IsDynamic": false,
                "FixedValue": {
                  "Value": 81
                }
              },
              "GroupNpcID": {
                "IsDynamic": false,
                "FixedValue": {
                  "Value": 400005
                }
              }
            }
          },
          "ForceToStandBy": true
        },
        {
          "$type": "RPG.GameCore.CharacterTriggerFreeStyle",
          "CharacterUniqueName": "TDLK_202160111",
          "StoryAvatarID": "NPC_Lady",
          "StoryMotionID": 100020230
        },
        {
          "$type": "RPG.GameCore.PlayAndWaitSimpleTalk",
          "SimpleTalkList": [
            {
              "TalkSentenceID": 202251114,
              "ProtectTime": 0.3
            }
          ]
        },
        {
          "$type": "RPG.GameCore.AdvEntityFaceTo",
          "SourceType": {
            "$type": "RPG.GameCore.TargetFetchAdvNpcEx",
            "FetchType": "SingleNpcByNpcID",
            "SingleNpcID": {
              "GroupID": {
                "IsDynamic": false,
                "FixedValue": {
                  "Value": 81
                }
              },
              "GroupNpcID": {
                "IsDynamic": false,
                "FixedValue": {
                  "Value": 400006
                }
              }
            }
          },
          "TargetType": {
            "$type": "RPG.GameCore.TargetFetchAdvNpcEx",
            "FetchType": "SingleNpcByNpcID",
            "SingleNpcID": {
              "GroupID": {
                "IsDynamic": false,
                "FixedValue": {
                  "Value": 81
                }
              },
              "GroupNpcID": {
                "IsDynamic": false,
                "FixedValue": {
                  "Value": 400009
                }
              }
            }
          },
          "ForceToStandBy": true
        },
        {
          "$type": "RPG.GameCore.PlayAndWaitSimpleTalk",
          "SimpleTalkList": [
            {
              "TalkSentenceID": 202251115,
              "ProtectTime": 0.3
            }
          ]
        },
        {
          "$type": "RPG.GameCore.CharacterTriggerFreeStyle",
          "CharacterUniqueName": "NSZY_202160111",
          "StoryAvatarID": "NPC_Male",
          "StoryMotionID": 100010236
        },
        {
          "$type": "RPG.GameCore.PlayAndWaitSimpleTalk",
          "SimpleTalkList": [
            {
              "TalkSentenceID": 202251116,
              "ProtectTime": 0.3
            }
          ]
        },
        {
          "$type": "RPG.GameCore.AdvEntityFaceTo",
          "SourceType": {
            "$type": "RPG.GameCore.TargetFetchAdvNpcEx",
            "FetchType": "SingleNpcByNpcID",
            "SingleNpcID": {
              "GroupID": {
                "IsDynamic": false,
                "FixedValue": {
                  "Value": 81
                }
              },
              "GroupNpcID": {
                "IsDynamic": false,
                "FixedValue": {
                  "Value": 400006
                }
              }
            }
          },
          "TargetType": {
            "$type": "RPG.GameCore.TargetFetchAdvNpcEx",
            "FetchType": "SingleNpcByNpcID",
            "SingleNpcID": {
              "GroupID": {
                "IsDynamic": false,
                "FixedValue": {
                  "Value": 81
                }
              },
              "GroupNpcID": {
                "IsDynamic": false,
                "FixedValue": {
                  "Value": 400007
                }
              }
            }
          },
          "ForceToStandBy": true
        },
        {
          "$type": "RPG.GameCore.CharacterTriggerFreeStyle",
          "CharacterUniqueName": "WYKN_202160111",
          "StoryAvatarID": "NPC_Lady",
          "StoryMotionID": 100020209
        },
        {
          "$type": "RPG.GameCore.PlayAndWaitSimpleTalk",
          "SimpleTalkList": [
            {
              "TalkSentenceID": 202251117,
              "ProtectTime": 0.3
            }
          ]
        },
        {
          "$type": "RPG.GameCore.CharacterTriggerFreeStyle",
          "CharacterUniqueName": "NN_202160111",
          "StoryAvatarID": "NPC_Male",
          "StoryMotionID": 100010200
        },
        {
          "$type": "RPG.GameCore.PlayAndWaitSimpleTalk",
          "SimpleTalkList": [
            {
              "TalkSentenceID": 202251118,
              "ProtectTime": 0.3
            }
          ]
        },
        {
          "$type": "RPG.GameCore.AdvEntityFaceTo",
          "SourceType": {
            "$type": "RPG.GameCore.TargetFetchAdvNpcEx",
            "FetchType": "SingleNpcByNpcID",
            "SingleNpcID": {
              "GroupID": {
                "IsDynamic": false,
                "FixedValue": {
                  "Value": 81
                }
              },
              "GroupNpcID": {
                "IsDynamic": false,
                "FixedValue": {
                  "Value": 400009
                }
              }
            }
          },
          "TargetType": {
            "$type": "RPG.GameCore.TargetFetchAdvNpcEx",
            "FetchType": "SingleNpcByNpcID",
            "SingleNpcID": {
              "GroupID": {
                "IsDynamic": false,
                "FixedValue": {
                  "Value": 81
                }
              },
              "GroupNpcID": {
                "IsDynamic": false,
                "FixedValue": {
                  "Value": 400008
                }
              }
            }
          },
          "ForceToStandBy": true
        },
        {
          "$type": "RPG.GameCore.CharacterTriggerFreeStyle",
          "CharacterUniqueName": "TDLK_202160111",
          "StoryAvatarID": "NPC_Lady",
          "StoryMotionID": 100020232
        },
        {
          "$type": "RPG.GameCore.PlayAndWaitSimpleTalk",
          "SimpleTalkList": [
            {
              "TalkSentenceID": 202251119,
              "ProtectTime": 0.3
            }
          ]
        },
        {
          "$type": "RPG.GameCore.AdvEntityFaceTo",
          "SourceType": {
            "$type": "RPG.GameCore.TargetFetchAdvNpcEx",
            "FetchType": "SingleNpcByNpcID",
            "SingleNpcID": {
              "GroupID": {
                "IsDynamic": false,
                "FixedValue": {
                  "Value": 81
                }
              },
              "GroupNpcID": {
                "IsDynamic": false,
                "FixedValue": {
                  "Value": 400008
                }
              }
            }
          },
          "TargetType": {
            "$type": "RPG.GameCore.TargetFetchAdvNpcEx",
            "FetchType": "SingleNpcByNpcID",
            "SingleNpcID": {
              "GroupID": {
                "IsDynamic": false,
                "FixedValue": {
                  "Value": 81
                }
              },
              "GroupNpcID": {
                "IsDynamic": false,
                "FixedValue": {
                  "Value": 400009
                }
              }
            }
          },
          "ForceToStandBy": true
        },
        {
          "$type": "RPG.GameCore.PlayAndWaitSimpleTalk",
          "SimpleTalkList": [
            {
              "TalkSentenceID": 202251120,
              "ProtectTime": 0.3
            }
          ]
        },
        {
          "$type": "RPG.GameCore.AdvEntityFaceTo",
          "SourceType": {
            "$type": "RPG.GameCore.TargetFetchAdvNpcEx",
            "FetchType": "SingleNpcByNpcID",
            "SingleNpcID": {
              "GroupID": {
                "IsDynamic": false,
                "FixedValue": {
                  "Value": 81
                }
              },
              "GroupNpcID": {
                "IsDynamic": false,
                "FixedValue": {
                  "Value": 400006
                }
              }
            }
          },
          "TargetType": {
            "$type": "RPG.GameCore.TargetFetchAdvNpcEx",
            "FetchType": "SingleNpcByNpcID",
            "SingleNpcID": {
              "GroupID": {
                "IsDynamic": false,
                "FixedValue": {
                  "Value": 81
                }
              },
              "GroupNpcID": {
                "IsDynamic": false,
                "FixedValue": {
                  "Value": 400008
                }
              }
            }
          },
          "ForceToStandBy": true
        },
        {
          "$type": "RPG.GameCore.CharacterTriggerFreeStyle",
          "CharacterUniqueName": "WYKN_202160111",
          "StoryAvatarID": "NPC_Lady",
          "StoryMotionID": 100020211
        },
        {
          "$type": "RPG.GameCore.PlayAndWaitSimpleTalk",
          "SimpleTalkList": [
            {
              "TalkSentenceID": 202251121,
              "ProtectTime": 0.3
            }
          ]
        },
        {
          "$type": "RPG.GameCore.PlayOptionTalk",
          "OptionList": [
            {
              "TalkSentenceID": 202251122,
              "OptionIconType": "ChatContinueIcon",
              "TriggerCustomString": "TalkSentence_202251123"
            },
            {
              "TalkSentenceID": 202251124,
              "OptionIconType": "ChatContinueIcon",
              "TriggerCustomString": "TalkSentence_202251125"
            },
            {
              "TalkSentenceID": 202251126,
              "OptionIconType": "ChatContinueIcon",
              "TriggerCustomString": "TalkSentence_202251127"
            }
          ]
        }
      ]
    },
    {
      "TaskList": [
        {
          "$type": "RPG.GameCore.WaitCustomString",
          "CustomString": {
            "Value": "TalkSentence_202251123"
          }
        },
        {
          "$type": "RPG.GameCore.CharacterTriggerFreeStyle",
          "CharacterUniqueName": "LocalPlayer",
          "StoryAvatarID": "NPC_Player",
          "StoryMotionID": 200
        },
        {
          "$type": "RPG.GameCore.AdvEntityFaceTo",
          "SourceType": {
            "$type": "RPG.GameCore.TargetFetchAdvNpcEx",
            "FetchType": "SingleNpcByNpcID",
            "SingleNpcID": {
              "GroupID": {
                "IsDynamic": false,
                "FixedValue": {
                  "Value": 81
                }
              },
              "GroupNpcID": {
                "IsDynamic": false,
                "FixedValue": {
                  "Value": 400005
                }
              }
            }
          },
          "TargetType": {
            "$type": "RPG.GameCore.TargetFetchAdvLocalPlayer"
          },
          "ForceToStandBy": true
        },
        {
          "$type": "RPG.GameCore.PlayAndWaitSimpleTalk",
          "SimpleTalkList": [
            {
              "TalkSentenceID": 202251123,
              "ProtectTime": 0.3
            }
          ]
        },
        {
          "$type": "RPG.GameCore.TriggerCustomString",
          "CustomString": {
            "Value": "TalkSentence_202251128"
          }
        }
      ]
    },
    {
      "TaskList": [
        {
          "$type": "RPG.GameCore.WaitCustomString",
          "CustomString": {
            "Value": "TalkSentence_202251125"
          }
        },
        {
          "$type": "RPG.GameCore.CharacterTriggerFreeStyle",
          "CharacterUniqueName": "LocalPlayer",
          "StoryAvatarID": "NPC_Player",
          "StoryMotionID": 200
        },
        {
          "$type": "RPG.GameCore.AdvEntityFaceTo",
          "SourceType": {
            "$type": "RPG.GameCore.TargetFetchAdvNpcEx",
            "FetchType": "SingleNpcByNpcID",
            "SingleNpcID": {
              "GroupID": {
                "IsDynamic": false,
                "FixedValue": {
                  "Value": 81
                }
              },
              "GroupNpcID": {
                "IsDynamic": false,
                "FixedValue": {
                  "Value": 400005
                }
              }
            }
          },
          "TargetType": {
            "$type": "RPG.GameCore.TargetFetchAdvLocalPlayer"
          },
          "ForceToStandBy": true
        },
        {
          "$type": "RPG.GameCore.PlayAndWaitSimpleTalk",
          "SimpleTalkList": [
            {
              "TalkSentenceID": 202251125,
              "ProtectTime": 0.3
            }
          ]
        },
        {
          "$type": "RPG.GameCore.TriggerCustomString",
          "CustomString": {
            "Value": "TalkSentence_202251128"
          }
        }
      ]
    },
    {
      "TaskList": [
        {
          "$type": "RPG.GameCore.WaitCustomString",
          "CustomString": {
            "Value": "TalkSentence_202251127"
          }
        },
        {
          "$type": "RPG.GameCore.CharacterTriggerFreeStyle",
          "CharacterUniqueName": "LocalPlayer",
          "StoryAvatarID": "NPC_Player",
          "StoryMotionID": 200
        },
        {
          "$type": "RPG.GameCore.AdvEntityFaceTo",
          "SourceType": {
            "$type": "RPG.GameCore.TargetFetchAdvNpcEx",
            "FetchType": "SingleNpcByNpcID",
            "SingleNpcID": {
              "GroupID": {
                "IsDynamic": false,
                "FixedValue": {
                  "Value": 81
                }
              },
              "GroupNpcID": {
                "IsDynamic": false,
                "FixedValue": {
                  "Value": 400005
                }
              }
            }
          },
          "TargetType": {
            "$type": "RPG.GameCore.TargetFetchAdvLocalPlayer"
          },
          "ForceToStandBy": true
        },
        {
          "$type": "RPG.GameCore.PlayAndWaitSimpleTalk",
          "SimpleTalkList": [
            {
              "TalkSentenceID": 202251127,
              "ProtectTime": 0.3
            }
          ]
        },
        {
          "$type": "RPG.GameCore.TriggerCustomString",
          "CustomString": {
            "Value": "TalkSentence_202251128"
          }
        }
      ]
    },
    {
      "TaskList": [
        {
          "$type": "RPG.GameCore.WaitCustomString",
          "CustomString": {
            "Value": "TalkSentence_202251128"
          }
        },
        {
          "$type": "RPG.GameCore.AdvEntityFaceTo",
          "SourceType": {
            "$type": "RPG.GameCore.TargetFetchAdvNpcEx",
            "FetchType": "SingleNpcByNpcID",
            "SingleNpcID": {
              "GroupID": {
                "IsDynamic": false,
                "FixedValue": {
                  "Value": 81
                }
              },
              "GroupNpcID": {
                "IsDynamic": false,
                "FixedValue": {
                  "Value": 400005
                }
              }
            }
          },
          "TargetType": {
            "$type": "RPG.GameCore.TargetFetchAdvNpcEx",
            "FetchType": "SingleNpcByNpcID",
            "SingleNpcID": {
              "GroupID": {
                "IsDynamic": false,
                "FixedValue": {
                  "Value": 81
                }
              },
              "GroupNpcID": {
                "IsDynamic": false,
                "FixedValue": {
                  "Value": 400008
                }
              }
            }
          },
          "ForceToStandBy": true
        },
        {
          "$type": "RPG.GameCore.PlayAndWaitSimpleTalk",
          "SimpleTalkList": [
            {
              "TalkSentenceID": 202251128,
              "ProtectTime": 0.3
            },
            {
              "TalkSentenceID": 202251129,
              "ProtectTime": 0.3
            }
          ]
        },
        {
          "$type": "RPG.GameCore.CharacterTriggerFreeStyle",
          "CharacterUniqueName": "ZS_202160111",
          "StoryAvatarID": "NPC_Lady",
          "StoryMotionID": 100020200
        },
        {
          "$type": "RPG.GameCore.PlayAndWaitSimpleTalk",
          "SimpleTalkList": [
            {
              "TalkSentenceID": 202251130,
              "ProtectTime": 0.3
            }
          ]
        },
        {
          "$type": "RPG.GameCore.AdvEntityFaceTo",
          "SourceType": {
            "$type": "RPG.GameCore.TargetFetchAdvNpcEx",
            "FetchType": "SingleNpcByNpcID",
            "SingleNpcID": {
              "GroupID": {
                "IsDynamic": false,
                "FixedValue": {
                  "Value": 81
                }
              },
              "GroupNpcID": {
                "IsDynamic": false,
                "FixedValue": {
                  "Value": 400009
                }
              }
            }
          },
          "TargetType": {
            "$type": "RPG.GameCore.TargetFetchAdvLocalPlayer"
          },
          "ForceToStandBy": true
        },
        {
          "$type": "RPG.GameCore.CharacterTriggerFreeStyle",
          "CharacterUniqueName": "TDLK_202160111",
          "StoryAvatarID": "NPC_Lady",
          "StoryMotionID": 100020230
        },
        {
          "$type": "RPG.GameCore.PlayAndWaitSimpleTalk",
          "SimpleTalkList": [
            {
              "TalkSentenceID": 202251131,
              "ProtectTime": 0.3
            }
          ]
        },
        {
          "$type": "RPG.GameCore.AdvEntityFaceTo",
          "SourceType": {
            "$type": "RPG.GameCore.TargetFetchAdvNpcEx",
            "FetchType": "SingleNpcByNpcID",
            "SingleNpcID": {
              "GroupID": {
                "IsDynamic": false,
                "FixedValue": {
                  "Value": 81
                }
              },
              "GroupNpcID": {
                "IsDynamic": false,
                "FixedValue": {
                  "Value": 400006
                }
              }
            }
          },
          "TargetType": {
            "$type": "RPG.GameCore.TargetFetchAdvLocalPlayer"
          },
          "ForceToStandBy": true
        },
        {
          "$type": "RPG.GameCore.PlayAndWaitSimpleTalk",
          "SimpleTalkList": [
            {
              "TalkSentenceID": 202251132,
              "ProtectTime": 0.3
            }
          ]
        },
        {
          "$type": "RPG.GameCore.AdvEntityFaceTo",
          "SourceType": {
            "$type": "RPG.GameCore.TargetFetchAdvNpcEx",
            "FetchType": "SingleNpcByNpcID",
            "SingleNpcID": {
              "GroupID": {
                "IsDynamic": false,
                "FixedValue": {
                  "Value": 81
                }
              },
              "GroupNpcID": {
                "IsDynamic": false,
                "FixedValue": {
                  "Value": 400008
                }
              }
            }
          },
          "TargetType": {
            "$type": "RPG.GameCore.TargetFetchAdvLocalPlayer"
          },
          "ForceToStandBy": true
        },
        {
          "$type": "RPG.GameCore.CharacterTriggerFreeStyle",
          "CharacterUniqueName": "NN_202160111",
          "StoryAvatarID": "NPC_Male",
          "StoryMotionID": 100010200
        },
        {
          "$type": "RPG.GameCore.PlayAndWaitSimpleTalk",
          "SimpleTalkList": [
            {
              "TalkSentenceID": 202251133,
              "ProtectTime": 0.3
            }
          ]
        },
        {
          "$type": "RPG.GameCore.AdvEntityFaceTo",
          "SourceType": {
            "$type": "RPG.GameCore.TargetFetchAdvNpcEx",
            "FetchType": "SingleNpcByNpcID",
            "SingleNpcID": {
              "GroupID": {
                "IsDynamic": false,
                "FixedValue": {
                  "Value": 81
                }
              },
              "GroupNpcID": {
                "IsDynamic": false,
                "FixedValue": {
                  "Value": 400009
                }
              }
            }
          },
          "TargetType": {
            "$type": "RPG.GameCore.TargetFetchAdvNpcEx",
            "FetchType": "SingleNpcByNpcID",
            "SingleNpcID": {
              "GroupID": {
                "IsDynamic": false,
                "FixedValue": {
                  "Value": 81
                }
              },
              "GroupNpcID": {
                "IsDynamic": false,
                "FixedValue": {
                  "Value": 400008
                }
              }
            }
          },
          "ForceToStandBy": true
        },
        {
          "$type": "RPG.GameCore.PlayAndWaitSimpleTalk",
          "SimpleTalkList": [
            {
              "TalkSentenceID": 202251134,
              "ProtectTime": 0.3
            }
          ]
        },
        {
          "$type": "RPG.GameCore.CharacterTriggerFreeStyle",
          "CharacterUniqueName": "NSZY_202160111",
          "StoryAvatarID": "NPC_Male",
          "StoryMotionID": 100010238
        },
        {
          "$type": "RPG.GameCore.PlayAndWaitSimpleTalk",
          "SimpleTalkList": [
            {
              "TalkSentenceID": 202251135,
              "ProtectTime": 0.3
            }
          ]
        },
        {
          "$type": "RPG.GameCore.AdvEntityFaceTo",
          "SourceType": {
            "$type": "RPG.GameCore.TargetFetchAdvNpcEx",
            "FetchType": "SingleNpcByNpcID",
            "SingleNpcID": {
              "GroupID": {
                "IsDynamic": false,
                "FixedValue": {
                  "Value": 81
                }
              },
              "GroupNpcID": {
                "IsDynamic": false,
                "FixedValue": {
                  "Value": 400007
                }
              }
            }
          },
          "TargetType": {
            "$type": "RPG.GameCore.TargetFetchAdvLocalPlayer"
          },
          "EnableSteer": true,
          "ForceToStandBy": true
        },
        {
          "$type": "RPG.GameCore.TriggerSound",
          "SoundName": {
            "Value": "Ev_sfx_xianzhou_phone_buzz"
          },
          "EmitterType": "LocalPlayer"
        },
        {
          "$type": "RPG.GameCore.PlayAndWaitSimpleTalk",
          "SimpleTalkList": [
            {
              "TalkSentenceID": 202251136,
              "ProtectTime": 0.3
            },
            {
              "TalkSentenceID": 202251137,
              "ProtectTime": 0.3
            }
          ]
        },
        {
          "$type": "RPG.GameCore.AdvEntityFaceTo",
          "SourceType": {
            "$type": "RPG.GameCore.TargetFetchAdvNpcEx",
            "FetchType": "SingleNpcByNpcID",
            "SingleNpcID": {
              "GroupID": {
                "IsDynamic": false,
                "FixedValue": {
                  "Value": 81
                }
              },
              "GroupNpcID": {
                "IsDynamic": false,
                "FixedValue": {
                  "Value": 400006
                }
              }
            }
          },
          "TargetType": {
            "$type": "RPG.GameCore.TargetFetchAdvNpcEx",
            "FetchType": "SingleNpcByNpcID",
            "SingleNpcID": {
              "GroupID": {
                "IsDynamic": false,
                "FixedValue": {
                  "Value": 81
                }
              },
              "GroupNpcID": {
                "IsDynamic": false,
                "FixedValue": {
                  "Value": 400005
                }
              }
            }
          },
          "EnableSteer": true,
          "ForceToStandBy": true
        },
        {
          "$type": "RPG.GameCore.CharacterTriggerFreeStyle",
          "CharacterUniqueName": "WYKN_202160111",
          "StoryAvatarID": "NPC_Lady",
          "StoryMotionID": 100020200
        },
        {
          "$type": "RPG.GameCore.PlayAndWaitSimpleTalk",
          "SimpleTalkList": [
            {
              "TalkSentenceID": 202251138,
              "ProtectTime": 0.3
            }
          ]
        },
        {
          "$type": "RPG.GameCore.PlayOptionTalk",
          "OptionList": [
            {
              "TalkSentenceID": 202251139,
              "OptionIconType": "ChatContinueIcon",
              "TriggerCustomString": "TalkSentence_202251140"
            },
            {
              "TalkSentenceID": 202251141,
              "OptionIconType": "ChatContinueIcon",
              "TriggerCustomString": "TalkSentence_202251142"
            },
            {
              "TalkSentenceID": 202251143,
              "OptionIconType": "ChatContinueIcon",
              "TriggerCustomString": "TalkSentence_202251144"
            }
          ]
        }
      ]
    },
    {
      "TaskList": [
        {
          "$type": "RPG.GameCore.WaitCustomString",
          "CustomString": {
            "Value": "TalkSentence_202251140"
          }
        },
        {
          "$type": "RPG.GameCore.AdvEntityFaceTo",
          "SourceType": {
            "$type": "RPG.GameCore.TargetFetchAdvLocalPlayer"
          },
          "TargetType": {
            "$type": "RPG.GameCore.TargetFetchAdvNpcEx",
            "FetchType": "SingleNpcByNpcID",
            "SingleNpcID": {
              "GroupID": {
                "IsDynamic": false,
                "FixedValue": {
                  "Value": 81
                }
              },
              "GroupNpcID": {
                "IsDynamic": false,
                "FixedValue": {
                  "Value": 400006
                }
              }
            }
          },
          "ForceToStandBy": true
        },
        {
          "$type": "RPG.GameCore.CharacterTriggerFreeStyle",
          "CharacterUniqueName": "LocalPlayer",
          "StoryAvatarID": "NPC_Player",
          "StoryMotionID": 200
        },
        {
          "$type": "RPG.GameCore.AdvEntityFaceTo",
          "SourceType": {
            "$type": "RPG.GameCore.TargetFetchAdvNpcEx",
            "FetchType": "SingleNpcByNpcID",
            "SingleNpcID": {
              "GroupID": {
                "IsDynamic": false,
                "FixedValue": {
                  "Value": 81
                }
              },
              "GroupNpcID": {
                "IsDynamic": false,
                "FixedValue": {
                  "Value": 400009
                }
              }
            }
          },
          "TargetType": {
            "$type": "RPG.GameCore.TargetFetchAdvLocalPlayer"
          },
          "ForceToStandBy": true
        },
        {
          "$type": "RPG.GameCore.PlayAndWaitSimpleTalk",
          "SimpleTalkList": [
            {
              "TalkSentenceID": 202251140,
              "ProtectTime": 0.3
            }
          ]
        },
        {
          "$type": "RPG.GameCore.TriggerCustomString",
          "CustomString": {
            "Value": "TalkSentence_202251145"
          }
        }
      ]
    },
    {
      "TaskList": [
        {
          "$type": "RPG.GameCore.WaitCustomString",
          "CustomString": {
            "Value": "TalkSentence_202251142"
          }
        },
        {
          "$type": "RPG.GameCore.AdvEntityFaceTo",
          "SourceType": {
            "$type": "RPG.GameCore.TargetFetchAdvLocalPlayer"
          },
          "TargetType": {
            "$type": "RPG.GameCore.TargetFetchAdvNpcEx",
            "FetchType": "SingleNpcByNpcID",
            "SingleNpcID": {
              "GroupID": {
                "IsDynamic": false,
                "FixedValue": {
                  "Value": 81
                }
              },
              "GroupNpcID": {
                "IsDynamic": false,
                "FixedValue": {
                  "Value": 400006
                }
              }
            }
          },
          "ForceToStandBy": true
        },
        {
          "$type": "RPG.GameCore.CharacterTriggerFreeStyle",
          "CharacterUniqueName": "LocalPlayer",
          "StoryAvatarID": "NPC_Player",
          "StoryMotionID": 200
        },
        {
          "$type": "RPG.GameCore.AdvEntityFaceTo",
          "SourceType": {
            "$type": "RPG.GameCore.TargetFetchAdvNpcEx",
            "FetchType": "SingleNpcByNpcID",
            "SingleNpcID": {
              "GroupID": {
                "IsDynamic": false,
                "FixedValue": {
                  "Value": 81
                }
              },
              "GroupNpcID": {
                "IsDynamic": false,
                "FixedValue": {
                  "Value": 400007
                }
              }
            }
          },
          "TargetType": {
            "$type": "RPG.GameCore.TargetFetchAdvLocalPlayer"
          },
          "ForceToStandBy": true
        },
        {
          "$type": "RPG.GameCore.PlayAndWaitSimpleTalk",
          "SimpleTalkList": [
            {
              "TalkSentenceID": 202251142,
              "ProtectTime": 0.3
            }
          ]
        },
        {
          "$type": "RPG.GameCore.TriggerCustomString",
          "CustomString": {
            "Value": "TalkSentence_202251145"
          }
        }
      ]
    },
    {
      "TaskList": [
        {
          "$type": "RPG.GameCore.WaitCustomString",
          "CustomString": {
            "Value": "TalkSentence_202251144"
          }
        },
        {
          "$type": "RPG.GameCore.AdvEntityFaceTo",
          "SourceType": {
            "$type": "RPG.GameCore.TargetFetchAdvLocalPlayer"
          },
          "TargetType": {
            "$type": "RPG.GameCore.TargetFetchAdvNpcEx",
            "FetchType": "SingleNpcByNpcID",
            "SingleNpcID": {
              "GroupID": {
                "IsDynamic": false,
                "FixedValue": {
                  "Value": 81
                }
              },
              "GroupNpcID": {
                "IsDynamic": false,
                "FixedValue": {
                  "Value": 400006
                }
              }
            }
          },
          "ForceToStandBy": true
        },
        {
          "$type": "RPG.GameCore.CharacterTriggerFreeStyle",
          "CharacterUniqueName": "LocalPlayer",
          "StoryAvatarID": "NPC_Player",
          "StoryMotionID": 200
        },
        {
          "$type": "RPG.GameCore.AdvEntityFaceTo",
          "SourceType": {
            "$type": "RPG.GameCore.TargetFetchAdvNpcEx",
            "FetchType": "SingleNpcByNpcID",
            "SingleNpcID": {
              "GroupID": {
                "IsDynamic": false,
                "FixedValue": {
                  "Value": 81
                }
              },
              "GroupNpcID": {
                "IsDynamic": false,
                "FixedValue": {
                  "Value": 400009
                }
              }
            }
          },
          "TargetType": {
            "$type": "RPG.GameCore.TargetFetchAdvLocalPlayer"
          },
          "ForceToStandBy": true
        },
        {
          "$type": "RPG.GameCore.PlayAndWaitSimpleTalk",
          "SimpleTalkList": [
            {
              "TalkSentenceID": 202251144,
              "ProtectTime": 0.3
            }
          ]
        },
        {
          "$type": "RPG.GameCore.TriggerCustomString",
          "CustomString": {
            "Value": "TalkSentence_202251145"
          }
        }
      ]
    },
    {
      "TaskList": [
        {
          "$type": "RPG.GameCore.WaitCustomString",
          "CustomString": {
            "Value": "TalkSentence_202251145"
          }
        },
        {
          "$type": "RPG.GameCore.PlayAndWaitSimpleTalk",
          "SimpleTalkList": [
            {
              "TalkSentenceID": 202251145,
              "ProtectTime": 0.3
            }
          ]
        },
        {
          "$type": "RPG.GameCore.PerformanceTransition",
          "CreateNpcList": [],
          "CaptureNpcList": [],
          "DestroyNpcList": [],
          "CreateProp": {
            "GroupID": {
              "IsDynamic": false,
              "FixedValue": {
                "Value": 0
              }
            },
            "GroupPropID": {
              "IsDynamic": false,
              "FixedValue": {
                "Value": 0
              }
            },
            "TaskEnabled": false
          },
          "DestroyProp": {
            "TargetType": {
              "$type": "RPG.GameCore.TargetFetchAdvPropEx"
            },
            "ID": {
              "IsDynamic": false,
              "FixedValue": {
                "Value": 0
              }
            },
            "GroupID": {
              "IsDynamic": false,
              "FixedValue": {
                "Value": 0
              }
            },
            "TaskEnabled": false
          },
          "ActiveVirtualCamera": {
            "AreaName": "LevelArea_P20231_F20231001_G81",
            "AnchorName": "Anchor2",
            "IsActive": false
          },
          "ActiveTemplateVirtualCamera": {
            "TaskEnabled": false
          },
          "SwitchCharacterAnchor": {
            "IsLocalPlayer": true,
            "CharacterUniqueName": "LocalPlayer",
            "AreaName": {
              "Value": "LevelArea_P20231_F20231001_G81"
            },
            "AnchorName": {
              "Value": "Anchor3"
            },
            "TaskEnabled": false
          },
          "AdvNpcFaceToPlayer": {
            "GroupID": 81,
            "GroupNpcID": 400009,
            "TryFaceToFace": false,
            "PlayerLookAtNpc": false,
            "FinishImmadiate": true,
            "TaskEnabled": false
          },
          "WaitStreamingFinish": true
        },
        {
          "$type": "RPG.GameCore.EndPerformance"
        }
      ]
    },
    {
      "TaskList": [
        {
          "$type": "RPG.GameCore.WaitPerformanceEnd"
        },
        {
          "$type": "RPG.GameCore.FinishLevelGraph"
        }
      ]
    }
  ]
}