{
  "OnInitSequece": [],
  "OnStartSequece": [
    {
      "TaskList": [
        {
          "$type": "RPG.GameCore.ShowWaypointByProp",
          "UseOwnerEntity": true,
          "MaxRange": 200,
          "OnNameBoard": true
        }
      ]
    },
    {
      "TaskList": [
        {
          "$type": "RPG.GameCore.PropSetupUITrigger",
          "ButtonText": {
            "Hash": 1239593898
          },
          "ButtonCallback": [
            {
              "$type": "RPG.GameCore.StartPropInteractMode",
              "TargetType": {
                "$type": "RPG.GameCore.TargetFetchAdvPropEx"
              },
              "Mode": "OpenUI"
            },
            {
              "$type": "RPG.GameCore.PlaySimpleTalk",
              "SimpleTalkList": [
                {
                  "TalkSentenceID": 901021733,
                  "ProtectTime": 2
                }
              ]
            },
            {
              "$type": "RPG.GameCore.PlayOptionTalk",
              "OptionList": [
                {
                  "TalkSentenceID": 901021737,
                  "TriggerCustomString": "301_Customs2",
                  "FinishKey": "0"
                }
              ]
            },
            {
              "$type": "RPG.GameCore.HideWaypointByProp",
              "UseOwnerEntity": true,
              "TaskEnabled": false
            },
            {
              "$type": "RPG.GameCore.PropEnableCollider",
              "SpecifiedRelativePaths": [],
              "TargetType": {
                "$type": "RPG.GameCore.TargetFetchAdvPropEx"
              }
            }
          ],
          "TargetType": {
            "$type": "RPG.GameCore.TargetFetchAdvPropEx"
          }
        }
      ]
    },
    {
      "TaskList": [
        {
          "$type": "RPG.GameCore.WaitCustomString",
          "CustomString": {
            "Value": "301_Customs2"
          }
        },
        {
          "$type": "RPG.GameCore.CharacterTriggerAnimState",
          "CharacterUniqueName": {
            "Value": "NPCRobot01"
          },
          "AnimStateName": "FreeStyle_StandBy02",
          "NormalizedTransitionDuration": 0.25
        },
        {
          "$type": "RPG.GameCore.EndPropInteract"
        },
        {
          "$type": "RPG.GameCore.SetNpcWaypath",
          "TargetType": {
            "$type": "RPG.GameCore.TargetFetchAdvNpcEx",
            "FetchType": "SingleNpcByNpcID",
            "SingleNpcID": {
              "GroupID": {
                "IsDynamic": false,
                "FixedValue": {
                  "Value": 15
                }
              },
              "GroupNpcID": {
                "IsDynamic": false,
                "FixedValue": {
                  "Value": 400001
                }
              }
            }
          }
        },
        {
          "$type": "RPG.GameCore.SetNpcStatus",
          "TargetType": {
            "$type": "RPG.GameCore.TargetFetchAdvNpcEx",
            "FetchType": "SingleNpcByNpcID",
            "SingleNpcID": {
              "GroupID": {
                "IsDynamic": false,
                "FixedValue": {
                  "Value": 15
                }
              },
              "GroupNpcID": {
                "IsDynamic": false,
                "FixedValue": {
                  "Value": 400001
                }
              }
            }
          },
          "Status": "Patrol"
        },
        {
          "$type": "RPG.GameCore.TriggerCustomString",
          "CustomString": {
            "Value": "301_Customs3"
          }
        },
        {
          "$type": "RPG.GameCore.PropSetupTrigger",
          "TargetType": {
            "$type": "RPG.GameCore.TargetFetchAdvPropEx",
            "FetchType": "SinglePropByPropID",
            "SinglePropID": {
              "GroupID": {
                "IsDynamic": false,
                "FixedValue": {
                  "Value": 15
                }
              },
              "ID": {
                "IsDynamic": false,
                "FixedValue": {
                  "Value": 300002
                }
              }
            }
          },
          "IsSingle": true,
          "TargetEntityType": "NPC",
          "TargetGroupID": {
            "IsDynamic": false,
            "FixedValue": {
              "Value": 15
            }
          },
          "TargetID": {
            "IsDynamic": false,
            "FixedValue": {
              "Value": 400001
            }
          },
          "TargetTypes": [
            "NPC"
          ],
          "OnTriggerEnter": [
            {
              "$type": "RPG.GameCore.TriggerCustomString",
              "CustomString": {
                "Value": "301_Customs1"
              }
            },
            {
              "$type": "RPG.GameCore.PlayMissionTalk",
              "SimpleTalkList": [
                {
                  "TalkSentenceID": 901021743,
                  "ProtectTime": 4
                },
                {
                  "TalkSentenceID": 901021744,
                  "ProtectTime": 4
                }
              ]
            }
          ]
        }
      ]
    },
    {
      "TaskList": [
        {
          "$type": "RPG.GameCore.WaitCustomString",
          "CustomString": {
            "Value": "301_Customs3"
          }
        },
        {
          "$type": "RPG.GameCore.PlayMissionTalk",
          "SimpleTalkList": [
            {
              "TalkSentenceID": 901021734,
              "ProtectTime": 2
            },
            {
              "TalkSentenceID": 901021735,
              "ProtectTime": 2
            }
          ]
        }
      ]
    },
    {
      "TaskList": [
        {
          "$type": "RPG.GameCore.WaitCustomString",
          "CustomString": {
            "Value": "301_Customs1"
          },
          "WaitOwnerOnly": true
        },
        {
          "$type": "RPG.GameCore.CharacterTriggerAnimState",
          "CharacterUniqueName": {
            "Value": "NPCRobot01"
          },
          "AnimStateName": "FreeStyle_StandBy03",
          "NormalizedTransitionDuration": 0.25
        },
        {
          "$type": "RPG.GameCore.PropSetupUITrigger",
          "DestroyAfterTriggered": true,
          "ButtonText": {
            "Hash": 1239593898
          },
          "ButtonCallback": [
            {
              "$type": "RPG.GameCore.TriggerCustomString",
              "CustomString": {
                "Value": "301_Customs4"
              }
            }
          ],
          "TargetType": {
            "$type": "RPG.GameCore.TargetFetchAdvPropEx",
            "FetchType": "SinglePropByPropID",
            "SinglePropID": {
              "GroupID": {
                "IsDynamic": false,
                "FixedValue": {
                  "Value": 15
                }
              },
              "ID": {
                "IsDynamic": false,
                "FixedValue": {
                  "Value": 300003
                }
              }
            }
          }
        }
      ]
    },
    {
      "TaskList": [
        {
          "$type": "RPG.GameCore.PropStateChangeServerListenerConfig",
          "TaskEnabled": true
        }
      ]
    },
    {
      "TaskList": [
        {
          "$type": "RPG.GameCore.WaitCustomString",
          "CustomString": {
            "Value": "301_Customs4"
          },
          "WaitOwnerOnly": true
        },
        {
          "$type": "RPG.GameCore.PropReqInteract",
          "TargetType": {
            "$type": "RPG.GameCore.TargetFetchAdvPropEx"
          },
          "InteractID": {
            "IsDynamic": false,
            "FixedValue": {
              "Value": 1010
            }
          }
        }
      ]
    },
    {
      "TaskList": [
        {
          "$type": "RPG.GameCore.WaitCustomString",
          "CustomString": {
            "Value": "301_Customs5"
          },
          "WaitOwnerOnly": true
        },
        {
          "$type": "RPG.GameCore.PlayScreenTransfer",
          "Type": "None",
          "Mode": "SwitchOut",
          "CustomTime": 1.5
        },
        {
          "$type": "RPG.GameCore.DestroyNPC",
          "GroupID": 15,
          "GroupNpcID": 400001
        },
        {
          "$type": "RPG.GameCore.PlayScreenTransfer",
          "Type": "None",
          "CustomTime": 1.5
        },
        {
          "$type": "RPG.GameCore.PlayMissionTalk",
          "SimpleTalkList": [
            {
              "TalkSentenceID": 901021736,
              "ProtectTime": 2
            }
          ]
        }
      ]
    }
  ]
}