{
  "OnInitSequece": [],
  "OnStartSequece": [
    {
      "TaskList": [
        {
          "$type": "RPG.GameCore.CreateProp",
          "GroupID": {
            "IsDynamic": false,
            "FixedValue": {
              "Value": 29
            }
          },
          "GroupPropID": {
            "IsDynamic": false,
            "FixedValue": {
              "Value": 300002
            }
          },
          "CreateList": []
        },
        {
          "$type": "RPG.GameCore.PropSetupTrigger",
          "TargetType": {
            "$type": "RPG.GameCore.TargetFetchAdvPropEx",
            "FetchType": "SinglePropByPropID",
            "SinglePropID": {
              "GroupID": {
                "IsDynamic": false,
                "FixedValue": {
                  "Value": 29
                }
              },
              "ID": {
                "IsDynamic": false,
                "FixedValue": {
                  "Value": 300002
                }
              }
            }
          },
          "TargetGroupID": {
            "IsDynamic": false,
            "FixedValue": {
              "Value": 0
            }
          },
          "TargetID": {
            "IsDynamic": false,
            "FixedValue": {
              "Value": 0
            }
          },
          "TargetTypes": [],
          "DestroyAfterTriggered": true,
          "OnTriggerEnter": [
            {
              "$type": "RPG.GameCore.TriggerCustomString",
              "CustomString": {
                "Value": "Mission_801510107_PropTrigger"
              }
            }
          ]
        }
      ]
    },
    {
      "IsLoop": true,
      "TaskList": [
        {
          "$type": "RPG.GameCore.WaitCustomString",
          "CustomString": {
            "Value": "Mission_801510107_PropTrigger"
          }
        },
        {
          "$type": "RPG.GameCore.SetAudioEmotionState",
          "StateName": "State_Tense"
        },
        {
          "$type": "RPG.GameCore.TriggerPerformance",
          "ValueSource": {},
          "PerformanceType": "C",
          "PerformanceID": 801510107
        },
        {
          "$type": "RPG.GameCore.TriggerPerformance",
          "ValueSource": {},
          "PerformanceType": "PlayVideo",
          "PerformanceID": 801510107
        },
        {
          "$type": "RPG.GameCore.TriggerCustomString",
          "CustomString": {
            "Value": "Battle_40222201"
          }
        }
      ]
    },
    {
      "TaskList": [
        {
          "$type": "RPG.GameCore.WaitCustomString",
          "CustomString": {
            "Value": "Battle_40222201"
          },
          "GoNextImmediately": true
        },
        {
          "$type": "RPG.GameCore.TriggerBattle",
          "EventID": {
            "IsDynamic": false,
            "FixedValue": {
              "Value": 20223212
            }
          },
          "GroupID": {
            "IsDynamic": false,
            "FixedValue": {
              "Value": 1
            }
          },
          "BattleAreaID": {
            "IsDynamic": false,
            "FixedValue": {
              "Value": 1
            }
          }
        }
      ]
    },
    {
      "TaskList": [
        {
          "$type": "RPG.GameCore.CreateNPC",
          "GroupID": {
            "IsDynamic": false,
            "FixedValue": {
              "Value": 29
            }
          },
          "GroupNpcID": {
            "IsDynamic": false,
            "FixedValue": {
              "Value": 400006
            }
          },
          "CreateList": []
        }
      ]
    }
  ],
  "Type": "Mission"
}