{
  "OnInitSequece": [],
  "OnStartSequece": [
    {
      "TaskList": [
        {
          "$type": "RPG.GameCore.LevelPerformanceInitialize",
          "PerformanceType": "E",
          "CreateCharacterList": [],
          "CaptureNPCList": [],
          "EntityVisiableList": [],
          "HideMunicipalCrowd": false,
          "HideMunicipalPedestrian": false,
          "PropVisiableList": [],
          "StreamingSourcesInBlackMask": [],
          "StreamingSourcesAfterBlackMask": [],
          "MarkStreamingItems": []
        },
        {
          "$type": "RPG.GameCore.PlayFullScreenTransfer",
          "TextInfo": {
            "TextList": [
              {
                "TalkSentenceID": 414036410
              }
            ]
          },
          "Action": [
            {
              "$type": "RPG.GameCore.ScrTrfActPerformance",
              "CreateNpc": {
                "TaskEnabled": false
              },
              "DestroyNpc": {
                "Hide": true,
                "TaskEnabled": false
              },
              "CreateProp": {
                "TaskEnabled": false
              },
              "DestroyProp": {
                "TargetType": {
                  "$type": "RPG.GameCore.TargetFetchAdvPropEx"
                },
                "TaskEnabled": false
              },
              "CaptureNpc": [],
              "SwitchCharacterAnchor": {
                "TaskEnabled": false
              },
              "ActiveVirtualCamera": {
                "AreaName": "LevelArea_P20331_F20331001_G180",
                "AnchorName": "Anchor1"
              },
              "ActiveTemplateVirtualCamera": {
                "TaskEnabled": false
              },
              "AdvNpcFaceToPlayer": {
                "SteerImmediately": true,
                "FinishImmadiate": true,
                "TaskEnabled": false
              }
            }
          ]
        },
        {
          "$type": "RPG.GameCore.TriggerSound",
          "SoundName": {
            "Value": "Ev_vo_origamibirds_appear"
          },
          "EmitterType": "TargetEvaluator",
          "TargetType": {
            "$type": "RPG.GameCore.TargetFetchAdvNpcEx",
            "FetchType": "SingleNpcByOwnerGroupAndID",
            "SingleNpcKey": {
              "Custom": true,
              "Key": "TargetNPC"
            },
            "SingleNpcID": {
              "GroupNpcID": {
                "IsDynamic": false,
                "FixedValue": {
                  "Value": 400001
                }
              }
            },
            "SingleUniqueName": {
              "Value": "InteractTarget_OrigamiBird01"
            },
            "NpcIDInOwnerGroup": {
              "IsDynamic": false,
              "FixedValue": {
                "Value": 400001
              }
            }
          }
        },
        {
          "$type": "RPG.GameCore.CharacterTriggerFreeStyle",
          "TargetAlias": {
            "$type": "RPG.GameCore.TargetFetchAdvNpcEx",
            "FetchType": "SingleNpcByOwnerGroupAndID",
            "SingleNpcKey": {
              "Custom": true,
              "Key": "TargetNPC"
            },
            "SingleNpcID": {
              "GroupNpcID": {
                "IsDynamic": false,
                "FixedValue": {
                  "Value": 400001
                }
              }
            },
            "SingleUniqueName": {
              "Value": "InteractTarget_OrigamiBird01"
            },
            "NpcIDInOwnerGroup": {
              "IsDynamic": false,
              "FixedValue": {
                "Value": 400001
              }
            }
          },
          "StoryAvatarID": "NPC_Special_OrigamiBird_00",
          "StoryMotionID": 900090291
        },
        {
          "$type": "RPG.GameCore.PlayAndWaitSimpleTalk",
          "SimpleTalkList": [
            {
              "TextSpeed": 0,
              "TalkSentenceID": 414036401,
              "ProtectTime": 0
            }
          ]
        },
        {
          "$type": "RPG.GameCore.ActiveVirtualCamera",
          "AreaName": "LevelArea_P20331_F20331001_G180",
          "AnchorName": "Anchor2",
          "DynamicParams": {}
        },
        {
          "$type": "RPG.GameCore.CharacterTriggerFreeStyle",
          "TargetAlias": {
            "$type": "RPG.GameCore.TargetFetchAdvNpcEx",
            "FetchType": "SingleNpcByOwnerGroupAndID",
            "SingleNpcKey": {
              "Custom": true,
              "Key": "TargetNPC"
            },
            "SingleNpcID": {
              "GroupNpcID": {
                "IsDynamic": false,
                "FixedValue": {
                  "Value": 400001
                }
              }
            },
            "SingleUniqueName": {
              "Value": "InteractTarget_OrigamiBird01"
            },
            "NpcIDInOwnerGroup": {
              "IsDynamic": false,
              "FixedValue": {
                "Value": 400001
              }
            }
          },
          "StoryAvatarID": "NPC_Special_OrigamiBird_00",
          "StoryMotionID": 900090200
        },
        {
          "$type": "RPG.GameCore.PlayAndWaitSimpleTalk",
          "SimpleTalkList": [
            {
              "TextSpeed": 0,
              "TalkSentenceID": 414036402,
              "ProtectTime": 0
            }
          ]
        },
        {
          "$type": "RPG.GameCore.ActiveVirtualCamera",
          "AreaName": "LevelArea_P20331_F20331001_G180",
          "AnchorName": "Anchor1",
          "DynamicParams": {}
        },
        {
          "$type": "RPG.GameCore.CharacterTriggerFreeStyle",
          "TargetAlias": {
            "$type": "RPG.GameCore.TargetFetchAdvNpcEx",
            "FetchType": "SingleNpcByOwnerGroupAndID",
            "SingleNpcKey": {
              "Custom": true,
              "Key": "TargetNPC"
            },
            "SingleNpcID": {
              "GroupNpcID": {
                "IsDynamic": false,
                "FixedValue": {
                  "Value": 400001
                }
              }
            },
            "SingleUniqueName": {
              "Value": "InteractTarget_OrigamiBird01"
            },
            "NpcIDInOwnerGroup": {
              "IsDynamic": false,
              "FixedValue": {
                "Value": 400001
              }
            }
          },
          "StoryAvatarID": "NPC_Special_OrigamiBird_00",
          "StoryMotionID": 900090265
        },
        {
          "$type": "RPG.GameCore.PlayAndWaitSimpleTalk",
          "SimpleTalkList": [
            {
              "TextSpeed": 0,
              "TalkSentenceID": 414036403,
              "ProtectTime": 0
            }
          ]
        },
        {
          "$type": "RPG.GameCore.ActiveVirtualCamera",
          "AreaName": "LevelArea_P20331_F20331001_G180",
          "AnchorName": "Anchor2",
          "DynamicParams": {}
        },
        {
          "$type": "RPG.GameCore.CharacterTriggerFreeStyle",
          "TargetAlias": {
            "$type": "RPG.GameCore.TargetFetchAdvNpcEx",
            "FetchType": "SingleNpcByOwnerGroupAndID",
            "SingleNpcKey": {
              "Custom": true,
              "Key": "TargetNPC"
            },
            "SingleNpcID": {
              "GroupNpcID": {
                "IsDynamic": false,
                "FixedValue": {
                  "Value": 400001
                }
              }
            },
            "SingleUniqueName": {
              "Value": "InteractTarget_OrigamiBird01"
            },
            "NpcIDInOwnerGroup": {
              "IsDynamic": false,
              "FixedValue": {
                "Value": 400001
              }
            }
          },
          "StoryAvatarID": "NPC_Special_OrigamiBird_00",
          "StoryMotionID": 900090014
        },
        {
          "$type": "RPG.GameCore.PlayAndWaitSimpleTalk",
          "SimpleTalkList": [
            {
              "TextSpeed": 0,
              "TalkSentenceID": 414036408,
              "ProtectTime": 0
            }
          ]
        },
        {
          "$type": "RPG.GameCore.ActiveVirtualCamera",
          "AreaName": "LevelArea_P20331_F20331001_G180",
          "AnchorName": "Anchor1",
          "DynamicParams": {}
        },
        {
          "$type": "RPG.GameCore.CharacterTriggerFreeStyle",
          "TargetAlias": {
            "$type": "RPG.GameCore.TargetFetchAdvNpcEx",
            "FetchType": "SingleNpcByOwnerGroupAndID",
            "SingleNpcKey": {
              "Custom": true,
              "Key": "TargetNPC"
            },
            "SingleNpcID": {
              "GroupNpcID": {
                "IsDynamic": false,
                "FixedValue": {
                  "Value": 400001
                }
              }
            },
            "SingleUniqueName": {
              "Value": "InteractTarget_OrigamiBird01"
            },
            "NpcIDInOwnerGroup": {
              "IsDynamic": false,
              "FixedValue": {
                "Value": 400001
              }
            }
          },
          "StoryAvatarID": "NPC_Special_OrigamiBird_00",
          "StoryMotionID": 900090265
        },
        {
          "$type": "RPG.GameCore.PlayAndWaitSimpleTalk",
          "KeepDisplay": false,
          "SimpleTalkList": [
            {
              "TextSpeed": 0,
              "TalkSentenceID": 414036409,
              "ProtectTime": 0
            }
          ]
        },
        {
          "$type": "RPG.GameCore.PlayFullScreenTransfer",
          "Action": [
            {
              "$type": "RPG.GameCore.ScrTrfActPerformance",
              "CreateNpc": {
                "TaskEnabled": false
              },
              "DestroyNpc": {
                "Hide": true,
                "TaskEnabled": false
              },
              "CreateProp": {
                "TaskEnabled": false
              },
              "DestroyProp": {
                "TargetType": {
                  "$type": "RPG.GameCore.TargetFetchAdvPropEx"
                },
                "TaskEnabled": false
              },
              "CaptureNpc": [],
              "SwitchCharacterAnchor": {
                "TaskEnabled": false
              },
              "ActiveVirtualCamera": {
                "AreaName": "LevelArea_P20331_F20331001_G180",
                "AnchorName": "Anchor1",
                "IsActive": false
              },
              "ActiveTemplateVirtualCamera": {
                "TaskEnabled": false
              },
              "AdvNpcFaceToPlayer": {
                "SteerImmediately": true,
                "FinishImmadiate": true,
                "TaskEnabled": false
              }
            },
            {
              "$type": "RPG.GameCore.ScrTrfActPerformance",
              "CreateNpc": {
                "TaskEnabled": false
              },
              "DestroyNpc": {
                "Hide": true,
                "TaskEnabled": false
              },
              "CreateProp": {
                "TaskEnabled": false
              },
              "DestroyProp": {
                "TargetType": {
                  "$type": "RPG.GameCore.TargetFetchAdvPropEx"
                },
                "TaskEnabled": false
              },
              "CaptureNpc": [],
              "SwitchCharacterAnchor": {
                "TaskEnabled": false
              },
              "ActiveVirtualCamera": {
                "AreaName": "LevelArea_P20331_F20331001_G180",
                "AnchorName": "Anchor2",
                "IsActive": false
              },
              "ActiveTemplateVirtualCamera": {
                "TaskEnabled": false
              },
              "AdvNpcFaceToPlayer": {
                "SteerImmediately": true,
                "FinishImmadiate": true,
                "TaskEnabled": false
              }
            }
          ]
        },
        {
          "$type": "RPG.GameCore.PredicateTaskList",
          "Predicate": {
            "$type": "RPG.GameCore.ByCompareStoryLineID"
          },
          "SuccessTaskList": [
            {
              "$type": "RPG.GameCore.PlayOptionTalk",
              "OptionList": [
                {
                  "TalkSentenceID": 414036404,
                  "OptionIconType": "ChatContinueIcon",
                  "TriggerCustomString": "TalkSentence_414036405"
                },
                {
                  "TalkSentenceID": 414036406,
                  "OptionIconType": "ChatContinueIcon",
                  "TriggerCustomString": "TalkSentence_414036407"
                }
              ]
            }
          ],
          "FailedTaskList": [
            {
              "$type": "RPG.GameCore.PlayOptionTalk",
              "OptionList": [
                {
                  "TalkSentenceID": 414030598,
                  "OptionIconType": "ChatContinueIcon",
                  "TriggerCustomString": "TalkSentence_414036405"
                }
              ]
            }
          ]
        }
      ]
    },
    {
      "TaskList": [
        {
          "$type": "RPG.GameCore.WaitCustomString",
          "CustomString": {
            "Value": "TalkSentence_414036405"
          }
        },
        {
          "$type": "RPG.GameCore.CharacterTriggerFreeStyle",
          "TargetAlias": {
            "$type": "RPG.GameCore.TargetFetchAdvNpcEx",
            "FetchType": "SingleNpcByOwnerGroupAndID",
            "SingleNpcKey": {
              "Custom": true,
              "Key": "TargetNPC"
            },
            "SingleNpcID": {
              "GroupNpcID": {
                "IsDynamic": false,
                "FixedValue": {
                  "Value": 400001
                }
              }
            },
            "SingleUniqueName": {
              "Value": "InteractTarget_OrigamiBird01"
            },
            "NpcIDInOwnerGroup": {
              "IsDynamic": false,
              "FixedValue": {
                "Value": 400001
              }
            }
          },
          "StoryAvatarID": "NPC_Special_OrigamiBird_00",
          "StoryMotionID": 900090291
        },
        {
          "$type": "RPG.GameCore.PlayAndWaitSimpleTalk",
          "SimpleTalkList": [
            {
              "TextSpeed": 0,
              "TalkSentenceID": 414036405,
              "ProtectTime": 0
            }
          ]
        },
        {
          "$type": "RPG.GameCore.TriggerCustomString",
          "CustomString": {
            "Value": "TalkSentence_414036408"
          }
        }
      ]
    },
    {
      "TaskList": [
        {
          "$type": "RPG.GameCore.WaitCustomString",
          "CustomString": {
            "Value": "TalkSentence_414036407"
          }
        },
        {
          "$type": "RPG.GameCore.CharacterTriggerFreeStyle",
          "TargetAlias": {
            "$type": "RPG.GameCore.TargetFetchAdvNpcEx",
            "FetchType": "SingleNpcByOwnerGroupAndID",
            "SingleNpcKey": {
              "Custom": true,
              "Key": "TargetNPC"
            },
            "SingleNpcID": {
              "GroupNpcID": {
                "IsDynamic": false,
                "FixedValue": {
                  "Value": 400001
                }
              }
            },
            "SingleUniqueName": {
              "Value": "InteractTarget_OrigamiBird01"
            },
            "NpcIDInOwnerGroup": {
              "IsDynamic": false,
              "FixedValue": {
                "Value": 400001
              }
            }
          },
          "StoryAvatarID": "NPC_Special_OrigamiBird_00",
          "StoryMotionID": 900090200
        },
        {
          "$type": "RPG.GameCore.PlayAndWaitSimpleTalk",
          "SimpleTalkList": [
            {
              "TextSpeed": 0,
              "TalkSentenceID": 414036407,
              "ProtectTime": 0
            }
          ]
        },
        {
          "$type": "RPG.GameCore.TriggerCustomString",
          "CustomString": {
            "Value": "TalkSentence_414036408"
          }
        }
      ]
    },
    {
      "TaskList": [
        {
          "$type": "RPG.GameCore.WaitCustomString",
          "CustomString": {
            "Value": "TalkSentence_414036408"
          }
        },
        {
          "$type": "RPG.GameCore.TriggerSound",
          "SoundName": {
            "Value": "Ev_vo_origamibirds_disappear"
          },
          "EmitterType": "TargetEvaluator",
          "TargetType": {
            "$type": "RPG.GameCore.TargetFetchAdvNpcEx",
            "FetchType": "SingleNpcByOwnerGroupAndID",
            "SingleNpcKey": {
              "Custom": true,
              "Key": "TargetNPC"
            },
            "SingleNpcID": {
              "GroupNpcID": {
                "IsDynamic": false,
                "FixedValue": {
                  "Value": 400001
                }
              }
            },
            "SingleUniqueName": {
              "Value": "InteractTarget_OrigamiBird01"
            },
            "NpcIDInOwnerGroup": {
              "IsDynamic": false,
              "FixedValue": {
                "Value": 400001
              }
            }
          }
        },
        {
          "$type": "RPG.GameCore.CharacterTriggerFreeStyle",
          "TargetAlias": {
            "$type": "RPG.GameCore.TargetFetchAdvNpcEx",
            "FetchType": "SingleNpcByOwnerGroupAndID",
            "SingleNpcKey": {
              "Custom": true,
              "Key": "TargetNPC"
            },
            "SingleNpcID": {
              "GroupNpcID": {
                "IsDynamic": false,
                "FixedValue": {
                  "Value": 400001
                }
              }
            },
            "SingleUniqueName": {
              "Value": "InteractTarget_OrigamiBird01"
            },
            "NpcIDInOwnerGroup": {
              "IsDynamic": false,
              "FixedValue": {
                "Value": 400001
              }
            }
          },
          "DisableAnimEvent": true,
          "StoryAvatarID": "NPC_Special_OrigamiBird_00",
          "StoryMotionID": 900090264
        },
        {
          "$type": "RPG.GameCore.WaitSecond",
          "WaitTime": {
            "IsDynamic": false,
            "FixedValue": {
              "Value": 1.2
            }
          }
        },
        {
          "$type": "RPG.GameCore.SetTargetEntityFadeWithAnim",
          "TargetType": {
            "$type": "RPG.GameCore.TargetFetchAdvNpcEx",
            "FetchType": "SingleNpcByOwnerGroupAndID",
            "SingleNpcKey": {
              "Custom": true,
              "Key": "TargetNPC"
            },
            "SingleNpcID": {
              "GroupNpcID": {
                "IsDynamic": false,
                "FixedValue": {
                  "Value": 400001
                }
              }
            },
            "SingleUniqueName": {
              "Value": "InteractTarget_OrigamiBird01"
            },
            "NpcIDInOwnerGroup": {
              "IsDynamic": false,
              "FixedValue": {
                "Value": 400001
              }
            }
          },
          "Duration": 0.45
        },
        {
          "$type": "RPG.GameCore.WaitSecond",
          "WaitTime": {
            "IsDynamic": false,
            "FixedValue": {
              "Value": 0.45
            }
          }
        },
        {
          "$type": "RPG.GameCore.EndPerformance"
        }
      ]
    },
    {
      "TaskList": [
        {
          "$type": "RPG.GameCore.WaitPerformanceEnd"
        },
        {
          "$type": "RPG.GameCore.FinishLevelGraph"
        }
      ]
    }
  ]
}